ply
format ascii 1.0
element vertex 299
property float x
property float y
property float z
property uchar red
property uchar green
property uchar blue
element face 149
property list uchar int vertex_index
end_header
0.686923 1.842090 -3.601132 255 0 0
0.686574 1.842075 -3.601457 255 0 0
0.686225 1.842061 -3.601782 255 0 0
0.686103 1.842223 -3.602545 255 0 0
0.685982 1.842385 -3.603308 255 0 0
0.685633 1.842369 -3.603633 255 0 0
0.685284 1.842354 -3.603959 255 0 0
0.684938 1.842334 -3.604283 255 0 0
0.684593 1.842314 -3.604607 255 0 0
0.684188 1.842279 -3.604993 255 0 0
0.683782 1.842243 -3.605379 255 0 0
0.683442 1.842205 -3.605708 255 0 0
0.683101 1.842166 -3.606036 255 0 0
0.682996 1.842285 -3.606801 255 0 0
0.682890 1.842403 -3.607565 255 0 0
0.682570 1.842324 -3.607894 255 0 0
0.682251 1.842244 -3.608223 255 0 0
0.682080 1.842294 -3.609080 255 0 0
0.681910 1.842345 -3.609937 255 0 0
0.681594 1.842252 -3.610268 255 0 0
0.681278 1.842160 -3.610600 255 0 0
0.681188 1.842234 -3.611377 255 0 0
0.681098 1.842309 -3.612154 255 0 0
0.680697 1.842212 -3.612565 255 0 0
0.680296 1.842116 -3.612976 255 0 0
0.679104 1.841381 -3.611647 255 0 0
0.677912 1.840647 -3.610318 255 0 0
0.677616 1.840617 -3.610724 255 0 0
0.677320 1.840586 -3.611129 255 0 0
0.676945 1.840494 -3.611381 255 0 0
0.676570 1.840402 -3.611632 255 0 0
0.676277 1.840428 -3.612243 255 0 0
0.675983 1.840455 -3.612853 255 0 0
0.675698 1.840448 -3.613283 255 0 0
0.675413 1.840441 -3.613712 255 0 0
0.675362 1.840611 -3.614589 255 0 0
0.675312 1.840782 -3.615467 255 0 0
0.675062 1.840789 -3.615950 255 0 0
0.674812 1.840797 -3.616433 255 0 0
0.674445 1.840777 -3.616941 255 0 0
0.674078 1.840757 -3.617449 255 0 0
0.674419 1.841247 -3.619088 255 0 0
0.674759 1.841736 -3.620726 255 0 0
0.674216 1.841540 -3.620654 255 0 0
0.673673 1.841343 -3.620581 255 0 0
0.673429 1.841373 -3.621082 255 0 0
0.673184 1.841403 -3.621583 255 0 0
0.672887 1.841377 -3.621968 255 0 0
0.672590 1.841351 -3.622353 255 0 0
0.672365 1.841427 -3.623155 255 0 0
0.672139 1.841504 -3.623958 255 0 0
0.671901 1.841510 -3.624452 255 0 0
0.671663 1.841515 -3.624946 255 0 0
0.671406 1.841495 -3.625394 255 0 0
0.671150 1.841475 -3.625842 255 0 0
0.670877 1.841427 -3.626251 255 0 0
0.670604 1.841379 -3.626659 255 0 0
0.670052 1.841194 -3.626843 255 0 0
0.669500 1.841009 -3.627026 255 0 0
0.669295 1.841042 -3.627587 255 0 0
0.669089 1.841076 -3.628148 255 0 0
0.668862 1.841094 -3.628680 255 0 0
0.668635 1.841113 -3.629213 255 0 0
0.668219 1.840986 -3.629386 255 0 0
0.667803 1.840859 -3.629558 255 0 0
0.667603 1.840993 -3.630390 255 0 0
0.667404 1.841126 -3.631222 255 0 0
0.667069 1.841101 -3.631564 255 0 0
0.666735 1.841076 -3.631906 255 0 0
0.666595 1.841203 -3.632626 255 0 0
0.666456 1.841329 -3.633346 255 0 0
0.666316 1.841444 -3.634056 255 0 0
0.666176 1.841559 -3.634766 255 0 0
0.665924 1.841569 -3.635243 255 0 0
0.665672 1.841579 -3.635720 255 0 0
0.665352 1.841582 -3.636335 255 0 0
0.665033 1.841586 -3.636951 255 0 0
0.665162 1.841874 -3.638164 255 0 0
0.665292 1.842162 -3.639378 255 0 0
0.664650 1.841814 -3.639055 255 0 0
0.664008 1.841466 -3.638733 255 0 0
0.663977 1.841465 -3.638980 255 0 0
0.663946 1.841464 -3.639227 255 0 0
0.663748 1.841443 -3.639761 255 0 0
0.663550 1.841423 -3.640295 255 0 0
0.663537 1.841533 -3.641174 255 0 0
0.663524 1.841644 -3.642054 255 0 0
0.663421 1.841564 -3.642176 255 0 0
0.663318 1.841483 -3.642298 255 0 0
0.663257 1.841525 -3.642754 255 0 0
0.663195 1.841567 -3.643210 255 0 0
0.663293 1.841699 -3.643736 255 0 0
0.663390 1.841831 -3.644262 255 0 0
0.663222 1.841868 -3.644868 255 0 0
0.663053 1.841905 -3.645475 255 0 0
0.662849 1.841932 -3.646039 255 0 0
0.662646 1.841959 -3.646603 255 0 0
0.662374 1.841951 -3.647053 255 0 0
0.662103 1.841943 -3.647503 255 0 0
0.661869 1.841982 -3.648041 255 0 0
0.661635 1.842021 -3.648578 255 0 0
0.661358 1.842133 -3.649298 255 0 0
0.661080 1.842245 -3.650019 255 0 0
0.660844 1.842311 -3.650556 255 0 0
0.660608 1.842376 -3.651094 255 0 0
0.660383 1.842435 -3.651646 255 0 0
0.660158 1.842494 -3.652197 255 0 0
0.659961 1.842535 -3.652774 255 0 0
0.659764 1.842577 -3.653350 255 0 0
0.659650 1.842532 -3.653439 255 0 0
0.659536 1.842486 -3.653529 255 0 0
0.659433 1.842499 -3.653926 255 0 0
0.659330 1.842512 -3.654323 255 0 0
0.659270 1.842506 -3.654538 255 0 0
0.659210 1.842501 -3.654753 255 0 0
0.659066 1.842504 -3.655370 255 0 0
0.658923 1.842508 -3.655987 255 0 0
0.657533 1.841518 -3.654128 255 0 0
0.656143 1.840528 -3.652268 255 0 0
0.656003 1.840463 -3.652380 255 0 0
0.655863 1.840399 -3.652492 255 0 0
0.655742 1.840435 -3.653152 255 0 0
0.655621 1.840472 -3.653813 255 0 0
0.655484 1.840507 -3.654455 255 0 0
0.655348 1.840543 -3.655096 255 0 0
0.655551 1.840742 -3.655871 255 0 0
0.655753 1.840942 -3.656645 255 0 0
0.655809 1.841085 -3.657290 255 0 0
0.655865 1.841228 -3.657936 255 0 0
0.655604 1.841073 -3.657804 255 0 0
0.655344 1.840918 -3.657671 255 0 0
0.655199 1.840968 -3.658314 255 0 0
0.655054 1.841017 -3.658956 255 0 0
0.654715 1.840912 -3.659217 255 0 0
0.654377 1.840807 -3.659478 255 0 0
0.654549 1.840989 -3.660194 255 0 0
0.654721 1.841170 -3.660909 255 0 0
0.654168 1.840831 -3.660356 255 0 0
0.653615 1.840492 -3.659802 255 0 0
0.653766 1.840658 -3.660477 255 0 0
0.653918 1.840825 -3.661152 255 0 0
0.653455 1.840611 -3.661156 255 0 0
0.652992 1.840397 -3.661159 255 0 0
0.652785 1.840385 -3.661677 255 0 0
0.652579 1.840372 -3.662195 255 0 0
0.652478 1.840340 -3.662360 255 0 0
0.652376 1.840307 -3.662525 255 0 0
0.652153 1.840220 -3.662648 255 0 0
0.651929 1.840132 -3.662770 255 0 0
0.651912 1.840176 -3.663084 255 0 0
0.651894 1.840220 -3.663397 255 0 0
0.651753 1.840272 -3.664061 255 0 0
0.651612 1.840324 -3.664724 255 0 0
0.651669 1.840536 -3.665800 255 0 0
0.651727 1.840748 -3.666876 255 0 0
0.651794 1.840955 -3.667976 255 0 0
0.651861 1.841163 -3.669076 255 0 0
0.652181 1.841623 -3.670944 255 0 0
0.652501 1.842082 -3.672813 255 0 0
0.652267 1.842051 -3.673310 255 0 0
0.652033 1.842020 -3.673807 255 0 0
0.651828 1.841972 -3.674331 255 0 0
0.651623 1.841924 -3.674855 255 0 0
0.651386 1.841946 -3.675634 255 0 0
0.651148 1.841969 -3.676412 255 0 0
0.650995 1.842001 -3.677047 255 0 0
0.650842 1.842033 -3.677681 255 0 0
0.650853 1.842082 -3.678033 255 0 0
0.650865 1.842132 -3.678386 255 0 0
0.650633 1.842055 -3.678507 255 0 0
0.650400 1.841977 -3.678627 255 0 0
0.650346 1.841989 -3.678893 255 0 0
0.650292 1.842001 -3.679159 255 0 0
0.649702 1.841700 -3.678927 255 0 0
0.649112 1.841400 -3.678695 255 0 0
0.648727 1.841261 -3.678859 255 0 0
0.648341 1.841122 -3.679023 255 0 0
0.648344 1.841177 -3.679426 255 0 0
0.648347 1.841231 -3.679829 255 0 0
0.648027 1.841097 -3.679736 255 0 0
0.647707 1.840963 -3.679643 255 0 0
0.648015 1.841268 -3.680652 255 0 0
0.648323 1.841574 -3.681661 255 0 0
0.647998 1.841516 -3.681970 255 0 0
0.647672 1.841458 -3.682280 255 0 0
0.647508 1.841530 -3.682921 255 0 0
0.647344 1.841603 -3.683562 255 0 0
0.647012 1.841534 -3.683875 255 0 0
0.646680 1.841464 -3.684187 255 0 0
0.646647 1.841485 -3.684450 255 0 0
0.646615 1.841505 -3.684714 255 0 0
0.646495 1.841543 -3.685139 255 0 0
0.646374 1.841581 -3.685563 255 0 0
0.646028 1.841543 -3.686134 255 0 0
0.645681 1.841505 -3.686704 255 0 0
0.645434 1.841504 -3.687210 255 0 0
0.645186 1.841503 -3.687716 255 0 0
0.644592 1.841222 -3.687538 255 0 0
0.643999 1.840940 -3.687360 255 0 0
0.643709 1.840924 -3.687992 255 0 0
0.643420 1.840907 -3.688624 255 0 0
0.643204 1.840885 -3.689157 255 0 0
0.642988 1.840864 -3.689689 255 0 0
0.642999 1.840871 -3.690009 255 0 0
0.643010 1.840879 -3.690329 255 0 0
0.643025 1.840966 -3.690958 255 0 0
0.643039 1.841053 -3.691588 255 0 0
0.642867 1.840988 -3.691597 255 0 0
0.642696 1.840923 -3.691607 255 0 0
0.642474 1.840889 -3.692096 255 0 0
0.642252 1.840855 -3.692585 255 0 0
0.642065 1.840813 -3.693096 255 0 0
0.641878 1.840772 -3.693606 255 0 0
0.641910 1.840823 -3.694071 255 0 0
0.641941 1.840875 -3.694536 255 0 0
0.643014 1.841835 -3.697579 255 0 0
0.644088 1.842796 -3.700622 255 0 0
0.643888 1.842702 -3.701056 255 0 0
0.643688 1.842609 -3.701489 255 0 0
0.643850 1.842703 -3.702211 255 0 0
0.644013 1.842798 -3.702932 255 0 0
0.644102 1.842941 -3.703953 255 0 0
0.644191 1.843083 -3.704974 255 0 0
0.644022 1.842996 -3.705461 255 0 0
0.643854 1.842909 -3.705948 255 0 0
0.643849 1.842915 -3.706365 255 0 0
0.643845 1.842922 -3.706781 255 0 0
0.643625 1.842852 -3.707211 255 0 0
0.643404 1.842782 -3.707641 255 0 0
0.643329 1.842821 -3.708374 255 0 0
0.643254 1.842860 -3.709107 255 0 0
0.643373 1.842987 -3.709755 255 0 0
0.643492 1.843115 -3.710402 255 0 0
0.643251 1.843054 -3.710822 255 0 0
0.643010 1.842993 -3.711241 255 0 0
0.642886 1.843039 -3.711930 255 0 0
0.642763 1.843086 -3.712619 255 0 0
0.642627 1.843124 -3.713297 255 0 0
0.642491 1.843162 -3.713975 255 0 0
0.642351 1.843099 -3.714034 255 0 0
0.642211 1.843036 -3.714092 255 0 0
0.642066 1.843084 -3.714762 255 0 0
0.641922 1.843132 -3.715431 255 0 0
0.641756 1.843174 -3.716072 255 0 0
0.641591 1.843216 -3.716713 255 0 0
0.641122 1.843008 -3.716743 255 0 0
0.640654 1.842800 -3.716772 255 0 0
0.640415 1.842817 -3.717568 255 0 0
0.640176 1.842833 -3.718364 255 0 0
0.640072 1.842897 -3.719115 255 0 0
0.639968 1.842961 -3.719866 255 0 0
0.639954 1.842953 -3.720127 255 0 0
0.639939 1.842945 -3.720388 255 0 0
0.639784 1.842926 -3.720712 255 0 0
0.639629 1.842906 -3.721037 255 0 0
0.639591 1.842920 -3.721290 255 0 0
0.639553 1.842934 -3.721544 255 0 0
0.639359 1.842918 -3.722101 255 0 0
0.639164 1.842902 -3.722658 255 0 0
0.639083 1.842939 -3.723391 255 0 0
0.639002 1.842975 -3.724123 255 0 0
0.638966 1.842954 -3.724435 255 0 0
0.638930 1.842932 -3.724748 255 0 0
0.638766 1.842902 -3.725306 255 0 0
0.638603 1.842873 -3.725864 255 0 0
0.638552 1.842901 -3.726611 255 0 0
0.638501 1.842928 -3.727358 255 0 0
0.638360 1.842834 -3.727507 255 0 0
0.638220 1.842739 -3.727657 255 0 0
0.637291 1.842126 -3.726670 255 0 0
0.636362 1.841513 -3.725684 255 0 0
0.636066 1.841389 -3.725999 255 0 0
0.635770 1.841264 -3.726313 255 0 0
0.635782 1.841303 -3.726704 255 0 0
0.635793 1.841341 -3.727095 255 0 0
0.635739 1.841414 -3.727902 255 0 0
0.635684 1.841487 -3.728708 255 0 0
0.635388 1.841359 -3.729031 255 0 0
0.635091 1.841231 -3.729354 255 0 0
0.634761 1.840976 -3.729030 255 0 0
0.634431 1.840721 -3.728706 255 0 0
0.634242 1.840631 -3.728859 255 0 0
0.634052 1.840542 -3.729012 255 0 0
0.634280 1.840764 -3.729858 255 0 0
0.634508 1.840987 -3.730705 255 0 0
0.634393 1.840989 -3.731365 255 0 0
0.634278 1.840991 -3.732025 255 0 0
0.634404 1.841079 -3.732664 255 0 0
0.634529 1.841168 -3.733302 255 0 0
0.634338 1.841067 -3.733360 255 0 0
0.634147 1.840966 -3.733417 255 0 0
0.634454 1.841242 -3.734476 255 0 0
0.634762 1.841518 -3.735534 255 0 0
0.634641 1.841490 -3.736143 255 0 0
0.634520 1.841461 -3.736751 255 0 0
0.634611 1.841512 -3.737334 255 0 0
0.634702 1.841563 -3.737916 255 0 0
0.634549 1.841530 -3.738476 255 0 0
0.634397 1.841496 -3.739035 255 0 0
3 0 1 2 3 2 3 4 3 4 5 6 3 6 7 8 3 8 9 10 3 10 11 12 3 12 13 14 3 14 15 16 3 16 17 18 3 18 19 20 3 20 21 22 3 22 23 24 3 24 25 26 3 26 27 28 3 28 29 30 3 30 31 32 3 32 33 34 3 34 35 36 3 36 37 38 3 38 39 40 3 40 41 42 3 42 43 44 3 44 45 46 3 46 47 48 3 48 49 50 3 50 51 52 3 52 53 54 3 54 55 56 3 56 57 58 3 58 59 60 3 60 61 62 3 62 63 64 3 64 65 66 3 66 67 68 3 68 69 70 3 70 71 72 3 72 73 74 3 74 75 76 3 76 77 78 3 78 79 80 3 80 81 82 3 82 83 84 3 84 85 86 3 86 87 88 3 88 89 90 3 90 91 92 3 92 93 94 3 94 95 96 3 96 97 98 3 98 99 100 3 100 101 102 3 102 103 104 3 104 105 106 3 106 107 108 3 108 109 110 3 110 111 112 3 112 113 114 3 114 115 116 3 116 117 118 3 118 119 120 3 120 121 122 3 122 123 124 3 124 125 126 3 126 127 128 3 128 129 130 3 130 131 132 3 132 133 134 3 134 135 136 3 136 137 138 3 138 139 140 3 140 141 142 3 142 143 144 3 144 145 146 3 146 147 148 3 148 149 150 3 150 151 152 3 152 153 154 3 154 155 156 3 156 157 158 3 158 159 160 3 160 161 162 3 162 163 164 3 164 165 166 3 166 167 168 3 168 169 170 3 170 171 172 3 172 173 174 3 174 175 176 3 176 177 178 3 178 179 180 3 180 181 182 3 182 183 184 3 184 185 186 3 186 187 188 3 188 189 190 3 190 191 192 3 192 193 194 3 194 195 196 3 196 197 198 3 198 199 200 3 200 201 202 3 202 203 204 3 204 205 206 3 206 207 208 3 208 209 210 3 210 211 212 3 212 213 214 3 214 215 216 3 216 217 218 3 218 219 220 3 220 221 222 3 222 223 224 3 224 225 226 3 226 227 228 3 228 229 230 3 230 231 232 3 232 233 234 3 234 235 236 3 236 237 238 3 238 239 240 3 240 241 242 3 242 243 244 3 244 245 246 3 246 247 248 3 248 249 250 3 250 251 252 3 252 253 254 3 254 255 256 3 256 257 258 3 258 259 260 3 260 261 262 3 262 263 264 3 264 265 266 3 266 267 268 3 268 269 270 3 270 271 272 3 272 273 274 3 274 275 276 3 276 277 278 3 278 279 280 3 280 281 282 3 282 283 284 3 284 285 286 3 286 287 288 3 288 289 290 3 290 291 292 3 292 293 294 3 294 295 296 3 296 297 298 