ply
format ascii 1.0
element vertex 21
property float x
property float y
property float z
property uchar red
property uchar green
property uchar blue
element face 10
property list uchar int vertex_index
end_header
0.642686 1.988364 -3.700535 255 0 0
0.642750 1.988251 -3.699733 255 0 0
0.642813 1.988137 -3.698931 255 0 0
0.643176 1.988254 -3.698707 255 0 0
0.643539 1.988372 -3.698483 255 0 0
0.643571 1.988321 -3.698151 255 0 0
0.643603 1.988270 -3.697819 255 0 0
0.643647 1.988200 -3.697358 255 0 0
0.643690 1.988130 -3.696896 255 0 0
0.644038 1.988380 -3.697214 255 0 0
0.644386 1.988630 -3.697531 255 0 0
0.644447 1.988517 -3.696714 255 0 0
0.644507 1.988403 -3.695896 255 0 0
0.644560 1.988293 -3.695063 255 0 0
0.644613 1.988184 -3.694230 255 0 0
0.644884 1.988390 -3.694452 255 0 0
0.645155 1.988597 -3.694674 255 0 0
0.645182 1.988500 -3.693800 255 0 0
0.645210 1.988402 -3.692927 255 0 0
0.645528 1.988494 -3.692336 255 0 0
0.645846 1.988585 -3.691745 255 0 0
3 0 1 2 3 2 3 4 3 4 5 6 3 6 7 8 3 8 9 10 3 10 11 12 3 12 13 14 3 14 15 16 3 16 17 18 3 18 19 20 