ply
format ascii 1.0
element vertex 509
property float x
property float y
property float z
property uchar red
property uchar green
property uchar blue
element face 254
property list uchar int vertex_index
end_header
0.671352 1.841325 -3.622374 255 0 0
0.672319 1.841446 -3.622049 255 0 0
0.673287 1.841567 -3.621725 255 0 0
0.672753 1.841576 -3.622575 255 0 0
0.672218 1.841585 -3.623425 255 0 0
0.671925 1.841639 -3.624549 255 0 0
0.671632 1.841693 -3.625674 255 0 0
0.671112 1.841718 -3.626536 255 0 0
0.670592 1.841743 -3.627398 255 0 0
0.670758 1.841813 -3.627578 255 0 0
0.670925 1.841883 -3.627757 255 0 0
0.670075 1.841843 -3.629036 255 0 0
0.669225 1.841803 -3.630315 255 0 0
0.668988 1.841983 -3.630847 255 0 0
0.668752 1.842163 -3.631378 255 0 0
0.668308 1.842284 -3.632525 255 0 0
0.667864 1.842404 -3.633672 255 0 0
0.667353 1.842471 -3.634538 255 0 0
0.666842 1.842537 -3.635404 255 0 0
0.666150 1.842513 -3.636875 255 0 0
0.665459 1.842489 -3.638345 255 0 0
0.664650 1.842421 -3.639941 255 0 0
0.663842 1.842353 -3.641537 255 0 0
0.663287 1.842314 -3.642530 255 0 0
0.662731 1.842276 -3.643522 255 0 0
0.661911 1.842164 -3.645172 255 0 0
0.661090 1.842052 -3.646823 255 0 0
0.660588 1.842006 -3.647764 255 0 0
0.660087 1.841960 -3.648705 255 0 0
0.659892 1.841942 -3.649279 255 0 0
0.659697 1.841924 -3.649853 255 0 0
0.659524 1.842002 -3.650406 255 0 0
0.659351 1.842080 -3.650960 255 0 0
0.658893 1.842094 -3.652207 255 0 0
0.658435 1.842107 -3.653454 255 0 0
0.657891 1.842039 -3.654438 255 0 0
0.657347 1.841971 -3.655422 255 0 0
0.657033 1.842040 -3.656502 255 0 0
0.656718 1.842110 -3.657582 255 0 0
0.656442 1.842166 -3.658640 255 0 0
0.656165 1.842223 -3.659698 255 0 0
0.656136 1.842333 -3.660103 255 0 0
0.656106 1.842443 -3.660507 255 0 0
0.655529 1.842376 -3.661917 255 0 0
0.654952 1.842309 -3.663326 255 0 0
0.654723 1.842362 -3.664339 255 0 0
0.654494 1.842414 -3.665353 255 0 0
0.654211 1.842427 -3.666067 255 0 0
0.653928 1.842441 -3.666780 255 0 0
0.653792 1.842550 -3.667664 255 0 0
0.653656 1.842660 -3.668549 255 0 0
0.653193 1.842641 -3.669817 255 0 0
0.652729 1.842621 -3.671085 255 0 0
0.652612 1.842701 -3.671595 255 0 0
0.652495 1.842782 -3.672106 255 0 0
0.651957 1.842725 -3.673472 255 0 0
0.651418 1.842667 -3.674839 255 0 0
0.650986 1.842619 -3.676139 255 0 0
0.650554 1.842570 -3.677439 255 0 0
0.650409 1.842581 -3.677933 255 0 0
0.650264 1.842592 -3.678427 255 0 0
0.650092 1.842561 -3.679156 255 0 0
0.649919 1.842530 -3.679884 255 0 0
0.649908 1.842587 -3.680177 255 0 0
0.649898 1.842643 -3.680470 255 0 0
0.649659 1.842631 -3.681592 255 0 0
0.649421 1.842618 -3.682715 255 0 0
0.649080 1.842660 -3.684208 255 0 0
0.648740 1.842702 -3.685701 255 0 0
0.648562 1.842806 -3.686703 255 0 0
0.648385 1.842910 -3.687705 255 0 0
0.647993 1.842941 -3.688934 255 0 0
0.647602 1.842972 -3.690163 255 0 0
0.647396 1.842992 -3.690690 255 0 0
0.647190 1.843011 -3.691217 255 0 0
0.646723 1.843041 -3.692499 255 0 0
0.646256 1.843071 -3.693782 255 0 0
0.645910 1.843102 -3.694916 255 0 0
0.645564 1.843132 -3.696050 255 0 0
0.645043 1.843073 -3.696991 255 0 0
0.644522 1.843014 -3.697932 255 0 0
0.643919 1.842962 -3.699349 255 0 0
0.643316 1.842910 -3.700767 255 0 0
0.642972 1.842932 -3.701921 255 0 0
0.642628 1.842955 -3.703076 255 0 0
0.641804 1.842747 -3.704355 255 0 0
0.640979 1.842539 -3.705635 255 0 0
0.639730 1.842178 -3.707865 255 0 0
0.638480 1.841818 -3.710095 255 0 0
0.638279 1.841813 -3.711445 255 0 0
0.638077 1.841807 -3.712795 255 0 0
0.638810 1.842120 -3.712832 255 0 0
0.639542 1.842432 -3.712869 255 0 0
0.639460 1.842417 -3.713859 255 0 0
0.639378 1.842402 -3.714849 255 0 0
0.639119 1.842321 -3.716042 255 0 0
0.638860 1.842240 -3.717234 255 0 0
0.638741 1.842227 -3.718259 255 0 0
0.638621 1.842213 -3.719283 255 0 0
0.638185 1.842149 -3.720899 255 0 0
0.637750 1.842084 -3.722516 255 0 0
0.637550 1.842117 -3.723578 255 0 0
0.637351 1.842151 -3.724640 255 0 0
0.637211 1.842196 -3.725631 255 0 0
0.637071 1.842241 -3.726622 255 0 0
0.637159 1.842369 -3.727345 255 0 0
0.637248 1.842496 -3.728069 255 0 0
0.637236 1.842569 -3.728359 255 0 0
0.637224 1.842642 -3.728650 255 0 0
0.636567 1.842528 -3.730207 255 0 0
0.635911 1.842415 -3.731763 255 0 0
0.635169 1.842298 -3.733686 255 0 0
0.634426 1.842181 -3.735609 255 0 0
0.634317 1.842256 -3.736573 255 0 0
0.634208 1.842330 -3.737536 255 0 0
0.634030 1.842320 -3.738604 255 0 0
0.633852 1.842310 -3.739671 255 0 0
0.634291 1.842511 -3.740301 255 0 0
0.634730 1.842713 -3.740930 255 0 0
0.634578 1.842712 -3.741981 255 0 0
0.634426 1.842712 -3.743031 255 0 0
0.633661 1.842448 -3.744785 255 0 0
0.632897 1.842185 -3.746538 255 0 0
0.632747 1.842134 -3.747595 255 0 0
0.632597 1.842084 -3.748652 255 0 0
0.632555 1.842074 -3.749581 255 0 0
0.632512 1.842064 -3.750509 255 0 0
0.633153 1.842320 -3.750649 255 0 0
0.633794 1.842576 -3.750788 255 0 0
0.634284 1.842793 -3.750532 255 0 0
0.634774 1.843009 -3.750277 255 0 0
0.634581 1.843005 -3.751343 255 0 0
0.634388 1.843001 -3.752409 255 0 0
0.634346 1.843055 -3.753294 255 0 0
0.634304 1.843108 -3.754178 255 0 0
0.634131 1.843125 -3.755195 255 0 0
0.633959 1.843141 -3.756211 255 0 0
0.633830 1.843146 -3.756683 255 0 0
0.633701 1.843151 -3.757154 255 0 0
0.633580 1.843205 -3.758101 255 0 0
0.633459 1.843260 -3.759048 255 0 0
0.633253 1.843263 -3.760097 255 0 0
0.633046 1.843266 -3.761145 255 0 0
0.632175 1.843012 -3.762947 255 0 0
0.631305 1.842757 -3.764749 255 0 0
0.630616 1.842551 -3.765873 255 0 0
0.629927 1.842345 -3.766997 255 0 0
0.629393 1.842208 -3.768427 255 0 0
0.628859 1.842071 -3.769858 255 0 0
0.628575 1.841997 -3.771036 255 0 0
0.628290 1.841924 -3.772214 255 0 0
0.629215 1.842261 -3.772062 255 0 0
0.630141 1.842598 -3.771910 255 0 0
0.630843 1.842806 -3.772043 255 0 0
0.631545 1.843013 -3.772175 255 0 0
0.631452 1.842859 -3.773456 255 0 0
0.631358 1.842704 -3.774736 255 0 0
0.631298 1.842612 -3.775737 255 0 0
0.631237 1.842520 -3.776739 255 0 0
0.631737 1.842664 -3.777099 255 0 0
0.632237 1.842807 -3.777459 255 0 0
0.632311 1.842819 -3.778283 255 0 0
0.632385 1.842831 -3.779107 255 0 0
0.632391 1.842836 -3.779988 255 0 0
0.632398 1.842842 -3.780869 255 0 0
0.632332 1.842828 -3.781823 255 0 0
0.632267 1.842815 -3.782776 255 0 0
0.632639 1.842964 -3.783522 255 0 0
0.633011 1.843113 -3.784268 255 0 0
0.632873 1.843084 -3.785000 255 0 0
0.632736 1.843056 -3.785732 255 0 0
0.632919 1.843141 -3.785811 255 0 0
0.633103 1.843226 -3.785890 255 0 0
0.632977 1.843199 -3.786904 255 0 0
0.632852 1.843172 -3.787917 255 0 0
0.632949 1.843217 -3.788687 255 0 0
0.633046 1.843261 -3.789457 255 0 0
0.632893 1.843205 -3.790512 255 0 0
0.632740 1.843149 -3.791568 255 0 0
0.632938 1.843230 -3.792490 255 0 0
0.633136 1.843311 -3.793413 255 0 0
0.632630 1.843146 -3.794860 255 0 0
0.632124 1.842980 -3.796308 255 0 0
0.632306 1.843062 -3.796985 255 0 0
0.632487 1.843144 -3.797661 255 0 0
0.632463 1.843145 -3.798569 255 0 0
0.632440 1.843146 -3.799477 255 0 0
0.632589 1.843212 -3.800190 255 0 0
0.632738 1.843278 -3.800903 255 0 0
0.632295 1.843135 -3.802529 255 0 0
0.631851 1.842991 -3.804154 255 0 0
0.631764 1.842975 -3.805131 255 0 0
0.631678 1.842958 -3.806107 255 0 0
0.631812 1.843008 -3.806847 255 0 0
0.631947 1.843057 -3.807587 255 0 0
0.631846 1.843009 -3.808595 255 0 0
0.631746 1.842962 -3.809604 255 0 0
0.631777 1.842961 -3.810464 255 0 0
0.631808 1.842961 -3.811324 255 0 0
0.632075 1.843047 -3.812148 255 0 0
0.632342 1.843133 -3.812972 255 0 0
0.632410 1.843179 -3.813776 255 0 0
0.632478 1.843225 -3.814579 255 0 0
0.632428 1.843211 -3.815526 255 0 0
0.632378 1.843197 -3.816473 255 0 0
0.632487 1.843228 -3.817250 255 0 0
0.632597 1.843259 -3.818026 255 0 0
0.632830 1.843323 -3.818674 255 0 0
0.633063 1.843387 -3.819321 255 0 0
0.633030 1.843340 -3.820271 255 0 0
0.632997 1.843293 -3.821222 255 0 0
0.633025 1.843251 -3.822284 255 0 0
0.633054 1.843210 -3.823347 255 0 0
0.632980 1.843167 -3.824335 255 0 0
0.632907 1.843125 -3.825324 255 0 0
0.632745 1.843044 -3.826413 255 0 0
0.632583 1.842964 -3.827501 255 0 0
0.632618 1.842952 -3.828369 255 0 0
0.632654 1.842941 -3.829236 255 0 0
0.633137 1.843095 -3.829603 255 0 0
0.633621 1.843248 -3.829969 255 0 0
0.633763 1.843268 -3.830719 255 0 0
0.633904 1.843289 -3.831469 255 0 0
0.633939 1.843231 -3.832530 255 0 0
0.633974 1.843173 -3.833592 255 0 0
0.633972 1.843142 -3.834495 255 0 0
0.633971 1.843112 -3.835398 255 0 0
0.634116 1.843115 -3.836148 255 0 0
0.634261 1.843119 -3.836899 255 0 0
0.634172 1.843029 -3.837917 255 0 0
0.634083 1.842940 -3.838935 255 0 0
0.634278 1.842954 -3.839642 255 0 0
0.634473 1.842968 -3.840349 255 0 0
0.634477 1.842912 -3.841269 255 0 0
0.634481 1.842856 -3.842188 255 0 0
0.634637 1.842860 -3.842936 255 0 0
0.634792 1.842863 -3.843685 255 0 0
0.635038 1.842907 -3.844330 255 0 0
0.635283 1.842952 -3.844975 255 0 0
0.635366 1.842941 -3.845796 255 0 0
0.635449 1.842931 -3.846618 255 0 0
0.635559 1.842933 -3.847554 255 0 0
0.635668 1.842935 -3.848491 255 0 0
0.635763 1.842955 -3.849292 255 0 0
0.635859 1.842975 -3.850093 255 0 0
0.636074 1.843029 -3.850763 255 0 0
0.636290 1.843083 -3.851433 255 0 0
0.636236 1.843023 -3.852408 255 0 0
0.636182 1.842962 -3.853383 255 0 0
0.636399 1.842988 -3.854061 255 0 0
0.636616 1.843013 -3.854740 255 0 0
0.636695 1.842971 -3.855577 255 0 0
0.636774 1.842930 -3.856415 255 0 0
0.637005 1.842938 -3.857084 255 0 0
0.637236 1.842947 -3.857753 255 0 0
0.637462 1.842954 -3.858430 255 0 0
0.637688 1.842962 -3.859106 255 0 0
0.637598 1.842860 -3.860124 255 0 0
0.637509 1.842758 -3.861142 255 0 0
0.637649 1.842726 -3.862065 255 0 0
0.637789 1.842695 -3.862988 255 0 0
0.638024 1.842750 -3.863639 255 0 0
0.638258 1.842805 -3.864291 255 0 0
0.638524 1.842874 -3.864905 255 0 0
0.638789 1.842942 -3.865519 255 0 0
0.638727 1.842879 -3.866497 255 0 0
0.638665 1.842816 -3.867475 255 0 0
0.638714 1.842784 -3.868334 255 0 0
0.638764 1.842752 -3.869192 255 0 0
0.638939 1.842754 -3.869915 255 0 0
0.639114 1.842756 -3.870638 255 0 0
0.639264 1.842740 -3.871391 255 0 0
0.639414 1.842724 -3.872145 255 0 0
0.639772 1.842782 -3.872666 255 0 0
0.640130 1.842840 -3.873188 255 0 0
0.640432 1.842885 -3.873760 255 0 0
0.640735 1.842930 -3.874333 255 0 0
0.640794 1.842915 -3.875146 255 0 0
0.640854 1.842901 -3.875960 255 0 0
0.640633 1.842825 -3.876498 255 0 0
0.640413 1.842749 -3.877036 255 0 0
0.640458 1.842788 -3.877507 255 0 0
0.640503 1.842827 -3.877978 255 0 0
0.640532 1.842973 -3.878218 255 0 0
0.640561 1.843118 -3.878458 255 0 0
0.640744 1.843410 -3.878899 255 0 0
0.640926 1.843702 -3.879340 255 0 0
0.640898 1.843953 -3.879698 255 0 0
0.640869 1.844204 -3.880056 255 0 0
0.640895 1.844503 -3.880449 255 0 0
0.640921 1.844801 -3.880841 255 0 0
0.641024 1.845211 -3.881076 255 0 0
0.641127 1.845620 -3.881311 255 0 0
0.641454 1.845970 -3.881198 255 0 0
0.641781 1.846320 -3.881085 255 0 0
0.641872 1.846586 -3.881094 255 0 0
0.641963 1.846852 -3.881104 255 0 0
0.642038 1.847120 -3.881195 255 0 0
0.642113 1.847389 -3.881287 255 0 0
0.642160 1.847967 -3.881425 255 0 0
0.642207 1.848546 -3.881563 255 0 0
0.642258 1.849175 -3.881627 255 0 0
0.642309 1.849805 -3.881691 255 0 0
0.642342 1.850574 -3.881759 255 0 0
0.642374 1.851343 -3.881827 255 0 0
0.642407 1.851985 -3.881848 255 0 0
0.642440 1.852627 -3.881869 255 0 0
0.642479 1.853278 -3.881882 255 0 0
0.642518 1.853929 -3.881894 255 0 0
0.642388 1.854520 -3.882095 255 0 0
0.642259 1.855110 -3.882295 255 0 0
0.642279 1.855760 -3.882328 255 0 0
0.642298 1.856409 -3.882361 255 0 0
0.642326 1.857065 -3.882377 255 0 0
0.642353 1.857721 -3.882394 255 0 0
0.642376 1.858378 -3.882410 255 0 0
0.642399 1.859035 -3.882426 255 0 0
0.642399 1.859757 -3.882449 255 0 0
0.642400 1.860479 -3.882472 255 0 0
0.642568 1.861188 -3.882339 255 0 0
0.642737 1.861897 -3.882205 255 0 0
0.642777 1.862556 -3.882214 255 0 0
0.642817 1.863215 -3.882223 255 0 0
0.642854 1.863872 -3.882238 255 0 0
0.642891 1.864530 -3.882254 255 0 0
0.642912 1.865180 -3.882297 255 0 0
0.642933 1.865830 -3.882340 255 0 0
0.643046 1.866512 -3.882302 255 0 0
0.643160 1.867195 -3.882265 255 0 0
0.643074 1.867845 -3.882500 255 0 0
0.642987 1.868495 -3.882735 255 0 0
0.643097 1.869167 -3.882747 255 0 0
0.643207 1.869838 -3.882760 255 0 0
0.643260 1.870493 -3.882825 255 0 0
0.643313 1.871147 -3.882891 255 0 0
0.643395 1.871819 -3.882900 255 0 0
0.643477 1.872491 -3.882910 255 0 0
0.643531 1.873155 -3.882923 255 0 0
0.643586 1.873820 -3.882936 255 0 0
0.643621 1.874482 -3.882944 255 0 0
0.643657 1.875144 -3.882951 255 0 0
0.643637 1.875788 -3.882994 255 0 0
0.643616 1.876432 -3.883037 255 0 0
0.643603 1.877155 -3.883023 255 0 0
0.643590 1.877877 -3.883009 255 0 0
0.643595 1.878539 -3.882984 255 0 0
0.643600 1.879202 -3.882960 255 0 0
0.643570 1.879854 -3.882957 255 0 0
0.643540 1.880507 -3.882954 255 0 0
0.643529 1.881168 -3.882926 255 0 0
0.643517 1.881830 -3.882898 255 0 0
0.643518 1.882494 -3.882864 255 0 0
0.643518 1.883158 -3.882829 255 0 0
0.643521 1.883823 -3.882793 255 0 0
0.643524 1.884488 -3.882757 255 0 0
0.643629 1.885192 -3.882615 255 0 0
0.643733 1.885896 -3.882473 255 0 0
0.643734 1.886562 -3.882446 255 0 0
0.643735 1.887227 -3.882420 255 0 0
0.643721 1.887886 -3.882412 255 0 0
0.643707 1.888545 -3.882405 255 0 0
0.643661 1.889191 -3.882432 255 0 0
0.643616 1.889838 -3.882459 255 0 0
0.643621 1.890503 -3.882430 255 0 0
0.643626 1.891167 -3.882401 255 0 0
0.643635 1.891835 -3.882366 255 0 0
0.643644 1.892503 -3.882331 255 0 0
0.643664 1.893175 -3.882288 255 0 0
0.643683 1.893846 -3.882245 255 0 0
0.643680 1.894508 -3.882231 255 0 0
0.643676 1.895170 -3.882218 255 0 0
0.643676 1.895831 -3.882213 255 0 0
0.643677 1.896492 -3.882208 255 0 0
0.643710 1.897161 -3.882184 255 0 0
0.643744 1.897831 -3.882159 255 0 0
0.643767 1.898494 -3.882166 255 0 0
0.643789 1.899156 -3.882173 255 0 0
0.643843 1.899874 -3.882159 255 0 0
0.643896 1.900592 -3.882145 255 0 0
0.643942 1.901257 -3.882166 255 0 0
0.643987 1.901922 -3.882187 255 0 0
0.644047 1.902592 -3.882194 255 0 0
0.644107 1.903262 -3.882201 255 0 0
0.644155 1.903927 -3.882222 255 0 0
0.644203 1.904593 -3.882242 255 0 0
0.644248 1.905259 -3.882257 255 0 0
0.644294 1.905925 -3.882272 255 0 0
0.644307 1.906577 -3.882314 255 0 0
0.644320 1.907229 -3.882356 255 0 0
0.644334 1.907882 -3.882390 255 0 0
0.644348 1.908536 -3.882424 255 0 0
0.644305 1.909247 -3.882510 255 0 0
0.644262 1.909959 -3.882596 255 0 0
0.644297 1.910618 -3.882623 255 0 0
0.644332 1.911278 -3.882651 255 0 0
0.644353 1.911931 -3.882684 255 0 0
0.644375 1.912583 -3.882717 255 0 0
0.644350 1.913218 -3.882794 255 0 0
0.644326 1.913853 -3.882870 255 0 0
0.644347 1.914508 -3.882889 255 0 0
0.644368 1.915163 -3.882908 255 0 0
0.644382 1.915819 -3.882930 255 0 0
0.644396 1.916474 -3.882952 255 0 0
0.644407 1.917130 -3.882967 255 0 0
0.644417 1.917786 -3.882982 255 0 0
0.644434 1.918448 -3.882972 255 0 0
0.644452 1.919111 -3.882962 255 0 0
0.644556 1.919901 -3.882820 255 0 0
0.644660 1.920691 -3.882678 255 0 0
0.644664 1.921353 -3.882665 255 0 0
0.644669 1.922014 -3.882653 255 0 0
0.644682 1.922678 -3.882616 255 0 0
0.644695 1.923343 -3.882579 255 0 0
0.644546 1.923944 -3.882719 255 0 0
0.644397 1.924546 -3.882859 255 0 0
0.644344 1.925185 -3.882901 255 0 0
0.644291 1.925824 -3.882943 255 0 0
0.644282 1.926482 -3.882947 255 0 0
0.644273 1.927139 -3.882951 255 0 0
0.644284 1.927803 -3.882943 255 0 0
0.644296 1.928467 -3.882936 255 0 0
0.644315 1.929134 -3.882925 255 0 0
0.644334 1.929802 -3.882915 255 0 0
0.644369 1.930475 -3.882887 255 0 0
0.644404 1.931149 -3.882860 255 0 0
0.644417 1.931812 -3.882857 255 0 0
0.644429 1.932476 -3.882854 255 0 0
0.644448 1.933144 -3.882836 255 0 0
0.644467 1.933811 -3.882819 255 0 0
0.644468 1.934473 -3.882819 255 0 0
0.644470 1.935135 -3.882819 255 0 0
0.644459 1.935792 -3.882832 255 0 0
0.644448 1.936450 -3.882846 255 0 0
0.644446 1.937170 -3.882839 255 0 0
0.644444 1.937890 -3.882832 255 0 0
0.644429 1.938539 -3.882876 255 0 0
0.644415 1.939189 -3.882921 255 0 0
0.644452 1.939859 -3.882913 255 0 0
0.644490 1.940530 -3.882905 255 0 0
0.644522 1.941196 -3.882909 255 0 0
0.644554 1.941862 -3.882913 255 0 0
0.644585 1.942530 -3.882912 255 0 0
0.644617 1.943197 -3.882911 255 0 0
0.644646 1.943864 -3.882907 255 0 0
0.644675 1.944531 -3.882903 255 0 0
0.644669 1.945185 -3.882928 255 0 0
0.644663 1.945840 -3.882953 255 0 0
0.644665 1.946501 -3.882960 255 0 0
0.644667 1.947161 -3.882968 255 0 0
0.644677 1.947826 -3.882958 255 0 0
0.644687 1.948491 -3.882949 255 0 0
0.644654 1.949139 -3.882981 255 0 0
0.644622 1.949786 -3.883013 255 0 0
0.644601 1.950440 -3.883029 255 0 0
0.644581 1.951095 -3.883046 255 0 0
0.644560 1.951825 -3.883057 255 0 0
0.644538 1.952556 -3.883068 255 0 0
0.644545 1.953220 -3.883056 255 0 0
0.644552 1.953883 -3.883045 255 0 0
0.644556 1.954545 -3.883031 255 0 0
0.644560 1.955207 -3.883017 255 0 0
0.644555 1.955868 -3.883006 255 0 0
0.644551 1.956528 -3.882996 255 0 0
0.644550 1.957192 -3.882980 255 0 0
0.644549 1.957856 -3.882963 255 0 0
0.644543 1.958520 -3.882958 255 0 0
0.644538 1.959184 -3.882952 255 0 0
0.644541 1.959850 -3.882944 255 0 0
0.644545 1.960517 -3.882936 255 0 0
0.644555 1.961182 -3.882932 255 0 0
0.644565 1.961847 -3.882928 255 0 0
0.644530 1.962490 -3.882980 255 0 0
0.644495 1.963134 -3.883031 255 0 0
0.644523 1.963801 -3.883021 255 0 0
0.644551 1.964468 -3.883012 255 0 0
0.644573 1.965130 -3.883013 255 0 0
0.644596 1.965792 -3.883015 255 0 0
0.644640 1.966461 -3.882999 255 0 0
0.644683 1.967131 -3.882983 255 0 0
0.644795 1.967922 -3.882900 255 0 0
0.644907 1.968714 -3.882816 255 0 0
0.644959 1.969387 -3.882788 255 0 0
0.645010 1.970060 -3.882760 255 0 0
0.645025 1.970722 -3.882755 255 0 0
0.645040 1.971383 -3.882751 255 0 0
0.645059 1.972049 -3.882732 255 0 0
0.645078 1.972714 -3.882713 255 0 0
0.645106 1.973383 -3.882688 255 0 0
0.645134 1.974052 -3.882663 255 0 0
0.645130 1.974706 -3.882686 255 0 0
0.645126 1.975361 -3.882709 255 0 0
0.645175 1.976034 -3.882687 255 0 0
0.645224 1.976708 -3.882666 255 0 0
0.645285 1.977388 -3.882641 255 0 0
0.645346 1.978069 -3.882617 255 0 0
0.645395 1.978748 -3.882611 255 0 0
0.645443 1.979428 -3.882606 255 0 0
0.645507 1.980122 -3.882594 255 0 0
0.645570 1.980816 -3.882583 255 0 0
0.645606 1.981479 -3.882550 255 0 0
0.645642 1.982142 -3.882517 255 0 0
0.645645 1.982794 -3.882460 255 0 0
0.645649 1.983447 -3.882403 255 0 0
0.645643 1.984088 -3.882272 255 0 0
0.645637 1.984729 -3.882141 255 0 0
0.645492 1.985491 -3.881823 255 0 0
0.645347 1.986253 -3.881505 255 0 0
0.644906 1.986633 -3.881516 255 0 0
0.644464 1.987012 -3.881526 255 0 0
3 0 1 2 3 2 3 4 3 4 5 6 3 6 7 8 3 8 9 10 3 10 11 12 3 12 13 14 3 14 15 16 3 16 17 18 3 18 19 20 3 20 21 22 3 22 23 24 3 24 25 26 3 26 27 28 3 28 29 30 3 30 31 32 3 32 33 34 3 34 35 36 3 36 37 38 3 38 39 40 3 40 41 42 3 42 43 44 3 44 45 46 3 46 47 48 3 48 49 50 3 50 51 52 3 52 53 54 3 54 55 56 3 56 57 58 3 58 59 60 3 60 61 62 3 62 63 64 3 64 65 66 3 66 67 68 3 68 69 70 3 70 71 72 3 72 73 74 3 74 75 76 3 76 77 78 3 78 79 80 3 80 81 82 3 82 83 84 3 84 85 86 3 86 87 88 3 88 89 90 3 90 91 92 3 92 93 94 3 94 95 96 3 96 97 98 3 98 99 100 3 100 101 102 3 102 103 104 3 104 105 106 3 106 107 108 3 108 109 110 3 110 111 112 3 112 113 114 3 114 115 116 3 116 117 118 3 118 119 120 3 120 121 122 3 122 123 124 3 124 125 126 3 126 127 128 3 128 129 130 3 130 131 132 3 132 133 134 3 134 135 136 3 136 137 138 3 138 139 140 3 140 141 142 3 142 143 144 3 144 145 146 3 146 147 148 3 148 149 150 3 150 151 152 3 152 153 154 3 154 155 156 3 156 157 158 3 158 159 160 3 160 161 162 3 162 163 164 3 164 165 166 3 166 167 168 3 168 169 170 3 170 171 172 3 172 173 174 3 174 175 176 3 176 177 178 3 178 179 180 3 180 181 182 3 182 183 184 3 184 185 186 3 186 187 188 3 188 189 190 3 190 191 192 3 192 193 194 3 194 195 196 3 196 197 198 3 198 199 200 3 200 201 202 3 202 203 204 3 204 205 206 3 206 207 208 3 208 209 210 3 210 211 212 3 212 213 214 3 214 215 216 3 216 217 218 3 218 219 220 3 220 221 222 3 222 223 224 3 224 225 226 3 226 227 228 3 228 229 230 3 230 231 232 3 232 233 234 3 234 235 236 3 236 237 238 3 238 239 240 3 240 241 242 3 242 243 244 3 244 245 246 3 246 247 248 3 248 249 250 3 250 251 252 3 252 253 254 3 254 255 256 3 256 257 258 3 258 259 260 3 260 261 262 3 262 263 264 3 264 265 266 3 266 267 268 3 268 269 270 3 270 271 272 3 272 273 274 3 274 275 276 3 276 277 278 3 278 279 280 3 280 281 282 3 282 283 284 3 284 285 286 3 286 287 288 3 288 289 290 3 290 291 292 3 292 293 294 3 294 295 296 3 296 297 298 3 298 299 300 3 300 301 302 3 302 303 304 3 304 305 306 3 306 307 308 3 308 309 310 3 310 311 312 3 312 313 314 3 314 315 316 3 316 317 318 3 318 319 320 3 320 321 322 3 322 323 324 3 324 325 326 3 326 327 328 3 328 329 330 3 330 331 332 3 332 333 334 3 334 335 336 3 336 337 338 3 338 339 340 3 340 341 342 3 342 343 344 3 344 345 346 3 346 347 348 3 348 349 350 3 350 351 352 3 352 353 354 3 354 355 356 3 356 357 358 3 358 359 360 3 360 361 362 3 362 363 364 3 364 365 366 3 366 367 368 3 368 369 370 3 370 371 372 3 372 373 374 3 374 375 376 3 376 377 378 3 378 379 380 3 380 381 382 3 382 383 384 3 384 385 386 3 386 387 388 3 388 389 390 3 390 391 392 3 392 393 394 3 394 395 396 3 396 397 398 3 398 399 400 3 400 401 402 3 402 403 404 3 404 405 406 3 406 407 408 3 408 409 410 3 410 411 412 3 412 413 414 3 414 415 416 3 416 417 418 3 418 419 420 3 420 421 422 3 422 423 424 3 424 425 426 3 426 427 428 3 428 429 430 3 430 431 432 3 432 433 434 3 434 435 436 3 436 437 438 3 438 439 440 3 440 441 442 3 442 443 444 3 444 445 446 3 446 447 448 3 448 449 450 3 450 451 452 3 452 453 454 3 454 455 456 3 456 457 458 3 458 459 460 3 460 461 462 3 462 463 464 3 464 465 466 3 466 467 468 3 468 469 470 3 470 471 472 3 472 473 474 3 474 475 476 3 476 477 478 3 478 479 480 3 480 481 482 3 482 483 484 3 484 485 486 3 486 487 488 3 488 489 490 3 490 491 492 3 492 493 494 3 494 495 496 3 496 497 498 3 498 499 500 3 500 501 502 3 502 503 504 3 504 505 506 3 506 507 508 