ply
format ascii 1.0
element vertex 103
property float x
property float y
property float z
property uchar red
property uchar green
property uchar blue
element face 51
property list uchar int vertex_index
end_header
0.650437 1.991259 -3.700315 255 0 0
0.650337 1.991265 -3.701168 255 0 0
0.650237 1.991272 -3.702020 255 0 0
0.650222 1.991341 -3.702866 255 0 0
0.650207 1.991410 -3.703712 255 0 0
0.650352 1.991488 -3.704537 255 0 0
0.650497 1.991566 -3.705362 255 0 0
0.650689 1.991703 -3.706198 255 0 0
0.650881 1.991840 -3.707034 255 0 0
0.650944 1.991951 -3.707782 255 0 0
0.651006 1.992062 -3.708530 255 0 0
0.651050 1.992056 -3.709536 255 0 0
0.651094 1.992051 -3.710542 255 0 0
0.651037 1.992166 -3.711259 255 0 0
0.650979 1.992282 -3.711977 255 0 0
0.650867 1.992246 -3.712842 255 0 0
0.650754 1.992211 -3.713707 255 0 0
0.650646 1.992252 -3.714498 255 0 0
0.650538 1.992293 -3.715289 255 0 0
0.650435 1.992351 -3.716059 255 0 0
0.650331 1.992409 -3.716830 255 0 0
0.650234 1.992465 -3.717805 255 0 0
0.650136 1.992522 -3.718780 255 0 0
0.650040 1.992639 -3.719511 255 0 0
0.649945 1.992757 -3.720242 255 0 0
0.649854 1.992850 -3.720979 255 0 0
0.649764 1.992944 -3.721716 255 0 0
0.649706 1.993064 -3.722396 255 0 0
0.649648 1.993184 -3.723077 255 0 0
0.649618 1.993198 -3.723836 255 0 0
0.649587 1.993212 -3.724594 255 0 0
0.649673 1.993294 -3.724931 255 0 0
0.649758 1.993377 -3.725269 255 0 0
0.649736 1.993408 -3.725560 255 0 0
0.649714 1.993439 -3.725852 255 0 0
0.649789 1.993533 -3.726130 255 0 0
0.649864 1.993626 -3.726409 255 0 0
0.649953 1.993700 -3.727024 255 0 0
0.650042 1.993774 -3.727639 255 0 0
0.650176 1.993746 -3.728068 255 0 0
0.650311 1.993717 -3.728498 255 0 0
0.650487 1.993525 -3.729298 255 0 0
0.650663 1.993334 -3.730098 255 0 0
0.650949 1.993584 -3.730149 255 0 0
0.651236 1.993835 -3.730199 255 0 0
0.651666 1.993980 -3.730662 255 0 0
0.652096 1.994125 -3.731125 255 0 0
0.652682 1.994327 -3.732219 255 0 0
0.653267 1.994528 -3.733313 255 0 0
0.653420 1.994674 -3.733355 255 0 0
0.653573 1.994820 -3.733398 255 0 0
0.653586 1.995455 -3.733579 255 0 0
0.653599 1.996091 -3.733760 255 0 0
0.653557 1.996241 -3.734430 255 0 0
0.653515 1.996390 -3.735100 255 0 0
0.653469 1.996327 -3.735984 255 0 0
0.653422 1.996264 -3.736869 255 0 0
0.653446 1.996083 -3.738040 255 0 0
0.653470 1.995901 -3.739211 255 0 0
0.653391 1.995840 -3.740109 255 0 0
0.653312 1.995779 -3.741008 255 0 0
0.653255 1.995810 -3.741810 255 0 0
0.653199 1.995842 -3.742613 255 0 0
0.653123 1.995778 -3.743502 255 0 0
0.653048 1.995714 -3.744392 255 0 0
0.653014 1.995738 -3.745379 255 0 0
0.652980 1.995761 -3.746366 255 0 0
0.652845 1.995540 -3.747429 255 0 0
0.652711 1.995318 -3.748492 255 0 0
0.652636 1.995414 -3.749218 255 0 0
0.652562 1.995511 -3.749944 255 0 0
0.652488 1.995588 -3.750679 255 0 0
0.652415 1.995664 -3.751414 255 0 0
0.652344 1.995706 -3.752169 255 0 0
0.652273 1.995748 -3.752924 255 0 0
0.652214 1.995779 -3.753674 255 0 0
0.652154 1.995810 -3.754424 255 0 0
0.652121 1.995629 -3.754953 255 0 0
0.652088 1.995449 -3.755482 255 0 0
0.652074 1.995628 -3.755724 255 0 0
0.652060 1.995808 -3.755965 255 0 0
0.652042 1.995627 -3.756502 255 0 0
0.652023 1.995445 -3.757040 255 0 0
0.651992 1.995441 -3.757809 255 0 0
0.651961 1.995437 -3.758579 255 0 0
0.651939 1.995441 -3.759334 255 0 0
0.651917 1.995445 -3.760090 255 0 0
0.651905 1.995301 -3.760634 255 0 0
0.651893 1.995157 -3.761178 255 0 0
0.651909 1.995316 -3.761365 255 0 0
0.651925 1.995474 -3.761552 255 0 0
0.651924 1.995332 -3.762083 255 0 0
0.651924 1.995190 -3.762614 255 0 0
0.651928 1.995202 -3.763336 255 0 0
0.651932 1.995215 -3.764058 255 0 0
0.651943 1.995224 -3.764768 255 0 0
0.651953 1.995233 -3.765479 255 0 0
0.652024 1.995457 -3.765699 255 0 0
0.652094 1.995682 -3.765919 255 0 0
0.652102 1.995686 -3.766626 255 0 0
0.652110 1.995691 -3.767333 255 0 0
0.652114 1.995688 -3.768045 255 0 0
0.652117 1.995685 -3.768756 255 0 0
3 0 1 2 3 2 3 4 3 4 5 6 3 6 7 8 3 8 9 10 3 10 11 12 3 12 13 14 3 14 15 16 3 16 17 18 3 18 19 20 3 20 21 22 3 22 23 24 3 24 25 26 3 26 27 28 3 28 29 30 3 30 31 32 3 32 33 34 3 34 35 36 3 36 37 38 3 38 39 40 3 40 41 42 3 42 43 44 3 44 45 46 3 46 47 48 3 48 49 50 3 50 51 52 3 52 53 54 3 54 55 56 3 56 57 58 3 58 59 60 3 60 61 62 3 62 63 64 3 64 65 66 3 66 67 68 3 68 69 70 3 70 71 72 3 72 73 74 3 74 75 76 3 76 77 78 3 78 79 80 3 80 81 82 3 82 83 84 3 84 85 86 3 86 87 88 3 88 89 90 3 90 91 92 3 92 93 94 3 94 95 96 3 96 97 98 3 98 99 100 3 100 101 102 