ply
format ascii 1.0
element vertex 147
property float x
property float y
property float z
property uchar red
property uchar green
property uchar blue
element face 73
property list uchar int vertex_index
end_header
0.640025 1.991299 -3.778437 255 0 0
0.640031 1.991314 -3.777858 255 0 0
0.640038 1.991329 -3.777280 255 0 0
0.640115 1.991340 -3.776773 255 0 0
0.640192 1.991352 -3.776267 255 0 0
0.640232 1.991382 -3.775666 255 0 0
0.640273 1.991412 -3.775065 255 0 0
0.640365 1.991487 -3.774507 255 0 0
0.640457 1.991562 -3.773950 255 0 0
0.640538 1.991597 -3.773339 255 0 0
0.640620 1.991633 -3.772727 255 0 0
0.640599 1.991580 -3.772272 255 0 0
0.640578 1.991526 -3.771818 255 0 0
0.640700 1.991572 -3.771203 255 0 0
0.640822 1.991618 -3.770589 255 0 0
0.640827 1.991657 -3.770014 255 0 0
0.640833 1.991697 -3.769439 255 0 0
0.640947 1.991708 -3.768894 255 0 0
0.641061 1.991719 -3.768349 255 0 0
0.641065 1.991751 -3.767788 255 0 0
0.641069 1.991782 -3.767226 255 0 0
0.641143 1.991742 -3.766722 255 0 0
0.641217 1.991702 -3.766217 255 0 0
0.641221 1.991712 -3.765661 255 0 0
0.641226 1.991722 -3.765104 255 0 0
0.641163 1.991491 -3.764784 255 0 0
0.641099 1.991260 -3.764464 255 0 0
0.641094 1.991262 -3.763901 255 0 0
0.641089 1.991265 -3.763339 255 0 0
0.641119 1.991214 -3.762886 255 0 0
0.641149 1.991162 -3.762433 255 0 0
0.641187 1.991227 -3.761811 255 0 0
0.641224 1.991292 -3.761188 255 0 0
0.641258 1.991260 -3.760719 255 0 0
0.641292 1.991228 -3.760251 255 0 0
0.641364 1.991273 -3.759636 255 0 0
0.641437 1.991319 -3.759022 255 0 0
0.641531 1.991339 -3.758462 255 0 0
0.641625 1.991360 -3.757903 255 0 0
0.641751 1.991398 -3.757313 255 0 0
0.641877 1.991436 -3.756723 255 0 0
0.641954 1.991389 -3.756169 255 0 0
0.642031 1.991341 -3.755615 255 0 0
0.642165 1.991411 -3.755054 255 0 0
0.642298 1.991481 -3.754493 255 0 0
0.642504 1.991638 -3.753725 255 0 0
0.642711 1.991796 -3.752957 255 0 0
0.642836 1.991869 -3.752427 255 0 0
0.642961 1.991943 -3.751897 255 0 0
0.643076 1.991917 -3.751289 255 0 0
0.643190 1.991891 -3.750682 255 0 0
0.643341 1.991956 -3.750139 255 0 0
0.643491 1.992021 -3.749597 255 0 0
0.643728 1.992065 -3.748940 255 0 0
0.643965 1.992109 -3.748284 255 0 0
0.644075 1.992101 -3.747748 255 0 0
0.644185 1.992093 -3.747212 255 0 0
0.644449 1.992158 -3.746560 255 0 0
0.644713 1.992223 -3.745907 255 0 0
0.644715 1.992177 -3.745372 255 0 0
0.644718 1.992131 -3.744836 255 0 0
0.644887 1.992190 -3.744259 255 0 0
0.645055 1.992248 -3.743681 255 0 0
0.644816 1.991945 -3.743381 255 0 0
0.644576 1.991643 -3.743080 255 0 0
0.644544 1.991498 -3.742729 255 0 0
0.644511 1.991354 -3.742377 255 0 0
0.644661 1.991652 -3.741554 255 0 0
0.644811 1.991950 -3.740730 255 0 0
0.644650 1.991630 -3.740517 255 0 0
0.644489 1.991309 -3.740303 255 0 0
0.644449 1.991276 -3.739778 255 0 0
0.644409 1.991242 -3.739252 255 0 0
0.644440 1.991258 -3.738738 255 0 0
0.644471 1.991274 -3.738224 255 0 0
0.644452 1.991251 -3.737696 255 0 0
0.644433 1.991227 -3.737168 255 0 0
0.644566 1.991502 -3.736330 255 0 0
0.644700 1.991777 -3.735492 255 0 0
0.644597 1.991457 -3.735314 255 0 0
0.644495 1.991137 -3.735135 255 0 0
0.644489 1.991074 -3.734564 255 0 0
0.644483 1.991011 -3.733992 255 0 0
0.644681 1.991074 -3.733444 255 0 0
0.644880 1.991137 -3.732896 255 0 0
0.644749 1.990757 -3.732617 255 0 0
0.644618 1.990376 -3.732339 255 0 0
0.644928 1.990616 -3.731598 255 0 0
0.645238 1.990855 -3.730857 255 0 0
0.645430 1.990879 -3.730240 255 0 0
0.645621 1.990903 -3.729623 255 0 0
0.645714 1.990907 -3.729099 255 0 0
0.645807 1.990912 -3.728575 255 0 0
0.646002 1.990878 -3.727964 255 0 0
0.646198 1.990843 -3.727353 255 0 0
0.646316 1.990915 -3.726829 255 0 0
0.646435 1.990987 -3.726306 255 0 0
0.646631 1.990939 -3.725684 255 0 0
0.646827 1.990891 -3.725062 255 0 0
0.646921 1.990962 -3.724563 255 0 0
0.647015 1.991033 -3.724065 255 0 0
0.647248 1.990983 -3.723435 255 0 0
0.647480 1.990934 -3.722806 255 0 0
0.647453 1.990878 -3.722417 255 0 0
0.647426 1.990822 -3.722027 255 0 0
0.647694 1.990923 -3.721689 255 0 0
0.647962 1.991023 -3.721351 255 0 0
0.647991 1.990928 -3.721013 255 0 0
0.648019 1.990834 -3.720674 255 0 0
0.648853 1.991559 -3.719355 255 0 0
0.649686 1.992284 -3.718035 255 0 0
0.649329 1.991945 -3.717891 255 0 0
0.648971 1.991605 -3.717748 255 0 0
0.649525 1.991926 -3.716802 255 0 0
0.650079 1.992247 -3.715857 255 0 0
0.649847 1.992217 -3.715423 255 0 0
0.649615 1.992186 -3.714990 255 0 0
0.649802 1.992178 -3.714392 255 0 0
0.649989 1.992169 -3.713794 255 0 0
0.649937 1.992153 -3.713296 255 0 0
0.649885 1.992137 -3.712799 255 0 0
0.650112 1.992146 -3.712207 255 0 0
0.650339 1.992155 -3.711615 255 0 0
0.650318 1.992122 -3.711101 255 0 0
0.650297 1.992090 -3.710588 255 0 0
0.650469 1.992102 -3.710015 255 0 0
0.650641 1.992114 -3.709442 255 0 0
0.650182 1.991481 -3.709482 255 0 0
0.649722 1.990848 -3.709521 255 0 0
0.649830 1.990824 -3.708967 255 0 0
0.649938 1.990801 -3.708414 255 0 0
0.649871 1.990785 -3.707930 255 0 0
0.649804 1.990770 -3.707446 255 0 0
0.649961 1.990729 -3.706850 255 0 0
0.650119 1.990689 -3.706253 255 0 0
0.649755 1.990101 -3.706311 255 0 0
0.649392 1.989512 -3.706368 255 0 0
0.649650 1.989476 -3.705728 255 0 0
0.649908 1.989439 -3.705088 255 0 0
0.650212 1.989403 -3.704431 255 0 0
0.650517 1.989367 -3.703773 255 0 0
0.650664 1.989448 -3.703279 255 0 0
0.650811 1.989529 -3.702785 255 0 0
0.651150 1.989494 -3.702125 255 0 0
0.651489 1.989459 -3.701465 255 0 0
0.651783 1.989421 -3.700788 255 0 0
0.652077 1.989383 -3.700112 255 0 0
3 0 1 2 3 2 3 4 3 4 5 6 3 6 7 8 3 8 9 10 3 10 11 12 3 12 13 14 3 14 15 16 3 16 17 18 3 18 19 20 3 20 21 22 3 22 23 24 3 24 25 26 3 26 27 28 3 28 29 30 3 30 31 32 3 32 33 34 3 34 35 36 3 36 37 38 3 38 39 40 3 40 41 42 3 42 43 44 3 44 45 46 3 46 47 48 3 48 49 50 3 50 51 52 3 52 53 54 3 54 55 56 3 56 57 58 3 58 59 60 3 60 61 62 3 62 63 64 3 64 65 66 3 66 67 68 3 68 69 70 3 70 71 72 3 72 73 74 3 74 75 76 3 76 77 78 3 78 79 80 3 80 81 82 3 82 83 84 3 84 85 86 3 86 87 88 3 88 89 90 3 90 91 92 3 92 93 94 3 94 95 96 3 96 97 98 3 98 99 100 3 100 101 102 3 102 103 104 3 104 105 106 3 106 107 108 3 108 109 110 3 110 111 112 3 112 113 114 3 114 115 116 3 116 117 118 3 118 119 120 3 120 121 122 3 122 123 124 3 124 125 126 3 126 127 128 3 128 129 130 3 130 131 132 3 132 133 134 3 134 135 136 3 136 137 138 3 138 139 140 3 140 141 142 3 142 143 144 3 144 145 146 