ply
format ascii 1.0
element vertex 23
property float x
property float y
property float z
property uchar red
property uchar green
property uchar blue
element face 11
property list uchar int vertex_index
end_header
0.637247 1.989335 -3.846180 255 0 0
0.637634 1.989432 -3.846660 255 0 0
0.638021 1.989528 -3.847141 255 0 0
0.638144 1.989538 -3.847688 255 0 0
0.638268 1.989547 -3.848235 255 0 0
0.638541 1.989606 -3.848726 255 0 0
0.638815 1.989665 -3.849218 255 0 0
0.638946 1.989670 -3.849726 255 0 0
0.639076 1.989676 -3.850235 255 0 0
0.639256 1.989691 -3.850738 255 0 0
0.639436 1.989707 -3.851240 255 0 0
0.639465 1.989659 -3.851759 255 0 0
0.639493 1.989610 -3.852278 255 0 0
0.639422 1.989513 -3.852805 255 0 0
0.639351 1.989416 -3.853331 255 0 0
0.639339 1.989321 -3.853848 255 0 0
0.639327 1.989227 -3.854365 255 0 0
0.639291 1.989109 -3.854883 255 0 0
0.639254 1.988992 -3.855400 255 0 0
0.639499 1.989017 -3.855957 255 0 0
0.639744 1.989042 -3.856514 255 0 0
0.639845 1.989019 -3.857022 255 0 0
0.639946 1.988997 -3.857530 255 0 0
3 0 1 2 3 2 3 4 3 4 5 6 3 6 7 8 3 8 9 10 3 10 11 12 3 12 13 14 3 14 15 16 3 16 17 18 3 18 19 20 3 20 21 22 