ply
format ascii 1.0
element vertex 59
property float x
property float y
property float z
property uchar red
property uchar green
property uchar blue
element face 29
property list uchar int vertex_index
end_header
0.864140 1.837738 -3.446163 255 0 0
0.863429 1.837798 -3.445732 255 0 0
0.862717 1.837857 -3.445300 255 0 0
0.862009 1.837919 -3.444875 255 0 0
0.861302 1.837982 -3.444451 255 0 0
0.860826 1.837984 -3.445009 255 0 0
0.860351 1.837987 -3.445567 255 0 0
0.859749 1.838010 -3.445586 255 0 0
0.859147 1.838034 -3.445606 255 0 0
0.858845 1.837968 -3.446904 255 0 0
0.858543 1.837902 -3.448203 255 0 0
0.857944 1.837903 -3.448248 255 0 0
0.857345 1.837903 -3.448292 255 0 0
0.856821 1.837881 -3.448658 255 0 0
0.856298 1.837860 -3.449024 255 0 0
0.855693 1.837855 -3.449048 255 0 0
0.855088 1.837851 -3.449073 255 0 0
0.854488 1.837844 -3.449112 255 0 0
0.853887 1.837838 -3.449151 255 0 0
0.853438 1.837793 -3.449834 255 0 0
0.852989 1.837748 -3.450518 255 0 0
0.852372 1.837748 -3.450497 255 0 0
0.851755 1.837749 -3.450477 255 0 0
0.851136 1.837754 -3.450457 255 0 0
0.850516 1.837760 -3.450437 255 0 0
0.849897 1.837772 -3.450419 255 0 0
0.849278 1.837785 -3.450400 255 0 0
0.848661 1.837804 -3.450382 255 0 0
0.848043 1.837824 -3.450364 255 0 0
0.847455 1.837843 -3.450462 255 0 0
0.846867 1.837861 -3.450560 255 0 0
0.846281 1.837885 -3.450655 255 0 0
0.845694 1.837909 -3.450749 255 0 0
0.845163 1.837920 -3.451073 255 0 0
0.844631 1.837932 -3.451397 255 0 0
0.844072 1.837948 -3.451602 255 0 0
0.843513 1.837964 -3.451807 255 0 0
0.842983 1.837973 -3.452132 255 0 0
0.842453 1.837982 -3.452458 255 0 0
0.842013 1.837967 -3.453172 255 0 0
0.841572 1.837953 -3.453885 255 0 0
0.841026 1.837959 -3.454149 255 0 0
0.840479 1.837966 -3.454414 255 0 0
0.839917 1.837969 -3.454624 255 0 0
0.839356 1.837971 -3.454835 255 0 0
0.838778 1.837973 -3.454974 255 0 0
0.838199 1.837975 -3.455114 255 0 0
0.837638 1.837969 -3.455330 255 0 0
0.837077 1.837963 -3.455547 255 0 0
0.836530 1.837953 -3.455833 255 0 0
0.835984 1.837943 -3.456120 255 0 0
0.835421 1.837939 -3.456327 255 0 0
0.834857 1.837935 -3.456535 255 0 0
0.834289 1.837932 -3.456716 255 0 0
0.833721 1.837929 -3.456898 255 0 0
0.833198 1.837917 -3.457272 255 0 0
0.832676 1.837906 -3.457646 255 0 0
0.832160 1.837898 -3.458033 255 0 0
0.831644 1.837891 -3.458420 255 0 0
3 0 1 2 3 2 3 4 3 4 5 6 3 6 7 8 3 8 9 10 3 10 11 12 3 12 13 14 3 14 15 16 3 16 17 18 3 18 19 20 3 20 21 22 3 22 23 24 3 24 25 26 3 26 27 28 3 28 29 30 3 30 31 32 3 32 33 34 3 34 35 36 3 36 37 38 3 38 39 40 3 40 41 42 3 42 43 44 3 44 45 46 3 46 47 48 3 48 49 50 3 50 51 52 3 52 53 54 3 54 55 56 3 56 57 58 