ply
format ascii 1.0
element vertex 81
property float x
property float y
property float z
property uchar red
property uchar green
property uchar blue
element face 40
property list uchar int vertex_index
end_header
0.707385 1.993048 -3.588478 255 0 0
0.707567 1.992868 -3.587523 255 0 0
0.707749 1.992689 -3.586568 255 0 0
0.707984 1.992493 -3.585623 255 0 0
0.708220 1.992297 -3.584677 255 0 0
0.708469 1.992188 -3.583636 255 0 0
0.708719 1.992078 -3.582595 255 0 0
0.708976 1.991892 -3.581659 255 0 0
0.709234 1.991705 -3.580722 255 0 0
0.709508 1.991546 -3.579799 255 0 0
0.709782 1.991386 -3.578875 255 0 0
0.710100 1.991274 -3.577927 255 0 0
0.710418 1.991162 -3.576979 255 0 0
0.710707 1.991005 -3.576053 255 0 0
0.710997 1.990848 -3.575126 255 0 0
0.711195 1.990983 -3.574445 255 0 0
0.711394 1.991119 -3.573764 255 0 0
0.711767 1.990998 -3.572880 255 0 0
0.712141 1.990877 -3.571996 255 0 0
0.712547 1.990759 -3.571127 255 0 0
0.712954 1.990642 -3.570258 255 0 0
0.713380 1.990533 -3.569406 255 0 0
0.713806 1.990423 -3.568553 255 0 0
0.714249 1.990318 -3.567718 255 0 0
0.714693 1.990213 -3.566884 255 0 0
0.715168 1.990110 -3.566071 255 0 0
0.715643 1.990007 -3.565258 255 0 0
0.716166 1.990017 -3.564356 255 0 0
0.716689 1.990027 -3.563453 255 0 0
0.717147 1.989933 -3.562645 255 0 0
0.717604 1.989840 -3.561838 255 0 0
0.718114 1.989843 -3.561702 255 0 0
0.718623 1.989847 -3.561566 255 0 0
0.719519 1.990257 -3.561329 255 0 0
0.720414 1.990666 -3.561092 255 0 0
0.720761 1.990685 -3.560732 255 0 0
0.721109 1.990705 -3.560373 255 0 0
0.721987 1.990816 -3.559734 255 0 0
0.722866 1.990927 -3.559095 255 0 0
0.723306 1.990963 -3.558797 255 0 0
0.723746 1.990999 -3.558498 255 0 0
0.724237 1.991027 -3.558271 255 0 0
0.724729 1.991055 -3.558044 255 0 0
0.725342 1.990896 -3.557459 255 0 0
0.725956 1.990737 -3.556874 255 0 0
0.726211 1.990971 -3.556856 255 0 0
0.726465 1.991204 -3.556839 255 0 0
0.727053 1.991093 -3.556172 255 0 0
0.727640 1.990981 -3.555504 255 0 0
0.727795 1.991146 -3.555462 255 0 0
0.727949 1.991312 -3.555420 255 0 0
0.728535 1.991217 -3.554721 255 0 0
0.729120 1.991123 -3.554021 255 0 0
0.729678 1.991018 -3.553295 255 0 0
0.730236 1.990913 -3.552568 255 0 0
0.730363 1.991075 -3.552498 255 0 0
0.730489 1.991237 -3.552428 255 0 0
0.730800 1.991234 -3.552037 255 0 0
0.731110 1.991231 -3.551646 255 0 0
0.731367 1.991136 -3.551319 255 0 0
0.731623 1.991041 -3.550991 255 0 0
0.732039 1.991190 -3.550520 255 0 0
0.732455 1.991340 -3.550049 255 0 0
0.733003 1.991169 -3.549398 255 0 0
0.733552 1.990999 -3.548748 255 0 0
0.733926 1.991023 -3.548386 255 0 0
0.734301 1.991047 -3.548024 255 0 0
0.734699 1.991119 -3.547621 255 0 0
0.735097 1.991191 -3.547218 255 0 0
0.735470 1.991243 -3.546818 255 0 0
0.735843 1.991294 -3.546418 255 0 0
0.736464 1.991103 -3.545887 255 0 0
0.737085 1.990913 -3.545356 255 0 0
0.737427 1.990958 -3.544936 255 0 0
0.737769 1.991003 -3.544516 255 0 0
0.738290 1.991165 -3.544139 255 0 0
0.738811 1.991327 -3.543762 255 0 0
0.739151 1.991315 -3.543399 255 0 0
0.739491 1.991302 -3.543035 255 0 0
0.739854 1.991269 -3.542690 255 0 0
0.740216 1.991236 -3.542344 255 0 0
3 0 1 2 3 2 3 4 3 4 5 6 3 6 7 8 3 8 9 10 3 10 11 12 3 12 13 14 3 14 15 16 3 16 17 18 3 18 19 20 3 20 21 22 3 22 23 24 3 24 25 26 3 26 27 28 3 28 29 30 3 30 31 32 3 32 33 34 3 34 35 36 3 36 37 38 3 38 39 40 3 40 41 42 3 42 43 44 3 44 45 46 3 46 47 48 3 48 49 50 3 50 51 52 3 52 53 54 3 54 55 56 3 56 57 58 3 58 59 60 3 60 61 62 3 62 63 64 3 64 65 66 3 66 67 68 3 68 69 70 3 70 71 72 3 72 73 74 3 74 75 76 3 76 77 78 3 78 79 80 