ply
format ascii 1.0
element vertex 1779
property float x
property float y
property float z
property uchar red
property uchar green
property uchar blue
element face 606
property list uchar int vertex_index
end_header
0.640479 1.612322 -3.712877 255 0 0
0.640429 1.612368 -3.713449 255 0 0
0.640380 1.612415 -3.714021 255 0 0
0.640142 1.612376 -3.714588 255 0 0
0.639904 1.612336 -3.715154 255 0 0
0.639853 1.612383 -3.715721 255 0 0
0.639802 1.612429 -3.716289 255 0 0
0.639592 1.612397 -3.716843 255 0 0
0.639383 1.612365 -3.717397 255 0 0
0.639159 1.612317 -3.717938 255 0 0
0.638935 1.612269 -3.718479 255 0 0
0.638898 1.612337 -3.719048 255 0 0
0.638862 1.612405 -3.719617 255 0 0
0.638226 1.611787 -3.720737 255 0 0
0.637590 1.611168 -3.721858 255 0 0
0.637537 1.611250 -3.722383 255 0 0
0.637483 1.611332 -3.722909 255 0 0
0.637245 1.611268 -3.723517 255 0 0
0.637006 1.611204 -3.724126 255 0 0
0.636846 1.611180 -3.724735 255 0 0
0.636686 1.611155 -3.725345 255 0 0
0.636570 1.611205 -3.725843 255 0 0
0.636453 1.611256 -3.726341 255 0 0
0.636242 1.611210 -3.726928 255 0 0
0.636032 1.611164 -3.727515 255 0 0
0.635995 1.611236 -3.728021 255 0 0
0.635959 1.611308 -3.728527 255 0 0
0.635783 1.611271 -3.729104 255 0 0
0.635607 1.611233 -3.729680 255 0 0
0.635567 1.611302 -3.730180 255 0 0
0.635526 1.611370 -3.730680 255 0 0
0.635443 1.611453 -3.731147 255 0 0
0.635359 1.611536 -3.731614 255 0 0
0.635272 1.611544 -3.732165 255 0 0
0.635186 1.611552 -3.732716 255 0 0
0.635077 1.611593 -3.733224 255 0 0
0.634969 1.611634 -3.733732 255 0 0
0.634881 1.611647 -3.734276 255 0 0
0.634792 1.611660 -3.734820 255 0 0
0.634625 1.611597 -3.735427 255 0 0
0.634458 1.611534 -3.736034 255 0 0
0.634373 1.611536 -3.736577 255 0 0
0.634287 1.611538 -3.737120 255 0 0
0.634164 1.611534 -3.737680 255 0 0
0.634041 1.611529 -3.738239 255 0 0
0.633978 1.611567 -3.738735 255 0 0
0.633915 1.611605 -3.739232 255 0 0
0.633772 1.611598 -3.739809 255 0 0
0.633628 1.611592 -3.740386 255 0 0
0.633557 1.611626 -3.740884 255 0 0
0.633487 1.611660 -3.741382 255 0 0
0.633345 1.611650 -3.741959 255 0 0
0.633202 1.611641 -3.742537 255 0 0
0.633101 1.611628 -3.743092 255 0 0
0.633000 1.611615 -3.743647 255 0 0
0.632943 1.611658 -3.744149 255 0 0
0.632885 1.611701 -3.744650 255 0 0
0.632833 1.611699 -3.745197 255 0 0
0.632781 1.611698 -3.745743 255 0 0
0.632703 1.611679 -3.746280 255 0 0
0.632625 1.611660 -3.746817 255 0 0
0.632561 1.611620 -3.747400 255 0 0
0.632498 1.611581 -3.747983 255 0 0
0.632417 1.611558 -3.748520 255 0 0
0.632336 1.611536 -3.749057 255 0 0
0.632300 1.611535 -3.749599 255 0 0
0.632265 1.611534 -3.750142 255 0 0
0.632212 1.611568 -3.750635 255 0 0
0.632159 1.611603 -3.751129 255 0 0
0.632046 1.611499 -3.751766 255 0 0
0.631932 1.611394 -3.752403 255 0 0
0.631889 1.611445 -3.752884 255 0 0
0.631845 1.611496 -3.753366 255 0 0
0.631795 1.611477 -3.753920 255 0 0
0.631745 1.611458 -3.754473 255 0 0
0.631643 1.611432 -3.755026 255 0 0
0.631541 1.611405 -3.755579 255 0 0
0.631547 1.611469 -3.756060 255 0 0
0.631553 1.611532 -3.756541 255 0 0
0.631445 1.611504 -3.757085 255 0 0
0.631337 1.611477 -3.757629 255 0 0
0.637006 1.611204 -3.724126 0 255 0
0.632849 1.609982 -3.720460 0 255 0
0.628692 1.608759 -3.716795 0 255 0
0.636453 1.611256 -3.726341 0 255 0
0.632486 1.610023 -3.722561 0 255 0
0.628520 1.608791 -3.718782 0 255 0
0.640380 1.612415 -3.714021 0 255 0
0.634930 1.610816 -3.718145 0 255 0
0.629480 1.609218 -3.722268 0 255 0
0.639904 1.612336 -3.715154 0 255 0
0.634692 1.610777 -3.718711 0 255 0
0.629480 1.609218 -3.722268 0 255 0
0.638862 1.612405 -3.719617 0 255 0
0.633087 1.610721 -3.723751 0 255 0
0.627313 1.609036 -3.727886 0 255 0
0.637590 1.611168 -3.721858 0 255 0
0.632452 1.610102 -3.724872 0 255 0
0.627313 1.609036 -3.727886 0 255 0
0.639383 1.612365 -3.717397 0 255 0
0.633165 1.610684 -3.723182 0 255 0
0.626946 1.609003 -3.728967 0 255 0
0.636032 1.611164 -3.727515 0 255 0
0.631489 1.610083 -3.728241 0 255 0
0.626946 1.609003 -3.728967 0 255 0
0.635959 1.611308 -3.728527 0 255 0
0.631453 1.610155 -3.728747 0 255 0
0.626946 1.609003 -3.728967 0 255 0
0.637006 1.611204 -3.724126 0 255 0
0.632060 1.610166 -3.726989 0 255 0
0.627114 1.609128 -3.729852 0 255 0
0.638862 1.612405 -3.719617 0 255 0
0.632921 1.610776 -3.725234 0 255 0
0.626981 1.609148 -3.730852 0 255 0
0.635607 1.611233 -3.729680 0 255 0
0.631294 1.610191 -3.730266 0 255 0
0.626981 1.609148 -3.730852 0 255 0
0.635526 1.611370 -3.730680 0 255 0
0.631253 1.610259 -3.730766 0 255 0
0.626981 1.609148 -3.730852 0 255 0
0.635359 1.611536 -3.731614 0 255 0
0.631170 1.610342 -3.731233 0 255 0
0.626981 1.609148 -3.730852 0 255 0
0.636032 1.611164 -3.727515 0 255 0
0.631506 1.610156 -3.729184 0 255 0
0.626981 1.609148 -3.730852 0 255 0
0.636032 1.611164 -3.727515 0 255 0
0.631328 1.610128 -3.729726 0 255 0
0.626625 1.609092 -3.731937 0 255 0
0.637590 1.611168 -3.721858 0 255 0
0.632108 1.610130 -3.726897 0 255 0
0.626625 1.609092 -3.731937 0 255 0
0.637483 1.611332 -3.722909 0 255 0
0.632054 1.610212 -3.727423 0 255 0
0.626625 1.609092 -3.731937 0 255 0
0.637006 1.611204 -3.724126 0 255 0
0.631815 1.610148 -3.728031 0 255 0
0.626625 1.609092 -3.731937 0 255 0
0.636032 1.611164 -3.727515 0 255 0
0.631415 1.610184 -3.730172 0 255 0
0.626798 1.609203 -3.732828 0 255 0
0.635959 1.611308 -3.728527 0 255 0
0.631379 1.610256 -3.730678 0 255 0
0.626798 1.609203 -3.732828 0 255 0
0.635607 1.611233 -3.729680 0 255 0
0.631203 1.610218 -3.731254 0 255 0
0.626798 1.609203 -3.732828 0 255 0
0.637483 1.611332 -3.722909 0 255 0
0.632141 1.610268 -3.727869 0 255 0
0.626798 1.609203 -3.732828 0 255 0
0.637006 1.611204 -3.724126 0 255 0
0.631902 1.610204 -3.728477 0 255 0
0.626798 1.609203 -3.732828 0 255 0
0.634792 1.611660 -3.734820 0 255 0
0.630795 1.610432 -3.733824 0 255 0
0.626798 1.609203 -3.732828 0 255 0
0.634458 1.611534 -3.736034 0 255 0
0.630628 1.610369 -3.734431 0 255 0
0.626798 1.609203 -3.732828 0 255 0
0.635359 1.611536 -3.731614 0 255 0
0.631079 1.610370 -3.732221 0 255 0
0.626798 1.609203 -3.732828 0 255 0
0.635186 1.611552 -3.732716 0 255 0
0.630992 1.610378 -3.732772 0 255 0
0.626798 1.609203 -3.732828 0 255 0
0.634969 1.611634 -3.733732 0 255 0
0.630883 1.610419 -3.733280 0 255 0
0.626798 1.609203 -3.732828 0 255 0
0.635959 1.611308 -3.728527 0 255 0
0.631203 1.610226 -3.731221 0 255 0
0.626446 1.609143 -3.733914 0 255 0
0.635607 1.611233 -3.729680 0 255 0
0.631027 1.610188 -3.731797 0 255 0
0.626446 1.609143 -3.733914 0 255 0
0.637006 1.611204 -3.724126 0 255 0
0.631726 1.610174 -3.729020 0 255 0
0.626446 1.609143 -3.733914 0 255 0
0.636032 1.611164 -3.727515 0 255 0
0.631239 1.610154 -3.730715 0 255 0
0.626446 1.609143 -3.733914 0 255 0
0.635359 1.611536 -3.731614 0 255 0
0.630903 1.610339 -3.732764 0 255 0
0.626446 1.609143 -3.733914 0 255 0
0.635186 1.611552 -3.732716 0 255 0
0.630816 1.610347 -3.733315 0 255 0
0.626446 1.609143 -3.733914 0 255 0
0.634969 1.611634 -3.733732 0 255 0
0.630708 1.610388 -3.733823 0 255 0
0.626446 1.609143 -3.733914 0 255 0
0.635959 1.611308 -3.728527 0 0 255
0.631025 1.610223 -3.731787 0 0 255
0.626090 1.609139 -3.735046 0 0 255
0.635607 1.611233 -3.729680 0 255 0
0.630849 1.610186 -3.732363 0 255 0
0.626090 1.609139 -3.735046 0 255 0
0.634969 1.611634 -3.733732 0 255 0
0.630529 1.610386 -3.734389 0 255 0
0.626090 1.609139 -3.735046 0 255 0
0.634792 1.611660 -3.734820 0 255 0
0.630441 1.610399 -3.734933 0 255 0
0.626090 1.609139 -3.735046 0 255 0
0.635359 1.611536 -3.731614 0 0 255
0.630920 1.610438 -3.733735 0 0 255
0.626481 1.609340 -3.735857 0 0 255
0.635186 1.611552 -3.732716 0 0 255
0.630834 1.610446 -3.734286 0 0 255
0.626481 1.609340 -3.735857 0 0 255
0.634969 1.611634 -3.733732 0 255 0
0.630725 1.610487 -3.734795 0 255 0
0.626481 1.609340 -3.735857 0 255 0
0.634792 1.611660 -3.734820 0 255 0
0.630637 1.610500 -3.735339 0 255 0
0.626481 1.609340 -3.735857 0 255 0
0.634458 1.611534 -3.736034 0 255 0
0.630470 1.610437 -3.735945 0 255 0
0.626481 1.609340 -3.735857 0 255 0
0.635526 1.611370 -3.730680 0 255 0
0.630824 1.610343 -3.733811 0 255 0
0.626122 1.609316 -3.736941 0 255 0
0.635359 1.611536 -3.731614 0 255 0
0.630741 1.610426 -3.734278 0 255 0
0.626122 1.609316 -3.736941 0 255 0
0.635186 1.611552 -3.732716 0 255 0
0.630654 1.610434 -3.734829 0 255 0
0.626122 1.609316 -3.736941 0 255 0
0.634458 1.611534 -3.736034 0 255 0
0.630290 1.610425 -3.736488 0 255 0
0.626122 1.609316 -3.736941 0 255 0
0.635359 1.611536 -3.731614 0 255 0
0.632126 1.610920 -3.734240 0 255 0
0.628892 1.610305 -3.736867 0 255 0
0.635186 1.611552 -3.732716 0 255 0
0.632039 1.610928 -3.734792 0 255 0
0.628892 1.610305 -3.736867 0 255 0
0.634969 1.611634 -3.733732 0 0 255
0.631930 1.610969 -3.735300 0 0 255
0.628892 1.610305 -3.736867 0 0 255
0.634792 1.611660 -3.734820 0 0 255
0.631842 1.610982 -3.735844 0 0 255
0.628892 1.610305 -3.736867 0 0 255
0.634458 1.611534 -3.736034 0 255 0
0.631675 1.610919 -3.736450 0 255 0
0.628892 1.610305 -3.736867 0 255 0
0.634287 1.611538 -3.737120 0 255 0
0.631590 1.610922 -3.736994 0 255 0
0.628892 1.610305 -3.736867 0 255 0
0.634041 1.611529 -3.738239 0 255 0
0.631467 1.610917 -3.737553 0 255 0
0.628892 1.610305 -3.736867 0 255 0
0.634969 1.611634 -3.733732 0 255 0
0.631948 1.611018 -3.735769 0 255 0
0.628928 1.610403 -3.737805 0 255 0
0.634792 1.611660 -3.734820 255 255 0
0.631860 1.611031 -3.736313 255 255 0
0.628928 1.610403 -3.737805 255 255 0
0.634458 1.611534 -3.736034 0 255 0
0.631693 1.610968 -3.736919 0 255 0
0.628928 1.610403 -3.737805 0 255 0
0.634041 1.611529 -3.738239 0 255 0
0.631485 1.610966 -3.738022 0 255 0
0.628928 1.610403 -3.737805 0 255 0
0.633915 1.611605 -3.739232 0 255 0
0.631421 1.611004 -3.738518 0 255 0
0.628928 1.610403 -3.737805 0 255 0
0.635186 1.611552 -3.732716 0 0 255
0.631918 1.610969 -3.735788 0 0 255
0.628650 1.610386 -3.738860 0 0 255
0.634969 1.611634 -3.733732 0 255 0
0.631809 1.611010 -3.736296 0 255 0
0.628650 1.610386 -3.738860 0 255 0
0.634792 1.611660 -3.734820 0 255 0
0.631721 1.611023 -3.736840 0 255 0
0.628650 1.610386 -3.738860 0 255 0
0.634458 1.611534 -3.736034 0 0 255
0.631554 1.610960 -3.737447 0 0 255
0.628650 1.610386 -3.738860 0 0 255
0.634287 1.611538 -3.737120 0 0 255
0.631468 1.610962 -3.737990 0 0 255
0.628650 1.610386 -3.738860 0 0 255
0.633628 1.611592 -3.740386 0 0 255
0.631139 1.610989 -3.739623 0 0 255
0.628650 1.610386 -3.738860 0 0 255
0.634041 1.611529 -3.738239 0 255 0
0.631345 1.610957 -3.738549 0 255 0
0.628650 1.610386 -3.738860 0 255 0
0.633915 1.611605 -3.739232 0 255 0
0.631282 1.610996 -3.739046 0 255 0
0.628650 1.610386 -3.738860 0 255 0
0.634287 1.611538 -3.737120 0 0 255
0.631585 1.611032 -3.738423 0 0 255
0.628883 1.610525 -3.739726 0 0 255
0.634041 1.611529 -3.738239 255 255 0
0.631462 1.611027 -3.738983 255 255 0
0.628883 1.610525 -3.739726 255 255 0
0.633628 1.611592 -3.740386 0 0 255
0.631256 1.611058 -3.740056 0 0 255
0.628883 1.610525 -3.739726 0 0 255
0.633487 1.611660 -3.741382 0 255 0
0.631185 1.611092 -3.740554 0 255 0
0.628883 1.610525 -3.739726 0 255 0
0.633915 1.611605 -3.739232 0 255 0
0.631399 1.611065 -3.739479 0 255 0
0.628883 1.610525 -3.739726 0 255 0
0.634792 1.611660 -3.734820 0 255 0
0.631681 1.611068 -3.737808 0 255 0
0.628569 1.610477 -3.740796 0 255 0
0.634458 1.611534 -3.736034 0 255 0
0.631514 1.611005 -3.738415 0 255 0
0.628569 1.610477 -3.740796 0 255 0
0.634041 1.611529 -3.738239 0 255 0
0.631305 1.611003 -3.739517 0 255 0
0.628569 1.610477 -3.740796 0 255 0
0.633915 1.611605 -3.739232 0 0 255
0.631242 1.611041 -3.740014 0 0 255
0.628569 1.610477 -3.740796 0 0 255
0.633628 1.611592 -3.740386 0 0 255
0.631098 1.611034 -3.740591 0 0 255
0.628569 1.610477 -3.740796 0 0 255
0.633487 1.611660 -3.741382 0 255 0
0.631028 1.611068 -3.741089 0 255 0
0.628569 1.610477 -3.740796 0 255 0
0.633202 1.611641 -3.742537 0 255 0
0.630886 1.611059 -3.741666 0 255 0
0.628569 1.610477 -3.740796 0 255 0
0.633915 1.611605 -3.739232 0 0 255
0.631256 1.611068 -3.740487 0 0 255
0.628596 1.610531 -3.741742 0 0 255
0.633628 1.611592 -3.740386 255 255 0
0.631112 1.611061 -3.741064 255 255 0
0.628596 1.610531 -3.741742 255 255 0
0.633487 1.611660 -3.741382 0 0 255
0.631041 1.611095 -3.741562 0 0 255
0.628596 1.610531 -3.741742 0 0 255
0.633202 1.611641 -3.742537 0 255 0
0.630899 1.611086 -3.742140 0 255 0
0.628596 1.610531 -3.741742 0 255 0
0.634041 1.611529 -3.738239 255 255 0
0.632854 1.611545 -3.739905 255 255 0
0.631666 1.611560 -3.741572 255 255 0
0.633915 1.611605 -3.739232 255 255 0
0.632791 1.611583 -3.740402 255 255 0
0.631666 1.611560 -3.741572 255 255 0
0.633628 1.611592 -3.740386 0 255 255
0.632647 1.611576 -3.740979 0 255 255
0.631666 1.611560 -3.741572 0 255 255
0.633487 1.611660 -3.741382 0 255 255
0.632577 1.611610 -3.741477 0 255 255
0.631666 1.611560 -3.741572 0 255 255
0.634287 1.611538 -3.737120 0 255 0
0.632977 1.611549 -3.739346 0 255 0
0.631666 1.611560 -3.741572 0 255 0
0.633202 1.611641 -3.742537 0 0 255
0.632434 1.611601 -3.742054 0 0 255
0.631666 1.611560 -3.741572 0 0 255
0.633000 1.611615 -3.743647 0 255 0
0.632333 1.611588 -3.742609 0 255 0
0.631666 1.611560 -3.741572 0 255 0
0.633915 1.611605 -3.739232 0 255 0
0.632701 1.611568 -3.740915 0 255 0
0.631487 1.611530 -3.742598 0 255 0
0.633628 1.611592 -3.740386 0 0 255
0.632557 1.611561 -3.741492 0 0 255
0.631487 1.611530 -3.742598 0 0 255
0.633487 1.611660 -3.741382 0 255 255
0.632487 1.611595 -3.741990 0 255 255
0.631487 1.611530 -3.742598 0 255 255
0.633202 1.611641 -3.742537 0 255 255
0.632345 1.611586 -3.742567 0 255 255
0.631487 1.611530 -3.742598 0 255 255
0.633000 1.611615 -3.743647 255 255 0
0.632243 1.611573 -3.743122 255 255 0
0.631487 1.611530 -3.742598 255 255 0
0.634041 1.611529 -3.738239 0 255 0
0.632764 1.611530 -3.740418 0 255 0
0.631487 1.611530 -3.742598 0 255 0
0.632885 1.611701 -3.744650 0 255 0
0.632186 1.611616 -3.743624 0 255 0
0.631487 1.611530 -3.742598 0 255 0
0.633487 1.611660 -3.741382 0 0 255
0.632417 1.611603 -3.742520 0 0 255
0.631348 1.611545 -3.743658 0 0 255
0.633202 1.611641 -3.742537 0 255 255
0.632275 1.611593 -3.743098 0 255 255
0.631348 1.611545 -3.743658 0 255 255
0.633000 1.611615 -3.743647 0 255 255
0.632174 1.611580 -3.743653 0 255 255
0.631348 1.611545 -3.743658 0 255 255
0.632885 1.611701 -3.744650 0 0 255
0.632117 1.611623 -3.744154 0 0 255
0.631348 1.611545 -3.743658 0 0 255
0.632781 1.611698 -3.745743 255 255 0
0.632065 1.611622 -3.744701 255 255 0
0.631348 1.611545 -3.743658 255 255 0
0.633487 1.611660 -3.741382 0 0 255
0.632475 1.611632 -3.742980 0 0 255
0.631463 1.611605 -3.744578 0 0 255
0.633202 1.611641 -3.742537 0 0 255
0.632333 1.611623 -3.743558 0 0 255
0.631463 1.611605 -3.744578 0 0 255
0.633000 1.611615 -3.743647 0 255 255
0.632232 1.611610 -3.744113 0 255 255
0.631463 1.611605 -3.744578 0 255 255
0.632885 1.611701 -3.744650 0 255 255
0.632174 1.611653 -3.744614 0 255 255
0.631463 1.611605 -3.744578 0 255 255
0.632781 1.611698 -3.745743 0 255 255
0.632122 1.611651 -3.745161 0 255 255
0.631463 1.611605 -3.744578 0 255 255
0.632625 1.611660 -3.746817 0 255 0
0.632044 1.611632 -3.745698 0 255 0
0.631463 1.611605 -3.744578 0 255 0
0.632885 1.611701 -3.744650 0 255 255
0.632135 1.611653 -3.745110 0 255 255
0.631385 1.611606 -3.745569 0 255 255
0.632781 1.611698 -3.745743 0 255 255
0.632083 1.611652 -3.745656 0 255 255
0.631385 1.611606 -3.745569 0 255 255
0.633202 1.611641 -3.742537 0 0 255
0.632294 1.611623 -3.744053 0 0 255
0.631385 1.611606 -3.745569 0 0 255
0.633000 1.611615 -3.743647 0 0 255
0.632193 1.611610 -3.744608 0 0 255
0.631385 1.611606 -3.745569 0 0 255
0.632625 1.611660 -3.746817 0 255 0
0.632005 1.611633 -3.746193 0 255 0
0.631385 1.611606 -3.745569 0 255 0
0.632625 1.611660 -3.746817 0 255 255
0.631952 1.611628 -3.746693 0 255 255
0.631279 1.611595 -3.746568 0 255 255
0.632781 1.611698 -3.745743 0 255 255
0.632030 1.611647 -3.746156 0 255 255
0.631279 1.611595 -3.746568 0 255 255
0.632498 1.611581 -3.747983 255 255 0
0.631888 1.611588 -3.747276 255 255 0
0.631279 1.611595 -3.746568 255 255 0
0.632336 1.611536 -3.749057 255 255 0
0.631807 1.611566 -3.747813 255 255 0
0.631279 1.611595 -3.746568 255 255 0
0.632885 1.611701 -3.744650 0 0 255
0.632082 1.611648 -3.745609 0 0 255
0.631279 1.611595 -3.746568 0 0 255
0.632265 1.611534 -3.750142 0 0 255
0.630071 1.611027 -3.749458 0 0 255
0.627877 1.610520 -3.748774 0 0 255
0.632159 1.611603 -3.751129 0 255 0
0.630018 1.611062 -3.749951 0 255 0
0.627877 1.610520 -3.748774 0 255 0
0.632336 1.611536 -3.749057 0 0 255
0.630106 1.611028 -3.748916 0 0 255
0.627877 1.610520 -3.748774 0 0 255
0.632498 1.611581 -3.747983 0 255 0
0.630187 1.611050 -3.748379 0 255 0
0.627877 1.610520 -3.748774 0 255 0
0.632625 1.611660 -3.746817 0 255 0
0.630251 1.611090 -3.747795 0 255 0
0.627877 1.610520 -3.748774 0 255 0
0.631845 1.611496 -3.753366 0 255 0
0.629860 1.611018 -3.751548 0 255 0
0.627876 1.610540 -3.749730 0 255 0
0.632265 1.611534 -3.750142 255 255 0
0.630070 1.611037 -3.749936 255 255 0
0.627876 1.610540 -3.749730 255 255 0
0.632159 1.611603 -3.751129 0 0 255
0.630017 1.611071 -3.750430 0 0 255
0.627876 1.610540 -3.749730 0 0 255
0.632336 1.611536 -3.749057 255 255 0
0.630106 1.611038 -3.749394 255 255 0
0.627876 1.610540 -3.749730 255 255 0
0.632498 1.611581 -3.747983 0 0 255
0.630187 1.611060 -3.748857 0 0 255
0.627876 1.610540 -3.749730 0 0 255
0.632336 1.611536 -3.749057 255 255 0
0.630055 1.611033 -3.749891 255 255 0
0.627775 1.610530 -3.750725 255 255 0
0.632781 1.611698 -3.745743 0 255 0
0.630278 1.611114 -3.748234 0 255 0
0.627775 1.610530 -3.750725 0 255 0
0.632265 1.611534 -3.750142 0 255 0
0.630020 1.611032 -3.750433 0 255 0
0.627775 1.610530 -3.750725 0 255 0
0.632159 1.611603 -3.751129 0 255 0
0.629967 1.611066 -3.750927 0 255 0
0.627775 1.610530 -3.750725 0 255 0
0.632336 1.611536 -3.749057 0 0 255
0.630111 1.611063 -3.750351 0 0 255
0.627886 1.610589 -3.751644 0 0 255
0.632265 1.611534 -3.750142 0 0 255
0.630075 1.611062 -3.750893 0 0 255
0.627886 1.610589 -3.751644 0 0 255
0.632159 1.611603 -3.751129 0 0 255
0.630022 1.611096 -3.751386 0 0 255
0.627886 1.610589 -3.751644 0 0 255
0.632625 1.611660 -3.746817 0 255 0
0.630255 1.611125 -3.749230 0 255 0
0.627886 1.610589 -3.751644 0 255 0
0.632265 1.611534 -3.750142 0 0 255
0.629940 1.611028 -3.751422 0 0 255
0.627616 1.610522 -3.752702 0 0 255
0.632159 1.611603 -3.751129 0 0 255
0.629888 1.611063 -3.751916 0 0 255
0.627616 1.610522 -3.752702 0 0 255
0.632625 1.611660 -3.746817 0 255 0
0.630120 1.611091 -3.749760 0 255 0
0.627616 1.610522 -3.752702 0 255 0
0.632498 1.611581 -3.747983 0 0 255
0.630057 1.611051 -3.750343 0 0 255
0.627616 1.610522 -3.752702 0 0 255
0.632336 1.611536 -3.749057 255 255 0
0.629976 1.611029 -3.750880 255 255 0
0.627616 1.610522 -3.752702 255 255 0
0.631845 1.611496 -3.753366 0 255 0
0.629731 1.611009 -3.753034 0 255 0
0.627616 1.610522 -3.752702 0 255 0
0.631745 1.611458 -3.754473 0 255 0
0.629681 1.610990 -3.753588 0 255 0
0.627616 1.610522 -3.752702 0 255 0
0.632265 1.611534 -3.750142 0 255 0
0.628834 1.610680 -3.752307 0 255 0
0.625402 1.609827 -3.754473 0 255 0
0.632159 1.611603 -3.751129 0 255 0
0.628781 1.610715 -3.752801 0 255 0
0.625402 1.609827 -3.754473 0 255 0
0.631845 1.611496 -3.753366 0 255 0
0.628624 1.610662 -3.753920 0 255 0
0.625402 1.609827 -3.754473 0 255 0
0.631745 1.611458 -3.754473 0 255 0
0.628574 1.610643 -3.754473 0 255 0
0.625402 1.609827 -3.754473 0 255 0
0.632159 1.611603 -3.751129 0 255 0
0.628873 1.610754 -3.753248 0 255 0
0.625586 1.609905 -3.755367 0 255 0
0.631845 1.611496 -3.753366 0 255 0
0.628525 1.610651 -3.754916 0 255 0
0.625204 1.609805 -3.756465 0 255 0
0.631745 1.611458 -3.754473 0 255 0
0.628475 1.610632 -3.755469 0 255 0
0.625204 1.609805 -3.756465 0 255 0
0.631845 1.611496 -3.753366 0 255 0
0.628742 1.610734 -3.755315 0 255 0
0.625639 1.609972 -3.757263 0 255 0
0.631541 1.611405 -3.755579 0 255 0
0.628418 1.610645 -3.756962 0 255 0
0.625296 1.609885 -3.758345 0 255 0
0.631553 1.611532 -3.756541 0 255 0
0.628424 1.610708 -3.757443 0 255 0
0.625296 1.609885 -3.758345 0 255 0
0.631337 1.611477 -3.757629 0 255 0
0.628316 1.610681 -3.757987 0 255 0
0.625296 1.609885 -3.758345 0 255 0
0.631553 1.611532 -3.756541 0 255 0
0.628514 1.610751 -3.757889 0 255 0
0.625476 1.609969 -3.759236 0 255 0
0.631337 1.611477 -3.757629 0 255 0
0.628231 1.610679 -3.758975 0 255 0
0.625126 1.609880 -3.760322 0 255 0
0.631553 1.611532 -3.756541 0 255 0
0.628430 1.610749 -3.758877 0 255 0
0.625306 1.609966 -3.761213 0 255 0
0.631337 1.611477 -3.757629 0 0 255
0.628321 1.610721 -3.759421 0 0 255
0.625306 1.609966 -3.761213 0 0 255
0.631932 1.611394 -3.752403 0 255 0
0.628631 1.610734 -3.758720 0 255 0
0.625330 1.610074 -3.765037 0 255 0
0.631845 1.611496 -3.753366 0 255 0
0.628588 1.610785 -3.759202 0 255 0
0.625330 1.610074 -3.765037 0 255 0
0.631745 1.611458 -3.754473 0 255 0
0.628538 1.610766 -3.759755 0 255 0
0.625330 1.610074 -3.765037 0 255 0
0.631541 1.611405 -3.755579 0 255 0
0.628435 1.610740 -3.760308 0 255 0
0.625330 1.610074 -3.765037 0 255 0
0.631553 1.611532 -3.756541 0 255 0
0.628379 1.610788 -3.761776 0 255 0
0.625205 1.610044 -3.767010 0 255 0
0.631337 1.611477 -3.757629 0 255 0
0.628271 1.610760 -3.762320 0 255 0
0.625205 1.610044 -3.767010 0 255 0
0.635359 1.611536 -3.731614 0 255 0
0.628785 1.609916 -3.733374 0 255 0
0.622210 1.608296 -3.735135 0 255 0
0.634041 1.611529 -3.738239 0 255 0
0.627893 1.609866 -3.738497 0 255 0
0.621745 1.608203 -3.738755 0 255 0
0.633628 1.611592 -3.740386 0 255 0
0.627700 1.609898 -3.740678 0 255 0
0.621773 1.608205 -3.740971 0 255 0
0.632159 1.611603 -3.751129 0 255 0
0.625643 1.610196 -3.757510 0 255 0
0.619128 1.608789 -3.763891 0 255 0
0.631553 1.611532 -3.756541 0 255 0
0.625635 1.610230 -3.763447 0 255 0
0.619717 1.608927 -3.770352 0 255 0
0.631337 1.611477 -3.757629 0 255 0
0.625527 1.610202 -3.763990 0 255 0
0.619717 1.608927 -3.770352 0 255 0
0.632336 1.611536 -3.749057 0 0 255
0.634302 1.612186 -3.747906 0 0 255
0.636268 1.612836 -3.746754 0 0 255
0.633000 1.611615 -3.743647 0 255 0
0.634634 1.612226 -3.745200 0 255 0
0.636268 1.612836 -3.746754 0 255 0
0.632885 1.611701 -3.744650 0 255 0
0.634577 1.612268 -3.745702 0 255 0
0.636268 1.612836 -3.746754 0 255 0
0.632781 1.611698 -3.745743 0 255 0
0.634525 1.612267 -3.746249 0 255 0
0.636268 1.612836 -3.746754 0 255 0
0.632625 1.611660 -3.746817 0 255 0
0.634446 1.612248 -3.746785 0 255 0
0.636268 1.612836 -3.746754 0 255 0
0.632498 1.611581 -3.747983 255 255 0
0.634383 1.612208 -3.747369 255 255 0
0.636268 1.612836 -3.746754 255 255 0
0.632625 1.611660 -3.746817 0 0 255
0.634252 1.611984 -3.746508 0 0 255
0.635880 1.612308 -3.746200 0 0 255
0.632498 1.611581 -3.747983 255 255 0
0.634189 1.611944 -3.747092 255 255 0
0.635880 1.612308 -3.746200 255 255 0
0.632336 1.611536 -3.749057 0 255 0
0.634108 1.611922 -3.747629 0 255 0
0.635880 1.612308 -3.746200 0 255 0
0.633202 1.611641 -3.742537 0 255 0
0.634490 1.611979 -3.743930 0 255 0
0.635778 1.612317 -3.745323 0 255 0
0.633000 1.611615 -3.743647 0 255 0
0.634389 1.611966 -3.744485 0 255 0
0.635778 1.612317 -3.745323 0 255 0
0.632885 1.611701 -3.744650 0 255 0
0.634332 1.612009 -3.744986 0 255 0
0.635778 1.612317 -3.745323 0 255 0
0.632781 1.611698 -3.745743 0 0 255
0.634280 1.612007 -3.745533 0 0 255
0.635778 1.612317 -3.745323 0 0 255
0.633202 1.611641 -3.742537 0 255 0
0.634460 1.611990 -3.743493 0 255 0
0.635718 1.612338 -3.744448 0 255 0
0.633000 1.611615 -3.743647 0 255 0
0.634359 1.611977 -3.744048 0 255 0
0.635718 1.612338 -3.744448 0 255 0
0.632885 1.611701 -3.744650 0 0 255
0.634302 1.612020 -3.744549 0 0 255
0.635718 1.612338 -3.744448 0 0 255
0.632781 1.611698 -3.745743 0 0 255
0.634250 1.612018 -3.745096 0 0 255
0.635718 1.612338 -3.744448 0 0 255
0.634041 1.611529 -3.738239 0 255 0
0.634933 1.611993 -3.740932 0 255 0
0.635826 1.612458 -3.743626 0 255 0
0.633487 1.611660 -3.741382 0 255 0
0.634656 1.612059 -3.742504 0 255 0
0.635826 1.612458 -3.743626 0 255 0
0.633000 1.611615 -3.743647 0 0 255
0.634413 1.612037 -3.743636 0 0 255
0.635826 1.612458 -3.743626 0 0 255
0.632885 1.611701 -3.744650 0 255 0
0.634355 1.612079 -3.744138 0 255 0
0.635826 1.612458 -3.743626 0 255 0
0.632781 1.611698 -3.745743 0 255 0
0.634303 1.612078 -3.744685 0 255 0
0.635826 1.612458 -3.743626 0 255 0
0.633628 1.611592 -3.740386 0 255 0
0.634567 1.611775 -3.741730 0 255 0
0.635507 1.611958 -3.743075 0 255 0
0.633202 1.611641 -3.742537 0 255 0
0.634355 1.611799 -3.742806 0 255 0
0.635507 1.611958 -3.743075 0 255 0
0.633000 1.611615 -3.743647 0 0 255
0.634254 1.611787 -3.743361 0 0 255
0.635507 1.611958 -3.743075 0 0 255
0.634041 1.611529 -3.738239 0 255 0
0.634839 1.611809 -3.740244 0 255 0
0.635637 1.612089 -3.742249 0 255 0
0.633915 1.611605 -3.739232 0 255 0
0.634776 1.611847 -3.740740 0 255 0
0.635637 1.612089 -3.742249 0 255 0
0.633487 1.611660 -3.741382 0 0 255
0.634562 1.611874 -3.741816 0 0 255
0.635637 1.612089 -3.742249 0 0 255
0.633202 1.611641 -3.742537 0 0 255
0.634420 1.611865 -3.742393 0 0 255
0.635637 1.612089 -3.742249 0 0 255
0.633000 1.611615 -3.743647 0 255 0
0.634318 1.611852 -3.742948 0 255 0
0.635637 1.612089 -3.742249 0 255 0
0.633487 1.611660 -3.741382 0 0 255
0.634595 1.611902 -3.741356 0 0 255
0.635703 1.612144 -3.741329 0 0 255
0.633202 1.611641 -3.742537 255 255 0
0.634453 1.611893 -3.741933 255 255 0
0.635703 1.612144 -3.741329 255 255 0
0.633000 1.611615 -3.743647 0 0 255
0.634352 1.611880 -3.742488 0 0 255
0.635703 1.612144 -3.741329 0 0 255
0.633915 1.611605 -3.739232 0 255 0
0.634809 1.611875 -3.740280 0 255 0
0.635703 1.612144 -3.741329 0 255 0
0.633202 1.611641 -3.742537 0 255 0
0.634478 1.611921 -3.741470 0 255 0
0.635753 1.612202 -3.740402 0 255 0
0.633000 1.611615 -3.743647 0 255 0
0.634376 1.611908 -3.742025 0 255 0
0.635753 1.612202 -3.740402 0 255 0
0.634458 1.611534 -3.736034 0 255 0
0.635105 1.611868 -3.738218 0 255 0
0.635753 1.612202 -3.740402 0 255 0
0.634287 1.611538 -3.737120 0 0 255
0.635020 1.611870 -3.738761 0 0 255
0.635753 1.612202 -3.740402 0 0 255
0.634041 1.611529 -3.738239 255 255 0
0.634897 1.611865 -3.739320 255 255 0
0.635753 1.612202 -3.740402 255 255 0
0.633915 1.611605 -3.739232 0 0 255
0.634834 1.611903 -3.739817 0 0 255
0.635753 1.612202 -3.740402 0 0 255
0.633628 1.611592 -3.740386 0 255 0
0.634690 1.611897 -3.740394 0 255 0
0.635753 1.612202 -3.740402 0 255 0
0.633487 1.611660 -3.741382 0 255 0
0.634738 1.612023 -3.740464 0 255 0
0.635989 1.612386 -3.739546 0 255 0
0.633202 1.611641 -3.742537 0 255 0
0.634596 1.612014 -3.741042 0 255 0
0.635989 1.612386 -3.739546 0 255 0
0.634458 1.611534 -3.736034 0 0 255
0.635223 1.611960 -3.737790 0 0 255
0.635989 1.612386 -3.739546 0 0 255
0.634287 1.611538 -3.737120 0 0 255
0.635138 1.611962 -3.738333 0 0 255
0.635989 1.612386 -3.739546 0 0 255
0.634041 1.611529 -3.738239 0 255 255
0.635015 1.611958 -3.738892 0 255 255
0.635989 1.612386 -3.739546 0 255 255
0.633915 1.611605 -3.739232 0 255 0
0.634952 1.611996 -3.739389 0 255 0
0.635989 1.612386 -3.739546 0 255 0
0.633628 1.611592 -3.740386 0 255 0
0.634808 1.611989 -3.739966 0 255 0
0.635989 1.612386 -3.739546 0 255 0
0.633915 1.611605 -3.739232 255 255 0
0.634833 1.611748 -3.739095 255 255 0
0.635752 1.611890 -3.738958 255 255 0
0.633628 1.611592 -3.740386 0 255 0
0.634690 1.611741 -3.739672 0 255 0
0.635752 1.611890 -3.738958 0 255 0
0.633487 1.611660 -3.741382 0 255 0
0.634619 1.611775 -3.740170 0 255 0
0.635752 1.611890 -3.738958 0 255 0
0.634458 1.611534 -3.736034 0 0 255
0.635105 1.611712 -3.737496 0 0 255
0.635752 1.611890 -3.738958 0 0 255
0.634287 1.611538 -3.737120 0 0 255
0.635019 1.611714 -3.738039 0 0 255
0.635752 1.611890 -3.738958 0 0 255
0.634041 1.611529 -3.738239 0 255 255
0.634896 1.611710 -3.738599 0 255 255
0.635752 1.611890 -3.738958 0 255 255
0.633915 1.611605 -3.739232 255 255 0
0.634971 1.611847 -3.738668 255 255 0
0.636027 1.612090 -3.738104 255 255 0
0.633628 1.611592 -3.740386 0 255 0
0.634828 1.611841 -3.739245 0 255 0
0.636027 1.612090 -3.738104 0 255 0
0.633487 1.611660 -3.741382 0 255 0
0.634757 1.611875 -3.739743 0 255 0
0.636027 1.612090 -3.738104 0 255 0
0.634792 1.611660 -3.734820 0 255 0
0.635410 1.611875 -3.736462 0 255 0
0.636027 1.612090 -3.738104 0 255 0
0.634458 1.611534 -3.736034 0 0 255
0.635243 1.611812 -3.737069 0 0 255
0.636027 1.612090 -3.738104 0 0 255
0.634287 1.611538 -3.737120 255 255 0
0.635157 1.611814 -3.737612 255 255 0
0.636027 1.612090 -3.738104 255 255 0
0.634041 1.611529 -3.738239 255 255 0
0.635034 1.611809 -3.738171 255 255 0
0.636027 1.612090 -3.738104 255 255 0
0.634041 1.611529 -3.738239 0 255 255
0.635094 1.611842 -3.737690 0 255 255
0.636148 1.612155 -3.737142 0 255 255
0.634792 1.611660 -3.734820 0 255 0
0.635470 1.611907 -3.735981 0 255 0
0.636148 1.612155 -3.737142 0 255 0
0.634458 1.611534 -3.736034 0 0 255
0.635303 1.611844 -3.736588 0 0 255
0.636148 1.612155 -3.737142 0 0 255
0.634287 1.611538 -3.737120 255 255 0
0.635217 1.611847 -3.737131 255 255 0
0.636148 1.612155 -3.737142 255 255 0
0.633915 1.611605 -3.739232 0 255 0
0.635031 1.611880 -3.738187 0 255 0
0.636148 1.612155 -3.737142 0 255 0
0.634041 1.611529 -3.738239 0 0 255
0.635235 1.611943 -3.737269 0 0 255
0.636428 1.612357 -3.736299 0 0 255
0.634792 1.611660 -3.734820 0 0 255
0.635610 1.612008 -3.735559 0 0 255
0.636428 1.612357 -3.736299 0 0 255
0.634458 1.611534 -3.736034 0 0 255
0.635443 1.611945 -3.736166 0 0 255
0.636428 1.612357 -3.736299 0 0 255
0.634287 1.611538 -3.737120 0 255 255
0.635357 1.611948 -3.736710 0 255 255
0.636428 1.612357 -3.736299 0 255 255
0.633915 1.611605 -3.739232 0 255 0
0.635172 1.611981 -3.737765 0 255 0
0.636428 1.612357 -3.736299 0 255 0
0.634792 1.611660 -3.734820 0 255 255
0.635679 1.612036 -3.735075 0 255 255
0.636566 1.612412 -3.735329 0 255 255
0.634458 1.611534 -3.736034 255 255 0
0.635512 1.611973 -3.735682 255 255 0
0.636566 1.612412 -3.735329 255 255 0
0.634287 1.611538 -3.737120 0 0 255
0.635426 1.611975 -3.736225 0 0 255
0.636566 1.612412 -3.735329 0 0 255
0.634041 1.611529 -3.738239 0 255 0
0.635304 1.611971 -3.736784 0 255 0
0.636566 1.612412 -3.735329 0 255 0
0.634969 1.611634 -3.733732 255 255 0
0.635767 1.612023 -3.734531 255 255 0
0.636566 1.612412 -3.735329 255 255 0
0.634287 1.611538 -3.737120 0 255 0
0.635406 1.611800 -3.735984 0 255 0
0.636525 1.612062 -3.734849 0 255 0
0.634041 1.611529 -3.738239 0 255 0
0.635283 1.611796 -3.736544 0 255 0
0.636525 1.612062 -3.734849 0 255 0
0.635186 1.611552 -3.732716 0 255 0
0.635855 1.611807 -3.733782 0 255 0
0.636525 1.612062 -3.734849 0 255 0
0.634969 1.611634 -3.733732 0 0 255
0.635747 1.611848 -3.734290 0 0 255
0.636525 1.612062 -3.734849 0 0 255
0.634792 1.611660 -3.734820 255 255 0
0.635659 1.611861 -3.734834 255 255 0
0.636525 1.612062 -3.734849 255 255 0
0.634458 1.611534 -3.736034 0 255 0
0.635492 1.611798 -3.735441 0 255 0
0.636525 1.612062 -3.734849 0 255 0
0.635186 1.611552 -3.732716 0 255 255
0.635900 1.611827 -3.733305 0 255 255
0.636614 1.612102 -3.733893 0 255 255
0.634969 1.611634 -3.733732 0 0 255
0.635791 1.611868 -3.733813 0 0 255
0.636614 1.612102 -3.733893 0 0 255
0.634792 1.611660 -3.734820 0 255 255
0.635703 1.611881 -3.734357 0 255 255
0.636614 1.612102 -3.733893 0 255 255
0.634458 1.611534 -3.736034 0 255 0
0.635536 1.611818 -3.734964 0 255 0
0.636614 1.612102 -3.733893 0 255 0
0.635186 1.611552 -3.732716 255 255 0
0.635938 1.611830 -3.732835 255 255 0
0.636689 1.612108 -3.732954 255 255 0
0.634969 1.611634 -3.733732 0 255 255
0.635829 1.611871 -3.733343 0 255 255
0.636689 1.612108 -3.732954 0 255 255
0.634792 1.611660 -3.734820 255 255 0
0.635741 1.611884 -3.733887 255 255 0
0.636689 1.612108 -3.732954 255 255 0
0.635607 1.611233 -3.729680 0 255 0
0.636148 1.611670 -3.731317 0 255 0
0.636689 1.612108 -3.732954 0 255 0
0.635359 1.611536 -3.731614 255 255 0
0.636024 1.611822 -3.732284 255 255 0
0.636689 1.612108 -3.732954 255 255 0
0.635526 1.611370 -3.730680 0 255 0
0.636108 1.611739 -3.731817 0 255 0
0.636689 1.612108 -3.732954 0 255 0
0.635186 1.611552 -3.732716 0 255 255
0.636045 1.611917 -3.732430 0 255 255
0.636905 1.612283 -3.732145 0 255 255
0.634969 1.611634 -3.733732 255 255 0
0.635937 1.611958 -3.732939 255 255 0
0.636905 1.612283 -3.732145 255 255 0
0.634792 1.611660 -3.734820 0 0 255
0.635849 1.611971 -3.733483 0 0 255
0.636905 1.612283 -3.732145 0 0 255
0.635526 1.611370 -3.730680 0 255 0
0.636216 1.611826 -3.731413 0 255 0
0.636905 1.612283 -3.732145 0 255 0
0.635359 1.611536 -3.731614 255 255 0
0.636132 1.611909 -3.731879 255 255 0
0.636905 1.612283 -3.732145 255 255 0
0.635526 1.611370 -3.730680 0 0 255
0.636256 1.611844 -3.730943 0 0 255
0.636985 1.612318 -3.731206 0 0 255
0.635359 1.611536 -3.731614 0 255 255
0.636172 1.611927 -3.731410 0 255 255
0.636985 1.612318 -3.731206 0 255 255
0.635186 1.611552 -3.732716 255 255 0
0.636086 1.611935 -3.731961 255 255 0
0.636985 1.612318 -3.731206 255 255 0
0.635607 1.611233 -3.729680 0 0 255
0.636296 1.611776 -3.730443 0 0 255
0.636985 1.612318 -3.731206 0 0 255
0.635526 1.611370 -3.730680 0 255 0
0.636213 1.611656 -3.730697 0 255 0
0.636900 1.611943 -3.730713 0 255 0
0.635359 1.611536 -3.731614 0 255 255
0.636129 1.611739 -3.731163 0 255 255
0.636900 1.611943 -3.730713 0 255 255
0.635186 1.611552 -3.732716 255 255 0
0.636043 1.611747 -3.731714 255 255 0
0.636900 1.611943 -3.730713 255 255 0
0.635607 1.611233 -3.729680 0 0 255
0.636253 1.611588 -3.730197 0 0 255
0.636900 1.611943 -3.730713 0 0 255
0.635959 1.611308 -3.728527 0 255 0
0.636429 1.611626 -3.729620 0 255 0
0.636900 1.611943 -3.730713 0 255 0
0.635526 1.611370 -3.730680 0 255 255
0.636272 1.611684 -3.730229 0 255 255
0.637017 1.611999 -3.729777 0 255 255
0.636032 1.611164 -3.727515 0 255 0
0.636524 1.611582 -3.728646 0 255 0
0.637017 1.611999 -3.729777 0 255 0
0.635607 1.611233 -3.729680 0 0 255
0.636312 1.611616 -3.729729 0 0 255
0.637017 1.611999 -3.729777 0 0 255
0.635359 1.611536 -3.731614 0 0 255
0.636188 1.611767 -3.730695 0 0 255
0.637017 1.611999 -3.729777 0 0 255
0.635959 1.611308 -3.728527 0 255 255
0.636620 1.611732 -3.728714 0 255 255
0.637280 1.612157 -3.728901 0 255 255
0.635607 1.611233 -3.729680 0 255 255
0.636444 1.611695 -3.729291 0 255 255
0.637280 1.612157 -3.728901 0 255 255
0.636032 1.611164 -3.727515 255 255 0
0.636656 1.611660 -3.728208 255 255 0
0.637280 1.612157 -3.728901 255 255 0
0.635526 1.611370 -3.730680 0 255 0
0.636403 1.611763 -3.729791 0 255 0
0.637280 1.612157 -3.728901 0 255 0
0.635959 1.611308 -3.728527 0 255 255
0.636728 1.611780 -3.728240 0 255 255
0.637496 1.612252 -3.727953 0 255 255
0.635607 1.611233 -3.729680 0 255 255
0.636552 1.611743 -3.728817 0 255 255
0.637496 1.612252 -3.727953 0 255 255
0.636453 1.611256 -3.726341 0 255 0
0.636974 1.611754 -3.727147 0 255 0
0.637496 1.612252 -3.727953 0 255 0
0.636032 1.611164 -3.727515 0 0 255
0.636764 1.611708 -3.727734 0 0 255
0.637496 1.612252 -3.727953 0 0 255
0.635959 1.611308 -3.728527 0 255 0
0.636895 1.611863 -3.727786 0 255 0
0.637831 1.612418 -3.727044 0 255 0
0.635607 1.611233 -3.729680 0 255 0
0.636719 1.611825 -3.728362 0 255 0
0.637831 1.612418 -3.727044 0 255 0
0.636453 1.611256 -3.726341 0 0 255
0.637142 1.611837 -3.726692 0 0 255
0.637831 1.612418 -3.727044 0 0 255
0.636032 1.611164 -3.727515 0 255 0
0.636931 1.611791 -3.727280 0 255 0
0.637831 1.612418 -3.727044 0 255 0
0.636032 1.611164 -3.727515 0 255 255
0.636909 1.611574 -3.726981 0 255 255
0.637786 1.611984 -3.726446 0 255 255
0.636686 1.611155 -3.725345 0 0 255
0.637236 1.611570 -3.725896 0 0 255
0.637786 1.611984 -3.726446 0 0 255
0.636453 1.611256 -3.726341 0 255 255
0.637119 1.611620 -3.726393 0 255 255
0.637786 1.611984 -3.726446 0 255 255
0.635959 1.611308 -3.728527 0 0 255
0.636873 1.611646 -3.727487 0 0 255
0.637786 1.611984 -3.726446 0 0 255
0.636686 1.611155 -3.725345 0 255 255
0.637433 1.611658 -3.725435 0 255 255
0.638179 1.612161 -3.725525 0 255 255
0.636453 1.611256 -3.726341 0 255 255
0.637316 1.611708 -3.725933 0 255 255
0.638179 1.612161 -3.725525 0 255 255
0.637006 1.611204 -3.724126 0 0 255
0.637593 1.611683 -3.724825 0 0 255
0.638179 1.612161 -3.725525 0 0 255
0.636032 1.611164 -3.727515 255 255 0
0.637105 1.611663 -3.726520 255 255 0
0.638179 1.612161 -3.725525 255 255 0
0.635959 1.611308 -3.728527 0 255 0
0.637069 1.611734 -3.727026 0 255 0
0.638179 1.612161 -3.725525 0 255 0
0.636686 1.611155 -3.725345 0 255 255
0.637577 1.611713 -3.724957 0 255 255
0.638467 1.612271 -3.724568 0 255 255
0.636453 1.611256 -3.726341 0 0 255
0.637460 1.611763 -3.725455 0 0 255
0.638467 1.612271 -3.724568 0 0 255
0.637006 1.611204 -3.724126 0 255 255
0.637736 1.611737 -3.724347 0 255 255
0.638467 1.612271 -3.724568 0 255 255
0.636032 1.611164 -3.727515 0 255 0
0.637249 1.611718 -3.726042 0 255 0
0.638467 1.612271 -3.724568 0 255 0
0.635959 1.611308 -3.728527 0 255 0
0.637213 1.611789 -3.726548 0 255 0
0.638467 1.612271 -3.724568 0 255 0
0.637483 1.611332 -3.722909 0 255 0
0.637975 1.611802 -3.723739 0 255 0
0.638467 1.612271 -3.724568 0 255 0
0.636686 1.611155 -3.725345 0 0 255
0.637765 1.611804 -3.724507 0 0 255
0.638844 1.612453 -3.723670 0 0 255
0.636453 1.611256 -3.726341 0 255 0
0.637648 1.611855 -3.725005 0 255 0
0.638844 1.612453 -3.723670 0 255 0
0.637483 1.611332 -3.722909 255 255 0
0.638164 1.611893 -3.723289 255 255 0
0.638844 1.612453 -3.723670 255 255 0
0.637006 1.611204 -3.724126 0 255 255
0.637925 1.611829 -3.723898 0 255 255
0.638844 1.612453 -3.723670 0 255 255
0.637590 1.611168 -3.721858 0 0 255
0.638217 1.611811 -3.722764 0 0 255
0.638844 1.612453 -3.723670 0 0 255
0.637006 1.611204 -3.724126 0 255 255
0.638027 1.611866 -3.723419 0 255 255
0.639048 1.612528 -3.722712 0 255 255
0.637483 1.611332 -3.722909 0 255 255
0.638266 1.611930 -3.722810 0 255 255
0.639048 1.612528 -3.722712 0 255 255
0.637590 1.611168 -3.721858 0 255 0
0.638319 1.611848 -3.722285 0 255 0
0.639048 1.612528 -3.722712 0 255 0
0.637590 1.611168 -3.721858 0 255 255
0.638320 1.611672 -3.722032 0 255 255
0.639049 1.612176 -3.722206 0 255 255
0.637483 1.611332 -3.722909 0 255 255
0.638266 1.611754 -3.722558 0 255 255
0.639049 1.612176 -3.722206 0 255 255
0.637006 1.611204 -3.724126 255 255 0
0.638027 1.611690 -3.723166 255 255 0
0.639049 1.612176 -3.722206 255 255 0
0.638862 1.612405 -3.719617 0 255 0
0.639031 1.612313 -3.720426 0 255 0
0.639199 1.612220 -3.721236 0 255 0
0.637590 1.611168 -3.721858 255 255 0
0.638395 1.611694 -3.721547 255 255 0
0.639199 1.612220 -3.721236 255 255 0
0.637483 1.611332 -3.722909 0 255 255
0.638341 1.611776 -3.722073 0 255 255
0.639199 1.612220 -3.721236 0 255 255
0.637006 1.611204 -3.724126 0 0 255
0.638103 1.611712 -3.722681 0 0 255
0.639199 1.612220 -3.721236 0 0 255
0.638862 1.612405 -3.719617 0 255 255
0.639189 1.612419 -3.720016 0 255 255
0.639516 1.612433 -3.720415 0 255 255
0.637590 1.611168 -3.721858 0 0 255
0.638553 1.611800 -3.721137 0 0 255
0.639516 1.612433 -3.720415 0 0 255
0.637483 1.611332 -3.722909 0 255 0
0.638500 1.611883 -3.721662 0 255 0
0.639516 1.612433 -3.720415 0 255 0
0.635359 1.611536 -3.731614 0 255 0
0.632486 1.611483 -3.731966 0 255 0
0.629614 1.611431 -3.732318 0 255 0
0.635526 1.611370 -3.730680 0 255 0
0.632594 1.611353 -3.732968 0 255 0
0.629662 1.611336 -3.735255 0 255 0
0.635186 1.611552 -3.732716 0 255 0
0.632424 1.611444 -3.733985 0 255 0
0.629662 1.611336 -3.735255 0 255 0
0.634792 1.611660 -3.734820 0 255 0
0.632129 1.611512 -3.735869 0 255 0
0.629466 1.611364 -3.736918 0 255 0
0.635186 1.611552 -3.732716 0 255 0
0.632349 1.611471 -3.735545 0 255 0
0.629512 1.611391 -3.738374 0 255 0
0.634969 1.611634 -3.733732 0 255 0
0.632240 1.611512 -3.736053 0 255 0
0.629512 1.611391 -3.738374 0 255 0
0.634792 1.611660 -3.734820 0 255 0
0.632152 1.611525 -3.736597 0 255 0
0.629512 1.611391 -3.738374 0 255 0
0.634287 1.611538 -3.737120 0 255 0
0.631899 1.611465 -3.737747 0 255 0
0.629512 1.611391 -3.738374 0 255 0
0.634792 1.611660 -3.734820 0 0 255
0.632178 1.611546 -3.737326 0 0 255
0.629564 1.611433 -3.739831 0 0 255
0.634458 1.611534 -3.736034 0 255 0
0.632011 1.611483 -3.737933 0 255 0
0.629564 1.611433 -3.739831 0 255 0
0.633628 1.611592 -3.740386 0 255 0
0.631596 1.611512 -3.740108 0 255 0
0.629564 1.611433 -3.739831 0 255 0
0.633487 1.611660 -3.741382 0 255 0
0.631525 1.611546 -3.740607 0 255 0
0.629564 1.611433 -3.739831 0 255 0
0.634041 1.611529 -3.738239 0 255 0
0.631828 1.611501 -3.739762 0 255 0
0.629614 1.611473 -3.741286 0 255 0
0.633628 1.611592 -3.740386 0 255 0
0.631621 1.611532 -3.740836 0 255 0
0.629614 1.611473 -3.741286 0 255 0
0.633915 1.611605 -3.739232 0 255 0
0.631765 1.611539 -3.740259 0 255 0
0.629614 1.611473 -3.741286 0 255 0
0.633915 1.611605 -3.739232 0 255 0
0.631708 1.611563 -3.741056 0 255 0
0.629501 1.611521 -3.742880 0 255 0
0.633628 1.611592 -3.740386 0 255 0
0.631565 1.611556 -3.741633 0 255 0
0.629501 1.611521 -3.742880 0 255 0
0.633487 1.611660 -3.741382 0 0 255
0.631494 1.611590 -3.742131 0 0 255
0.629501 1.611521 -3.742880 0 0 255
0.634287 1.611538 -3.737120 0 255 0
0.631894 1.611530 -3.740000 0 255 0
0.629501 1.611521 -3.742880 0 255 0
0.634041 1.611529 -3.738239 0 255 0
0.631771 1.611525 -3.740560 0 255 0
0.629501 1.611521 -3.742880 0 255 0
0.633915 1.611605 -3.739232 0 255 0
0.631730 1.611571 -3.741784 0 255 0
0.629544 1.611536 -3.744337 0 255 0
0.633628 1.611592 -3.740386 0 255 0
0.631586 1.611564 -3.742361 0 255 0
0.629544 1.611536 -3.744337 0 255 0
0.633487 1.611660 -3.741382 0 0 255
0.631516 1.611598 -3.742860 0 0 255
0.629544 1.611536 -3.744337 0 0 255
0.633202 1.611641 -3.742537 0 255 0
0.631373 1.611588 -3.743437 0 255 0
0.629544 1.611536 -3.744337 0 255 0
0.632885 1.611701 -3.744650 0 0 255
0.631234 1.611618 -3.745224 0 0 255
0.629583 1.611535 -3.745797 0 0 255
0.632781 1.611698 -3.745743 0 0 255
0.631182 1.611617 -3.745770 0 0 255
0.629583 1.611535 -3.745797 0 0 255
0.633487 1.611660 -3.741382 0 255 0
0.631535 1.611598 -3.743590 0 255 0
0.629583 1.611535 -3.745797 0 255 0
0.632885 1.611701 -3.744650 0 0 255
0.631251 1.611611 -3.745954 0 0 255
0.629617 1.611521 -3.747257 0 0 255
0.632781 1.611698 -3.745743 0 0 255
0.631199 1.611609 -3.746500 0 0 255
0.629617 1.611521 -3.747257 0 0 255
0.633202 1.611641 -3.742537 0 255 0
0.631410 1.611581 -3.744897 0 255 0
0.629617 1.611521 -3.747257 0 255 0
0.633000 1.611615 -3.743647 0 255 0
0.631308 1.611568 -3.745452 0 255 0
0.629617 1.611521 -3.747257 0 255 0
0.632336 1.611536 -3.749057 0 255 0
0.630976 1.611528 -3.748157 0 255 0
0.629617 1.611521 -3.747257 0 255 0
0.632265 1.611534 -3.750142 0 255 0
0.630879 1.611523 -3.749497 0 255 0
0.629492 1.611512 -3.748852 0 255 0
0.632159 1.611603 -3.751129 0 255 0
0.630826 1.611557 -3.749991 0 255 0
0.629492 1.611512 -3.748852 0 255 0
0.632336 1.611536 -3.749057 0 255 0
0.630914 1.611524 -3.748955 0 255 0
0.629492 1.611512 -3.748852 0 255 0
0.632498 1.611581 -3.747983 0 255 0
0.630995 1.611546 -3.748418 0 255 0
0.629492 1.611512 -3.748852 0 255 0
0.632781 1.611698 -3.745743 0 255 0
0.631137 1.611605 -3.747298 0 255 0
0.629492 1.611512 -3.748852 0 255 0
0.632265 1.611534 -3.750142 0 0 255
0.630893 1.611506 -3.750229 0 0 255
0.629521 1.611479 -3.750316 0 0 255
0.632159 1.611603 -3.751129 0 255 0
0.630840 1.611541 -3.750722 0 255 0
0.629521 1.611479 -3.750316 0 255 0
0.632265 1.611534 -3.750142 0 255 0
0.630907 1.611490 -3.750962 0 255 0
0.629550 1.611447 -3.751782 0 255 0
0.632159 1.611603 -3.751129 0 0 255
0.630854 1.611525 -3.751455 0 0 255
0.629550 1.611447 -3.751782 0 0 255
0.632625 1.611660 -3.746817 0 255 0
0.631087 1.611554 -3.749299 0 255 0
0.629550 1.611447 -3.751782 0 255 0
0.632498 1.611581 -3.747983 0 255 0
0.631024 1.611514 -3.749883 0 255 0
0.629550 1.611447 -3.751782 0 255 0
0.632336 1.611536 -3.749057 0 0 255
0.630943 1.611492 -3.750420 0 0 255
0.629550 1.611447 -3.751782 0 0 255
0.631932 1.611394 -3.752403 0 0 255
0.630757 1.611409 -3.752824 0 0 255
0.629581 1.611424 -3.753245 0 0 255
0.632159 1.611603 -3.751129 0 255 0
0.630870 1.611513 -3.752187 0 255 0
0.629581 1.611424 -3.753245 0 255 0
0.632265 1.611534 -3.750142 0 0 255
0.630923 1.611479 -3.751693 0 0 255
0.629581 1.611424 -3.753245 0 0 255
0.631845 1.611496 -3.753366 255 255 0
0.630666 1.611462 -3.754094 255 255 0
0.629487 1.611428 -3.754823 255 255 0
0.631745 1.611458 -3.754473 0 0 255
0.630616 1.611443 -3.754648 0 0 255
0.629487 1.611428 -3.754823 0 0 255
0.631541 1.611405 -3.755579 0 255 0
0.630514 1.611416 -3.755201 0 255 0
0.629487 1.611428 -3.754823 0 255 0
0.631932 1.611394 -3.752403 0 255 0
0.630709 1.611411 -3.753613 0 255 0
0.629487 1.611428 -3.754823 0 255 0
0.631541 1.611405 -3.755579 0 255 255
0.630533 1.611416 -3.755931 0 255 255
0.629525 1.611427 -3.756284 0 255 255
0.631932 1.611394 -3.752403 0 255 0
0.630729 1.611411 -3.754343 0 255 0
0.629525 1.611427 -3.756284 0 255 0
0.631845 1.611496 -3.753366 0 255 0
0.630685 1.611461 -3.754825 0 255 0
0.629525 1.611427 -3.756284 0 255 0
0.631745 1.611458 -3.754473 0 0 255
0.630635 1.611443 -3.755378 0 0 255
0.629525 1.611427 -3.756284 0 0 255
0.631337 1.611477 -3.757629 0 255 0
0.630431 1.611452 -3.756956 0 255 0
0.629525 1.611427 -3.756284 0 255 0
0.631553 1.611532 -3.756541 0 255 0
0.630539 1.611479 -3.756413 0 255 0
0.629525 1.611427 -3.756284 0 255 0
0.631553 1.611532 -3.756541 0 255 0
0.630560 1.611484 -3.757143 0 255 0
0.629566 1.611435 -3.757745 0 255 0
0.631932 1.611394 -3.752403 0 255 0
0.630749 1.611415 -3.755074 0 255 0
0.629566 1.611435 -3.757745 0 255 0
0.631845 1.611496 -3.753366 0 255 0
0.630706 1.611465 -3.755556 0 255 0
0.629566 1.611435 -3.757745 0 255 0
0.631745 1.611458 -3.754473 0 255 0
0.630656 1.611447 -3.756109 0 255 0
0.629566 1.611435 -3.757745 0 255 0
0.631541 1.611405 -3.755579 0 0 255
0.630553 1.611420 -3.756662 0 0 255
0.629566 1.611435 -3.757745 0 0 255
0.631553 1.611532 -3.756541 0 0 255
0.630581 1.611490 -3.757875 0 0 255
0.629609 1.611448 -3.759208 0 0 255
0.631337 1.611477 -3.757629 255 255 0
0.630473 1.611463 -3.758419 255 255 0
0.629609 1.611448 -3.759208 255 255 0
0.635359 1.611536 -3.731614 0 255 0
0.629868 1.609908 -3.731713 0 255 0
0.624377 1.608280 -3.731812 0 255 0
0.636032 1.611164 -3.727515 0 255 0
0.630126 1.609697 -3.730637 0 255 0
0.624220 1.608229 -3.733759 0 255 0
0.634969 1.611634 -3.733732 0 255 0
0.629594 1.609932 -3.733746 0 255 0
0.624220 1.608229 -3.733759 0 255 0
0.635526 1.611370 -3.730680 0 255 0
0.629151 1.609825 -3.734432 0 255 0
0.622775 1.608281 -3.738184 0 255 0
0.635186 1.611552 -3.732716 0 255 0
0.628900 1.609912 -3.736417 0 255 0
0.622614 1.608272 -3.740118 0 255 0
0.635186 1.611552 -3.732716 0 255 0
0.628576 1.609949 -3.737029 0 255 0
0.621967 1.608347 -3.741342 0 255 0
0.640479 1.612322 -3.712877 0 255 255
0.640467 1.612395 -3.712945 0 255 255
0.640456 1.612467 -3.713012 0 255 255
0.640380 1.612415 -3.714021 0 255 255
0.640378 1.612430 -3.714036 0 255 255
0.640375 1.612445 -3.714050 0 255 255
0.639904 1.612336 -3.715154 255 255 0
0.640140 1.612391 -3.714602 255 255 0
0.640375 1.612445 -3.714050 255 255 0
0.639802 1.612429 -3.716289 0 0 255
0.640089 1.612437 -3.715169 0 0 255
0.640375 1.612445 -3.714050 0 0 255
0.640380 1.612415 -3.714021 255 255 0
0.640143 1.612369 -3.714581 255 255 0
0.639906 1.612322 -3.715141 255 255 0
0.639904 1.612336 -3.715154 0 255 255
0.639905 1.612329 -3.715147 0 255 255
0.639906 1.612322 -3.715141 0 255 255
0.639802 1.612429 -3.716289 255 255 0
0.639854 1.612376 -3.715715 255 255 0
0.639906 1.612322 -3.715141 255 255 0
0.639383 1.612365 -3.717397 0 255 0
0.639644 1.612344 -3.716269 0 255 0
0.639906 1.612322 -3.715141 0 255 0
0.640380 1.612415 -3.714021 0 0 255
0.640100 1.612363 -3.715101 0 0 255
0.639820 1.612312 -3.716180 0 0 255
0.639904 1.612336 -3.715154 255 255 0
0.639862 1.612324 -3.715667 255 255 0
0.639820 1.612312 -3.716180 255 255 0
0.639802 1.612429 -3.716289 0 255 255
0.639811 1.612371 -3.716235 0 255 255
0.639820 1.612312 -3.716180 0 255 255
0.639383 1.612365 -3.717397 0 255 0
0.639601 1.612339 -3.716789 0 255 0
0.639820 1.612312 -3.716180 0 255 0
0.639802 1.612429 -3.716289 0 255 255
0.639603 1.612325 -3.716776 0 255 255
0.639405 1.612221 -3.717263 0 255 255
0.640380 1.612415 -3.714021 0 255 0
0.639892 1.612318 -3.715642 0 255 0
0.639405 1.612221 -3.717263 0 255 0
0.639904 1.612336 -3.715154 0 0 255
0.639654 1.612279 -3.716208 0 0 255
0.639405 1.612221 -3.717263 0 0 255
0.639383 1.612365 -3.717397 0 255 255
0.639394 1.612293 -3.717330 0 255 255
0.639405 1.612221 -3.717263 0 255 255
0.639383 1.612365 -3.717397 0 0 255
0.639170 1.612247 -3.717873 0 0 255
0.638956 1.612129 -3.718349 0 0 255
0.638935 1.612269 -3.718479 0 255 255
0.638946 1.612199 -3.718414 0 255 255
0.638956 1.612129 -3.718349 0 255 255
0.638862 1.612405 -3.719617 0 255 255
0.638881 1.612279 -3.719500 0 255 255
0.638901 1.612153 -3.719382 0 255 255
0.638935 1.612269 -3.718479 0 255 0
0.638918 1.612211 -3.718931 0 255 0
0.638901 1.612153 -3.719382 0 255 0
0.638862 1.612405 -3.719617 0 255 255
0.638620 1.612229 -3.720046 0 255 255
0.638378 1.612053 -3.720475 0 255 255
0.637590 1.611168 -3.721858 255 255 0
0.637984 1.611611 -3.721167 255 255 0
0.638378 1.612053 -3.720475 255 255 0
0.637483 1.611332 -3.722909 0 0 255
0.637931 1.611693 -3.721692 0 0 255
0.638378 1.612053 -3.720475 0 0 255
0.637006 1.611204 -3.724126 0 255 0
0.637692 1.611629 -3.722300 0 255 0
0.638378 1.612053 -3.720475 0 255 0
0.638862 1.612405 -3.719617 0 255 0
0.638403 1.612193 -3.720588 0 255 0
0.637945 1.611981 -3.721558 0 255 0
0.637590 1.611168 -3.721858 0 255 255
0.637767 1.611575 -3.721708 0 255 255
0.637945 1.611981 -3.721558 0 255 255
0.637483 1.611332 -3.722909 0 255 255
0.637714 1.611657 -3.722234 0 255 255
0.637945 1.611981 -3.721558 0 255 255
0.637006 1.611204 -3.724126 0 255 255
0.637475 1.611592 -3.722842 0 255 255
0.637945 1.611981 -3.721558 0 255 255
0.637590 1.611168 -3.721858 0 255 255
0.637695 1.611579 -3.722230 0 255 255
0.637799 1.611990 -3.722603 0 255 255
0.637483 1.611332 -3.722909 0 255 255
0.637641 1.611661 -3.722756 0 255 255
0.637799 1.611990 -3.722603 0 255 255
0.637006 1.611204 -3.724126 0 255 255
0.637403 1.611597 -3.723364 0 255 255
0.637799 1.611990 -3.722603 0 255 255
0.637006 1.611204 -3.724126 0 255 255
0.637204 1.611566 -3.723903 0 255 255
0.637403 1.611928 -3.723680 0 255 255
0.637483 1.611332 -3.722909 0 255 255
0.637443 1.611630 -3.723295 0 255 255
0.637403 1.611928 -3.723680 0 255 255
0.636686 1.611155 -3.725345 0 0 255
0.637045 1.611541 -3.724513 0 0 255
0.637403 1.611928 -3.723680 0 0 255
0.636453 1.611256 -3.726341 0 255 0
0.636928 1.611592 -3.725011 0 255 0
0.637403 1.611928 -3.723680 0 255 0
0.637590 1.611168 -3.721858 0 255 255
0.637496 1.611548 -3.722769 0 255 255
0.637403 1.611928 -3.723680 0 255 255
0.636686 1.611155 -3.725345 0 255 255
0.636925 1.611531 -3.725041 0 255 255
0.637164 1.611907 -3.724737 0 255 255
0.636453 1.611256 -3.726341 255 255 0
0.636808 1.611582 -3.725539 255 255 0
0.637164 1.611907 -3.724737 255 255 0
0.637483 1.611332 -3.722909 0 255 0
0.637324 1.611620 -3.723823 0 255 0
0.637164 1.611907 -3.724737 0 255 0
0.637006 1.611204 -3.724126 0 255 255
0.637085 1.611556 -3.724431 0 255 255
0.637164 1.611907 -3.724737 0 255 255
0.636032 1.611164 -3.727515 0 255 0
0.636598 1.611536 -3.726126 0 255 0
0.637164 1.611907 -3.724737 0 255 0
0.636686 1.611155 -3.725345 0 255 255
0.636774 1.611511 -3.725573 0 255 255
0.636862 1.611867 -3.725801 0 255 255
0.636453 1.611256 -3.726341 0 255 255
0.636657 1.611561 -3.726071 0 255 255
0.636862 1.611867 -3.725801 0 255 255
0.637006 1.611204 -3.724126 0 255 0
0.636934 1.611535 -3.724963 0 255 0
0.636862 1.611867 -3.725801 0 255 0
0.636032 1.611164 -3.727515 255 255 0
0.636447 1.611515 -3.726658 255 255 0
0.636862 1.611867 -3.725801 255 255 0
0.635959 1.611308 -3.728527 0 255 0
0.636411 1.611587 -3.727164 0 255 0
0.636862 1.611867 -3.725801 0 255 0
0.635959 1.611308 -3.728527 0 255 255
0.636733 1.611717 -3.728147 0 255 255
0.637506 1.612126 -3.727767 0 255 255
0.635607 1.611233 -3.729680 0 255 255
0.636557 1.611679 -3.728724 0 255 255
0.637506 1.612126 -3.727767 0 255 255
0.636032 1.611164 -3.727515 0 0 255
0.636769 1.611645 -3.727641 0 0 255
0.637506 1.612126 -3.727767 0 0 255
0.635959 1.611308 -3.728527 0 255 255
0.636622 1.611706 -3.728674 0 255 255
0.637284 1.612103 -3.728822 0 255 255
0.635607 1.611233 -3.729680 0 255 255
0.636446 1.611668 -3.729251 0 255 255
0.637284 1.612103 -3.728822 0 255 255
0.636032 1.611164 -3.727515 255 255 0
0.636658 1.611634 -3.728168 255 255 0
0.637284 1.612103 -3.728822 255 255 0
0.635526 1.611370 -3.730680 0 255 0
0.636405 1.611736 -3.729751 0 255 0
0.637284 1.612103 -3.728822 0 255 0
0.635526 1.611370 -3.730680 0 255 255
0.636269 1.611720 -3.730282 0 255 255
0.637011 1.612071 -3.729883 0 255 255
0.636032 1.611164 -3.727515 0 255 0
0.636521 1.611617 -3.728699 0 255 0
0.637011 1.612071 -3.729883 0 255 0
0.635607 1.611233 -3.729680 0 0 255
0.636309 1.611652 -3.729782 0 0 255
0.637011 1.612071 -3.729883 0 0 255
0.635359 1.611536 -3.731614 0 0 255
0.636185 1.611803 -3.730748 0 0 255
0.637011 1.612071 -3.729883 0 0 255
0.635526 1.611370 -3.730680 0 0 255
0.636207 1.611728 -3.730802 0 0 255
0.636888 1.612086 -3.730924 0 0 255
0.635359 1.611536 -3.731614 0 255 255
0.636123 1.611811 -3.731269 0 255 255
0.636888 1.612086 -3.730924 0 255 255
0.635186 1.611552 -3.732716 255 255 0
0.636037 1.611819 -3.731820 255 255 0
0.636888 1.612086 -3.730924 255 255 0
0.635607 1.611233 -3.729680 0 0 255
0.636247 1.611660 -3.730302 0 0 255
0.636888 1.612086 -3.730924 0 0 255
0.635526 1.611370 -3.730680 0 0 255
0.636221 1.611759 -3.731313 0 0 255
0.636916 1.612148 -3.731945 0 0 255
0.635359 1.611536 -3.731614 255 255 0
0.636138 1.611842 -3.731779 255 255 0
0.636916 1.612148 -3.731945 255 255 0
0.635186 1.611552 -3.732716 255 255 0
0.636051 1.611850 -3.732331 255 255 0
0.636916 1.612148 -3.731945 255 255 0
0.635186 1.611552 -3.732716 0 255 255
0.635576 1.611745 -3.732905 0 255 255
0.635965 1.611938 -3.733095 0 255 255
0.634969 1.611634 -3.733732 0 255 255
0.635467 1.611786 -3.733413 0 255 255
0.635965 1.611938 -3.733095 0 255 255
0.634792 1.611660 -3.734820 0 255 255
0.635379 1.611799 -3.733957 0 255 255
0.635965 1.611938 -3.733095 0 255 255
0.635607 1.611233 -3.729680 0 255 0
0.635786 1.611586 -3.731387 0 255 0
0.635965 1.611938 -3.733095 0 255 0
0.635359 1.611536 -3.731614 0 255 255
0.635662 1.611737 -3.732354 0 255 255
0.635965 1.611938 -3.733095 0 255 255
0.635526 1.611370 -3.730680 0 255 0
0.635746 1.611654 -3.731888 0 255 0
0.635965 1.611938 -3.733095 0 255 0
0.635186 1.611552 -3.732716 0 255 255
0.635516 1.611773 -3.733430 0 255 255
0.635847 1.611994 -3.734145 0 255 255
0.634969 1.611634 -3.733732 0 255 255
0.635408 1.611814 -3.733939 0 255 255
0.635847 1.611994 -3.734145 0 255 255
0.634792 1.611660 -3.734820 0 255 255
0.635319 1.611827 -3.734483 0 255 255
0.635847 1.611994 -3.734145 0 255 255
0.634458 1.611534 -3.736034 255 255 0
0.635152 1.611764 -3.735089 255 255 0
0.635847 1.611994 -3.734145 255 255 0
0.634287 1.611538 -3.737120 0 255 0
0.635067 1.611766 -3.735633 0 255 0
0.635847 1.611994 -3.734145 0 255 0
0.634041 1.611529 -3.738239 0 255 0
0.634944 1.611761 -3.736192 0 255 0
0.635847 1.611994 -3.734145 0 255 0
0.633915 1.611605 -3.739232 0 255 0
0.634881 1.611800 -3.736688 0 255 0
0.635847 1.611994 -3.734145 0 255 0
0.635359 1.611536 -3.731614 0 255 0
0.635603 1.611765 -3.732879 0 255 0
0.635847 1.611994 -3.734145 0 255 0
0.635186 1.611552 -3.732716 0 0 255
0.635434 1.611771 -3.733953 0 0 255
0.635683 1.611990 -3.735190 0 0 255
0.634969 1.611634 -3.733732 0 255 255
0.635326 1.611812 -3.734461 0 255 255
0.635683 1.611990 -3.735190 0 255 255
0.634792 1.611660 -3.734820 0 255 255
0.635238 1.611825 -3.735005 0 255 255
0.635683 1.611990 -3.735190 0 255 255
0.634458 1.611534 -3.736034 0 255 255
0.635070 1.611762 -3.735612 0 255 255
0.635683 1.611990 -3.735190 0 255 255
0.634287 1.611538 -3.737120 255 255 0
0.634985 1.611764 -3.736155 255 255 0
0.635683 1.611990 -3.735190 255 255 0
0.634041 1.611529 -3.738239 0 0 255
0.634862 1.611759 -3.736714 0 0 255
0.635683 1.611990 -3.735190 0 0 255
0.633915 1.611605 -3.739232 0 255 0
0.634799 1.611797 -3.737211 0 255 0
0.635683 1.611990 -3.735190 0 255 0
0.634041 1.611529 -3.738239 0 255 255
0.634712 1.611735 -3.737247 0 255 255
0.635382 1.611941 -3.736255 0 255 255
0.634792 1.611660 -3.734820 0 255 255
0.635087 1.611800 -3.735537 0 255 255
0.635382 1.611941 -3.736255 0 255 255
0.634458 1.611534 -3.736034 0 255 255
0.634920 1.611737 -3.736144 0 255 255
0.635382 1.611941 -3.736255 0 255 255
0.634287 1.611538 -3.737120 0 255 255
0.634834 1.611740 -3.736687 0 255 255
0.635382 1.611941 -3.736255 0 255 255
0.633915 1.611605 -3.739232 0 255 0
0.634649 1.611773 -3.737743 0 255 0
0.635382 1.611941 -3.736255 0 255 0
0.634969 1.611634 -3.733732 0 255 0
0.635175 1.611787 -3.734993 0 255 0
0.635382 1.611941 -3.736255 0 255 0
0.634792 1.611660 -3.734820 0 0 255
0.634974 1.611783 -3.736065 0 0 255
0.635156 1.611907 -3.737310 0 0 255
0.634458 1.611534 -3.736034 0 255 255
0.634807 1.611720 -3.736672 0 255 255
0.635156 1.611907 -3.737310 0 255 255
0.634287 1.611538 -3.737120 0 255 255
0.634722 1.611723 -3.737215 0 255 255
0.635156 1.611907 -3.737310 0 255 255
0.634041 1.611529 -3.738239 0 255 255
0.634599 1.611718 -3.737774 0 255 255
0.635156 1.611907 -3.737310 0 255 255
0.633915 1.611605 -3.739232 0 0 255
0.634536 1.611756 -3.738271 0 0 255
0.635156 1.611907 -3.737310 0 0 255
0.634041 1.611529 -3.738239 0 255 255
0.633992 1.611561 -3.738367 0 255 255
0.633942 1.611594 -3.738494 0 255 255
0.634287 1.611538 -3.737120 255 255 0
0.634115 1.611566 -3.737807 255 255 0
0.633942 1.611594 -3.738494 255 255 0
0.633915 1.611605 -3.739232 255 255 0
0.633929 1.611600 -3.738863 255 255 0
0.633942 1.611594 -3.738494 255 255 0
0.633487 1.611660 -3.741382 0 255 0
0.633715 1.611627 -3.739938 0 255 0
0.633942 1.611594 -3.738494 0 255 0
0.633628 1.611592 -3.740386 0 255 0
0.633785 1.611593 -3.739440 0 255 0
0.633942 1.611594 -3.738494 0 255 0
0.633915 1.611605 -3.739232 0 255 255
0.633839 1.611586 -3.739388 0 255 255
0.633762 1.611566 -3.739544 0 255 255
0.633628 1.611592 -3.740386 0 0 255
0.633695 1.611579 -3.739965 0 0 255
0.633762 1.611566 -3.739544 0 0 255
0.633487 1.611660 -3.741382 0 255 255
0.633625 1.611613 -3.740463 0 255 255
0.633762 1.611566 -3.739544 0 255 255
0.634041 1.611529 -3.738239 255 255 0
0.633902 1.611547 -3.738891 255 255 0
0.633762 1.611566 -3.739544 255 255 0
0.633915 1.611605 -3.739232 0 255 0
0.633712 1.611561 -3.739918 0 255 0
0.633508 1.611518 -3.740605 0 255 0
0.633628 1.611592 -3.740386 0 255 255
0.633568 1.611555 -3.740496 0 255 255
0.633508 1.611518 -3.740605 0 255 255
0.633487 1.611660 -3.741382 0 0 255
0.633497 1.611589 -3.740994 0 0 255
0.633508 1.611518 -3.740605 0 0 255
0.633487 1.611660 -3.741382 0 255 255
0.633402 1.611579 -3.741521 0 255 255
0.633317 1.611497 -3.741660 0 255 255
0.633202 1.611641 -3.742537 255 255 0
0.633260 1.611569 -3.742098 255 255 0
0.633317 1.611497 -3.741660 255 255 0
0.633000 1.611615 -3.743647 0 0 255
0.633158 1.611556 -3.742653 0 0 255
0.633317 1.611497 -3.741660 0 0 255
0.633628 1.611592 -3.740386 0 255 0
0.633472 1.611544 -3.741023 0 255 0
0.633317 1.611497 -3.741660 0 255 0
0.633487 1.611660 -3.741382 0 255 255
0.633281 1.611567 -3.742050 0 255 255
0.633075 1.611474 -3.742718 0 255 255
0.633202 1.611641 -3.742537 0 255 255
0.633139 1.611557 -3.742628 0 255 255
0.633075 1.611474 -3.742718 0 255 255
0.633000 1.611615 -3.743647 0 255 255
0.633038 1.611545 -3.743182 0 255 255
0.633075 1.611474 -3.742718 0 255 255
0.633202 1.611641 -3.742537 0 255 255
0.633057 1.611563 -3.743151 0 255 255
0.632911 1.611484 -3.743765 0 255 255
0.633000 1.611615 -3.743647 0 255 255
0.632956 1.611550 -3.743706 0 255 255
0.632911 1.611484 -3.743765 0 255 255
0.632885 1.611701 -3.744650 255 255 0
0.632898 1.611593 -3.744208 255 255 0
0.632911 1.611484 -3.743765 255 255 0
0.632781 1.611698 -3.745743 0 255 0
0.632846 1.611591 -3.744754 0 255 0
0.632911 1.611484 -3.743765 0 255 0
0.633202 1.611641 -3.742537 0 0 255
0.632981 1.611572 -3.743673 0 0 255
0.632760 1.611503 -3.744808 0 0 255
0.633000 1.611615 -3.743647 0 255 255
0.632880 1.611559 -3.744228 0 255 255
0.632760 1.611503 -3.744808 0 255 255
0.632885 1.611701 -3.744650 0 255 255
0.632823 1.611602 -3.744729 0 255 255
0.632760 1.611503 -3.744808 0 255 255
0.632781 1.611698 -3.745743 0 255 255
0.632771 1.611600 -3.745276 0 255 255
0.632760 1.611503 -3.744808 0 255 255
0.632781 1.611698 -3.745743 0 255 255
0.632739 1.611622 -3.745792 0 255 255
0.632696 1.611545 -3.745840 0 255 255
0.632625 1.611660 -3.746817 255 255 0
0.632661 1.611603 -3.746329 255 255 0
0.632696 1.611545 -3.745840 255 255 0
0.633000 1.611615 -3.743647 0 255 0
0.632848 1.611580 -3.744744 0 255 0
0.632696 1.611545 -3.745840 0 255 0
0.632885 1.611701 -3.744650 255 255 0
0.632791 1.611623 -3.745245 255 255 0
0.632696 1.611545 -3.745840 255 255 0
0.632781 1.611698 -3.745743 0 255 255
0.632677 1.611631 -3.746310 0 255 255
0.632572 1.611565 -3.746876 0 255 255
0.632625 1.611660 -3.746817 0 255 255
0.632598 1.611613 -3.746847 0 255 255
0.632572 1.611565 -3.746876 0 255 255
0.632498 1.611581 -3.747983 0 255 255
0.632535 1.611573 -3.747430 0 255 255
0.632572 1.611565 -3.746876 0 255 255
0.632336 1.611536 -3.749057 0 255 0
0.632454 1.611551 -3.747967 0 255 0
0.632572 1.611565 -3.746876 0 255 0
0.632781 1.611698 -3.745743 255 255 0
0.632661 1.611651 -3.746823 255 255 0
0.632541 1.611604 -3.747903 255 255 0
0.632625 1.611660 -3.746817 0 255 255
0.632583 1.611632 -3.747360 0 255 255
0.632541 1.611604 -3.747903 0 255 255
0.632498 1.611581 -3.747983 0 255 255
0.632519 1.611592 -3.747943 0 255 255
0.632541 1.611604 -3.747903 0 255 255
0.632336 1.611536 -3.749057 0 255 255
0.632438 1.611570 -3.748480 0 255 255
0.632541 1.611604 -3.747903 0 255 255
0.632498 1.611581 -3.747983 0 255 255
0.632452 1.611592 -3.748462 0 255 255
0.632407 1.611603 -3.748941 0 255 255
0.632336 1.611536 -3.749057 0 255 255
0.632371 1.611570 -3.748999 0 255 255
0.632407 1.611603 -3.748941 0 255 255
0.632265 1.611534 -3.750142 0 255 255
0.632336 1.611568 -3.749541 0 255 255
0.632407 1.611603 -3.748941 0 255 255
0.632625 1.611660 -3.746817 0 255 0
0.632516 1.611632 -3.747879 0 255 0
0.632407 1.611603 -3.748941 0 255 0
0.632498 1.611581 -3.747983 255 255 0
0.632433 1.611602 -3.748975 255 255 0
0.632368 1.611623 -3.749967 255 255 0
0.632336 1.611536 -3.749057 0 255 255
0.632352 1.611579 -3.749512 0 255 255
0.632368 1.611623 -3.749967 0 255 255
0.632265 1.611534 -3.750142 0 255 255
0.632316 1.611578 -3.750054 0 255 255
0.632368 1.611623 -3.749967 0 255 255
0.632159 1.611603 -3.751129 255 255 0
0.632264 1.611613 -3.750548 255 255 0
0.632368 1.611623 -3.749967 255 255 0
0.632159 1.611603 -3.751129 0 255 255
0.632187 1.611604 -3.751069 0 255 255
0.632214 1.611604 -3.751009 0 255 255
0.632265 1.611534 -3.750142 0 255 255
0.632240 1.611569 -3.750575 0 255 255
0.632214 1.611604 -3.751009 0 255 255
0.631932 1.611394 -3.752403 0 255 255
0.632043 1.611500 -3.752222 0 255 255
0.632154 1.611605 -3.752041 0 255 255
0.631845 1.611496 -3.753366 255 255 0
0.631999 1.611550 -3.752704 255 255 0
0.632154 1.611605 -3.752041 255 255 0
0.631745 1.611458 -3.754473 0 255 0
0.631949 1.611532 -3.753257 0 255 0
0.632154 1.611605 -3.752041 0 255 0
0.631541 1.611405 -3.755579 0 255 0
0.631847 1.611505 -3.753810 0 255 0
0.632154 1.611605 -3.752041 0 255 0
0.632159 1.611603 -3.751129 0 255 0
0.632156 1.611604 -3.751585 0 255 0
0.632154 1.611605 -3.752041 0 255 0
0.631845 1.611496 -3.753366 0 255 255
0.631920 1.611535 -3.753226 0 255 255
0.631994 1.611574 -3.753086 0 255 255
0.631745 1.611458 -3.754473 0 0 255
0.631870 1.611516 -3.753779 0 0 255
0.631994 1.611574 -3.753086 0 0 255
0.631932 1.611394 -3.752403 255 255 0
0.631963 1.611484 -3.752744 255 255 0
0.631994 1.611574 -3.753086 255 255 0
0.631541 1.611405 -3.755579 0 255 0
0.631767 1.611490 -3.754332 0 255 0
0.631994 1.611574 -3.753086 0 255 0
0.632159 1.611603 -3.751129 0 255 0
0.632077 1.611589 -3.752108 0 255 0
0.631994 1.611574 -3.753086 0 255 0
0.631845 1.611496 -3.753366 255 255 0
0.631890 1.611532 -3.753744 255 255 0
0.631935 1.611569 -3.754122 255 255 0
0.631745 1.611458 -3.754473 0 255 255
0.631840 1.611514 -3.754298 0 255 255
0.631935 1.611569 -3.754122 0 255 255
0.631932 1.611394 -3.752403 0 255 0
0.631934 1.611482 -3.753262 0 255 0
0.631935 1.611569 -3.754122 0 255 0
0.631541 1.611405 -3.755579 0 255 0
0.631738 1.611487 -3.754850 0 255 0
0.631935 1.611569 -3.754122 0 255 0
0.631541 1.611405 -3.755579 0 255 255
0.631651 1.611473 -3.755377 0 255 255
0.631761 1.611541 -3.755175 0 255 255
0.631932 1.611394 -3.752403 0 255 0
0.631847 1.611468 -3.753789 0 255 0
0.631761 1.611541 -3.755175 0 255 0
0.631845 1.611496 -3.753366 255 255 0
0.631803 1.611518 -3.754270 255 255 0
0.631761 1.611541 -3.755175 255 255 0
0.631745 1.611458 -3.754473 0 255 255
0.631753 1.611500 -3.754824 0 255 255
0.631761 1.611541 -3.755175 0 255 255
0.631553 1.611532 -3.756541 0 255 255
0.631632 1.611545 -3.756377 0 255 255
0.631710 1.611557 -3.756213 0 255 255
0.631337 1.611477 -3.757629 0 255 255
0.631523 1.611517 -3.756921 0 255 255
0.631710 1.611557 -3.756213 0 255 255
0.631541 1.611405 -3.755579 0 0 255
0.631625 1.611481 -3.755896 0 0 255
0.631710 1.611557 -3.756213 0 0 255
0.631337 1.611477 -3.757629 0 255 255
0.631429 1.611511 -3.757447 0 255 255
0.631521 1.611546 -3.757266 0 255 255
0.631553 1.611532 -3.756541 0 255 255
0.631537 1.611539 -3.756903 0 255 255
0.631521 1.611546 -3.757266 0 255 255
0.631541 1.611405 -3.755579 0 0 255
0.631531 1.611476 -3.756422 0 0 255
0.631521 1.611546 -3.757266 0 0 255
3 0 1 2 3 2 3 4 3 4 5 6 3 6 7 8 3 8 9 10 3 10 11 12 3 12 13 14 3 14 15 16 3 16 17 18 3 18 19 20 3 20 21 22 3 22 23 24 3 24 25 26 3 26 27 28 3 28 29 30 3 30 31 32 3 32 33 34 3 34 35 36 3 36 37 38 3 38 39 40 3 40 41 42 3 42 43 44 3 44 45 46 3 46 47 48 3 48 49 50 3 50 51 52 3 52 53 54 3 54 55 56 3 56 57 58 3 58 59 60 3 60 61 62 3 62 63 64 3 64 65 66 3 66 67 68 3 68 69 70 3 70 71 72 3 72 73 74 3 74 75 76 3 76 77 78 3 78 79 80 3 81 82 83 3 84 85 86 3 87 88 89 3 90 91 92 3 93 94 95 3 96 97 98 3 99 100 101 3 102 103 104 3 105 106 107 3 108 109 110 3 111 112 113 3 114 115 116 3 117 118 119 3 120 121 122 3 123 124 125 3 126 127 128 3 129 130 131 3 132 133 134 3 135 136 137 3 138 139 140 3 141 142 143 3 144 145 146 3 147 148 149 3 150 151 152 3 153 154 155 3 156 157 158 3 159 160 161 3 162 163 164 3 165 166 167 3 168 169 170 3 171 172 173 3 174 175 176 3 177 178 179 3 180 181 182 3 183 184 185 3 186 187 188 3 189 190 191 3 192 193 194 3 195 196 197 3 198 199 200 3 201 202 203 3 204 205 206 3 207 208 209 3 210 211 212 3 213 214 215 3 216 217 218 3 219 220 221 3 222 223 224 3 225 226 227 3 228 229 230 3 231 232 233 3 234 235 236 3 237 238 239 3 240 241 242 3 243 244 245 3 246 247 248 3 249 250 251 3 252 253 254 3 255 256 257 3 258 259 260 3 261 262 263 3 264 265 266 3 267 268 269 3 270 271 272 3 273 274 275 3 276 277 278 3 279 280 281 3 282 283 284 3 285 286 287 3 288 289 290 3 291 292 293 3 294 295 296 3 297 298 299 3 300 301 302 3 303 304 305 3 306 307 308 3 309 310 311 3 312 313 314 3 315 316 317 3 318 319 320 3 321 322 323 3 324 325 326 3 327 328 329 3 330 331 332 3 333 334 335 3 336 337 338 3 339 340 341 3 342 343 344 3 345 346 347 3 348 349 350 3 351 352 353 3 354 355 356 3 357 358 359 3 360 361 362 3 363 364 365 3 366 367 368 3 369 370 371 3 372 373 374 3 375 376 377 3 378 379 380 3 381 382 383 3 384 385 386 3 387 388 389 3 390 391 392 3 393 394 395 3 396 397 398 3 399 400 401 3 402 403 404 3 405 406 407 3 408 409 410 3 411 412 413 3 414 415 416 3 417 418 419 3 420 421 422 3 423 424 425 3 426 427 428 3 429 430 431 3 432 433 434 3 435 436 437 3 438 439 440 3 441 442 443 3 444 445 446 3 447 448 449 3 450 451 452 3 453 454 455 3 456 457 458 3 459 460 461 3 462 463 464 3 465 466 467 3 468 469 470 3 471 472 473 3 474 475 476 3 477 478 479 3 480 481 482 3 483 484 485 3 486 487 488 3 489 490 491 3 492 493 494 3 495 496 497 3 498 499 500 3 501 502 503 3 504 505 506 3 507 508 509 3 510 511 512 3 513 514 515 3 516 517 518 3 519 520 521 3 522 523 524 3 525 526 527 3 528 529 530 3 531 532 533 3 534 535 536 3 537 538 539 3 540 541 542 3 543 544 545 3 546 547 548 3 549 550 551 3 552 553 554 3 555 556 557 3 558 559 560 3 561 562 563 3 564 565 566 3 567 568 569 3 570 571 572 3 573 574 575 3 576 577 578 3 579 580 581 3 582 583 584 3 585 586 587 3 588 589 590 3 591 592 593 3 594 595 596 3 597 598 599 3 600 601 602 3 603 604 605 3 606 607 608 3 609 610 611 3 612 613 614 3 615 616 617 3 618 619 620 3 621 622 623 3 624 625 626 3 627 628 629 3 630 631 632 3 633 634 635 3 636 637 638 3 639 640 641 3 642 643 644 3 645 646 647 3 648 649 650 3 651 652 653 3 654 655 656 3 657 658 659 3 660 661 662 3 663 664 665 3 666 667 668 3 669 670 671 3 672 673 674 3 675 676 677 3 678 679 680 3 681 682 683 3 684 685 686 3 687 688 689 3 690 691 692 3 693 694 695 3 696 697 698 3 699 700 701 3 702 703 704 3 705 706 707 3 708 709 710 3 711 712 713 3 714 715 716 3 717 718 719 3 720 721 722 3 723 724 725 3 726 727 728 3 729 730 731 3 732 733 734 3 735 736 737 3 738 739 740 3 741 742 743 3 744 745 746 3 747 748 749 3 750 751 752 3 753 754 755 3 756 757 758 3 759 760 761 3 762 763 764 3 765 766 767 3 768 769 770 3 771 772 773 3 774 775 776 3 777 778 779 3 780 781 782 3 783 784 785 3 786 787 788 3 789 790 791 3 792 793 794 3 795 796 797 3 798 799 800 3 801 802 803 3 804 805 806 3 807 808 809 3 810 811 812 3 813 814 815 3 816 817 818 3 819 820 821 3 822 823 824 3 825 826 827 3 828 829 830 3 831 832 833 3 834 835 836 3 837 838 839 3 840 841 842 3 843 844 845 3 846 847 848 3 849 850 851 3 852 853 854 3 855 856 857 3 858 859 860 3 861 862 863 3 864 865 866 3 867 868 869 3 870 871 872 3 873 874 875 3 876 877 878 3 879 880 881 3 882 883 884 3 885 886 887 3 888 889 890 3 891 892 893 3 894 895 896 3 897 898 899 3 900 901 902 3 903 904 905 3 906 907 908 3 909 910 911 3 912 913 914 3 915 916 917 3 918 919 920 3 921 922 923 3 924 925 926 3 927 928 929 3 930 931 932 3 933 934 935 3 936 937 938 3 939 940 941 3 942 943 944 3 945 946 947 3 948 949 950 3 951 952 953 3 954 955 956 3 957 958 959 3 960 961 962 3 963 964 965 3 966 967 968 3 969 970 971 3 972 973 974 3 975 976 977 3 978 979 980 3 981 982 983 3 984 985 986 3 987 988 989 3 990 991 992 3 993 994 995 3 996 997 998 3 999 1000 1001 3 1002 1003 1004 3 1005 1006 1007 3 1008 1009 1010 3 1011 1012 1013 3 1014 1015 1016 3 1017 1018 1019 3 1020 1021 1022 3 1023 1024 1025 3 1026 1027 1028 3 1029 1030 1031 3 1032 1033 1034 3 1035 1036 1037 3 1038 1039 1040 3 1041 1042 1043 3 1044 1045 1046 3 1047 1048 1049 3 1050 1051 1052 3 1053 1054 1055 3 1056 1057 1058 3 1059 1060 1061 3 1062 1063 1064 3 1065 1066 1067 3 1068 1069 1070 3 1071 1072 1073 3 1074 1075 1076 3 1077 1078 1079 3 1080 1081 1082 3 1083 1084 1085 3 1086 1087 1088 3 1089 1090 1091 3 1092 1093 1094 3 1095 1096 1097 3 1098 1099 1100 3 1101 1102 1103 3 1104 1105 1106 3 1107 1108 1109 3 1110 1111 1112 3 1113 1114 1115 3 1116 1117 1118 3 1119 1120 1121 3 1122 1123 1124 3 1125 1126 1127 3 1128 1129 1130 3 1131 1132 1133 3 1134 1135 1136 3 1137 1138 1139 3 1140 1141 1142 3 1143 1144 1145 3 1146 1147 1148 3 1149 1150 1151 3 1152 1153 1154 3 1155 1156 1157 3 1158 1159 1160 3 1161 1162 1163 3 1164 1165 1166 3 1167 1168 1169 3 1170 1171 1172 3 1173 1174 1175 3 1176 1177 1178 3 1179 1180 1181 3 1182 1183 1184 3 1185 1186 1187 3 1188 1189 1190 3 1191 1192 1193 3 1194 1195 1196 3 1197 1198 1199 3 1200 1201 1202 3 1203 1204 1205 3 1206 1207 1208 3 1209 1210 1211 3 1212 1213 1214 3 1215 1216 1217 3 1218 1219 1220 3 1221 1222 1223 3 1224 1225 1226 3 1227 1228 1229 3 1230 1231 1232 3 1233 1234 1235 3 1236 1237 1238 3 1239 1240 1241 3 1242 1243 1244 3 1245 1246 1247 3 1248 1249 1250 3 1251 1252 1253 3 1254 1255 1256 3 1257 1258 1259 3 1260 1261 1262 3 1263 1264 1265 3 1266 1267 1268 3 1269 1270 1271 3 1272 1273 1274 3 1275 1276 1277 3 1278 1279 1280 3 1281 1282 1283 3 1284 1285 1286 3 1287 1288 1289 3 1290 1291 1292 3 1293 1294 1295 3 1296 1297 1298 3 1299 1300 1301 3 1302 1303 1304 3 1305 1306 1307 3 1308 1309 1310 3 1311 1312 1313 3 1314 1315 1316 3 1317 1318 1319 3 1320 1321 1322 3 1323 1324 1325 3 1326 1327 1328 3 1329 1330 1331 3 1332 1333 1334 3 1335 1336 1337 3 1338 1339 1340 3 1341 1342 1343 3 1344 1345 1346 3 1347 1348 1349 3 1350 1351 1352 3 1353 1354 1355 3 1356 1357 1358 3 1359 1360 1361 3 1362 1363 1364 3 1365 1366 1367 3 1368 1369 1370 3 1371 1372 1373 3 1374 1375 1376 3 1377 1378 1379 3 1380 1381 1382 3 1383 1384 1385 3 1386 1387 1388 3 1389 1390 1391 3 1392 1393 1394 3 1395 1396 1397 3 1398 1399 1400 3 1401 1402 1403 3 1404 1405 1406 3 1407 1408 1409 3 1410 1411 1412 3 1413 1414 1415 3 1416 1417 1418 3 1419 1420 1421 3 1422 1423 1424 3 1425 1426 1427 3 1428 1429 1430 3 1431 1432 1433 3 1434 1435 1436 3 1437 1438 1439 3 1440 1441 1442 3 1443 1444 1445 3 1446 1447 1448 3 1449 1450 1451 3 1452 1453 1454 3 1455 1456 1457 3 1458 1459 1460 3 1461 1462 1463 3 1464 1465 1466 3 1467 1468 1469 3 1470 1471 1472 3 1473 1474 1475 3 1476 1477 1478 3 1479 1480 1481 3 1482 1483 1484 3 1485 1486 1487 3 1488 1489 1490 3 1491 1492 1493 3 1494 1495 1496 3 1497 1498 1499 3 1500 1501 1502 3 1503 1504 1505 3 1506 1507 1508 3 1509 1510 1511 3 1512 1513 1514 3 1515 1516 1517 3 1518 1519 1520 3 1521 1522 1523 3 1524 1525 1526 3 1527 1528 1529 3 1530 1531 1532 3 1533 1534 1535 3 1536 1537 1538 3 1539 1540 1541 3 1542 1543 1544 3 1545 1546 1547 3 1548 1549 1550 3 1551 1552 1553 3 1554 1555 1556 3 1557 1558 1559 3 1560 1561 1562 3 1563 1564 1565 3 1566 1567 1568 3 1569 1570 1571 3 1572 1573 1574 3 1575 1576 1577 3 1578 1579 1580 3 1581 1582 1583 3 1584 1585 1586 3 1587 1588 1589 3 1590 1591 1592 3 1593 1594 1595 3 1596 1597 1598 3 1599 1600 1601 3 1602 1603 1604 3 1605 1606 1607 3 1608 1609 1610 3 1611 1612 1613 3 1614 1615 1616 3 1617 1618 1619 3 1620 1621 1622 3 1623 1624 1625 3 1626 1627 1628 3 1629 1630 1631 3 1632 1633 1634 3 1635 1636 1637 3 1638 1639 1640 3 1641 1642 1643 3 1644 1645 1646 3 1647 1648 1649 3 1650 1651 1652 3 1653 1654 1655 3 1656 1657 1658 3 1659 1660 1661 3 1662 1663 1664 3 1665 1666 1667 3 1668 1669 1670 3 1671 1672 1673 3 1674 1675 1676 3 1677 1678 1679 3 1680 1681 1682 3 1683 1684 1685 3 1686 1687 1688 3 1689 1690 1691 3 1692 1693 1694 3 1695 1696 1697 3 1698 1699 1700 3 1701 1702 1703 3 1704 1705 1706 3 1707 1708 1709 3 1710 1711 1712 3 1713 1714 1715 3 1716 1717 1718 3 1719 1720 1721 3 1722 1723 1724 3 1725 1726 1727 3 1728 1729 1730 3 1731 1732 1733 3 1734 1735 1736 3 1737 1738 1739 3 1740 1741 1742 3 1743 1744 1745 3 1746 1747 1748 3 1749 1750 1751 3 1752 1753 1754 3 1755 1756 1757 3 1758 1759 1760 3 1761 1762 1763 3 1764 1765 1766 3 1767 1768 1769 3 1770 1771 1772 3 1773 1774 1775 3 1776 1777 1778 