ply
format ascii 1.0
element vertex 299
property float x
property float y
property float z
property uchar red
property uchar green
property uchar blue
element face 104
property list uchar int vertex_index
end_header
0.631854 1.612147 -3.773608 255 0 0
0.631971 1.612259 -3.773207 255 0 0
0.632089 1.612371 -3.772807 255 0 0
0.632147 1.612397 -3.772315 255 0 0
0.632205 1.612423 -3.771823 255 0 0
0.632235 1.612438 -3.771335 255 0 0
0.632265 1.612453 -3.770847 255 0 0
0.632254 1.612292 -3.770620 255 0 0
0.632243 1.612131 -3.770394 255 0 0
0.632310 1.612147 -3.769898 255 0 0
0.632376 1.612164 -3.769402 255 0 0
0.632529 1.612272 -3.768997 255 0 0
0.632682 1.612380 -3.768593 255 0 0
0.632759 1.612401 -3.768098 255 0 0
0.632835 1.612422 -3.767603 255 0 0
0.632820 1.612254 -3.767369 255 0 0
0.632805 1.612087 -3.767135 255 0 0
0.632877 1.612113 -3.766643 255 0 0
0.632948 1.612140 -3.766150 255 0 0
0.633076 1.612247 -3.765740 255 0 0
0.633204 1.612355 -3.765330 255 0 0
0.633271 1.612387 -3.764839 255 0 0
0.633339 1.612420 -3.764349 255 0 0
0.633370 1.612440 -3.763862 255 0 0
0.633401 1.612460 -3.763376 255 0 0
0.633398 1.612296 -3.763141 255 0 0
0.633396 1.612132 -3.762906 255 0 0
0.633441 1.612149 -3.762415 255 0 0
0.633487 1.612166 -3.761924 255 0 0
0.633487 1.612166 -3.761924 0 255 0
0.629252 1.611074 -3.764020 0 255 0
0.625017 1.609981 -3.766115 0 255 0
0.633487 1.612166 -3.761924 0 255 0
0.629346 1.611105 -3.764467 0 255 0
0.625205 1.610044 -3.767010 0 255 0
0.633401 1.612460 -3.763376 0 0 255
0.629303 1.611252 -3.765193 0 0 255
0.625205 1.610044 -3.767010 0 0 255
0.633396 1.612132 -3.762906 0 255 0
0.629300 1.611088 -3.764958 0 255 0
0.625205 1.610044 -3.767010 0 255 0
0.633401 1.612460 -3.763376 0 255 0
0.629188 1.611216 -3.765716 0 255 0
0.624975 1.609973 -3.768056 0 255 0
0.633396 1.612132 -3.762906 0 0 255
0.629186 1.611052 -3.765481 0 0 255
0.624975 1.609973 -3.768056 0 0 255
0.633204 1.612355 -3.765330 0 255 0
0.629090 1.611164 -3.766693 0 255 0
0.624975 1.609973 -3.768056 0 255 0
0.633339 1.612420 -3.764349 0 255 0
0.629157 1.611196 -3.766202 0 255 0
0.624975 1.609973 -3.768056 0 255 0
0.633487 1.612166 -3.761924 0 255 0
0.629231 1.611069 -3.764990 0 255 0
0.624975 1.609973 -3.768056 0 255 0
0.633204 1.612355 -3.765330 0 255 0
0.629321 1.611243 -3.767088 0 255 0
0.625438 1.610130 -3.768845 0 255 0
0.633339 1.612420 -3.764349 0 0 255
0.629388 1.611275 -3.766597 0 0 255
0.625438 1.610130 -3.768845 0 0 255
0.633204 1.612355 -3.765330 0 0 255
0.629415 1.611290 -3.767557 0 0 255
0.625625 1.610226 -3.769783 0 0 255
0.633339 1.612420 -3.764349 0 255 0
0.629482 1.611323 -3.767066 0 255 0
0.625625 1.610226 -3.769783 0 255 0
0.632682 1.612380 -3.768593 0 255 0
0.629154 1.611303 -3.769188 0 255 0
0.625625 1.610226 -3.769783 0 255 0
0.632835 1.612422 -3.767603 0 255 0
0.629230 1.611324 -3.768693 0 255 0
0.625625 1.610226 -3.769783 0 255 0
0.632805 1.612087 -3.767135 0 0 255
0.629215 1.611156 -3.768459 0 0 255
0.625625 1.610226 -3.769783 0 0 255
0.632948 1.612140 -3.766150 0 255 0
0.629191 1.611159 -3.768482 0 255 0
0.625434 1.610178 -3.770815 0 255 0
0.632682 1.612380 -3.768593 0 255 0
0.629058 1.611279 -3.769704 0 255 0
0.625434 1.610178 -3.770815 0 255 0
0.632835 1.612422 -3.767603 0 255 0
0.629135 1.611300 -3.769209 0 255 0
0.625434 1.610178 -3.770815 0 255 0
0.632805 1.612087 -3.767135 0 0 255
0.629120 1.611132 -3.768975 0 0 255
0.625434 1.610178 -3.770815 0 0 255
0.633204 1.612355 -3.765330 0 255 0
0.629319 1.611267 -3.768073 0 255 0
0.625434 1.610178 -3.770815 0 255 0
0.632682 1.612380 -3.768593 0 0 255
0.631184 1.611970 -3.769415 0 0 255
0.629687 1.611561 -3.770236 0 0 255
0.632835 1.612422 -3.767603 0 255 0
0.631261 1.611991 -3.768920 0 255 0
0.629687 1.611561 -3.770236 0 255 0
0.632265 1.612453 -3.770847 0 0 255
0.630935 1.611994 -3.771040 0 0 255
0.629606 1.611535 -3.771232 0 0 255
0.632243 1.612131 -3.770394 0 255 0
0.630924 1.611833 -3.770813 0 255 0
0.629606 1.611535 -3.771232 0 255 0
0.632376 1.612164 -3.769402 0 255 0
0.630991 1.611850 -3.770317 0 255 0
0.629606 1.611535 -3.771232 0 255 0
0.632089 1.612371 -3.772807 0 255 0
0.630847 1.611953 -3.772019 0 255 0
0.629606 1.611535 -3.771232 0 255 0
0.632265 1.612453 -3.770847 255 255 0
0.630896 1.611975 -3.771540 255 255 0
0.629527 1.611498 -3.772234 255 255 0
0.632243 1.612131 -3.770394 0 255 0
0.630885 1.611814 -3.771314 0 255 0
0.629527 1.611498 -3.772234 0 255 0
0.632089 1.612371 -3.772807 0 255 0
0.630808 1.611935 -3.772520 0 255 0
0.629527 1.611498 -3.772234 0 255 0
0.632205 1.612423 -3.771823 0 255 0
0.631210 1.612063 -3.772397 0 255 0
0.630214 1.611703 -3.772971 0 255 0
0.631854 1.612147 -3.773608 0 255 0
0.631034 1.611925 -3.773289 0 255 0
0.630214 1.611703 -3.772971 0 255 0
0.631854 1.612147 -3.773608 0 255 0
0.630993 1.611910 -3.773798 0 255 0
0.630132 1.611673 -3.773988 0 255 0
0.633401 1.612460 -3.763376 0 255 0
0.631482 1.611965 -3.762062 0 255 0
0.629563 1.611470 -3.760747 0 255 0
0.633487 1.612166 -3.761924 0 255 0
0.631543 1.611815 -3.762068 0 255 0
0.629600 1.611465 -3.762211 0 255 0
0.633487 1.612166 -3.761924 0 255 0
0.631558 1.611799 -3.762802 0 255 0
0.629629 1.611432 -3.763680 0 255 0
0.633401 1.612460 -3.763376 0 255 0
0.631524 1.611912 -3.764264 0 255 0
0.629646 1.611364 -3.765152 0 255 0
0.633396 1.612132 -3.762906 0 0 255
0.631521 1.611748 -3.764029 0 0 255
0.629646 1.611364 -3.765152 0 0 255
0.633487 1.612166 -3.761924 0 255 0
0.631566 1.611765 -3.763538 0 255 0
0.629646 1.611364 -3.765152 0 255 0
0.633204 1.612355 -3.765330 0 255 0
0.631430 1.611811 -3.765991 0 255 0
0.629656 1.611267 -3.766652 0 255 0
0.633339 1.612420 -3.764349 0 255 0
0.631497 1.611843 -3.765500 0 255 0
0.629656 1.611267 -3.766652 0 255 0
0.632376 1.612164 -3.769402 0 255 0
0.631016 1.611716 -3.768027 0 255 0
0.629656 1.611267 -3.766652 0 255 0
0.632682 1.612380 -3.768593 0 255 0
0.631169 1.611823 -3.767623 0 255 0
0.629656 1.611267 -3.766652 0 255 0
0.632948 1.612140 -3.766150 0 0 255
0.631308 1.611660 -3.767136 0 0 255
0.629668 1.611180 -3.768121 0 0 255
0.632376 1.612164 -3.769402 0 255 0
0.631022 1.611672 -3.768762 0 255 0
0.629668 1.611180 -3.768121 0 255 0
0.632682 1.612380 -3.768593 0 255 0
0.631175 1.611780 -3.768357 0 255 0
0.629668 1.611180 -3.768121 0 255 0
0.632682 1.612380 -3.768593 0 255 0
0.631148 1.611747 -3.769123 0 255 0
0.629615 1.611114 -3.769653 0 255 0
0.632835 1.612422 -3.767603 0 255 0
0.631225 1.611768 -3.768628 0 255 0
0.629615 1.611114 -3.769653 0 255 0
0.632805 1.612087 -3.767135 0 0 255
0.631210 1.611600 -3.768394 0 0 255
0.629615 1.611114 -3.769653 0 0 255
0.632376 1.612164 -3.769402 0 255 0
0.631008 1.611616 -3.770263 0 255 0
0.629640 1.611068 -3.771123 0 255 0
0.632682 1.612380 -3.768593 0 255 0
0.631161 1.611724 -3.769858 0 255 0
0.629640 1.611068 -3.771123 0 255 0
0.631854 1.612147 -3.773608 0 255 0
0.630747 1.611608 -3.772366 0 255 0
0.629640 1.611068 -3.771123 0 255 0
0.632089 1.612371 -3.772807 0 255 0
0.630864 1.611720 -3.771965 0 255 0
0.629640 1.611068 -3.771123 0 255 0
0.632265 1.612453 -3.770847 255 255 0
0.630975 1.611774 -3.771716 255 255 0
0.629686 1.611095 -3.772584 255 255 0
0.632243 1.612131 -3.770394 0 255 0
0.630965 1.611613 -3.771489 0 255 0
0.629686 1.611095 -3.772584 0 255 0
0.632265 1.612453 -3.770847 0 255 0
0.631096 1.612103 -3.772989 0 255 0
0.629928 1.611753 -3.775130 0 255 0
0.632265 1.612453 -3.770847 0 255 0
0.631129 1.612191 -3.773223 0 255 0
0.629994 1.611930 -3.775598 0 255 0
0.633487 1.612166 -3.761924 0 255 255
0.633480 1.612237 -3.762030 0 255 255
0.633474 1.612308 -3.762136 0 255 255
0.633396 1.612132 -3.762906 0 255 255
0.633435 1.612220 -3.762521 0 255 255
0.633474 1.612308 -3.762136 0 255 255
0.633401 1.612460 -3.763376 255 255 0
0.633407 1.612390 -3.763272 255 255 0
0.633413 1.612320 -3.763168 255 255 0
0.633396 1.612132 -3.762906 0 255 255
0.633405 1.612226 -3.763037 0 255 255
0.633413 1.612320 -3.763168 0 255 255
0.633487 1.612166 -3.761924 0 255 0
0.633450 1.612243 -3.762546 0 255 0
0.633413 1.612320 -3.763168 0 255 0
0.633204 1.612355 -3.765330 255 255 0
0.633276 1.612338 -3.764766 255 255 0
0.633348 1.612322 -3.764202 255 255 0
0.633339 1.612420 -3.764349 0 255 255
0.633343 1.612371 -3.764275 0 255 255
0.633348 1.612322 -3.764202 0 255 255
0.633401 1.612460 -3.763376 0 255 0
0.633374 1.612391 -3.763789 0 255 0
0.633348 1.612322 -3.764202 0 255 0
0.633204 1.612355 -3.765330 0 255 255
0.633207 1.612327 -3.765288 0 255 255
0.633209 1.612299 -3.765247 0 255 255
0.633339 1.612420 -3.764349 255 255 0
0.633274 1.612359 -3.764798 255 255 0
0.633209 1.612299 -3.765247 255 255 0
0.632948 1.612140 -3.766150 255 255 0
0.632943 1.612192 -3.766227 255 255 0
0.632939 1.612243 -3.766305 255 255 0
0.632805 1.612087 -3.767135 255 255 0
0.632872 1.612165 -3.766720 255 255 0
0.632939 1.612243 -3.766305 255 255 0
0.632835 1.612422 -3.767603 0 255 0
0.632887 1.612333 -3.766954 0 255 0
0.632939 1.612243 -3.766305 0 255 0
0.632835 1.612422 -3.767603 255 255 0
0.632814 1.612325 -3.767475 255 255 0
0.632792 1.612229 -3.767347 255 255 0
0.632805 1.612087 -3.767135 0 255 255
0.632799 1.612158 -3.767241 0 255 255
0.632792 1.612229 -3.767347 0 255 255
0.632948 1.612140 -3.766150 255 255 0
0.632870 1.612184 -3.766749 255 255 0
0.632792 1.612229 -3.767347 255 255 0
0.632682 1.612380 -3.768593 0 255 255
0.632689 1.612309 -3.768488 0 255 255
0.632695 1.612239 -3.768383 0 255 255
0.632835 1.612422 -3.767603 0 255 0
0.632765 1.612330 -3.767993 0 255 0
0.632695 1.612239 -3.768383 0 255 0
0.632376 1.612164 -3.769402 255 255 0
0.632536 1.612202 -3.768892 255 255 0
0.632695 1.612239 -3.768383 255 255 0
0.632376 1.612164 -3.769402 0 255 255
0.632375 1.612180 -3.769425 0 255 255
0.632373 1.612195 -3.769447 0 255 255
0.632682 1.612380 -3.768593 255 255 0
0.632528 1.612288 -3.769020 255 255 0
0.632373 1.612195 -3.769447 255 255 0
0.632265 1.612453 -3.770847 255 255 0
0.632251 1.612324 -3.770669 255 255 0
0.632237 1.612196 -3.770492 255 255 0
0.632243 1.612131 -3.770394 0 255 255
0.632240 1.612163 -3.770443 0 255 255
0.632237 1.612196 -3.770492 0 255 255
0.632265 1.612453 -3.770847 0 255 255
0.632244 1.612339 -3.771187 0 255 255
0.632223 1.612225 -3.771527 0 255 255
0.632243 1.612131 -3.770394 0 255 0
0.632233 1.612178 -3.770960 0 255 0
0.632223 1.612225 -3.771527 0 255 0
0.632205 1.612423 -3.771823 255 255 0
0.632214 1.612324 -3.771675 255 255 0
0.632223 1.612225 -3.771527 255 255 0
0.632089 1.612371 -3.772807 0 255 0
0.632156 1.612298 -3.772167 0 255 0
0.632223 1.612225 -3.771527 0 255 0
0.632205 1.612423 -3.771823 255 255 0
0.632154 1.612322 -3.772203 255 255 0
0.632103 1.612221 -3.772582 255 255 0
0.631854 1.612147 -3.773608 0 255 0
0.631978 1.612184 -3.773095 0 255 0
0.632103 1.612221 -3.772582 0 255 0
0.632089 1.612371 -3.772807 0 255 255
0.632096 1.612296 -3.772695 0 255 255
0.632103 1.612221 -3.772582 0 255 255
0.632265 1.612453 -3.770847 0 255 0
0.632184 1.612337 -3.771715 0 255 0
0.632103 1.612221 -3.772582 0 255 0
0.631854 1.612147 -3.773608 0 255 255
0.631852 1.612164 -3.773634 0 255 255
0.631850 1.612182 -3.773660 0 255 255
0.632089 1.612371 -3.772807 0 0 255
0.631970 1.612276 -3.773233 0 0 255
0.631850 1.612182 -3.773660 0 0 255
3 0 1 2 3 2 3 4 3 4 5 6 3 6 7 8 3 8 9 10 3 10 11 12 3 12 13 14 3 14 15 16 3 16 17 18 3 18 19 20 3 20 21 22 3 22 23 24 3 24 25 26 3 26 27 28 3 29 30 31 3 32 33 34 3 35 36 37 3 38 39 40 3 41 42 43 3 44 45 46 3 47 48 49 3 50 51 52 3 53 54 55 3 56 57 58 3 59 60 61 3 62 63 64 3 65 66 67 3 68 69 70 3 71 72 73 3 74 75 76 3 77 78 79 3 80 81 82 3 83 84 85 3 86 87 88 3 89 90 91 3 92 93 94 3 95 96 97 3 98 99 100 3 101 102 103 3 104 105 106 3 107 108 109 3 110 111 112 3 113 114 115 3 116 117 118 3 119 120 121 3 122 123 124 3 125 126 127 3 128 129 130 3 131 132 133 3 134 135 136 3 137 138 139 3 140 141 142 3 143 144 145 3 146 147 148 3 149 150 151 3 152 153 154 3 155 156 157 3 158 159 160 3 161 162 163 3 164 165 166 3 167 168 169 3 170 171 172 3 173 174 175 3 176 177 178 3 179 180 181 3 182 183 184 3 185 186 187 3 188 189 190 3 191 192 193 3 194 195 196 3 197 198 199 3 200 201 202 3 203 204 205 3 206 207 208 3 209 210 211 3 212 213 214 3 215 216 217 3 218 219 220 3 221 222 223 3 224 225 226 3 227 228 229 3 230 231 232 3 233 234 235 3 236 237 238 3 239 240 241 3 242 243 244 3 245 246 247 3 248 249 250 3 251 252 253 3 254 255 256 3 257 258 259 3 260 261 262 3 263 264 265 3 266 267 268 3 269 270 271 3 272 273 274 3 275 276 277 3 278 279 280 3 281 282 283 3 284 285 286 3 287 288 289 3 290 291 292 3 293 294 295 3 296 297 298 