ply
format ascii 1.0
element vertex 2227
property float x
property float y
property float z
property uchar red
property uchar green
property uchar blue
element face 763
property list uchar int vertex_index
end_header
0.629042 1.608643 -3.713724 255 0 0
0.628865 1.608626 -3.714287 255 0 0
0.628688 1.608609 -3.714851 255 0 0
0.628868 1.608707 -3.715273 255 0 0
0.629048 1.608805 -3.715696 255 0 0
0.628870 1.608782 -3.716245 255 0 0
0.628692 1.608759 -3.716795 255 0 0
0.628516 1.608728 -3.717342 255 0 0
0.628340 1.608697 -3.717889 255 0 0
0.628430 1.608744 -3.718336 255 0 0
0.628520 1.608791 -3.718782 255 0 0
0.628348 1.608747 -3.719327 255 0 0
0.628176 1.608704 -3.719873 255 0 0
0.628268 1.608743 -3.720319 255 0 0
0.628360 1.608783 -3.720766 255 0 0
0.628310 1.608782 -3.721265 255 0 0
0.628260 1.608781 -3.721765 255 0 0
0.628870 1.609000 -3.722017 255 0 0
0.629480 1.609218 -3.722268 255 0 0
0.629433 1.609237 -3.722761 255 0 0
0.629387 1.609255 -3.723254 255 0 0
0.629333 1.609289 -3.723787 255 0 0
0.629279 1.609323 -3.724320 255 0 0
0.629226 1.609368 -3.724814 255 0 0
0.629174 1.609413 -3.725307 255 0 0
0.629349 1.609529 -3.725715 255 0 0
0.629524 1.609646 -3.726122 255 0 0
0.628418 1.609341 -3.727004 255 0 0
0.627313 1.609036 -3.727886 255 0 0
0.627130 1.609019 -3.728427 255 0 0
0.626946 1.609003 -3.728967 255 0 0
0.627030 1.609065 -3.729409 255 0 0
0.627114 1.609128 -3.729852 255 0 0
0.627047 1.609138 -3.730352 255 0 0
0.626981 1.609148 -3.730852 255 0 0
0.626803 1.609120 -3.731394 255 0 0
0.626625 1.609092 -3.731937 255 0 0
0.626712 1.609148 -3.732382 255 0 0
0.626798 1.609203 -3.732828 255 0 0
0.626622 1.609173 -3.733371 255 0 0
0.626446 1.609143 -3.733914 255 0 0
0.626268 1.609141 -3.734480 255 0 0
0.626090 1.609139 -3.735046 255 0 0
0.626286 1.609239 -3.735451 255 0 0
0.626481 1.609340 -3.735857 255 0 0
0.626302 1.609328 -3.736399 255 0 0
0.626122 1.609316 -3.736941 255 0 0
0.627507 1.609811 -3.736904 255 0 0
0.628892 1.610305 -3.736867 255 0 0
0.628910 1.610354 -3.737336 255 0 0
0.628928 1.610403 -3.737805 255 0 0
0.628789 1.610395 -3.738332 255 0 0
0.628650 1.610386 -3.738860 255 0 0
0.628767 1.610456 -3.739293 255 0 0
0.628883 1.610525 -3.739726 255 0 0
0.628726 1.610501 -3.740261 255 0 0
0.628569 1.610477 -3.740796 255 0 0
0.628583 1.610504 -3.741269 255 0 0
0.628596 1.610531 -3.741742 255 0 0
0.630131 1.611046 -3.741657 255 0 0
0.631666 1.611560 -3.741572 255 0 0
0.631577 1.611545 -3.742085 255 0 0
0.631487 1.611530 -3.742598 255 0 0
0.631417 1.611538 -3.743128 255 0 0
0.631348 1.611545 -3.743658 255 0 0
0.631405 1.611575 -3.744118 255 0 0
0.631463 1.611605 -3.744578 255 0 0
0.631424 1.611605 -3.745074 255 0 0
0.631385 1.611606 -3.745569 255 0 0
0.631332 1.611600 -3.746069 255 0 0
0.631279 1.611595 -3.746568 255 0 0
0.629578 1.611058 -3.747671 255 0 0
0.627877 1.610520 -3.748774 255 0 0
0.627876 1.610530 -3.749252 255 0 0
0.627876 1.610540 -3.749730 255 0 0
0.627825 1.610535 -3.750228 255 0 0
0.627775 1.610530 -3.750725 255 0 0
0.627830 1.610560 -3.751184 255 0 0
0.627886 1.610589 -3.751644 255 0 0
0.627751 1.610556 -3.752173 255 0 0
0.627616 1.610522 -3.752702 255 0 0
0.626509 1.610175 -3.753588 255 0 0
0.625402 1.609827 -3.754473 255 0 0
0.625494 1.609866 -3.754920 255 0 0
0.625586 1.609905 -3.755367 255 0 0
0.625395 1.609855 -3.755916 255 0 0
0.625204 1.609805 -3.756465 255 0 0
0.625422 1.609889 -3.756864 255 0 0
0.625639 1.609972 -3.757263 255 0 0
0.625467 1.609928 -3.757804 255 0 0
0.625296 1.609885 -3.758345 255 0 0
0.625386 1.609927 -3.758791 255 0 0
0.625476 1.609969 -3.759236 255 0 0
0.625301 1.609925 -3.759779 255 0 0
0.625126 1.609880 -3.760322 255 0 0
0.625216 1.609923 -3.760768 255 0 0
0.625306 1.609966 -3.761213 255 0 0
0.625129 1.609922 -3.761756 255 0 0
0.624952 1.609878 -3.762300 255 0 0
0.625224 1.609980 -3.762679 255 0 0
0.625496 1.610082 -3.763058 255 0 0
0.625322 1.610038 -3.763601 255 0 0
0.625148 1.609995 -3.764143 255 0 0
0.625239 1.610034 -3.764590 255 0 0
0.625330 1.610074 -3.765037 255 0 0
0.625174 1.610028 -3.765576 255 0 0
0.625017 1.609981 -3.766115 255 0 0
0.625111 1.610013 -3.766563 255 0 0
0.625205 1.610044 -3.767010 255 0 0
0.625090 1.610008 -3.767533 255 0 0
0.624975 1.609973 -3.768056 255 0 0
0.625207 1.610052 -3.768450 255 0 0
0.625438 1.610130 -3.768845 255 0 0
0.625531 1.610178 -3.769314 255 0 0
0.625625 1.610226 -3.769783 255 0 0
0.625530 1.610202 -3.770299 255 0 0
0.625434 1.610178 -3.770815 255 0 0
0.627560 1.610869 -3.770525 255 0 0
0.629687 1.611561 -3.770236 255 0 0
0.629646 1.611548 -3.770734 255 0 0
0.629606 1.611535 -3.771232 255 0 0
0.629567 1.611517 -3.771733 255 0 0
0.629527 1.611498 -3.772234 255 0 0
0.629871 1.611601 -3.772602 255 0 0
0.630214 1.611703 -3.772971 255 0 0
0.630173 1.611688 -3.773480 255 0 0
0.630132 1.611673 -3.773988 255 0 0
0.628928 1.610403 -3.737805 0 255 0
0.629312 1.611078 -3.736858 0 255 0
0.629696 1.611753 -3.735911 0 255 0
0.628892 1.610305 -3.736867 0 255 0
0.629294 1.611029 -3.736389 0 255 0
0.629696 1.611753 -3.735911 0 255 0
0.628650 1.610386 -3.738860 0 255 0
0.629127 1.611067 -3.738124 0 255 0
0.629603 1.611747 -3.737389 0 255 0
0.628883 1.610525 -3.739726 0 255 0
0.629243 1.611136 -3.738558 0 255 0
0.629603 1.611747 -3.737389 0 255 0
0.628650 1.610386 -3.738860 0 0 255
0.629081 1.611064 -3.738862 0 0 255
0.629511 1.611742 -3.738865 0 0 255
0.628883 1.610525 -3.739726 255 255 0
0.629197 1.611133 -3.739296 255 255 0
0.629511 1.611742 -3.738865 255 255 0
0.628569 1.610477 -3.740796 0 0 255
0.629040 1.611109 -3.739830 0 0 255
0.629511 1.611742 -3.738865 0 0 255
0.628883 1.610525 -3.739726 0 0 255
0.629151 1.611132 -3.740032 0 0 255
0.629419 1.611738 -3.740337 0 0 255
0.628569 1.610477 -3.740796 255 255 0
0.628994 1.611108 -3.740566 255 255 0
0.629419 1.611738 -3.740337 255 255 0
0.631666 1.611560 -3.741572 0 255 0
0.630543 1.611649 -3.740954 0 255 0
0.629419 1.611738 -3.740337 0 255 0
0.631487 1.611530 -3.742598 0 255 0
0.630453 1.611634 -3.741467 0 255 0
0.629419 1.611738 -3.740337 0 255 0
0.628596 1.610531 -3.741742 0 255 0
0.629008 1.611135 -3.741040 0 255 0
0.629419 1.611738 -3.740337 0 255 0
0.628883 1.610525 -3.739726 0 255 0
0.629289 1.611176 -3.740667 0 255 0
0.629694 1.611828 -3.741607 0 255 0
0.628596 1.610531 -3.741742 0 0 255
0.629145 1.611179 -3.741675 0 0 255
0.629694 1.611828 -3.741607 0 0 255
0.631666 1.611560 -3.741572 0 0 255
0.630680 1.611694 -3.741589 0 0 255
0.629694 1.611828 -3.741607 0 0 255
0.631487 1.611530 -3.742598 0 255 0
0.630591 1.611679 -3.742102 0 255 0
0.629694 1.611828 -3.741607 0 255 0
0.628569 1.610477 -3.740796 0 255 0
0.629132 1.611152 -3.741201 0 255 0
0.629694 1.611828 -3.741607 0 255 0
0.631666 1.611560 -3.741572 255 255 0
0.630627 1.611717 -3.742396 255 255 0
0.629587 1.611873 -3.743220 255 255 0
0.631487 1.611530 -3.742598 255 255 0
0.630537 1.611702 -3.742909 255 255 0
0.629587 1.611873 -3.743220 255 255 0
0.631487 1.611530 -3.742598 0 255 0
0.630491 1.611703 -3.743636 0 255 0
0.629496 1.611876 -3.744674 0 255 0
0.631348 1.611545 -3.743658 0 0 255
0.630422 1.611711 -3.744166 0 0 255
0.629496 1.611876 -3.744674 0 0 255
0.631463 1.611605 -3.744578 0 255 0
0.630479 1.611740 -3.744626 0 255 0
0.629496 1.611876 -3.744674 0 255 0
0.631385 1.611606 -3.745569 0 255 0
0.630440 1.611741 -3.745122 0 255 0
0.629496 1.611876 -3.744674 0 255 0
0.631487 1.611530 -3.742598 0 255 0
0.630630 1.611751 -3.744266 0 255 0
0.629773 1.611972 -3.745934 0 255 0
0.631463 1.611605 -3.744578 255 255 0
0.630618 1.611788 -3.745256 255 255 0
0.629773 1.611972 -3.745934 255 255 0
0.631385 1.611606 -3.745569 0 0 255
0.630579 1.611789 -3.745751 0 0 255
0.629773 1.611972 -3.745934 0 0 255
0.627877 1.610520 -3.748774 0 255 0
0.628825 1.611246 -3.747354 0 255 0
0.629773 1.611972 -3.745934 0 255 0
0.631279 1.611595 -3.746568 0 255 0
0.630526 1.611783 -3.746251 0 255 0
0.629773 1.611972 -3.745934 0 255 0
0.631348 1.611545 -3.743658 0 255 0
0.630514 1.611758 -3.745532 0 255 0
0.629680 1.611971 -3.747405 0 255 0
0.631463 1.611605 -3.744578 0 255 0
0.630572 1.611788 -3.745992 0 255 0
0.629680 1.611971 -3.747405 0 255 0
0.631385 1.611606 -3.745569 0 255 0
0.630533 1.611788 -3.746487 0 255 0
0.629680 1.611971 -3.747405 0 255 0
0.627877 1.610520 -3.748774 0 0 255
0.628779 1.611246 -3.748089 0 0 255
0.629680 1.611971 -3.747405 0 0 255
0.627876 1.610540 -3.749730 0 255 0
0.628778 1.611256 -3.748568 0 255 0
0.629680 1.611971 -3.747405 0 255 0
0.631279 1.611595 -3.746568 0 0 255
0.630479 1.611783 -3.746987 0 0 255
0.629680 1.611971 -3.747405 0 0 255
0.631279 1.611595 -3.746568 0 255 0
0.630433 1.611781 -3.747727 0 255 0
0.629587 1.611967 -3.748885 0 255 0
0.627877 1.610520 -3.748774 0 255 0
0.628732 1.611244 -3.748829 0 255 0
0.629587 1.611967 -3.748885 0 255 0
0.627876 1.610540 -3.749730 0 255 0
0.628731 1.611254 -3.749308 0 255 0
0.629587 1.611967 -3.748885 0 255 0
0.627775 1.610530 -3.750725 0 255 0
0.628635 1.611245 -3.750546 0 255 0
0.629495 1.611961 -3.750368 0 255 0
0.627886 1.610589 -3.751644 0 255 0
0.628690 1.611275 -3.751006 0 255 0
0.629495 1.611961 -3.750368 0 255 0
0.627616 1.610522 -3.752702 0 255 0
0.628705 1.611288 -3.752170 0 255 0
0.629794 1.612053 -3.751639 0 255 0
0.625586 1.609905 -3.755367 0 255 0
0.627643 1.610978 -3.754241 0 255 0
0.629701 1.612052 -3.753115 0 255 0
0.627616 1.610522 -3.752702 0 0 255
0.628658 1.611287 -3.752909 0 0 255
0.629701 1.612052 -3.753115 0 0 255
0.625402 1.609827 -3.754473 0 255 0
0.627552 1.610940 -3.753794 0 255 0
0.629701 1.612052 -3.753115 0 255 0
0.625476 1.609969 -3.759236 0 255 0
0.627495 1.611015 -3.757649 0 255 0
0.629514 1.612061 -3.756062 0 255 0
0.625476 1.609969 -3.759236 0 255 0
0.627741 1.611088 -3.758224 0 255 0
0.630006 1.612206 -3.757212 0 255 0
0.625306 1.609966 -3.761213 0 255 0
0.627610 1.611084 -3.759949 0 255 0
0.629914 1.612203 -3.758685 0 255 0
0.625496 1.610082 -3.763058 0 255 0
0.627659 1.611140 -3.761609 0 255 0
0.629821 1.612199 -3.760161 0 255 0
0.625496 1.610082 -3.763058 0 0 255
0.627612 1.611141 -3.762347 0 0 255
0.629727 1.612201 -3.761636 0 0 255
0.625148 1.609995 -3.764143 0 255 0
0.627438 1.611098 -3.762890 0 255 0
0.629727 1.612201 -3.761636 0 255 0
0.625330 1.610074 -3.765037 0 0 255
0.627482 1.611143 -3.764074 0 0 255
0.629633 1.612213 -3.763111 0 0 255
0.625205 1.610044 -3.767010 0 255 0
0.627419 1.611128 -3.765061 0 255 0
0.629633 1.612213 -3.763111 0 255 0
0.625205 1.610044 -3.767010 0 255 0
0.627590 1.611197 -3.765718 0 255 0
0.629976 1.612349 -3.764426 0 255 0
0.624975 1.609973 -3.768056 0 255 0
0.627476 1.611161 -3.766241 0 255 0
0.629976 1.612349 -3.764426 0 255 0
0.625017 1.609981 -3.766115 0 255 0
0.627497 1.611165 -3.765270 0 255 0
0.629976 1.612349 -3.764426 0 255 0
0.624975 1.609973 -3.768056 0 255 0
0.627429 1.611166 -3.766974 0 255 0
0.629882 1.612359 -3.765892 0 255 0
0.625434 1.610178 -3.770815 0 255 0
0.627658 1.611268 -3.768353 0 255 0
0.629882 1.612359 -3.765892 0 255 0
0.625438 1.610130 -3.768845 0 255 0
0.627614 1.611240 -3.768105 0 255 0
0.629790 1.612350 -3.767364 0 255 0
0.625625 1.610226 -3.769783 0 0 255
0.627662 1.611277 -3.769312 0 0 255
0.629699 1.612328 -3.768842 0 0 255
0.625434 1.610178 -3.770815 0 0 255
0.627567 1.611253 -3.769828 0 0 255
0.629699 1.612328 -3.768842 0 0 255
0.629687 1.611561 -3.770236 0 0 255
0.629962 1.612009 -3.770111 0 0 255
0.630237 1.612458 -3.769986 0 0 255
0.629606 1.611535 -3.771232 255 255 0
0.629876 1.611985 -3.771355 255 255 0
0.630145 1.612435 -3.771479 255 255 0
0.629527 1.611498 -3.772234 0 255 255
0.629836 1.611967 -3.771856 0 255 255
0.630145 1.612435 -3.771479 0 255 255
0.630214 1.611703 -3.772971 0 255 255
0.630133 1.612067 -3.772971 0 255 255
0.630051 1.612431 -3.772971 0 255 255
0.630132 1.611673 -3.773988 255 255 0
0.630092 1.612052 -3.773480 255 255 0
0.630051 1.612431 -3.772971 255 255 0
0.629606 1.611535 -3.771232 0 255 0
0.629829 1.611983 -3.772101 0 255 0
0.630051 1.612431 -3.772971 0 255 0
0.627313 1.609036 -3.727886 0 255 0
0.625706 1.608856 -3.727519 0 255 0
0.624099 1.608675 -3.727152 0 255 0
0.627313 1.609036 -3.727886 255 255 0
0.625461 1.608796 -3.728227 255 255 0
0.623610 1.608556 -3.728568 255 255 0
0.627114 1.609128 -3.729852 0 255 0
0.625362 1.608842 -3.729210 0 255 0
0.623610 1.608556 -3.728568 0 255 0
0.626798 1.609203 -3.732828 0 255 0
0.625204 1.608880 -3.730698 0 255 0
0.623610 1.608556 -3.728568 0 255 0
0.626946 1.609003 -3.728967 0 255 0
0.625278 1.608779 -3.728767 0 255 0
0.623610 1.608556 -3.728568 0 255 0
0.627313 1.609036 -3.727886 0 255 0
0.625218 1.608733 -3.728934 0 255 0
0.623124 1.608430 -3.729981 0 255 0
0.626981 1.609148 -3.730852 0 255 0
0.625052 1.608789 -3.730417 0 255 0
0.623124 1.608430 -3.729981 0 255 0
0.627114 1.609128 -3.729852 0 255 0
0.625119 1.608779 -3.729916 0 255 0
0.623124 1.608430 -3.729981 0 255 0
0.626946 1.609003 -3.728967 0 255 0
0.624795 1.608651 -3.730179 0 255 0
0.622643 1.608299 -3.731392 0 255 0
0.627114 1.609128 -3.729852 0 255 0
0.625112 1.608808 -3.731027 0 255 0
0.623110 1.608489 -3.732203 0 255 0
0.626981 1.609148 -3.730852 0 0 255
0.625045 1.608818 -3.731528 0 0 255
0.623110 1.608489 -3.732203 0 0 255
0.626625 1.609092 -3.731937 0 0 255
0.624867 1.608790 -3.732070 0 0 255
0.623110 1.608489 -3.732203 0 0 255
0.627114 1.609128 -3.729852 0 0 255
0.624872 1.608746 -3.731731 0 0 255
0.622629 1.608364 -3.733610 0 0 255
0.626981 1.609148 -3.730852 0 0 255
0.624805 1.608756 -3.732231 0 0 255
0.622629 1.608364 -3.733610 0 0 255
0.626625 1.609092 -3.731937 0 0 255
0.624627 1.608728 -3.732774 0 0 255
0.622629 1.608364 -3.733610 0 0 255
0.626946 1.609003 -3.728967 0 255 0
0.624788 1.608683 -3.731289 0 255 0
0.622629 1.608364 -3.733610 0 255 0
0.626798 1.609203 -3.732828 0 255 0
0.624714 1.608784 -3.733219 0 255 0
0.622629 1.608364 -3.733610 0 255 0
0.626625 1.609092 -3.731937 0 0 255
0.624417 1.608694 -3.733536 0 0 255
0.622210 1.608296 -3.735135 0 0 255
0.626798 1.609203 -3.732828 255 255 0
0.624504 1.608750 -3.733982 255 255 0
0.622210 1.608296 -3.735135 255 255 0
0.627114 1.609128 -3.729852 0 255 0
0.624662 1.608712 -3.732493 0 255 0
0.622210 1.608296 -3.735135 0 255 0
0.626981 1.609148 -3.730852 0 255 0
0.624595 1.608722 -3.732994 0 255 0
0.622210 1.608296 -3.735135 0 255 0
0.626446 1.609143 -3.733914 0 255 0
0.624328 1.608720 -3.734525 0 255 0
0.622210 1.608296 -3.735135 0 255 0
0.626090 1.609139 -3.735046 0 255 0
0.624150 1.608718 -3.735091 0 255 0
0.622210 1.608296 -3.735135 0 255 0
0.626798 1.609203 -3.732828 0 0 255
0.624737 1.608846 -3.734387 0 0 255
0.622675 1.608488 -3.735946 0 0 255
0.626446 1.609143 -3.733914 0 255 0
0.624561 1.608816 -3.734930 0 255 0
0.622675 1.608488 -3.735946 0 255 0
0.626090 1.609139 -3.735046 0 0 255
0.624383 1.608814 -3.735496 0 0 255
0.622675 1.608488 -3.735946 0 0 255
0.627114 1.609128 -3.729852 0 255 0
0.624895 1.608808 -3.732899 0 255 0
0.622675 1.608488 -3.735946 0 255 0
0.626981 1.609148 -3.730852 0 255 0
0.624828 1.608818 -3.733399 0 255 0
0.622675 1.608488 -3.735946 0 255 0
0.626625 1.609092 -3.731937 0 255 0
0.624650 1.608790 -3.733941 0 255 0
0.622675 1.608488 -3.735946 0 255 0
0.628892 1.610305 -3.736867 0 255 0
0.625784 1.609397 -3.736406 0 255 0
0.622675 1.608488 -3.735946 0 255 0
0.626481 1.609340 -3.735857 0 255 0
0.624343 1.608845 -3.736604 0 255 0
0.622205 1.608350 -3.737351 0 255 0
0.626981 1.609148 -3.730852 0 255 0
0.624593 1.608749 -3.734102 0 255 0
0.622205 1.608350 -3.737351 0 255 0
0.626122 1.609316 -3.736941 0 255 0
0.624163 1.608833 -3.737146 0 255 0
0.622205 1.608350 -3.737351 0 255 0
0.626481 1.609340 -3.735857 0 255 0
0.624113 1.608772 -3.737306 0 255 0
0.621745 1.608203 -3.738755 0 255 0
0.626122 1.609316 -3.736941 0 0 255
0.623934 1.608760 -3.737848 0 0 255
0.621745 1.608203 -3.738755 0 0 255
0.628892 1.610305 -3.736867 0 255 0
0.625319 1.609254 -3.737811 0 255 0
0.621745 1.608203 -3.738755 0 255 0
0.628650 1.610386 -3.738860 0 255 0
0.625198 1.609295 -3.738807 0 255 0
0.621745 1.608203 -3.738755 0 255 0
0.628883 1.610525 -3.739726 0 255 0
0.625314 1.609364 -3.739241 0 255 0
0.621745 1.608203 -3.738755 0 255 0
0.626481 1.609340 -3.735857 0 255 0
0.624353 1.608852 -3.737714 0 255 0
0.622224 1.608363 -3.739571 0 255 0
0.626122 1.609316 -3.736941 0 255 0
0.624173 1.608840 -3.738256 0 255 0
0.622224 1.608363 -3.739571 0 255 0
0.628892 1.610305 -3.736867 0 255 0
0.625558 1.609334 -3.738219 0 255 0
0.622224 1.608363 -3.739571 0 255 0
0.628650 1.610386 -3.738860 0 255 0
0.625211 1.609295 -3.739915 0 255 0
0.621773 1.608205 -3.740971 0 255 0
0.628569 1.610477 -3.740796 0 255 0
0.625171 1.609341 -3.740883 0 255 0
0.621773 1.608205 -3.740971 0 255 0
0.628596 1.610531 -3.741742 0 255 0
0.625184 1.609368 -3.741356 0 255 0
0.621773 1.608205 -3.740971 0 255 0
0.628650 1.610386 -3.738860 0 255 0
0.625450 1.609374 -3.740322 0 255 0
0.622251 1.608363 -3.741785 0 255 0
0.625296 1.609885 -3.758345 0 255 0
0.622236 1.609287 -3.758894 0 255 0
0.619177 1.608690 -3.759442 0 255 0
0.625330 1.610074 -3.765037 0 255 0
0.621991 1.609349 -3.764055 0 255 0
0.618652 1.608624 -3.763073 0 255 0
0.624952 1.609878 -3.762300 0 255 0
0.622040 1.609334 -3.763095 0 255 0
0.619128 1.608789 -3.763891 0 255 0
0.625330 1.610074 -3.765037 0 0 255
0.622229 1.609432 -3.764464 0 0 255
0.619128 1.608789 -3.763891 0 0 255
0.625148 1.609995 -3.764143 0 255 0
0.622138 1.609392 -3.764017 0 255 0
0.619128 1.608789 -3.763891 0 255 0
0.625306 1.609966 -3.761213 0 255 0
0.622005 1.609303 -3.763241 0 255 0
0.618703 1.608639 -3.765270 0 255 0
0.625148 1.609995 -3.764143 0 255 0
0.621926 1.609317 -3.764707 0 255 0
0.618703 1.608639 -3.765270 0 255 0
0.625148 1.609995 -3.764143 0 0 255
0.622167 1.609390 -3.765116 0 0 255
0.619187 1.608786 -3.766090 0 0 255
0.625496 1.610082 -3.763058 0 255 0
0.622604 1.609525 -3.765025 0 255 0
0.619711 1.608968 -3.766992 0 255 0
0.625148 1.609995 -3.764143 0 255 0
0.622293 1.609423 -3.766214 0 255 0
0.619438 1.608850 -3.768285 0 255 0
0.625330 1.610074 -3.765037 0 255 0
0.622384 1.609462 -3.766661 0 255 0
0.619438 1.608850 -3.768285 0 255 0
0.625017 1.609981 -3.766115 0 255 0
0.622227 1.609416 -3.767200 0 255 0
0.619438 1.608850 -3.768285 0 255 0
0.625205 1.610044 -3.767010 0 255 0
0.622321 1.609447 -3.767648 0 255 0
0.619438 1.608850 -3.768285 0 255 0
0.625148 1.609995 -3.764143 0 255 0
0.622535 1.609497 -3.766625 0 255 0
0.619921 1.608999 -3.769107 0 255 0
0.625330 1.610074 -3.765037 0 255 0
0.622626 1.609536 -3.767072 0 255 0
0.619921 1.608999 -3.769107 0 255 0
0.625205 1.610044 -3.767010 0 255 0
0.622563 1.609522 -3.768059 0 255 0
0.619921 1.608999 -3.769107 0 255 0
0.624975 1.609973 -3.768056 0 255 0
0.622448 1.609486 -3.768581 0 255 0
0.619921 1.608999 -3.769107 0 255 0
0.625205 1.610044 -3.767010 0 0 255
0.622461 1.609486 -3.768681 0 0 255
0.619717 1.608927 -3.770352 0 0 255
0.624975 1.609973 -3.768056 0 0 255
0.622346 1.609450 -3.769204 0 0 255
0.619717 1.608927 -3.770352 0 0 255
0.625625 1.610226 -3.769783 0 255 0
0.622671 1.609577 -3.770067 0 255 0
0.619717 1.608927 -3.770352 0 255 0
0.624975 1.609973 -3.768056 0 0 255
0.622584 1.609533 -3.769612 0 0 255
0.620192 1.609092 -3.771168 0 0 255
0.625438 1.610130 -3.768845 255 255 0
0.622815 1.609611 -3.770007 255 255 0
0.620192 1.609092 -3.771168 255 255 0
0.625625 1.610226 -3.769783 0 0 255
0.622909 1.609659 -3.770476 0 0 255
0.620192 1.609092 -3.771168 0 0 255
0.625205 1.610044 -3.767010 0 255 0
0.622698 1.609568 -3.769089 0 255 0
0.620192 1.609092 -3.771168 0 255 0
0.629606 1.611535 -3.771232 0 255 0
0.624899 1.610314 -3.771200 0 255 0
0.620192 1.609092 -3.771168 0 255 0
0.624975 1.609973 -3.768056 0 0 255
0.622410 1.609475 -3.770275 0 0 255
0.619845 1.608977 -3.772495 0 0 255
0.625438 1.610130 -3.768845 0 0 255
0.622642 1.609554 -3.770670 0 0 255
0.619845 1.608977 -3.772495 0 0 255
0.625625 1.610226 -3.769783 0 255 0
0.622735 1.609601 -3.771139 0 255 0
0.619845 1.608977 -3.772495 0 255 0
0.625205 1.610044 -3.767010 0 255 0
0.622525 1.609511 -3.769753 0 255 0
0.619845 1.608977 -3.772495 0 255 0
0.625434 1.610178 -3.770815 0 0 255
0.622640 1.609578 -3.771655 0 0 255
0.619845 1.608977 -3.772495 0 0 255
0.625434 1.610178 -3.770815 0 0 255
0.622879 1.609655 -3.772063 0 0 255
0.620323 1.609131 -3.773310 0 0 255
0.625205 1.610044 -3.767010 0 0 255
0.622764 1.609588 -3.770160 0 0 255
0.620323 1.609131 -3.773310 0 0 255
0.624975 1.609973 -3.768056 0 255 0
0.622649 1.609552 -3.770683 0 255 0
0.620323 1.609131 -3.773310 0 255 0
0.629480 1.609218 -3.722268 0 255 0
0.634930 1.610816 -3.718145 0 255 0
0.640380 1.612415 -3.714021 0 255 0
0.629480 1.609218 -3.722268 0 255 0
0.634692 1.610777 -3.718711 0 255 0
0.639904 1.612336 -3.715154 0 255 0
0.626946 1.609003 -3.728967 0 255 0
0.633165 1.610684 -3.723182 0 255 0
0.639383 1.612365 -3.717397 0 255 0
0.627313 1.609036 -3.727886 0 255 0
0.633087 1.610721 -3.723751 0 255 0
0.638862 1.612405 -3.719617 0 255 0
0.626981 1.609148 -3.730852 0 255 0
0.632921 1.610776 -3.725234 0 255 0
0.638862 1.612405 -3.719617 0 255 0
0.627313 1.609036 -3.727886 0 255 0
0.632452 1.610102 -3.724872 0 255 0
0.637590 1.611168 -3.721858 0 255 0
0.626625 1.609092 -3.731937 0 255 0
0.632108 1.610130 -3.726897 0 255 0
0.637590 1.611168 -3.721858 0 255 0
0.626625 1.609092 -3.731937 0 255 0
0.632054 1.610212 -3.727423 0 255 0
0.637483 1.611332 -3.722909 0 255 0
0.626798 1.609203 -3.732828 0 255 0
0.632141 1.610268 -3.727869 0 255 0
0.637483 1.611332 -3.722909 0 255 0
0.627114 1.609128 -3.729852 0 255 0
0.632060 1.610166 -3.726989 0 255 0
0.637006 1.611204 -3.724126 0 255 0
0.626625 1.609092 -3.731937 0 255 0
0.631815 1.610148 -3.728031 0 255 0
0.637006 1.611204 -3.724126 0 255 0
0.626798 1.609203 -3.732828 0 255 0
0.631902 1.610204 -3.728477 0 255 0
0.637006 1.611204 -3.724126 0 255 0
0.626446 1.609143 -3.733914 0 255 0
0.631726 1.610174 -3.729020 0 255 0
0.637006 1.611204 -3.724126 0 255 0
0.628692 1.608759 -3.716795 0 255 0
0.632849 1.609982 -3.720460 0 255 0
0.637006 1.611204 -3.724126 0 255 0
0.628520 1.608791 -3.718782 0 255 0
0.632486 1.610023 -3.722561 0 255 0
0.636453 1.611256 -3.726341 0 255 0
0.626625 1.609092 -3.731937 0 255 0
0.631328 1.610128 -3.729726 0 255 0
0.636032 1.611164 -3.727515 0 255 0
0.626798 1.609203 -3.732828 0 255 0
0.631415 1.610184 -3.730172 0 255 0
0.636032 1.611164 -3.727515 0 255 0
0.626446 1.609143 -3.733914 0 255 0
0.631239 1.610154 -3.730715 0 255 0
0.636032 1.611164 -3.727515 0 255 0
0.626946 1.609003 -3.728967 0 255 0
0.631489 1.610083 -3.728241 0 255 0
0.636032 1.611164 -3.727515 0 255 0
0.626981 1.609148 -3.730852 0 255 0
0.631506 1.610156 -3.729184 0 255 0
0.636032 1.611164 -3.727515 0 255 0
0.626798 1.609203 -3.732828 0 255 0
0.631379 1.610256 -3.730678 0 255 0
0.635959 1.611308 -3.728527 0 255 0
0.626446 1.609143 -3.733914 0 255 0
0.631203 1.610226 -3.731221 0 255 0
0.635959 1.611308 -3.728527 0 255 0
0.626090 1.609139 -3.735046 0 0 255
0.631025 1.610223 -3.731787 0 0 255
0.635959 1.611308 -3.728527 0 0 255
0.626946 1.609003 -3.728967 0 255 0
0.631453 1.610155 -3.728747 0 255 0
0.635959 1.611308 -3.728527 0 255 0
0.626798 1.609203 -3.732828 0 255 0
0.631203 1.610218 -3.731254 0 255 0
0.635607 1.611233 -3.729680 0 255 0
0.626446 1.609143 -3.733914 0 255 0
0.631027 1.610188 -3.731797 0 255 0
0.635607 1.611233 -3.729680 0 255 0
0.626090 1.609139 -3.735046 0 255 0
0.630849 1.610186 -3.732363 0 255 0
0.635607 1.611233 -3.729680 0 255 0
0.626981 1.609148 -3.730852 0 255 0
0.631294 1.610191 -3.730266 0 255 0
0.635607 1.611233 -3.729680 0 255 0
0.626122 1.609316 -3.736941 0 255 0
0.630824 1.610343 -3.733811 0 255 0
0.635526 1.611370 -3.730680 0 255 0
0.626981 1.609148 -3.730852 0 255 0
0.631253 1.610259 -3.730766 0 255 0
0.635526 1.611370 -3.730680 0 255 0
0.626481 1.609340 -3.735857 0 0 255
0.630920 1.610438 -3.733735 0 0 255
0.635359 1.611536 -3.731614 0 0 255
0.626122 1.609316 -3.736941 0 255 0
0.630741 1.610426 -3.734278 0 255 0
0.635359 1.611536 -3.731614 0 255 0
0.628892 1.610305 -3.736867 0 255 0
0.632126 1.610920 -3.734240 0 255 0
0.635359 1.611536 -3.731614 0 255 0
0.626981 1.609148 -3.730852 0 255 0
0.631170 1.610342 -3.731233 0 255 0
0.635359 1.611536 -3.731614 0 255 0
0.626798 1.609203 -3.732828 0 255 0
0.631079 1.610370 -3.732221 0 255 0
0.635359 1.611536 -3.731614 0 255 0
0.626446 1.609143 -3.733914 0 255 0
0.630903 1.610339 -3.732764 0 255 0
0.635359 1.611536 -3.731614 0 255 0
0.626481 1.609340 -3.735857 0 0 255
0.630834 1.610446 -3.734286 0 0 255
0.635186 1.611552 -3.732716 0 0 255
0.626122 1.609316 -3.736941 0 255 0
0.630654 1.610434 -3.734829 0 255 0
0.635186 1.611552 -3.732716 0 255 0
0.628892 1.610305 -3.736867 0 255 0
0.632039 1.610928 -3.734792 0 255 0
0.635186 1.611552 -3.732716 0 255 0
0.628650 1.610386 -3.738860 0 0 255
0.631918 1.610969 -3.735788 0 0 255
0.635186 1.611552 -3.732716 0 0 255
0.626798 1.609203 -3.732828 0 255 0
0.630992 1.610378 -3.732772 0 255 0
0.635186 1.611552 -3.732716 0 255 0
0.626446 1.609143 -3.733914 0 255 0
0.630816 1.610347 -3.733315 0 255 0
0.635186 1.611552 -3.732716 0 255 0
0.628892 1.610305 -3.736867 0 0 255
0.631930 1.610969 -3.735300 0 0 255
0.634969 1.611634 -3.733732 0 0 255
0.628928 1.610403 -3.737805 0 255 0
0.631948 1.611018 -3.735769 0 255 0
0.634969 1.611634 -3.733732 0 255 0
0.628650 1.610386 -3.738860 0 255 0
0.631809 1.611010 -3.736296 0 255 0
0.634969 1.611634 -3.733732 0 255 0
0.626798 1.609203 -3.732828 0 255 0
0.630883 1.610419 -3.733280 0 255 0
0.634969 1.611634 -3.733732 0 255 0
0.626446 1.609143 -3.733914 0 255 0
0.630708 1.610388 -3.733823 0 255 0
0.634969 1.611634 -3.733732 0 255 0
0.626090 1.609139 -3.735046 0 255 0
0.630529 1.610386 -3.734389 0 255 0
0.634969 1.611634 -3.733732 0 255 0
0.626481 1.609340 -3.735857 0 255 0
0.630725 1.610487 -3.734795 0 255 0
0.634969 1.611634 -3.733732 0 255 0
0.628892 1.610305 -3.736867 0 0 255
0.631842 1.610982 -3.735844 0 0 255
0.634792 1.611660 -3.734820 0 0 255
0.628928 1.610403 -3.737805 255 255 0
0.631860 1.611031 -3.736313 255 255 0
0.634792 1.611660 -3.734820 255 255 0
0.628650 1.610386 -3.738860 0 255 0
0.631721 1.611023 -3.736840 0 255 0
0.634792 1.611660 -3.734820 0 255 0
0.628569 1.610477 -3.740796 0 255 0
0.631681 1.611068 -3.737808 0 255 0
0.634792 1.611660 -3.734820 0 255 0
0.626798 1.609203 -3.732828 0 255 0
0.630795 1.610432 -3.733824 0 255 0
0.634792 1.611660 -3.734820 0 255 0
0.626090 1.609139 -3.735046 0 255 0
0.630441 1.610399 -3.734933 0 255 0
0.634792 1.611660 -3.734820 0 255 0
0.626481 1.609340 -3.735857 0 255 0
0.630637 1.610500 -3.735339 0 255 0
0.634792 1.611660 -3.734820 0 255 0
0.628650 1.610386 -3.738860 0 0 255
0.631554 1.610960 -3.737447 0 0 255
0.634458 1.611534 -3.736034 0 0 255
0.628569 1.610477 -3.740796 0 255 0
0.631514 1.611005 -3.738415 0 255 0
0.634458 1.611534 -3.736034 0 255 0
0.628928 1.610403 -3.737805 0 255 0
0.631693 1.610968 -3.736919 0 255 0
0.634458 1.611534 -3.736034 0 255 0
0.626798 1.609203 -3.732828 0 255 0
0.630628 1.610369 -3.734431 0 255 0
0.634458 1.611534 -3.736034 0 255 0
0.626481 1.609340 -3.735857 0 255 0
0.630470 1.610437 -3.735945 0 255 0
0.634458 1.611534 -3.736034 0 255 0
0.626122 1.609316 -3.736941 0 255 0
0.630290 1.610425 -3.736488 0 255 0
0.634458 1.611534 -3.736034 0 255 0
0.628892 1.610305 -3.736867 0 255 0
0.631675 1.610919 -3.736450 0 255 0
0.634458 1.611534 -3.736034 0 255 0
0.628650 1.610386 -3.738860 0 0 255
0.631468 1.610962 -3.737990 0 0 255
0.634287 1.611538 -3.737120 0 0 255
0.628883 1.610525 -3.739726 0 0 255
0.631585 1.611032 -3.738423 0 0 255
0.634287 1.611538 -3.737120 0 0 255
0.631666 1.611560 -3.741572 0 255 0
0.632977 1.611549 -3.739346 0 255 0
0.634287 1.611538 -3.737120 0 255 0
0.628892 1.610305 -3.736867 0 255 0
0.631590 1.610922 -3.736994 0 255 0
0.634287 1.611538 -3.737120 0 255 0
0.628883 1.610525 -3.739726 255 255 0
0.631462 1.611027 -3.738983 255 255 0
0.634041 1.611529 -3.738239 255 255 0
0.631666 1.611560 -3.741572 255 255 0
0.632854 1.611545 -3.739905 255 255 0
0.634041 1.611529 -3.738239 255 255 0
0.631487 1.611530 -3.742598 0 255 0
0.632764 1.611530 -3.740418 0 255 0
0.634041 1.611529 -3.738239 0 255 0
0.628892 1.610305 -3.736867 0 255 0
0.631467 1.610917 -3.737553 0 255 0
0.634041 1.611529 -3.738239 0 255 0
0.628650 1.610386 -3.738860 0 255 0
0.631345 1.610957 -3.738549 0 255 0
0.634041 1.611529 -3.738239 0 255 0
0.628928 1.610403 -3.737805 0 255 0
0.631485 1.610966 -3.738022 0 255 0
0.634041 1.611529 -3.738239 0 255 0
0.628569 1.610477 -3.740796 0 255 0
0.631305 1.611003 -3.739517 0 255 0
0.634041 1.611529 -3.738239 0 255 0
0.628596 1.610531 -3.741742 0 0 255
0.631256 1.611068 -3.740487 0 0 255
0.633915 1.611605 -3.739232 0 0 255
0.631666 1.611560 -3.741572 255 255 0
0.632791 1.611583 -3.740402 255 255 0
0.633915 1.611605 -3.739232 255 255 0
0.631487 1.611530 -3.742598 0 255 0
0.632701 1.611568 -3.740915 0 255 0
0.633915 1.611605 -3.739232 0 255 0
0.628928 1.610403 -3.737805 0 255 0
0.631421 1.611004 -3.738518 0 255 0
0.633915 1.611605 -3.739232 0 255 0
0.628650 1.610386 -3.738860 0 255 0
0.631282 1.610996 -3.739046 0 255 0
0.633915 1.611605 -3.739232 0 255 0
0.628883 1.610525 -3.739726 0 255 0
0.631399 1.611065 -3.739479 0 255 0
0.633915 1.611605 -3.739232 0 255 0
0.628569 1.610477 -3.740796 0 0 255
0.631242 1.611041 -3.740014 0 0 255
0.633915 1.611605 -3.739232 0 0 255
0.628596 1.610531 -3.741742 255 255 0
0.631112 1.611061 -3.741064 255 255 0
0.633628 1.611592 -3.740386 255 255 0
0.631666 1.611560 -3.741572 0 255 255
0.632647 1.611576 -3.740979 0 255 255
0.633628 1.611592 -3.740386 0 255 255
0.631487 1.611530 -3.742598 0 0 255
0.632557 1.611561 -3.741492 0 0 255
0.633628 1.611592 -3.740386 0 0 255
0.628650 1.610386 -3.738860 0 0 255
0.631139 1.610989 -3.739623 0 0 255
0.633628 1.611592 -3.740386 0 0 255
0.628883 1.610525 -3.739726 0 0 255
0.631256 1.611058 -3.740056 0 0 255
0.633628 1.611592 -3.740386 0 0 255
0.628569 1.610477 -3.740796 0 0 255
0.631098 1.611034 -3.740591 0 0 255
0.633628 1.611592 -3.740386 0 0 255
0.628596 1.610531 -3.741742 0 0 255
0.631041 1.611095 -3.741562 0 0 255
0.633487 1.611660 -3.741382 0 0 255
0.631666 1.611560 -3.741572 0 255 255
0.632577 1.611610 -3.741477 0 255 255
0.633487 1.611660 -3.741382 0 255 255
0.631487 1.611530 -3.742598 0 255 255
0.632487 1.611595 -3.741990 0 255 255
0.633487 1.611660 -3.741382 0 255 255
0.631348 1.611545 -3.743658 0 0 255
0.632417 1.611603 -3.742520 0 0 255
0.633487 1.611660 -3.741382 0 0 255
0.631463 1.611605 -3.744578 0 0 255
0.632475 1.611632 -3.742980 0 0 255
0.633487 1.611660 -3.741382 0 0 255
0.628883 1.610525 -3.739726 0 255 0
0.631185 1.611092 -3.740554 0 255 0
0.633487 1.611660 -3.741382 0 255 0
0.628569 1.610477 -3.740796 0 255 0
0.631028 1.611068 -3.741089 0 255 0
0.633487 1.611660 -3.741382 0 255 0
0.631487 1.611530 -3.742598 0 255 255
0.632345 1.611586 -3.742567 0 255 255
0.633202 1.611641 -3.742537 0 255 255
0.631348 1.611545 -3.743658 0 255 255
0.632275 1.611593 -3.743098 0 255 255
0.633202 1.611641 -3.742537 0 255 255
0.631463 1.611605 -3.744578 0 0 255
0.632333 1.611623 -3.743558 0 0 255
0.633202 1.611641 -3.742537 0 0 255
0.631385 1.611606 -3.745569 0 0 255
0.632294 1.611623 -3.744053 0 0 255
0.633202 1.611641 -3.742537 0 0 255
0.631666 1.611560 -3.741572 0 0 255
0.632434 1.611601 -3.742054 0 0 255
0.633202 1.611641 -3.742537 0 0 255
0.628569 1.610477 -3.740796 0 255 0
0.630886 1.611059 -3.741666 0 255 0
0.633202 1.611641 -3.742537 0 255 0
0.628596 1.610531 -3.741742 0 255 0
0.630899 1.611086 -3.742140 0 255 0
0.633202 1.611641 -3.742537 0 255 0
0.631487 1.611530 -3.742598 255 255 0
0.632243 1.611573 -3.743122 255 255 0
0.633000 1.611615 -3.743647 255 255 0
0.631348 1.611545 -3.743658 0 255 255
0.632174 1.611580 -3.743653 0 255 255
0.633000 1.611615 -3.743647 0 255 255
0.631463 1.611605 -3.744578 0 255 255
0.632232 1.611610 -3.744113 0 255 255
0.633000 1.611615 -3.743647 0 255 255
0.631385 1.611606 -3.745569 0 0 255
0.632193 1.611610 -3.744608 0 0 255
0.633000 1.611615 -3.743647 0 0 255
0.631666 1.611560 -3.741572 0 255 0
0.632333 1.611588 -3.742609 0 255 0
0.633000 1.611615 -3.743647 0 255 0
0.631385 1.611606 -3.745569 0 255 255
0.632135 1.611653 -3.745110 0 255 255
0.632885 1.611701 -3.744650 0 255 255
0.631487 1.611530 -3.742598 0 255 0
0.632186 1.611616 -3.743624 0 255 0
0.632885 1.611701 -3.744650 0 255 0
0.631348 1.611545 -3.743658 0 0 255
0.632117 1.611623 -3.744154 0 0 255
0.632885 1.611701 -3.744650 0 0 255
0.631463 1.611605 -3.744578 0 255 255
0.632174 1.611653 -3.744614 0 255 255
0.632885 1.611701 -3.744650 0 255 255
0.631279 1.611595 -3.746568 0 0 255
0.632082 1.611648 -3.745609 0 0 255
0.632885 1.611701 -3.744650 0 0 255
0.631385 1.611606 -3.745569 0 255 255
0.632083 1.611652 -3.745656 0 255 255
0.632781 1.611698 -3.745743 0 255 255
0.631348 1.611545 -3.743658 255 255 0
0.632065 1.611622 -3.744701 255 255 0
0.632781 1.611698 -3.745743 255 255 0
0.631463 1.611605 -3.744578 0 255 255
0.632122 1.611651 -3.745161 0 255 255
0.632781 1.611698 -3.745743 0 255 255
0.627775 1.610530 -3.750725 0 255 0
0.630278 1.611114 -3.748234 0 255 0
0.632781 1.611698 -3.745743 0 255 0
0.631279 1.611595 -3.746568 0 255 255
0.632030 1.611647 -3.746156 0 255 255
0.632781 1.611698 -3.745743 0 255 255
0.631279 1.611595 -3.746568 0 255 255
0.631952 1.611628 -3.746693 0 255 255
0.632625 1.611660 -3.746817 0 255 255
0.631385 1.611606 -3.745569 0 255 0
0.632005 1.611633 -3.746193 0 255 0
0.632625 1.611660 -3.746817 0 255 0
0.627616 1.610522 -3.752702 0 255 0
0.630120 1.611091 -3.749760 0 255 0
0.632625 1.611660 -3.746817 0 255 0
0.631463 1.611605 -3.744578 0 255 0
0.632044 1.611632 -3.745698 0 255 0
0.632625 1.611660 -3.746817 0 255 0
0.627877 1.610520 -3.748774 0 255 0
0.630251 1.611090 -3.747795 0 255 0
0.632625 1.611660 -3.746817 0 255 0
0.627886 1.610589 -3.751644 0 255 0
0.630255 1.611125 -3.749230 0 255 0
0.632625 1.611660 -3.746817 0 255 0
0.631279 1.611595 -3.746568 255 255 0
0.631888 1.611588 -3.747276 255 255 0
0.632498 1.611581 -3.747983 255 255 0
0.627616 1.610522 -3.752702 0 0 255
0.630057 1.611051 -3.750343 0 0 255
0.632498 1.611581 -3.747983 0 0 255
0.627877 1.610520 -3.748774 0 255 0
0.630187 1.611050 -3.748379 0 255 0
0.632498 1.611581 -3.747983 0 255 0
0.627876 1.610540 -3.749730 0 0 255
0.630187 1.611060 -3.748857 0 0 255
0.632498 1.611581 -3.747983 0 0 255
0.627775 1.610530 -3.750725 255 255 0
0.630055 1.611033 -3.749891 255 255 0
0.632336 1.611536 -3.749057 255 255 0
0.627886 1.610589 -3.751644 0 0 255
0.630111 1.611063 -3.750351 0 0 255
0.632336 1.611536 -3.749057 0 0 255
0.631279 1.611595 -3.746568 255 255 0
0.631807 1.611566 -3.747813 255 255 0
0.632336 1.611536 -3.749057 255 255 0
0.627616 1.610522 -3.752702 255 255 0
0.629976 1.611029 -3.750880 255 255 0
0.632336 1.611536 -3.749057 255 255 0
0.627877 1.610520 -3.748774 0 0 255
0.630106 1.611028 -3.748916 0 0 255
0.632336 1.611536 -3.749057 0 0 255
0.627876 1.610540 -3.749730 255 255 0
0.630106 1.611038 -3.749394 255 255 0
0.632336 1.611536 -3.749057 255 255 0
0.627886 1.610589 -3.751644 0 0 255
0.630075 1.611062 -3.750893 0 0 255
0.632265 1.611534 -3.750142 0 0 255
0.627616 1.610522 -3.752702 0 0 255
0.629940 1.611028 -3.751422 0 0 255
0.632265 1.611534 -3.750142 0 0 255
0.625402 1.609827 -3.754473 0 255 0
0.628834 1.610680 -3.752307 0 255 0
0.632265 1.611534 -3.750142 0 255 0
0.627877 1.610520 -3.748774 0 0 255
0.630071 1.611027 -3.749458 0 0 255
0.632265 1.611534 -3.750142 0 0 255
0.627876 1.610540 -3.749730 255 255 0
0.630070 1.611037 -3.749936 255 255 0
0.632265 1.611534 -3.750142 255 255 0
0.627775 1.610530 -3.750725 0 255 0
0.630020 1.611032 -3.750433 0 255 0
0.632265 1.611534 -3.750142 0 255 0
0.627886 1.610589 -3.751644 0 0 255
0.630022 1.611096 -3.751386 0 0 255
0.632159 1.611603 -3.751129 0 0 255
0.627616 1.610522 -3.752702 0 0 255
0.629888 1.611063 -3.751916 0 0 255
0.632159 1.611603 -3.751129 0 0 255
0.625402 1.609827 -3.754473 0 255 0
0.628781 1.610715 -3.752801 0 255 0
0.632159 1.611603 -3.751129 0 255 0
0.625586 1.609905 -3.755367 0 255 0
0.628873 1.610754 -3.753248 0 255 0
0.632159 1.611603 -3.751129 0 255 0
0.627877 1.610520 -3.748774 0 255 0
0.630018 1.611062 -3.749951 0 255 0
0.632159 1.611603 -3.751129 0 255 0
0.627876 1.610540 -3.749730 0 0 255
0.630017 1.611071 -3.750430 0 0 255
0.632159 1.611603 -3.751129 0 0 255
0.627775 1.610530 -3.750725 0 255 0
0.629967 1.611066 -3.750927 0 255 0
0.632159 1.611603 -3.751129 0 255 0
0.625330 1.610074 -3.765037 0 255 0
0.628631 1.610734 -3.758720 0 255 0
0.631932 1.611394 -3.752403 0 255 0
0.625204 1.609805 -3.756465 0 255 0
0.628525 1.610651 -3.754916 0 255 0
0.631845 1.611496 -3.753366 0 255 0
0.625639 1.609972 -3.757263 0 255 0
0.628742 1.610734 -3.755315 0 255 0
0.631845 1.611496 -3.753366 0 255 0
0.625330 1.610074 -3.765037 0 255 0
0.628588 1.610785 -3.759202 0 255 0
0.631845 1.611496 -3.753366 0 255 0
0.627876 1.610540 -3.749730 0 255 0
0.629860 1.611018 -3.751548 0 255 0
0.631845 1.611496 -3.753366 0 255 0
0.627616 1.610522 -3.752702 0 255 0
0.629731 1.611009 -3.753034 0 255 0
0.631845 1.611496 -3.753366 0 255 0
0.625402 1.609827 -3.754473 0 255 0
0.628624 1.610662 -3.753920 0 255 0
0.631845 1.611496 -3.753366 0 255 0
0.625204 1.609805 -3.756465 0 255 0
0.628475 1.610632 -3.755469 0 255 0
0.631745 1.611458 -3.754473 0 255 0
0.625330 1.610074 -3.765037 0 255 0
0.628538 1.610766 -3.759755 0 255 0
0.631745 1.611458 -3.754473 0 255 0
0.627616 1.610522 -3.752702 0 255 0
0.629681 1.610990 -3.753588 0 255 0
0.631745 1.611458 -3.754473 0 255 0
0.625402 1.609827 -3.754473 0 255 0
0.628574 1.610643 -3.754473 0 255 0
0.631745 1.611458 -3.754473 0 255 0
0.625296 1.609885 -3.758345 0 255 0
0.628418 1.610645 -3.756962 0 255 0
0.631541 1.611405 -3.755579 0 255 0
0.625330 1.610074 -3.765037 0 255 0
0.628435 1.610740 -3.760308 0 255 0
0.631541 1.611405 -3.755579 0 255 0
0.625476 1.609969 -3.759236 0 255 0
0.628514 1.610751 -3.757889 0 255 0
0.631553 1.611532 -3.756541 0 255 0
0.625306 1.609966 -3.761213 0 255 0
0.628430 1.610749 -3.758877 0 255 0
0.631553 1.611532 -3.756541 0 255 0
0.625205 1.610044 -3.767010 0 255 0
0.628379 1.610788 -3.761776 0 255 0
0.631553 1.611532 -3.756541 0 255 0
0.625296 1.609885 -3.758345 0 255 0
0.628424 1.610708 -3.757443 0 255 0
0.631553 1.611532 -3.756541 0 255 0
0.625126 1.609880 -3.760322 0 255 0
0.628231 1.610679 -3.758975 0 255 0
0.631337 1.611477 -3.757629 0 255 0
0.625306 1.609966 -3.761213 0 0 255
0.628321 1.610721 -3.759421 0 0 255
0.631337 1.611477 -3.757629 0 0 255
0.625205 1.610044 -3.767010 0 255 0
0.628271 1.610760 -3.762320 0 255 0
0.631337 1.611477 -3.757629 0 255 0
0.625296 1.609885 -3.758345 0 255 0
0.628316 1.610681 -3.757987 0 255 0
0.631337 1.611477 -3.757629 0 255 0
0.630132 1.611673 -3.773988 0 255 0
0.630993 1.611910 -3.773798 0 255 0
0.631854 1.612147 -3.773608 0 255 0
0.630214 1.611703 -3.772971 0 255 0
0.631034 1.611925 -3.773289 0 255 0
0.631854 1.612147 -3.773608 0 255 0
0.629606 1.611535 -3.771232 0 255 0
0.630847 1.611953 -3.772019 0 255 0
0.632089 1.612371 -3.772807 0 255 0
0.629527 1.611498 -3.772234 0 255 0
0.630808 1.611935 -3.772520 0 255 0
0.632089 1.612371 -3.772807 0 255 0
0.630214 1.611703 -3.772971 0 255 0
0.631210 1.612063 -3.772397 0 255 0
0.632205 1.612423 -3.771823 0 255 0
0.629606 1.611535 -3.771232 0 0 255
0.630935 1.611994 -3.771040 0 0 255
0.632265 1.612453 -3.770847 0 0 255
0.629527 1.611498 -3.772234 255 255 0
0.630896 1.611975 -3.771540 255 255 0
0.632265 1.612453 -3.770847 255 255 0
0.629606 1.611535 -3.771232 0 255 0
0.630924 1.611833 -3.770813 0 255 0
0.632243 1.612131 -3.770394 0 255 0
0.629527 1.611498 -3.772234 0 255 0
0.630885 1.611814 -3.771314 0 255 0
0.632243 1.612131 -3.770394 0 255 0
0.629606 1.611535 -3.771232 0 255 0
0.630991 1.611850 -3.770317 0 255 0
0.632376 1.612164 -3.769402 0 255 0
0.625625 1.610226 -3.769783 0 255 0
0.629154 1.611303 -3.769188 0 255 0
0.632682 1.612380 -3.768593 0 255 0
0.625434 1.610178 -3.770815 0 255 0
0.629058 1.611279 -3.769704 0 255 0
0.632682 1.612380 -3.768593 0 255 0
0.629687 1.611561 -3.770236 0 0 255
0.631184 1.611970 -3.769415 0 0 255
0.632682 1.612380 -3.768593 0 0 255
0.625625 1.610226 -3.769783 0 255 0
0.629230 1.611324 -3.768693 0 255 0
0.632835 1.612422 -3.767603 0 255 0
0.625434 1.610178 -3.770815 0 255 0
0.629135 1.611300 -3.769209 0 255 0
0.632835 1.612422 -3.767603 0 255 0
0.629687 1.611561 -3.770236 0 255 0
0.631261 1.611991 -3.768920 0 255 0
0.632835 1.612422 -3.767603 0 255 0
0.625625 1.610226 -3.769783 0 0 255
0.629215 1.611156 -3.768459 0 0 255
0.632805 1.612087 -3.767135 0 0 255
0.625434 1.610178 -3.770815 0 0 255
0.629120 1.611132 -3.768975 0 0 255
0.632805 1.612087 -3.767135 0 0 255
0.625434 1.610178 -3.770815 0 255 0
0.629191 1.611159 -3.768482 0 255 0
0.632948 1.612140 -3.766150 0 255 0
0.624975 1.609973 -3.768056 0 255 0
0.629090 1.611164 -3.766693 0 255 0
0.633204 1.612355 -3.765330 0 255 0
0.625438 1.610130 -3.768845 0 255 0
0.629321 1.611243 -3.767088 0 255 0
0.633204 1.612355 -3.765330 0 255 0
0.625625 1.610226 -3.769783 0 0 255
0.629415 1.611290 -3.767557 0 0 255
0.633204 1.612355 -3.765330 0 0 255
0.625434 1.610178 -3.770815 0 255 0
0.629319 1.611267 -3.768073 0 255 0
0.633204 1.612355 -3.765330 0 255 0
0.624975 1.609973 -3.768056 0 255 0
0.629157 1.611196 -3.766202 0 255 0
0.633339 1.612420 -3.764349 0 255 0
0.625438 1.610130 -3.768845 0 0 255
0.629388 1.611275 -3.766597 0 0 255
0.633339 1.612420 -3.764349 0 0 255
0.625625 1.610226 -3.769783 0 255 0
0.629482 1.611323 -3.767066 0 255 0
0.633339 1.612420 -3.764349 0 255 0
0.625205 1.610044 -3.767010 0 0 255
0.629303 1.611252 -3.765193 0 0 255
0.633401 1.612460 -3.763376 0 0 255
0.624975 1.609973 -3.768056 0 255 0
0.629188 1.611216 -3.765716 0 255 0
0.633401 1.612460 -3.763376 0 255 0
0.625205 1.610044 -3.767010 0 255 0
0.629300 1.611088 -3.764958 0 255 0
0.633396 1.612132 -3.762906 0 255 0
0.624975 1.609973 -3.768056 0 0 255
0.629186 1.611052 -3.765481 0 0 255
0.633396 1.612132 -3.762906 0 0 255
0.625017 1.609981 -3.766115 0 255 0
0.629252 1.611074 -3.764020 0 255 0
0.633487 1.612166 -3.761924 0 255 0
0.625205 1.610044 -3.767010 0 255 0
0.629346 1.611105 -3.764467 0 255 0
0.633487 1.612166 -3.761924 0 255 0
0.624975 1.609973 -3.768056 0 255 0
0.629231 1.611069 -3.764990 0 255 0
0.633487 1.612166 -3.761924 0 255 0
0.627775 1.610530 -3.750725 0 255 0
0.632021 1.611683 -3.748739 0 255 0
0.636268 1.612836 -3.746754 0 255 0
0.627886 1.610589 -3.751644 0 255 0
0.632077 1.611713 -3.749199 0 255 0
0.636268 1.612836 -3.746754 0 255 0
0.627616 1.610522 -3.752702 0 255 0
0.631942 1.611679 -3.749728 0 255 0
0.636268 1.612836 -3.746754 0 255 0
0.627616 1.610522 -3.752702 0 255 0
0.631748 1.611415 -3.749451 0 255 0
0.635880 1.612308 -3.746200 0 255 0
0.631487 1.611530 -3.742598 0 255 0
0.633603 1.611934 -3.743523 0 255 0
0.635718 1.612338 -3.744448 0 255 0
0.631463 1.611605 -3.744578 0 255 0
0.633591 1.611972 -3.744513 0 255 0
0.635718 1.612338 -3.744448 0 255 0
0.631279 1.611595 -3.746568 0 255 0
0.633499 1.611967 -3.745508 0 255 0
0.635718 1.612338 -3.744448 0 255 0
0.631487 1.611530 -3.742598 0 255 0
0.633656 1.611994 -3.743112 0 255 0
0.635826 1.612458 -3.743626 0 255 0
0.631348 1.611545 -3.743658 0 255 0
0.633492 1.611817 -3.742954 0 255 0
0.635637 1.612089 -3.742249 0 255 0
0.631487 1.611530 -3.742598 0 255 0
0.633595 1.611837 -3.741963 0 255 0
0.635703 1.612144 -3.741329 0 255 0
0.631348 1.611545 -3.743658 0 0 255
0.633525 1.611845 -3.742494 0 0 255
0.635703 1.612144 -3.741329 0 0 255
0.631463 1.611605 -3.744578 0 255 0
0.633583 1.611874 -3.742954 0 255 0
0.635703 1.612144 -3.741329 0 255 0
0.631385 1.611606 -3.745569 0 255 0
0.633544 1.611875 -3.743449 0 255 0
0.635703 1.612144 -3.741329 0 255 0
0.631348 1.611545 -3.743658 0 255 0
0.633550 1.611874 -3.742030 0 255 0
0.635753 1.612202 -3.740402 0 255 0
0.631463 1.611605 -3.744578 0 255 0
0.633608 1.611903 -3.742490 0 255 0
0.635753 1.612202 -3.740402 0 255 0
0.631385 1.611606 -3.745569 0 255 0
0.633569 1.611904 -3.742986 0 255 0
0.635753 1.612202 -3.740402 0 255 0
0.631487 1.611530 -3.742598 0 255 0
0.633738 1.611958 -3.741072 0 255 0
0.635989 1.612386 -3.739546 0 255 0
0.631487 1.611530 -3.742598 0 255 0
0.633619 1.611710 -3.740778 0 255 0
0.635752 1.611890 -3.738958 0 255 0
0.631666 1.611560 -3.741572 0 255 0
0.633847 1.611825 -3.739838 0 255 0
0.636027 1.612090 -3.738104 0 255 0
0.631666 1.611560 -3.741572 0 255 0
0.633907 1.611857 -3.739357 0 255 0
0.636148 1.612155 -3.737142 0 255 0
0.631666 1.611560 -3.741572 0 255 0
0.634047 1.611959 -3.738935 0 255 0
0.636428 1.612357 -3.736299 0 255 0
0.628883 1.610525 -3.739726 0 255 0
0.632725 1.611469 -3.737528 0 255 0
0.636566 1.612412 -3.735329 0 255 0
0.631666 1.611560 -3.741572 0 255 0
0.634116 1.611986 -3.738451 0 255 0
0.636566 1.612412 -3.735329 0 255 0
0.631666 1.611560 -3.741572 0 255 0
0.634096 1.611811 -3.738210 0 255 0
0.636525 1.612062 -3.734849 0 255 0
0.628892 1.610305 -3.736867 0 255 0
0.632753 1.611203 -3.735380 0 255 0
0.636614 1.612102 -3.733893 0 255 0
0.628928 1.610403 -3.737805 0 0 255
0.632771 1.611252 -3.735849 0 0 255
0.636614 1.612102 -3.733893 0 0 255
0.628892 1.610305 -3.736867 0 255 0
0.632791 1.611206 -3.734911 0 255 0
0.636689 1.612108 -3.732954 0 255 0
0.628928 1.610403 -3.737805 0 0 255
0.632809 1.611255 -3.735380 0 0 255
0.636689 1.612108 -3.732954 0 0 255
0.628892 1.610305 -3.736867 0 255 0
0.632899 1.611294 -3.734506 0 255 0
0.636905 1.612283 -3.732145 0 255 0
0.628928 1.610403 -3.737805 0 255 0
0.632916 1.611343 -3.734975 0 255 0
0.636905 1.612283 -3.732145 0 255 0
0.628650 1.610386 -3.738860 0 255 0
0.632777 1.611335 -3.735502 0 255 0
0.636905 1.612283 -3.732145 0 255 0
0.626481 1.609340 -3.735857 0 255 0
0.631733 1.610829 -3.733531 0 255 0
0.636985 1.612318 -3.731206 0 255 0
0.626122 1.609316 -3.736941 0 255 0
0.631554 1.610817 -3.734074 0 255 0
0.636985 1.612318 -3.731206 0 255 0
0.628892 1.610305 -3.736867 0 255 0
0.632939 1.611312 -3.734036 0 255 0
0.636985 1.612318 -3.731206 0 255 0
0.626481 1.609340 -3.735857 0 255 0
0.631691 1.610642 -3.733285 0 255 0
0.636900 1.611943 -3.730713 0 255 0
0.626122 1.609316 -3.736941 0 255 0
0.631511 1.610630 -3.733827 0 255 0
0.636900 1.611943 -3.730713 0 255 0
0.628892 1.610305 -3.736867 0 255 0
0.632896 1.611124 -3.733790 0 255 0
0.636900 1.611943 -3.730713 0 255 0
0.626446 1.609143 -3.733914 0 255 0
0.631863 1.610650 -3.731407 0 255 0
0.637280 1.612157 -3.728901 0 255 0
0.626090 1.609139 -3.735046 0 255 0
0.631685 1.610648 -3.731973 0 255 0
0.637280 1.612157 -3.728901 0 255 0
0.626446 1.609143 -3.733914 0 255 0
0.631971 1.610698 -3.730934 0 255 0
0.637496 1.612252 -3.727953 0 255 0
0.626090 1.609139 -3.735046 0 255 0
0.631793 1.610695 -3.731500 0 255 0
0.637496 1.612252 -3.727953 0 255 0
0.626798 1.609203 -3.732828 0 255 0
0.632315 1.610811 -3.729936 0 255 0
0.637831 1.612418 -3.727044 0 255 0
0.626090 1.609139 -3.735046 0 255 0
0.631961 1.610778 -3.731045 0 255 0
0.637831 1.612418 -3.727044 0 255 0
0.628520 1.608791 -3.718782 0 255 0
0.633175 1.610604 -3.722913 0 255 0
0.637831 1.612418 -3.727044 0 255 0
0.628520 1.608791 -3.718782 0 255 0
0.633153 1.610387 -3.722614 0 255 0
0.637786 1.611984 -3.726446 0 255 0
0.628692 1.608759 -3.716795 0 255 0
0.633579 1.610515 -3.720682 0 255 0
0.638467 1.612271 -3.724568 0 255 0
0.627114 1.609128 -3.729852 0 255 0
0.632979 1.610791 -3.726761 0 255 0
0.638844 1.612453 -3.723670 0 255 0
0.626981 1.609148 -3.730852 0 255 0
0.632912 1.610801 -3.727261 0 255 0
0.638844 1.612453 -3.723670 0 255 0
0.626625 1.609092 -3.731937 0 255 0
0.632734 1.610773 -3.727803 0 255 0
0.638844 1.612453 -3.723670 0 255 0
0.626446 1.609143 -3.733914 0 255 0
0.632645 1.610798 -3.728792 0 255 0
0.638844 1.612453 -3.723670 0 255 0
0.627114 1.609128 -3.729852 0 255 0
0.633081 1.610828 -3.726282 0 255 0
0.639048 1.612528 -3.722712 0 255 0
0.626446 1.609143 -3.733914 0 255 0
0.632747 1.610836 -3.728313 0 255 0
0.639048 1.612528 -3.722712 0 255 0
0.626446 1.609143 -3.733914 0 255 0
0.632748 1.610660 -3.728060 0 255 0
0.639049 1.612176 -3.722206 0 255 0
0.626625 1.609092 -3.731937 0 255 0
0.632912 1.610656 -3.726587 0 255 0
0.639199 1.612220 -3.721236 0 255 0
0.626798 1.609203 -3.732828 0 255 0
0.632999 1.610712 -3.727032 0 255 0
0.639199 1.612220 -3.721236 0 255 0
0.627313 1.609036 -3.727886 0 255 0
0.633414 1.610734 -3.724151 0 255 0
0.639516 1.612433 -3.720415 0 255 0
0.626625 1.609092 -3.731937 0 255 0
0.633070 1.610762 -3.726176 0 255 0
0.639516 1.612433 -3.720415 0 255 0
0.626798 1.609203 -3.732828 0 255 0
0.628206 1.610317 -3.732573 0 255 0
0.629614 1.611431 -3.732318 0 255 0
0.626446 1.609143 -3.733914 0 255 0
0.628030 1.610287 -3.733116 0 255 0
0.629614 1.611431 -3.732318 0 255 0
0.626090 1.609139 -3.735046 0 255 0
0.627862 1.610255 -3.734417 0 255 0
0.629634 1.611371 -3.733788 0 255 0
0.626481 1.609340 -3.735857 0 255 0
0.628058 1.610355 -3.734822 0 255 0
0.629634 1.611371 -3.733788 0 255 0
0.626122 1.609316 -3.736941 0 0 255
0.627892 1.610326 -3.736098 0 0 255
0.629662 1.611336 -3.735255 0 0 255
0.628892 1.610305 -3.736867 0 0 255
0.629179 1.610835 -3.736893 0 0 255
0.629466 1.611364 -3.736918 0 0 255
0.628928 1.610403 -3.737805 0 0 255
0.629197 1.610884 -3.737362 0 0 255
0.629466 1.611364 -3.736918 0 0 255
0.628650 1.610386 -3.738860 0 255 0
0.629058 1.610875 -3.737889 0 255 0
0.629466 1.611364 -3.736918 0 255 0
0.628650 1.610386 -3.738860 255 255 0
0.629081 1.610888 -3.738617 255 255 0
0.629512 1.611391 -3.738374 255 255 0
0.628883 1.610525 -3.739726 255 255 0
0.629198 1.610958 -3.739050 255 255 0
0.629512 1.611391 -3.738374 255 255 0
0.628569 1.610477 -3.740796 0 0 255
0.629041 1.610934 -3.739585 0 0 255
0.629512 1.611391 -3.738374 0 0 255
0.628650 1.610386 -3.738860 0 255 0
0.629107 1.610910 -3.739345 0 255 0
0.629564 1.611433 -3.739831 0 255 0
0.628883 1.610525 -3.739726 0 0 255
0.629223 1.610979 -3.739779 0 0 255
0.629564 1.611433 -3.739831 0 0 255
0.628569 1.610477 -3.740796 0 0 255
0.629066 1.610955 -3.740314 0 0 255
0.629564 1.611433 -3.739831 0 0 255
0.628928 1.610403 -3.737805 0 255 0
0.629246 1.610918 -3.738818 0 255 0
0.629564 1.611433 -3.739831 0 255 0
0.628596 1.610531 -3.741742 0 255 0
0.629080 1.610982 -3.740787 0 255 0
0.629564 1.611433 -3.739831 0 255 0
0.628883 1.610525 -3.739726 0 255 0
0.629249 1.610999 -3.740506 0 255 0
0.629614 1.611473 -3.741286 0 255 0
0.628596 1.610531 -3.741742 0 0 255
0.629105 1.611002 -3.741514 0 0 255
0.629614 1.611473 -3.741286 0 0 255
0.631666 1.611560 -3.741572 255 255 0
0.630640 1.611517 -3.741429 255 255 0
0.629614 1.611473 -3.741286 255 255 0
0.631487 1.611530 -3.742598 0 255 0
0.630550 1.611502 -3.741942 0 255 0
0.629614 1.611473 -3.741286 0 255 0
0.628569 1.610477 -3.740796 0 0 255
0.629092 1.610975 -3.741041 0 0 255
0.629614 1.611473 -3.741286 0 0 255
0.631666 1.611560 -3.741572 255 255 0
0.630584 1.611541 -3.742226 255 255 0
0.629501 1.611521 -3.742880 255 255 0
0.631487 1.611530 -3.742598 255 255 0
0.630494 1.611526 -3.742739 255 255 0
0.629501 1.611521 -3.742880 255 255 0
0.631666 1.611560 -3.741572 0 255 0
0.630605 1.611548 -3.742954 0 255 0
0.629544 1.611536 -3.744337 0 255 0
0.631487 1.611530 -3.742598 0 255 0
0.630516 1.611533 -3.743468 0 255 0
0.629544 1.611536 -3.744337 0 255 0
0.631348 1.611545 -3.743658 0 0 255
0.630446 1.611541 -3.743998 0 0 255
0.629544 1.611536 -3.744337 0 0 255
0.631463 1.611605 -3.744578 0 255 0
0.630504 1.611570 -3.744458 0 255 0
0.629544 1.611536 -3.744337 0 255 0
0.631385 1.611606 -3.745569 0 255 255
0.630484 1.611570 -3.745683 0 255 255
0.629583 1.611535 -3.745797 0 255 255
0.631463 1.611605 -3.744578 255 255 0
0.630523 1.611570 -3.745188 255 255 0
0.629583 1.611535 -3.745797 255 255 0
0.631279 1.611595 -3.746568 0 0 255
0.630431 1.611565 -3.746183 0 0 255
0.629583 1.611535 -3.745797 0 0 255
0.631385 1.611606 -3.745569 255 255 0
0.630501 1.611563 -3.746413 255 255 0
0.629617 1.611521 -3.747257 255 255 0
0.631348 1.611545 -3.743658 0 255 0
0.630482 1.611533 -3.745458 0 255 0
0.629617 1.611521 -3.747257 0 255 0
0.631463 1.611605 -3.744578 0 0 255
0.630540 1.611563 -3.745918 0 0 255
0.629617 1.611521 -3.747257 0 0 255
0.627877 1.610520 -3.748774 0 0 255
0.628747 1.611021 -3.748016 0 0 255
0.629617 1.611521 -3.747257 0 0 255
0.627876 1.610540 -3.749730 0 255 0
0.628746 1.611030 -3.748494 0 255 0
0.629617 1.611521 -3.747257 0 255 0
0.631279 1.611595 -3.746568 0 0 255
0.630448 1.611558 -3.746913 0 0 255
0.629617 1.611521 -3.747257 0 0 255
0.627877 1.610520 -3.748774 0 255 255
0.628685 1.611016 -3.748813 0 255 255
0.629492 1.611512 -3.748852 0 255 255
0.627876 1.610540 -3.749730 255 255 0
0.628684 1.611026 -3.749291 255 255 0
0.629492 1.611512 -3.748852 255 255 0
0.631279 1.611595 -3.746568 0 0 255
0.630385 1.611554 -3.747710 0 0 255
0.629492 1.611512 -3.748852 0 0 255
0.627877 1.610520 -3.748774 0 255 0
0.628699 1.611000 -3.749545 0 255 0
0.629521 1.611479 -3.750316 0 255 0
0.627876 1.610540 -3.749730 0 255 0
0.628698 1.611010 -3.750023 0 255 0
0.629521 1.611479 -3.750316 0 255 0
0.627775 1.610530 -3.750725 0 255 0
0.628648 1.611005 -3.750520 0 255 0
0.629521 1.611479 -3.750316 0 255 0
0.627886 1.610589 -3.751644 0 255 0
0.628703 1.611034 -3.750980 0 255 0
0.629521 1.611479 -3.750316 0 255 0
0.627886 1.610589 -3.751644 0 0 255
0.628718 1.611018 -3.751713 0 0 255
0.629550 1.611447 -3.751782 0 0 255
0.627616 1.610522 -3.752702 0 255 255
0.628583 1.610985 -3.752242 0 255 255
0.629550 1.611447 -3.751782 0 255 255
0.625402 1.609827 -3.754473 0 255 0
0.627476 1.610637 -3.753127 0 255 0
0.629550 1.611447 -3.751782 0 255 0
0.625586 1.609905 -3.755367 0 255 0
0.627584 1.610664 -3.754306 0 255 0
0.629581 1.611424 -3.753245 0 255 0
0.627886 1.610589 -3.751644 0 255 0
0.628733 1.611007 -3.752445 0 255 0
0.629581 1.611424 -3.753245 0 255 0
0.627616 1.610522 -3.752702 0 255 0
0.628599 1.610973 -3.752974 0 255 0
0.629581 1.611424 -3.753245 0 255 0
0.625402 1.609827 -3.754473 0 255 0
0.627492 1.610626 -3.753859 0 255 0
0.629581 1.611424 -3.753245 0 255 0
0.625204 1.609805 -3.756465 0 255 0
0.627346 1.610617 -3.755644 0 255 0
0.629487 1.611428 -3.754823 0 255 0
0.625639 1.609972 -3.757263 0 255 0
0.627563 1.610700 -3.756043 0 255 0
0.629487 1.611428 -3.754823 0 255 0
0.625296 1.609885 -3.758345 0 255 0
0.627410 1.610656 -3.757314 0 255 0
0.629525 1.611427 -3.756284 0 255 0
0.625476 1.609969 -3.759236 0 255 0
0.627501 1.610698 -3.757760 0 255 0
0.629525 1.611427 -3.756284 0 255 0
0.625330 1.610074 -3.765037 0 255 0
0.627428 1.610750 -3.760660 0 255 0
0.629525 1.611427 -3.756284 0 255 0
0.625476 1.609969 -3.759236 255 255 0
0.627521 1.610702 -3.758491 255 255 0
0.629566 1.611435 -3.757745 255 255 0
0.625330 1.610074 -3.765037 0 255 0
0.627448 1.610755 -3.761391 0 255 0
0.629566 1.611435 -3.757745 0 255 0
0.625306 1.609966 -3.761213 0 255 0
0.627436 1.610701 -3.759479 0 255 0
0.629566 1.611435 -3.757745 0 255 0
0.625306 1.609966 -3.761213 0 255 255
0.627457 1.610707 -3.760211 0 255 255
0.629609 1.611448 -3.759208 0 255 255
0.624952 1.609878 -3.762300 0 0 255
0.627281 1.610663 -3.760754 0 0 255
0.629609 1.611448 -3.759208 0 0 255
0.625496 1.610082 -3.763058 0 255 0
0.627553 1.610765 -3.761133 0 255 0
0.629609 1.611448 -3.759208 0 255 0
0.625148 1.609995 -3.764143 0 255 0
0.627378 1.610722 -3.761676 0 255 0
0.629609 1.611448 -3.759208 0 255 0
0.625205 1.610044 -3.767010 0 255 0
0.627407 1.610746 -3.763109 0 255 0
0.629609 1.611448 -3.759208 0 255 0
0.625126 1.609880 -3.760322 0 255 0
0.627367 1.610664 -3.759765 0 255 0
0.629609 1.611448 -3.759208 0 255 0
0.625306 1.609966 -3.761213 0 255 0
0.627434 1.610718 -3.760980 0 255 0
0.629563 1.611470 -3.760747 0 255 0
0.624952 1.609878 -3.762300 255 255 0
0.627257 1.610674 -3.761523 255 255 0
0.629563 1.611470 -3.760747 255 255 0
0.625496 1.610082 -3.763058 255 255 0
0.627530 1.610776 -3.761903 255 255 0
0.629563 1.611470 -3.760747 255 255 0
0.625148 1.609995 -3.764143 0 255 0
0.627355 1.610732 -3.762445 0 255 0
0.629563 1.611470 -3.760747 0 255 0
0.625148 1.609995 -3.764143 255 255 0
0.627374 1.610730 -3.763177 255 255 0
0.629600 1.611465 -3.762211 255 255 0
0.625330 1.610074 -3.765037 255 255 0
0.627465 1.610769 -3.763624 255 255 0
0.629600 1.611465 -3.762211 255 255 0
0.625017 1.609981 -3.766115 0 0 255
0.627308 1.610723 -3.764163 0 0 255
0.629600 1.611465 -3.762211 0 0 255
0.625496 1.610082 -3.763058 0 255 255
0.627548 1.610773 -3.762634 0 255 255
0.629600 1.611465 -3.762211 0 255 255
0.625330 1.610074 -3.765037 0 255 255
0.627479 1.610753 -3.764359 0 255 255
0.629629 1.611432 -3.763680 0 255 255
0.625017 1.609981 -3.766115 255 255 0
0.627323 1.610707 -3.764897 255 255 0
0.629629 1.611432 -3.763680 255 255 0
0.625205 1.610044 -3.767010 255 255 0
0.627417 1.610738 -3.765345 255 255 0
0.629629 1.611432 -3.763680 255 255 0
0.625434 1.610178 -3.770815 0 255 0
0.627531 1.610805 -3.767248 0 255 0
0.629629 1.611432 -3.763680 0 255 0
0.625205 1.610044 -3.767010 0 255 255
0.627426 1.610704 -3.766081 0 255 255
0.629646 1.611364 -3.765152 0 255 255
0.624975 1.609973 -3.768056 0 0 255
0.627311 1.610668 -3.766604 0 0 255
0.629646 1.611364 -3.765152 0 0 255
0.625330 1.610074 -3.765037 0 0 255
0.627488 1.610719 -3.765094 0 0 255
0.629646 1.611364 -3.765152 0 0 255
0.625017 1.609981 -3.766115 255 255 0
0.627332 1.610673 -3.765633 255 255 0
0.629646 1.611364 -3.765152 255 255 0
0.624975 1.609973 -3.768056 0 255 255
0.627316 1.610620 -3.767354 0 255 255
0.629656 1.611267 -3.766652 0 255 255
0.625438 1.610130 -3.768845 0 0 255
0.627547 1.610699 -3.767749 0 0 255
0.629656 1.611267 -3.766652 0 0 255
0.625625 1.610226 -3.769783 0 255 0
0.627641 1.610746 -3.768218 0 255 0
0.629656 1.611267 -3.766652 0 255 0
0.625434 1.610178 -3.770815 0 255 0
0.627545 1.610722 -3.768734 0 255 0
0.629656 1.611267 -3.766652 0 255 0
0.625434 1.610178 -3.770815 255 255 0
0.627551 1.610679 -3.769468 255 255 0
0.629668 1.611180 -3.768121 255 255 0
0.625625 1.610226 -3.769783 0 0 255
0.627647 1.610703 -3.768952 0 0 255
0.629668 1.611180 -3.768121 0 0 255
0.625625 1.610226 -3.769783 255 255 0
0.627620 1.610670 -3.769718 255 255 0
0.629615 1.611114 -3.769653 255 255 0
0.625434 1.610178 -3.770815 255 255 0
0.627524 1.610646 -3.770234 255 255 0
0.629615 1.611114 -3.769653 255 255 0
0.629687 1.611561 -3.770236 255 255 0
0.629651 1.611337 -3.769944 255 255 0
0.629615 1.611114 -3.769653 255 255 0
0.629606 1.611535 -3.771232 0 255 0
0.629610 1.611324 -3.770442 0 255 0
0.629615 1.611114 -3.769653 0 255 0
0.629687 1.611561 -3.770236 0 255 255
0.629663 1.611314 -3.770680 0 255 255
0.629640 1.611068 -3.771123 0 255 255
0.629606 1.611535 -3.771232 0 255 255
0.629623 1.611302 -3.771178 0 255 255
0.629640 1.611068 -3.771123 0 255 255
0.629527 1.611498 -3.772234 0 0 255
0.629583 1.611283 -3.771679 0 0 255
0.629640 1.611068 -3.771123 0 0 255
0.630214 1.611703 -3.772971 0 255 0
0.629927 1.611385 -3.772047 0 255 0
0.629640 1.611068 -3.771123 0 255 0
0.625625 1.610226 -3.769783 0 255 0
0.627632 1.610647 -3.770453 0 255 0
0.629640 1.611068 -3.771123 0 255 0
0.629606 1.611535 -3.771232 255 255 0
0.629646 1.611315 -3.771908 255 255 0
0.629686 1.611095 -3.772584 255 255 0
0.629527 1.611498 -3.772234 0 255 255
0.629607 1.611297 -3.772409 0 255 255
0.629686 1.611095 -3.772584 0 255 255
0.630214 1.611703 -3.772971 0 0 255
0.629950 1.611399 -3.772777 0 0 255
0.629686 1.611095 -3.772584 0 0 255
0.630132 1.611673 -3.773988 0 255 0
0.629909 1.611384 -3.773286 0 255 0
0.629686 1.611095 -3.772584 0 255 0
0.629042 1.608643 -3.713724 0 255 255
0.628849 1.608589 -3.713797 0 255 255
0.628655 1.608535 -3.713871 0 255 255
0.628688 1.608609 -3.714851 0 0 255
0.628672 1.608572 -3.714361 0 0 255
0.628655 1.608535 -3.713871 0 0 255
0.629048 1.608805 -3.715696 0 255 0
0.628852 1.608670 -3.714783 0 255 0
0.628655 1.608535 -3.713871 0 255 0
0.628688 1.608609 -3.714851 0 255 255
0.628353 1.608577 -3.714988 0 255 255
0.628018 1.608545 -3.715125 0 255 255
0.629048 1.608805 -3.715696 255 255 0
0.628533 1.608675 -3.715410 255 255 0
0.628018 1.608545 -3.715125 255 255 0
0.628692 1.608759 -3.716795 0 255 0
0.628355 1.608652 -3.715960 0 255 0
0.628018 1.608545 -3.715125 0 255 0
0.628692 1.608759 -3.716795 0 255 255
0.628286 1.608622 -3.716946 0 255 255
0.627880 1.608484 -3.717096 0 255 255
0.628520 1.608791 -3.718782 0 0 255
0.628200 1.608637 -3.717939 0 0 255
0.627880 1.608484 -3.717096 0 0 255
0.628340 1.608697 -3.717889 255 255 0
0.628037 1.608561 -3.718473 255 255 0
0.627734 1.608424 -3.719056 255 255 0
0.628520 1.608791 -3.718782 0 255 255
0.628127 1.608607 -3.718919 0 255 255
0.627734 1.608424 -3.719056 0 255 255
0.628176 1.608704 -3.719873 0 0 255
0.627955 1.608564 -3.719465 0 0 255
0.627734 1.608424 -3.719056 0 0 255
0.628360 1.608783 -3.720766 0 255 0
0.628047 1.608604 -3.719911 0 255 0
0.627734 1.608424 -3.719056 0 255 0
0.628260 1.608781 -3.721765 0 0 255
0.627674 1.608611 -3.721029 0 0 255
0.627088 1.608441 -3.720292 0 0 255
0.628520 1.608791 -3.718782 0 0 255
0.627804 1.608616 -3.719537 0 0 255
0.627088 1.608441 -3.720292 0 0 255
0.628176 1.608704 -3.719873 0 255 255
0.627632 1.608572 -3.720083 0 255 255
0.627088 1.608441 -3.720292 0 255 255
0.628360 1.608783 -3.720766 255 255 0
0.627724 1.608612 -3.720529 255 255 0
0.627088 1.608441 -3.720292 255 255 0
0.628260 1.608781 -3.721765 0 255 255
0.627604 1.608579 -3.722011 0 255 255
0.626947 1.608378 -3.722257 0 255 255
0.629174 1.609413 -3.725307 0 255 0
0.628060 1.608895 -3.723782 0 255 0
0.626947 1.608378 -3.722257 0 255 0
0.629387 1.609255 -3.723254 0 255 0
0.628167 1.608817 -3.722756 0 255 0
0.626947 1.608378 -3.722257 0 255 0
0.629480 1.609218 -3.722268 0 255 0
0.628214 1.608798 -3.722263 0 255 0
0.626947 1.608378 -3.722257 0 255 0
0.629174 1.609413 -3.725307 0 255 0
0.627669 1.608861 -3.725391 0 255 0
0.626165 1.608310 -3.725475 0 255 0
0.627313 1.609036 -3.727886 0 255 0
0.626595 1.608680 -3.727669 0 255 0
0.625878 1.608324 -3.727451 0 255 0
0.626946 1.609003 -3.728967 0 255 0
0.626412 1.608663 -3.728209 0 255 0
0.625878 1.608324 -3.727451 0 255 0
0.627313 1.609036 -3.727886 0 255 255
0.626261 1.608682 -3.728274 0 255 255
0.625210 1.608328 -3.728661 0 255 255
0.626946 1.609003 -3.728967 0 0 255
0.626078 1.608665 -3.728814 0 0 255
0.625210 1.608328 -3.728661 0 0 255
0.627114 1.609128 -3.729852 0 255 0
0.626162 1.608728 -3.729256 0 255 0
0.625210 1.608328 -3.728661 0 255 0
0.626946 1.609003 -3.728967 255 255 0
0.625745 1.608670 -3.729421 255 255 0
0.624544 1.608337 -3.729876 255 255 0
0.627114 1.609128 -3.729852 0 0 255
0.625829 1.608732 -3.729864 0 0 255
0.624544 1.608337 -3.729876 0 0 255
0.626798 1.609203 -3.732828 0 255 0
0.625671 1.608770 -3.731352 0 255 0
0.624544 1.608337 -3.729876 0 255 0
0.627313 1.609036 -3.727886 0 255 0
0.625929 1.608686 -3.728881 0 255 0
0.624544 1.608337 -3.729876 0 255 0
0.626981 1.609148 -3.730852 0 255 0
0.625762 1.608742 -3.730364 0 255 0
0.624544 1.608337 -3.729876 0 255 0
0.627114 1.609128 -3.729852 255 255 0
0.625746 1.608704 -3.730832 255 255 0
0.624377 1.608280 -3.731812 255 255 0
0.626981 1.609148 -3.730852 0 255 255
0.625679 1.608714 -3.731332 0 255 255
0.624377 1.608280 -3.731812 0 255 255
0.626625 1.609092 -3.731937 0 255 255
0.625501 1.608686 -3.731874 0 255 255
0.624377 1.608280 -3.731812 0 255 255
0.626946 1.609003 -3.728967 0 0 255
0.625662 1.608641 -3.730389 0 0 255
0.624377 1.608280 -3.731812 0 0 255
0.626798 1.609203 -3.732828 255 255 0
0.625588 1.608742 -3.732320 255 255 0
0.624377 1.608280 -3.731812 255 255 0
0.626625 1.609092 -3.731937 0 255 255
0.625422 1.608661 -3.732848 0 255 255
0.624220 1.608229 -3.733759 0 255 255
0.626798 1.609203 -3.732828 0 255 255
0.625509 1.608716 -3.733294 0 255 255
0.624220 1.608229 -3.733759 0 255 255
0.627114 1.609128 -3.729852 0 255 0
0.625667 1.608679 -3.731805 0 255 0
0.624220 1.608229 -3.733759 0 255 0
0.626981 1.609148 -3.730852 0 0 255
0.625600 1.608689 -3.732305 0 0 255
0.624220 1.608229 -3.733759 0 0 255
0.626446 1.609143 -3.733914 0 0 255
0.625333 1.608686 -3.733836 0 0 255
0.624220 1.608229 -3.733759 0 0 255
0.626090 1.609139 -3.735046 0 255 0
0.625155 1.608684 -3.734402 0 255 0
0.624220 1.608229 -3.733759 0 255 0
0.626481 1.609340 -3.735857 0 255 0
0.625351 1.608785 -3.734808 0 255 0
0.624220 1.608229 -3.733759 0 255 0
0.626798 1.609203 -3.732828 255 255 0
0.625183 1.608731 -3.733907 255 255 0
0.623567 1.608259 -3.734986 255 255 0
0.626446 1.609143 -3.733914 0 255 255
0.625007 1.608701 -3.734450 0 255 255
0.623567 1.608259 -3.734986 0 255 255
0.626090 1.609139 -3.735046 0 255 0
0.624829 1.608699 -3.735016 0 255 0
0.623567 1.608259 -3.734986 0 255 0
0.626981 1.609148 -3.730852 0 255 0
0.625274 1.608704 -3.732919 0 255 0
0.623567 1.608259 -3.734986 0 255 0
0.626625 1.609092 -3.731937 0 255 0
0.625096 1.608676 -3.733461 0 255 0
0.623567 1.608259 -3.734986 0 255 0
0.626090 1.609139 -3.735046 0 255 0
0.624761 1.608682 -3.736004 0 255 0
0.623432 1.608226 -3.736962 0 255 0
0.626481 1.609340 -3.735857 0 255 255
0.624957 1.608783 -3.736409 0 255 255
0.623432 1.608226 -3.736962 0 255 255
0.626122 1.609316 -3.736941 0 255 0
0.624777 1.608771 -3.736952 0 255 0
0.623432 1.608226 -3.736962 0 255 0
0.628928 1.610403 -3.737805 0 255 0
0.626180 1.609315 -3.737384 0 255 0
0.623432 1.608226 -3.736962 0 255 0
0.626481 1.609340 -3.735857 0 255 0
0.624628 1.608811 -3.737021 0 255 0
0.622775 1.608281 -3.738184 0 255 0
0.626122 1.609316 -3.736941 0 255 255
0.624448 1.608799 -3.737563 0 255 255
0.622775 1.608281 -3.738184 0 255 255
0.628650 1.610386 -3.738860 0 255 0
0.625712 1.609334 -3.738522 0 255 0
0.622775 1.608281 -3.738184 0 255 0
0.628892 1.610305 -3.736867 0 255 0
0.625753 1.609289 -3.738493 0 255 0
0.622614 1.608272 -3.740118 0 255 0
0.628928 1.610403 -3.737805 0 255 0
0.625771 1.609338 -3.738962 0 255 0
0.622614 1.608272 -3.740118 0 255 0
0.626481 1.609340 -3.735857 0 255 0
0.624548 1.608806 -3.737987 0 255 0
0.622614 1.608272 -3.740118 0 255 0
0.626122 1.609316 -3.736941 0 255 0
0.624368 1.608794 -3.738530 0 255 0
0.622614 1.608272 -3.740118 0 255 0
0.628892 1.610305 -3.736867 0 255 0
0.625429 1.609326 -3.739105 0 255 0
0.621967 1.608347 -3.741342 0 255 0
0.628650 1.610386 -3.738860 0 0 255
0.625308 1.609367 -3.740101 0 0 255
0.621967 1.608347 -3.741342 0 0 255
0.628569 1.610477 -3.740796 0 255 0
0.625381 1.609436 -3.742442 0 255 0
0.622193 1.608396 -3.744088 0 255 0
0.628596 1.610531 -3.741742 0 255 0
0.625394 1.609464 -3.742915 0 255 0
0.622193 1.608396 -3.744088 0 255 0
0.631487 1.611530 -3.742598 0 255 0
0.626573 1.609974 -3.747294 0 255 0
0.621659 1.608419 -3.751990 0 255 0
0.631463 1.611605 -3.744578 0 255 0
0.626561 1.610012 -3.748284 0 255 0
0.621659 1.608419 -3.751990 0 255 0
0.631385 1.611606 -3.745569 0 255 0
0.626522 1.610012 -3.748779 0 255 0
0.621659 1.608419 -3.751990 0 255 0
0.627886 1.610589 -3.751644 0 255 0
0.624706 1.609523 -3.752801 0 255 0
0.621527 1.608456 -3.753958 0 255 0
0.625586 1.609905 -3.755367 0 255 0
0.623492 1.609200 -3.755649 0 255 0
0.621399 1.608496 -3.755931 0 255 0
0.627616 1.610522 -3.752702 0 255 0
0.624507 1.609509 -3.754316 0 255 0
0.621399 1.608496 -3.755931 0 255 0
0.625639 1.609972 -3.757263 0 255 0
0.623638 1.609261 -3.757983 0 255 0
0.621637 1.608551 -3.758704 0 255 0
0.625296 1.609885 -3.758345 0 255 0
0.623141 1.609239 -3.759140 0 255 0
0.620987 1.608593 -3.759934 0 255 0
0.625126 1.609880 -3.760322 0 255 0
0.622977 1.609213 -3.761110 0 255 0
0.620828 1.608545 -3.761897 0 255 0
0.624952 1.609878 -3.762300 0 0 255
0.622807 1.609188 -3.763082 0 0 255
0.620662 1.608499 -3.763863 0 0 255
0.625330 1.610074 -3.765037 0 0 255
0.622996 1.609287 -3.764450 0 0 255
0.620662 1.608499 -3.763863 0 0 255
0.625148 1.609995 -3.764143 0 255 0
0.622905 1.609247 -3.764003 0 255 0
0.620662 1.608499 -3.763863 0 255 0
0.625306 1.609966 -3.761213 0 255 0
0.622902 1.609228 -3.763523 0 255 0
0.620498 1.608490 -3.765834 0 255 0
0.624952 1.609878 -3.762300 0 255 0
0.622725 1.609184 -3.764067 0 255 0
0.620498 1.608490 -3.765834 0 255 0
0.625496 1.610082 -3.763058 0 0 255
0.622997 1.609286 -3.764446 0 0 255
0.620498 1.608490 -3.765834 0 0 255
0.625148 1.609995 -3.764143 0 255 255
0.622823 1.609243 -3.764989 0 255 255
0.620498 1.608490 -3.765834 0 255 255
0.625330 1.610074 -3.765037 0 0 255
0.622914 1.609282 -3.765436 0 0 255
0.620498 1.608490 -3.765834 0 0 255
0.625205 1.610044 -3.767010 0 255 0
0.622851 1.609267 -3.766422 0 255 0
0.620498 1.608490 -3.765834 0 255 0
0.625148 1.609995 -3.764143 0 0 255
0.622765 1.609286 -3.765978 0 0 255
0.620382 1.608577 -3.767814 0 0 255
0.625330 1.610074 -3.765037 0 255 0
0.622856 1.609325 -3.766426 0 255 0
0.620382 1.608577 -3.767814 0 255 0
0.625017 1.609981 -3.766115 0 0 255
0.622700 1.609279 -3.766964 0 0 255
0.620382 1.608577 -3.767814 0 0 255
0.625205 1.610044 -3.767010 0 255 0
0.622793 1.609311 -3.767412 0 255 0
0.620382 1.608577 -3.767814 0 255 0
0.625496 1.610082 -3.763058 0 255 0
0.622939 1.609329 -3.765436 0 255 0
0.620382 1.608577 -3.767814 0 255 0
0.624975 1.609973 -3.768056 255 255 0
0.622945 1.609363 -3.769278 255 255 0
0.620914 1.608753 -3.770500 255 255 0
0.625438 1.610130 -3.768845 0 255 255
0.623176 1.609442 -3.769673 0 255 255
0.620914 1.608753 -3.770500 0 255 255
0.625625 1.610226 -3.769783 0 255 0
0.623270 1.609489 -3.770141 0 255 0
0.620914 1.608753 -3.770500 0 255 0
0.625205 1.610044 -3.767010 0 255 0
0.623059 1.609398 -3.768755 0 255 0
0.620914 1.608753 -3.770500 0 255 0
0.629480 1.609218 -3.722268 0 255 0
0.634928 1.610832 -3.718159 0 255 0
0.640375 1.612445 -3.714050 0 255 0
0.629480 1.609218 -3.722268 0 255 0
0.634693 1.610770 -3.718705 0 255 0
0.639906 1.612322 -3.715141 0 255 0
0.626981 1.609148 -3.730852 0 255 0
0.632941 1.610650 -3.725117 0 255 0
0.638901 1.612153 -3.719382 0 255 0
0.627313 1.609036 -3.727886 0 255 0
0.632845 1.610545 -3.724181 0 255 0
0.638378 1.612053 -3.720475 0 255 0
0.626625 1.609092 -3.731937 0 255 0
0.632501 1.610573 -3.726206 0 255 0
0.638378 1.612053 -3.720475 0 255 0
0.627313 1.609036 -3.727886 0 255 0
0.632629 1.610509 -3.724722 0 255 0
0.637945 1.611981 -3.721558 0 255 0
0.626625 1.609092 -3.731937 0 255 0
0.632285 1.610537 -3.726748 0 255 0
0.637945 1.611981 -3.721558 0 255 0
0.626625 1.609092 -3.731937 0 255 0
0.632212 1.610541 -3.727270 0 255 0
0.637799 1.611990 -3.722603 0 255 0
0.626798 1.609203 -3.732828 0 255 0
0.632299 1.610597 -3.727715 0 255 0
0.637799 1.611990 -3.722603 0 255 0
0.627114 1.609128 -3.729852 0 255 0
0.632258 1.610528 -3.726766 0 255 0
0.637403 1.611928 -3.723680 0 255 0
0.626446 1.609143 -3.733914 0 255 0
0.631924 1.610536 -3.728797 0 255 0
0.637403 1.611928 -3.723680 0 255 0
0.628692 1.608759 -3.716795 0 255 0
0.633047 1.610344 -3.720238 0 255 0
0.637403 1.611928 -3.723680 0 255 0
0.627114 1.609128 -3.729852 0 255 0
0.632139 1.610518 -3.727294 0 255 0
0.637164 1.611907 -3.724737 0 255 0
0.626981 1.609148 -3.730852 0 255 0
0.632072 1.610528 -3.727795 0 255 0
0.637164 1.611907 -3.724737 0 255 0
0.626625 1.609092 -3.731937 0 255 0
0.631895 1.610500 -3.728337 0 255 0
0.637164 1.611907 -3.724737 0 255 0
0.626446 1.609143 -3.733914 0 255 0
0.631805 1.610525 -3.729326 0 255 0
0.637164 1.611907 -3.724737 0 255 0
0.626981 1.609148 -3.730852 0 255 0
0.631921 1.610507 -3.728326 0 255 0
0.636862 1.611867 -3.725801 0 255 0
0.626625 1.609092 -3.731937 0 255 0
0.631743 1.610479 -3.728869 0 255 0
0.636862 1.611867 -3.725801 0 255 0
0.626446 1.609143 -3.733914 0 255 0
0.631654 1.610505 -3.729857 0 255 0
0.636862 1.611867 -3.725801 0 255 0
0.628520 1.608791 -3.718782 0 255 0
0.632691 1.610329 -3.722291 0 255 0
0.636862 1.611867 -3.725801 0 255 0
0.626446 1.609143 -3.733914 0 255 0
0.631976 1.610634 -3.730840 0 255 0
0.637506 1.612126 -3.727767 0 255 0
0.626090 1.609139 -3.735046 0 255 0
0.631798 1.610632 -3.731406 0 255 0
0.637506 1.612126 -3.727767 0 255 0
0.626446 1.609143 -3.733914 0 255 0
0.631865 1.610623 -3.731368 0 255 0
0.637284 1.612103 -3.728822 0 255 0
0.626090 1.609139 -3.735046 0 255 0
0.631687 1.610621 -3.731934 0 255 0
0.637284 1.612103 -3.728822 0 255 0
0.626481 1.609340 -3.735857 0 255 0
0.631685 1.610713 -3.733391 0 255 0
0.636888 1.612086 -3.730924 0 255 0
0.626122 1.609316 -3.736941 0 255 0
0.631505 1.610701 -3.733933 0 255 0
0.636888 1.612086 -3.730924 0 255 0
0.628892 1.610305 -3.736867 0 255 0
0.632890 1.611196 -3.733896 0 255 0
0.636888 1.612086 -3.730924 0 255 0
0.628892 1.610305 -3.736867 0 255 0
0.632904 1.611227 -3.734406 0 255 0
0.636916 1.612148 -3.731945 0 255 0
0.628892 1.610305 -3.736867 0 255 0
0.632429 1.611122 -3.734981 0 255 0
0.635965 1.611938 -3.733095 0 255 0
0.628928 1.610403 -3.737805 0 0 255
0.632447 1.611171 -3.735450 0 0 255
0.635965 1.611938 -3.733095 0 0 255
0.628650 1.610386 -3.738860 0 255 0
0.632307 1.611162 -3.735977 0 255 0
0.635965 1.611938 -3.733095 0 255 0
0.629387 1.609255 -3.723254 0 255 0
0.632676 1.610597 -3.728175 0 255 0
0.635965 1.611938 -3.733095 0 255 0
0.628892 1.610305 -3.736867 0 255 0
0.632369 1.611150 -3.735506 0 255 0
0.635847 1.611994 -3.734145 0 255 0
0.628928 1.610403 -3.737805 0 0 255
0.632387 1.611199 -3.735975 0 0 255
0.635847 1.611994 -3.734145 0 0 255
0.628928 1.610403 -3.737805 0 255 0
0.632305 1.611196 -3.736497 0 255 0
0.635683 1.611990 -3.735190 0 255 0
0.631666 1.611560 -3.741572 0 255 0
0.633675 1.611775 -3.738381 0 255 0
0.635683 1.611990 -3.735190 0 255 0
0.626798 1.609203 -3.732828 0 255 0
0.631241 1.610597 -3.734009 0 255 0
0.635683 1.611990 -3.735190 0 255 0
0.628596 1.610531 -3.741742 0 255 0
0.631989 1.611236 -3.738998 0 255 0
0.635382 1.611941 -3.736255 0 255 0
0.631666 1.611560 -3.741572 0 255 0
0.633524 1.611751 -3.738913 0 255 0
0.635382 1.611941 -3.736255 0 255 0
0.628650 1.610386 -3.738860 0 255 0
0.631903 1.611146 -3.738085 0 255 0
0.635156 1.611907 -3.737310 0 255 0
0.628883 1.610525 -3.739726 0 255 0
0.632020 1.611216 -3.738518 0 255 0
0.635156 1.611907 -3.737310 0 255 0
0.631666 1.611560 -3.741572 0 0 255
0.633411 1.611734 -3.739441 0 0 255
0.635156 1.611907 -3.737310 0 0 255
0.628883 1.610525 -3.739726 0 255 0
0.631413 1.611059 -3.739110 0 255 0
0.633942 1.611594 -3.738494 0 255 0
0.631666 1.611560 -3.741572 255 255 0
0.632804 1.611577 -3.740033 255 255 0
0.633942 1.611594 -3.738494 255 255 0
0.631487 1.611530 -3.742598 0 255 0
0.632715 1.611562 -3.740546 0 255 0
0.633942 1.611594 -3.738494 0 255 0
0.631666 1.611560 -3.741572 0 0 255
0.632714 1.611563 -3.740558 0 0 255
0.633762 1.611566 -3.739544 0 0 255
0.631487 1.611530 -3.742598 0 255 0
0.632625 1.611548 -3.741071 0 255 0
0.633762 1.611566 -3.739544 0 255 0
0.631666 1.611560 -3.741572 0 0 255
0.632587 1.611539 -3.741089 0 0 255
0.633508 1.611518 -3.740605 0 0 255
0.631487 1.611530 -3.742598 255 255 0
0.632402 1.611514 -3.742129 255 255 0
0.633317 1.611497 -3.741660 255 255 0
0.631487 1.611530 -3.742598 255 255 0
0.632281 1.611502 -3.742658 255 255 0
0.633075 1.611474 -3.742718 255 255 0
0.631348 1.611545 -3.743658 0 0 255
0.632212 1.611510 -3.743188 0 0 255
0.633075 1.611474 -3.742718 0 0 255
0.631463 1.611605 -3.744578 0 255 0
0.632269 1.611539 -3.743648 0 255 0
0.633075 1.611474 -3.742718 0 255 0
0.631385 1.611606 -3.745569 0 255 0
0.632230 1.611540 -3.744143 0 255 0
0.633075 1.611474 -3.742718 0 255 0
0.631487 1.611530 -3.742598 0 255 0
0.632199 1.611507 -3.743182 0 255 0
0.632911 1.611484 -3.743765 0 255 0
0.631348 1.611545 -3.743658 0 0 255
0.632130 1.611515 -3.743712 0 0 255
0.632911 1.611484 -3.743765 0 0 255
0.631463 1.611605 -3.744578 255 255 0
0.632187 1.611545 -3.744172 255 255 0
0.632911 1.611484 -3.743765 255 255 0
0.631385 1.611606 -3.745569 0 0 255
0.632148 1.611545 -3.744667 0 0 255
0.632911 1.611484 -3.743765 0 0 255
0.631348 1.611545 -3.743658 0 0 255
0.632054 1.611524 -3.744233 0 0 255
0.632760 1.611503 -3.744808 0 0 255
0.631463 1.611605 -3.744578 255 255 0
0.632112 1.611554 -3.744693 255 255 0
0.632760 1.611503 -3.744808 255 255 0
0.631279 1.611595 -3.746568 0 0 255
0.632019 1.611549 -3.745688 0 0 255
0.632760 1.611503 -3.744808 0 0 255
0.631385 1.611606 -3.745569 255 255 0
0.632073 1.611554 -3.745189 255 255 0
0.632760 1.611503 -3.744808 255 255 0
0.631385 1.611606 -3.745569 0 0 255
0.632041 1.611576 -3.745705 0 0 255
0.632696 1.611545 -3.745840 0 0 255
0.631279 1.611595 -3.746568 255 255 0
0.631987 1.611570 -3.746204 255 255 0
0.632696 1.611545 -3.745840 255 255 0
0.631348 1.611545 -3.743658 0 255 0
0.632022 1.611545 -3.744749 0 255 0
0.632696 1.611545 -3.745840 0 255 0
0.631463 1.611605 -3.744578 0 0 255
0.632080 1.611575 -3.745209 0 0 255
0.632696 1.611545 -3.745840 0 0 255
0.631385 1.611606 -3.745569 0 255 0
0.631979 1.611585 -3.746223 0 255 0
0.632572 1.611565 -3.746876 0 255 0
0.631279 1.611595 -3.746568 0 0 255
0.631925 1.611580 -3.746722 0 0 255
0.632572 1.611565 -3.746876 0 0 255
0.631463 1.611605 -3.744578 0 255 0
0.632018 1.611585 -3.745727 0 255 0
0.632572 1.611565 -3.746876 0 255 0
0.631279 1.611595 -3.746568 0 0 255
0.631910 1.611599 -3.747236 0 0 255
0.632541 1.611604 -3.747903 0 0 255
0.627616 1.610522 -3.752702 0 0 255
0.630078 1.611063 -3.750302 0 0 255
0.632541 1.611604 -3.747903 0 0 255
0.627876 1.610540 -3.749730 0 255 0
0.630208 1.611072 -3.748817 0 255 0
0.632541 1.611604 -3.747903 0 255 0
0.631279 1.611595 -3.746568 0 0 255
0.631843 1.611599 -3.747755 0 0 255
0.632407 1.611603 -3.748941 0 0 255
0.627876 1.610540 -3.749730 0 255 0
0.630141 1.611072 -3.749336 0 255 0
0.632407 1.611603 -3.748941 0 255 0
0.627616 1.610522 -3.752702 0 255 0
0.630011 1.611063 -3.750822 0 255 0
0.632407 1.611603 -3.748941 0 255 0
0.627877 1.610520 -3.748774 0 255 0
0.630046 1.611062 -3.749891 0 255 0
0.632214 1.611604 -3.751009 0 255 0
0.627876 1.610540 -3.749730 0 255 0
0.630045 1.611072 -3.750370 0 255 0
0.632214 1.611604 -3.751009 0 255 0
0.625330 1.610074 -3.765037 0 255 0
0.628742 1.610839 -3.758539 0 255 0
0.632154 1.611605 -3.752041 0 255 0
0.625330 1.610074 -3.765037 0 255 0
0.628662 1.610824 -3.759062 0 255 0
0.631994 1.611574 -3.753086 0 255 0
0.625330 1.610074 -3.765037 0 255 0
0.628633 1.610822 -3.759580 0 255 0
0.631935 1.611569 -3.754122 0 255 0
0.625330 1.610074 -3.765037 0 255 0
0.628546 1.610807 -3.760106 0 255 0
0.631761 1.611541 -3.755175 0 255 0
0.625306 1.609966 -3.761213 0 255 0
0.628508 1.610762 -3.758713 0 255 0
0.631710 1.611557 -3.756213 0 255 0
0.625205 1.610044 -3.767010 0 255 0
0.628457 1.610801 -3.761612 0 255 0
0.631710 1.611557 -3.756213 0 255 0
0.625306 1.609966 -3.761213 0 0 255
0.628414 1.610756 -3.759239 0 0 255
0.631521 1.611546 -3.757266 0 0 255
0.625205 1.610044 -3.767010 0 255 0
0.628363 1.610795 -3.762138 0 255 0
0.631521 1.611546 -3.757266 0 255 0
0.625017 1.609981 -3.766115 0 255 0
0.629245 1.611145 -3.764125 0 255 0
0.633474 1.612308 -3.762136 0 255 0
0.625205 1.610044 -3.767010 0 255 0
0.629339 1.611176 -3.764573 0 255 0
0.633474 1.612308 -3.762136 0 255 0
0.624975 1.609973 -3.768056 0 255 0
0.629225 1.611141 -3.765096 0 255 0
0.633474 1.612308 -3.762136 0 255 0
0.625205 1.610044 -3.767010 0 0 255
0.629309 1.611182 -3.765089 0 0 255
0.633413 1.612320 -3.763168 0 0 255
0.624975 1.609973 -3.768056 0 255 0
0.629194 1.611146 -3.765612 0 255 0
0.633413 1.612320 -3.763168 0 255 0
0.624975 1.609973 -3.768056 0 255 0
0.629161 1.611147 -3.766129 0 255 0
0.633348 1.612322 -3.764202 0 255 0
0.625438 1.610130 -3.768845 0 0 255
0.629393 1.611226 -3.766524 0 0 255
0.633348 1.612322 -3.764202 0 0 255
0.625625 1.610226 -3.769783 0 255 0
0.629486 1.611274 -3.766993 0 255 0
0.633348 1.612322 -3.764202 0 255 0
0.624975 1.609973 -3.768056 0 255 0
0.629092 1.611136 -3.766651 0 255 0
0.633209 1.612299 -3.765247 0 255 0
0.625438 1.610130 -3.768845 0 255 0
0.629324 1.611215 -3.767046 0 255 0
0.633209 1.612299 -3.765247 0 255 0
0.625625 1.610226 -3.769783 0 0 255
0.629417 1.611262 -3.767515 0 0 255
0.633209 1.612299 -3.765247 0 0 255
0.625434 1.610178 -3.770815 0 255 0
0.629322 1.611238 -3.768031 0 255 0
0.633209 1.612299 -3.765247 0 255 0
0.625434 1.610178 -3.770815 0 0 255
0.629186 1.611211 -3.768560 0 0 255
0.632939 1.612243 -3.766305 0 0 255
0.625625 1.610226 -3.769783 0 255 0
0.629282 1.611235 -3.768044 0 255 0
0.632939 1.612243 -3.766305 0 255 0
0.625625 1.610226 -3.769783 0 0 255
0.629209 1.611227 -3.768565 0 0 255
0.632792 1.612229 -3.767347 0 0 255
0.625434 1.610178 -3.770815 0 0 255
0.629113 1.611204 -3.769081 0 0 255
0.632792 1.612229 -3.767347 0 0 255
0.625625 1.610226 -3.769783 0 255 0
0.629160 1.611232 -3.769083 0 255 0
0.632695 1.612239 -3.768383 0 255 0
0.625434 1.610178 -3.770815 0 255 0
0.629065 1.611208 -3.769599 0 255 0
0.632695 1.612239 -3.768383 0 255 0
0.629687 1.611561 -3.770236 0 0 255
0.631191 1.611900 -3.769309 0 0 255
0.632695 1.612239 -3.768383 0 0 255
0.629606 1.611535 -3.771232 0 255 0
0.630990 1.611865 -3.770340 0 255 0
0.632373 1.612195 -3.769447 0 255 0
0.629606 1.611535 -3.771232 0 255 0
0.630921 1.611866 -3.770862 0 255 0
0.632237 1.612196 -3.770492 0 255 0
0.629527 1.611498 -3.772234 0 255 0
0.630882 1.611847 -3.771363 0 255 0
0.632237 1.612196 -3.770492 0 255 0
0.629606 1.611535 -3.771232 0 255 0
0.630915 1.611880 -3.771380 0 255 0
0.632223 1.612225 -3.771527 0 255 0
0.629527 1.611498 -3.772234 0 0 255
0.630875 1.611862 -3.771880 0 0 255
0.632223 1.612225 -3.771527 0 0 255
0.629606 1.611535 -3.771232 0 255 0
0.630854 1.611878 -3.771907 0 255 0
0.632103 1.612221 -3.772582 0 255 0
0.629527 1.611498 -3.772234 0 255 0
0.630815 1.611859 -3.772408 0 255 0
0.632103 1.612221 -3.772582 0 255 0
0.630132 1.611673 -3.773988 0 255 0
0.630991 1.611927 -3.773824 0 255 0
0.631850 1.612182 -3.773660 0 255 0
0.630214 1.611703 -3.772971 0 255 0
0.631032 1.611942 -3.773315 0 255 0
0.631850 1.612182 -3.773660 0 255 0
3 0 1 2 3 2 3 4 3 4 5 6 3 6 7 8 3 8 9 10 3 10 11 12 3 12 13 14 3 14 15 16 3 16 17 18 3 18 19 20 3 20 21 22 3 22 23 24 3 24 25 26 3 26 27 28 3 28 29 30 3 30 31 32 3 32 33 34 3 34 35 36 3 36 37 38 3 38 39 40 3 40 41 42 3 42 43 44 3 44 45 46 3 46 47 48 3 48 49 50 3 50 51 52 3 52 53 54 3 54 55 56 3 56 57 58 3 58 59 60 3 60 61 62 3 62 63 64 3 64 65 66 3 66 67 68 3 68 69 70 3 70 71 72 3 72 73 74 3 74 75 76 3 76 77 78 3 78 79 80 3 80 81 82 3 82 83 84 3 84 85 86 3 86 87 88 3 88 89 90 3 90 91 92 3 92 93 94 3 94 95 96 3 96 97 98 3 98 99 100 3 100 101 102 3 102 103 104 3 104 105 106 3 106 107 108 3 108 109 110 3 110 111 112 3 112 113 114 3 114 115 116 3 116 117 118 3 118 119 120 3 120 121 122 3 122 123 124 3 124 125 126 3 127 128 129 3 130 131 132 3 133 134 135 3 136 137 138 3 139 140 141 3 142 143 144 3 145 146 147 3 148 149 150 3 151 152 153 3 154 155 156 3 157 158 159 3 160 161 162 3 163 164 165 3 166 167 168 3 169 170 171 3 172 173 174 3 175 176 177 3 178 179 180 3 181 182 183 3 184 185 186 3 187 188 189 3 190 191 192 3 193 194 195 3 196 197 198 3 199 200 201 3 202 203 204 3 205 206 207 3 208 209 210 3 211 212 213 3 214 215 216 3 217 218 219 3 220 221 222 3 223 224 225 3 226 227 228 3 229 230 231 3 232 233 234 3 235 236 237 3 238 239 240 3 241 242 243 3 244 245 246 3 247 248 249 3 250 251 252 3 253 254 255 3 256 257 258 3 259 260 261 3 262 263 264 3 265 266 267 3 268 269 270 3 271 272 273 3 274 275 276 3 277 278 279 3 280 281 282 3 283 284 285 3 286 287 288 3 289 290 291 3 292 293 294 3 295 296 297 3 298 299 300 3 301 302 303 3 304 305 306 3 307 308 309 3 310 311 312 3 313 314 315 3 316 317 318 3 319 320 321 3 322 323 324 3 325 326 327 3 328 329 330 3 331 332 333 3 334 335 336 3 337 338 339 3 340 341 342 3 343 344 345 3 346 347 348 3 349 350 351 3 352 353 354 3 355 356 357 3 358 359 360 3 361 362 363 3 364 365 366 3 367 368 369 3 370 371 372 3 373 374 375 3 376 377 378 3 379 380 381 3 382 383 384 3 385 386 387 3 388 389 390 3 391 392 393 3 394 395 396 3 397 398 399 3 400 401 402 3 403 404 405 3 406 407 408 3 409 410 411 3 412 413 414 3 415 416 417 3 418 419 420 3 421 422 423 3 424 425 426 3 427 428 429 3 430 431 432 3 433 434 435 3 436 437 438 3 439 440 441 3 442 443 444 3 445 446 447 3 448 449 450 3 451 452 453 3 454 455 456 3 457 458 459 3 460 461 462 3 463 464 465 3 466 467 468 3 469 470 471 3 472 473 474 3 475 476 477 3 478 479 480 3 481 482 483 3 484 485 486 3 487 488 489 3 490 491 492 3 493 494 495 3 496 497 498 3 499 500 501 3 502 503 504 3 505 506 507 3 508 509 510 3 511 512 513 3 514 515 516 3 517 518 519 3 520 521 522 3 523 524 525 3 526 527 528 3 529 530 531 3 532 533 534 3 535 536 537 3 538 539 540 3 541 542 543 3 544 545 546 3 547 548 549 3 550 551 552 3 553 554 555 3 556 557 558 3 559 560 561 3 562 563 564 3 565 566 567 3 568 569 570 3 571 572 573 3 574 575 576 3 577 578 579 3 580 581 582 3 583 584 585 3 586 587 588 3 589 590 591 3 592 593 594 3 595 596 597 3 598 599 600 3 601 602 603 3 604 605 606 3 607 608 609 3 610 611 612 3 613 614 615 3 616 617 618 3 619 620 621 3 622 623 624 3 625 626 627 3 628 629 630 3 631 632 633 3 634 635 636 3 637 638 639 3 640 641 642 3 643 644 645 3 646 647 648 3 649 650 651 3 652 653 654 3 655 656 657 3 658 659 660 3 661 662 663 3 664 665 666 3 667 668 669 3 670 671 672 3 673 674 675 3 676 677 678 3 679 680 681 3 682 683 684 3 685 686 687 3 688 689 690 3 691 692 693 3 694 695 696 3 697 698 699 3 700 701 702 3 703 704 705 3 706 707 708 3 709 710 711 3 712 713 714 3 715 716 717 3 718 719 720 3 721 722 723 3 724 725 726 3 727 728 729 3 730 731 732 3 733 734 735 3 736 737 738 3 739 740 741 3 742 743 744 3 745 746 747 3 748 749 750 3 751 752 753 3 754 755 756 3 757 758 759 3 760 761 762 3 763 764 765 3 766 767 768 3 769 770 771 3 772 773 774 3 775 776 777 3 778 779 780 3 781 782 783 3 784 785 786 3 787 788 789 3 790 791 792 3 793 794 795 3 796 797 798 3 799 800 801 3 802 803 804 3 805 806 807 3 808 809 810 3 811 812 813 3 814 815 816 3 817 818 819 3 820 821 822 3 823 824 825 3 826 827 828 3 829 830 831 3 832 833 834 3 835 836 837 3 838 839 840 3 841 842 843 3 844 845 846 3 847 848 849 3 850 851 852 3 853 854 855 3 856 857 858 3 859 860 861 3 862 863 864 3 865 866 867 3 868 869 870 3 871 872 873 3 874 875 876 3 877 878 879 3 880 881 882 3 883 884 885 3 886 887 888 3 889 890 891 3 892 893 894 3 895 896 897 3 898 899 900 3 901 902 903 3 904 905 906 3 907 908 909 3 910 911 912 3 913 914 915 3 916 917 918 3 919 920 921 3 922 923 924 3 925 926 927 3 928 929 930 3 931 932 933 3 934 935 936 3 937 938 939 3 940 941 942 3 943 944 945 3 946 947 948 3 949 950 951 3 952 953 954 3 955 956 957 3 958 959 960 3 961 962 963 3 964 965 966 3 967 968 969 3 970 971 972 3 973 974 975 3 976 977 978 3 979 980 981 3 982 983 984 3 985 986 987 3 988 989 990 3 991 992 993 3 994 995 996 3 997 998 999 3 1000 1001 1002 3 1003 1004 1005 3 1006 1007 1008 3 1009 1010 1011 3 1012 1013 1014 3 1015 1016 1017 3 1018 1019 1020 3 1021 1022 1023 3 1024 1025 1026 3 1027 1028 1029 3 1030 1031 1032 3 1033 1034 1035 3 1036 1037 1038 3 1039 1040 1041 3 1042 1043 1044 3 1045 1046 1047 3 1048 1049 1050 3 1051 1052 1053 3 1054 1055 1056 3 1057 1058 1059 3 1060 1061 1062 3 1063 1064 1065 3 1066 1067 1068 3 1069 1070 1071 3 1072 1073 1074 3 1075 1076 1077 3 1078 1079 1080 3 1081 1082 1083 3 1084 1085 1086 3 1087 1088 1089 3 1090 1091 1092 3 1093 1094 1095 3 1096 1097 1098 3 1099 1100 1101 3 1102 1103 1104 3 1105 1106 1107 3 1108 1109 1110 3 1111 1112 1113 3 1114 1115 1116 3 1117 1118 1119 3 1120 1121 1122 3 1123 1124 1125 3 1126 1127 1128 3 1129 1130 1131 3 1132 1133 1134 3 1135 1136 1137 3 1138 1139 1140 3 1141 1142 1143 3 1144 1145 1146 3 1147 1148 1149 3 1150 1151 1152 3 1153 1154 1155 3 1156 1157 1158 3 1159 1160 1161 3 1162 1163 1164 3 1165 1166 1167 3 1168 1169 1170 3 1171 1172 1173 3 1174 1175 1176 3 1177 1178 1179 3 1180 1181 1182 3 1183 1184 1185 3 1186 1187 1188 3 1189 1190 1191 3 1192 1193 1194 3 1195 1196 1197 3 1198 1199 1200 3 1201 1202 1203 3 1204 1205 1206 3 1207 1208 1209 3 1210 1211 1212 3 1213 1214 1215 3 1216 1217 1218 3 1219 1220 1221 3 1222 1223 1224 3 1225 1226 1227 3 1228 1229 1230 3 1231 1232 1233 3 1234 1235 1236 3 1237 1238 1239 3 1240 1241 1242 3 1243 1244 1245 3 1246 1247 1248 3 1249 1250 1251 3 1252 1253 1254 3 1255 1256 1257 3 1258 1259 1260 3 1261 1262 1263 3 1264 1265 1266 3 1267 1268 1269 3 1270 1271 1272 3 1273 1274 1275 3 1276 1277 1278 3 1279 1280 1281 3 1282 1283 1284 3 1285 1286 1287 3 1288 1289 1290 3 1291 1292 1293 3 1294 1295 1296 3 1297 1298 1299 3 1300 1301 1302 3 1303 1304 1305 3 1306 1307 1308 3 1309 1310 1311 3 1312 1313 1314 3 1315 1316 1317 3 1318 1319 1320 3 1321 1322 1323 3 1324 1325 1326 3 1327 1328 1329 3 1330 1331 1332 3 1333 1334 1335 3 1336 1337 1338 3 1339 1340 1341 3 1342 1343 1344 3 1345 1346 1347 3 1348 1349 1350 3 1351 1352 1353 3 1354 1355 1356 3 1357 1358 1359 3 1360 1361 1362 3 1363 1364 1365 3 1366 1367 1368 3 1369 1370 1371 3 1372 1373 1374 3 1375 1376 1377 3 1378 1379 1380 3 1381 1382 1383 3 1384 1385 1386 3 1387 1388 1389 3 1390 1391 1392 3 1393 1394 1395 3 1396 1397 1398 3 1399 1400 1401 3 1402 1403 1404 3 1405 1406 1407 3 1408 1409 1410 3 1411 1412 1413 3 1414 1415 1416 3 1417 1418 1419 3 1420 1421 1422 3 1423 1424 1425 3 1426 1427 1428 3 1429 1430 1431 3 1432 1433 1434 3 1435 1436 1437 3 1438 1439 1440 3 1441 1442 1443 3 1444 1445 1446 3 1447 1448 1449 3 1450 1451 1452 3 1453 1454 1455 3 1456 1457 1458 3 1459 1460 1461 3 1462 1463 1464 3 1465 1466 1467 3 1468 1469 1470 3 1471 1472 1473 3 1474 1475 1476 3 1477 1478 1479 3 1480 1481 1482 3 1483 1484 1485 3 1486 1487 1488 3 1489 1490 1491 3 1492 1493 1494 3 1495 1496 1497 3 1498 1499 1500 3 1501 1502 1503 3 1504 1505 1506 3 1507 1508 1509 3 1510 1511 1512 3 1513 1514 1515 3 1516 1517 1518 3 1519 1520 1521 3 1522 1523 1524 3 1525 1526 1527 3 1528 1529 1530 3 1531 1532 1533 3 1534 1535 1536 3 1537 1538 1539 3 1540 1541 1542 3 1543 1544 1545 3 1546 1547 1548 3 1549 1550 1551 3 1552 1553 1554 3 1555 1556 1557 3 1558 1559 1560 3 1561 1562 1563 3 1564 1565 1566 3 1567 1568 1569 3 1570 1571 1572 3 1573 1574 1575 3 1576 1577 1578 3 1579 1580 1581 3 1582 1583 1584 3 1585 1586 1587 3 1588 1589 1590 3 1591 1592 1593 3 1594 1595 1596 3 1597 1598 1599 3 1600 1601 1602 3 1603 1604 1605 3 1606 1607 1608 3 1609 1610 1611 3 1612 1613 1614 3 1615 1616 1617 3 1618 1619 1620 3 1621 1622 1623 3 1624 1625 1626 3 1627 1628 1629 3 1630 1631 1632 3 1633 1634 1635 3 1636 1637 1638 3 1639 1640 1641 3 1642 1643 1644 3 1645 1646 1647 3 1648 1649 1650 3 1651 1652 1653 3 1654 1655 1656 3 1657 1658 1659 3 1660 1661 1662 3 1663 1664 1665 3 1666 1667 1668 3 1669 1670 1671 3 1672 1673 1674 3 1675 1676 1677 3 1678 1679 1680 3 1681 1682 1683 3 1684 1685 1686 3 1687 1688 1689 3 1690 1691 1692 3 1693 1694 1695 3 1696 1697 1698 3 1699 1700 1701 3 1702 1703 1704 3 1705 1706 1707 3 1708 1709 1710 3 1711 1712 1713 3 1714 1715 1716 3 1717 1718 1719 3 1720 1721 1722 3 1723 1724 1725 3 1726 1727 1728 3 1729 1730 1731 3 1732 1733 1734 3 1735 1736 1737 3 1738 1739 1740 3 1741 1742 1743 3 1744 1745 1746 3 1747 1748 1749 3 1750 1751 1752 3 1753 1754 1755 3 1756 1757 1758 3 1759 1760 1761 3 1762 1763 1764 3 1765 1766 1767 3 1768 1769 1770 3 1771 1772 1773 3 1774 1775 1776 3 1777 1778 1779 3 1780 1781 1782 3 1783 1784 1785 3 1786 1787 1788 3 1789 1790 1791 3 1792 1793 1794 3 1795 1796 1797 3 1798 1799 1800 3 1801 1802 1803 3 1804 1805 1806 3 1807 1808 1809 3 1810 1811 1812 3 1813 1814 1815 3 1816 1817 1818 3 1819 1820 1821 3 1822 1823 1824 3 1825 1826 1827 3 1828 1829 1830 3 1831 1832 1833 3 1834 1835 1836 3 1837 1838 1839 3 1840 1841 1842 3 1843 1844 1845 3 1846 1847 1848 3 1849 1850 1851 3 1852 1853 1854 3 1855 1856 1857 3 1858 1859 1860 3 1861 1862 1863 3 1864 1865 1866 3 1867 1868 1869 3 1870 1871 1872 3 1873 1874 1875 3 1876 1877 1878 3 1879 1880 1881 3 1882 1883 1884 3 1885 1886 1887 3 1888 1889 1890 3 1891 1892 1893 3 1894 1895 1896 3 1897 1898 1899 3 1900 1901 1902 3 1903 1904 1905 3 1906 1907 1908 3 1909 1910 1911 3 1912 1913 1914 3 1915 1916 1917 3 1918 1919 1920 3 1921 1922 1923 3 1924 1925 1926 3 1927 1928 1929 3 1930 1931 1932 3 1933 1934 1935 3 1936 1937 1938 3 1939 1940 1941 3 1942 1943 1944 3 1945 1946 1947 3 1948 1949 1950 3 1951 1952 1953 3 1954 1955 1956 3 1957 1958 1959 3 1960 1961 1962 3 1963 1964 1965 3 1966 1967 1968 3 1969 1970 1971 3 1972 1973 1974 3 1975 1976 1977 3 1978 1979 1980 3 1981 1982 1983 3 1984 1985 1986 3 1987 1988 1989 3 1990 1991 1992 3 1993 1994 1995 3 1996 1997 1998 3 1999 2000 2001 3 2002 2003 2004 3 2005 2006 2007 3 2008 2009 2010 3 2011 2012 2013 3 2014 2015 2016 3 2017 2018 2019 3 2020 2021 2022 3 2023 2024 2025 3 2026 2027 2028 3 2029 2030 2031 3 2032 2033 2034 3 2035 2036 2037 3 2038 2039 2040 3 2041 2042 2043 3 2044 2045 2046 3 2047 2048 2049 3 2050 2051 2052 3 2053 2054 2055 3 2056 2057 2058 3 2059 2060 2061 3 2062 2063 2064 3 2065 2066 2067 3 2068 2069 2070 3 2071 2072 2073 3 2074 2075 2076 3 2077 2078 2079 3 2080 2081 2082 3 2083 2084 2085 3 2086 2087 2088 3 2089 2090 2091 3 2092 2093 2094 3 2095 2096 2097 3 2098 2099 2100 3 2101 2102 2103 3 2104 2105 2106 3 2107 2108 2109 3 2110 2111 2112 3 2113 2114 2115 3 2116 2117 2118 3 2119 2120 2121 3 2122 2123 2124 3 2125 2126 2127 3 2128 2129 2130 3 2131 2132 2133 3 2134 2135 2136 3 2137 2138 2139 3 2140 2141 2142 3 2143 2144 2145 3 2146 2147 2148 3 2149 2150 2151 3 2152 2153 2154 3 2155 2156 2157 3 2158 2159 2160 3 2161 2162 2163 3 2164 2165 2166 3 2167 2168 2169 3 2170 2171 2172 3 2173 2174 2175 3 2176 2177 2178 3 2179 2180 2181 3 2182 2183 2184 3 2185 2186 2187 3 2188 2189 2190 3 2191 2192 2193 3 2194 2195 2196 3 2197 2198 2199 3 2200 2201 2202 3 2203 2204 2205 3 2206 2207 2208 3 2209 2210 2211 3 2212 2213 2214 3 2215 2216 2217 3 2218 2219 2220 3 2221 2222 2223 3 2224 2225 2226 