ply
format ascii 1.0
element vertex 154
property float x
property float y
property float z
property uchar red
property uchar green
property uchar blue
element face 54
property list uchar int vertex_index
end_header
0.621659 1.608419 -3.751990 255 0 0
0.621593 1.608437 -3.752974 255 0 0
0.621527 1.608456 -3.753958 255 0 0
0.621463 1.608476 -3.754945 255 0 0
0.621399 1.608496 -3.755931 255 0 0
0.621518 1.608523 -3.757317 255 0 0
0.621637 1.608551 -3.758704 255 0 0
0.621312 1.608572 -3.759319 255 0 0
0.620987 1.608593 -3.759934 255 0 0
0.620908 1.608569 -3.760915 255 0 0
0.620828 1.608545 -3.761897 255 0 0
0.620745 1.608522 -3.762880 255 0 0
0.620662 1.608499 -3.763863 255 0 0
0.620580 1.608495 -3.764849 255 0 0
0.620498 1.608490 -3.765834 255 0 0
0.620440 1.608534 -3.766824 255 0 0
0.620382 1.608577 -3.767814 255 0 0
0.620648 1.608665 -3.769157 255 0 0
0.620914 1.608753 -3.770500 255 0 0
0.621659 1.608419 -3.751990 0 255 0
0.626573 1.609974 -3.747294 0 255 0
0.631487 1.611530 -3.742598 0 255 0
0.621659 1.608419 -3.751990 0 255 0
0.626561 1.610012 -3.748284 0 255 0
0.631463 1.611605 -3.744578 0 255 0
0.621659 1.608419 -3.751990 0 255 0
0.626522 1.610012 -3.748779 0 255 0
0.631385 1.611606 -3.745569 0 255 0
0.621527 1.608456 -3.753958 0 255 0
0.624706 1.609523 -3.752801 0 255 0
0.627886 1.610589 -3.751644 0 255 0
0.621399 1.608496 -3.755931 0 255 0
0.624507 1.609509 -3.754316 0 255 0
0.627616 1.610522 -3.752702 0 255 0
0.621399 1.608496 -3.755931 0 255 0
0.623492 1.609200 -3.755649 0 255 0
0.625586 1.609905 -3.755367 0 255 0
0.621637 1.608551 -3.758704 0 255 0
0.623638 1.609261 -3.757983 0 255 0
0.625639 1.609972 -3.757263 0 255 0
0.620987 1.608593 -3.759934 0 255 0
0.623141 1.609239 -3.759140 0 255 0
0.625296 1.609885 -3.758345 0 255 0
0.620828 1.608545 -3.761897 0 255 0
0.622977 1.609213 -3.761110 0 255 0
0.625126 1.609880 -3.760322 0 255 0
0.620498 1.608490 -3.765834 0 255 0
0.622902 1.609228 -3.763523 0 255 0
0.625306 1.609966 -3.761213 0 255 0
0.620498 1.608490 -3.765834 0 255 0
0.622725 1.609184 -3.764067 0 255 0
0.624952 1.609878 -3.762300 0 255 0
0.620662 1.608499 -3.763863 0 0 255
0.622807 1.609188 -3.763082 0 0 255
0.624952 1.609878 -3.762300 0 0 255
0.620498 1.608490 -3.765834 0 0 255
0.622997 1.609286 -3.764446 0 0 255
0.625496 1.610082 -3.763058 0 0 255
0.620382 1.608577 -3.767814 0 255 0
0.622939 1.609329 -3.765436 0 255 0
0.625496 1.610082 -3.763058 0 255 0
0.620498 1.608490 -3.765834 0 255 255
0.622823 1.609243 -3.764989 0 255 255
0.625148 1.609995 -3.764143 0 255 255
0.620382 1.608577 -3.767814 0 0 255
0.622765 1.609286 -3.765978 0 0 255
0.625148 1.609995 -3.764143 0 0 255
0.620662 1.608499 -3.763863 0 255 0
0.622905 1.609247 -3.764003 0 255 0
0.625148 1.609995 -3.764143 0 255 0
0.620382 1.608577 -3.767814 0 255 0
0.622856 1.609325 -3.766426 0 255 0
0.625330 1.610074 -3.765037 0 255 0
0.620498 1.608490 -3.765834 0 0 255
0.622914 1.609282 -3.765436 0 0 255
0.625330 1.610074 -3.765037 0 0 255
0.620662 1.608499 -3.763863 0 0 255
0.622996 1.609287 -3.764450 0 0 255
0.625330 1.610074 -3.765037 0 0 255
0.620382 1.608577 -3.767814 0 0 255
0.622700 1.609279 -3.766964 0 0 255
0.625017 1.609981 -3.766115 0 0 255
0.620382 1.608577 -3.767814 0 255 0
0.622793 1.609311 -3.767412 0 255 0
0.625205 1.610044 -3.767010 0 255 0
0.620914 1.608753 -3.770500 0 255 0
0.623059 1.609398 -3.768755 0 255 0
0.625205 1.610044 -3.767010 0 255 0
0.620498 1.608490 -3.765834 0 255 0
0.622851 1.609267 -3.766422 0 255 0
0.625205 1.610044 -3.767010 0 255 0
0.620914 1.608753 -3.770500 255 255 0
0.622945 1.609363 -3.769278 255 255 0
0.624975 1.609973 -3.768056 255 255 0
0.620914 1.608753 -3.770500 0 255 255
0.623176 1.609442 -3.769673 0 255 255
0.625438 1.610130 -3.768845 0 255 255
0.620914 1.608753 -3.770500 0 255 0
0.623270 1.609489 -3.770141 0 255 0
0.625625 1.610226 -3.769783 0 255 0
0.620987 1.608593 -3.759934 0 0 255
0.620082 1.608642 -3.759688 0 0 255
0.619177 1.608690 -3.759442 0 0 255
0.620987 1.608593 -3.759934 0 255 0
0.620309 1.608748 -3.760093 0 255 0
0.619632 1.608903 -3.760252 0 255 0
0.620828 1.608545 -3.761897 0 0 255
0.619982 1.608658 -3.761781 0 0 255
0.619135 1.608770 -3.761665 0 0 255
0.620662 1.608499 -3.763863 0 255 0
0.619657 1.608561 -3.763468 0 255 0
0.618652 1.608624 -3.763073 0 255 0
0.620662 1.608499 -3.763863 255 255 0
0.619895 1.608644 -3.763877 255 255 0
0.619128 1.608789 -3.763891 255 255 0
0.620498 1.608490 -3.765834 0 0 255
0.619601 1.608565 -3.765552 0 0 255
0.618703 1.608639 -3.765270 0 0 255
0.620498 1.608490 -3.765834 0 0 255
0.619842 1.608638 -3.765962 0 0 255
0.619187 1.608786 -3.766090 0 0 255
0.620382 1.608577 -3.767814 0 255 0
0.620047 1.608773 -3.767403 0 255 0
0.619711 1.608968 -3.766992 0 255 0
0.620382 1.608577 -3.767814 255 255 0
0.619910 1.608713 -3.768050 255 255 0
0.619438 1.608850 -3.768285 255 255 0
0.620382 1.608577 -3.767814 0 255 0
0.620152 1.608788 -3.768460 0 255 0
0.619921 1.608999 -3.769107 0 255 0
0.620914 1.608753 -3.770500 0 255 0
0.620316 1.608840 -3.770426 0 255 0
0.619717 1.608927 -3.770352 0 255 0
0.620914 1.608753 -3.770500 0 255 255
0.620553 1.608922 -3.770834 0 255 255
0.620192 1.609092 -3.771168 0 255 255
0.620914 1.608753 -3.770500 0 0 255
0.620380 1.608865 -3.771497 0 0 255
0.619845 1.608977 -3.772495 0 0 255
0.621659 1.608419 -3.751990 0 255 0
0.625621 1.609977 -3.748894 0 255 0
0.629583 1.611535 -3.745797 0 255 0
0.621659 1.608419 -3.751990 0 255 0
0.625638 1.609970 -3.749624 0 255 0
0.629617 1.611521 -3.747257 0 255 0
0.620498 1.608490 -3.765834 0 255 0
0.625053 1.609969 -3.762521 0 255 0
0.629609 1.611448 -3.759208 0 255 0
0.620498 1.608490 -3.765834 0 255 0
0.625030 1.609980 -3.763291 0 255 0
0.629563 1.611470 -3.760747 0 255 0
0.620382 1.608577 -3.767814 0 255 0
0.624991 1.610021 -3.765012 0 255 0
0.629600 1.611465 -3.762211 0 255 0
3 0 1 2 3 2 3 4 3 4 5 6 3 6 7 8 3 8 9 10 3 10 11 12 3 12 13 14 3 14 15 16 3 16 17 18 3 19 20 21 3 22 23 24 3 25 26 27 3 28 29 30 3 31 32 33 3 34 35 36 3 37 38 39 3 40 41 42 3 43 44 45 3 46 47 48 3 49 50 51 3 52 53 54 3 55 56 57 3 58 59 60 3 61 62 63 3 64 65 66 3 67 68 69 3 70 71 72 3 73 74 75 3 76 77 78 3 79 80 81 3 82 83 84 3 85 86 87 3 88 89 90 3 91 92 93 3 94 95 96 3 97 98 99 3 100 101 102 3 103 104 105 3 106 107 108 3 109 110 111 3 112 113 114 3 115 116 117 3 118 119 120 3 121 122 123 3 124 125 126 3 127 128 129 3 130 131 132 3 133 134 135 3 136 137 138 3 139 140 141 3 142 143 144 3 145 146 147 3 148 149 150 3 151 152 153 