ply
format ascii 1.0
element vertex 17
property float x
property float y
property float z
property uchar red
property uchar green
property uchar blue
element face 8
property list uchar int vertex_index
end_header
0.814177 1.985711 -3.472034 255 0 0
0.814640 1.985656 -3.471657 255 0 0
0.815103 1.985602 -3.471279 255 0 0
0.815463 1.985585 -3.471052 255 0 0
0.815824 1.985568 -3.470824 255 0 0
0.816197 1.985551 -3.470588 255 0 0
0.816570 1.985533 -3.470352 255 0 0
0.816897 1.985508 -3.470124 255 0 0
0.817224 1.985482 -3.469896 255 0 0
0.817504 1.985475 -3.469747 255 0 0
0.817784 1.985467 -3.469599 255 0 0
0.818167 1.985470 -3.469435 255 0 0
0.818550 1.985473 -3.469271 255 0 0
0.818895 1.985485 -3.469120 255 0 0
0.819240 1.985497 -3.468968 255 0 0
0.819831 1.985517 -3.468717 255 0 0
0.820422 1.985537 -3.468466 255 0 0
3 0 1 2 3 2 3 4 3 4 5 6 3 6 7 8 3 8 9 10 3 10 11 12 3 12 13 14 3 14 15 16 