ply
format ascii 1.0
element vertex 37
property float x
property float y
property float z
property uchar red
property uchar green
property uchar blue
element face 18
property list uchar int vertex_index
end_header
0.637439 1.989633 -3.748697 255 0 0
0.637332 1.989622 -3.749358 255 0 0
0.637225 1.989612 -3.750019 255 0 0
0.637163 1.989610 -3.750640 255 0 0
0.637100 1.989608 -3.751261 255 0 0
0.637045 1.989596 -3.751647 255 0 0
0.636989 1.989583 -3.752032 255 0 0
0.636936 1.989578 -3.752659 255 0 0
0.636882 1.989572 -3.753286 255 0 0
0.636848 1.989571 -3.753773 255 0 0
0.636813 1.989569 -3.754260 255 0 0
0.636775 1.989569 -3.754739 255 0 0
0.636737 1.989568 -3.755219 255 0 0
0.636718 1.989571 -3.755541 255 0 0
0.636699 1.989575 -3.755864 255 0 0
0.636540 1.989494 -3.756289 255 0 0
0.636381 1.989412 -3.756714 255 0 0
0.636349 1.989415 -3.757130 255 0 0
0.636318 1.989418 -3.757545 255 0 0
0.636218 1.989433 -3.758169 255 0 0
0.636117 1.989447 -3.758793 255 0 0
0.636069 1.989438 -3.759262 255 0 0
0.636020 1.989429 -3.759731 255 0 0
0.636009 1.989435 -3.760068 255 0 0
0.635998 1.989440 -3.760406 255 0 0
0.635972 1.989438 -3.760890 255 0 0
0.635946 1.989436 -3.761374 255 0 0
0.635923 1.989438 -3.761897 255 0 0
0.635900 1.989439 -3.762419 255 0 0
0.635871 1.989445 -3.762920 255 0 0
0.635843 1.989451 -3.763422 255 0 0
0.635822 1.989466 -3.763911 255 0 0
0.635801 1.989482 -3.764400 255 0 0
0.635771 1.989477 -3.764861 255 0 0
0.635741 1.989471 -3.765321 255 0 0
0.635825 1.989557 -3.766442 255 0 0
0.635910 1.989643 -3.767563 255 0 0
3 0 1 2 3 2 3 4 3 4 5 6 3 6 7 8 3 8 9 10 3 10 11 12 3 12 13 14 3 14 15 16 3 16 17 18 3 18 19 20 3 20 21 22 3 22 23 24 3 24 25 26 3 26 27 28 3 28 29 30 3 30 31 32 3 32 33 34 3 34 35 36 