ply
format ascii 1.0
element vertex 45
property float x
property float y
property float z
property uchar red
property uchar green
property uchar blue
element face 22
property list uchar int vertex_index
end_header
0.664119 1.988506 -3.645720 255 0 0
0.664598 1.988494 -3.644546 255 0 0
0.665076 1.988482 -3.643371 255 0 0
0.665265 1.988468 -3.642821 255 0 0
0.665453 1.988454 -3.642271 255 0 0
0.665725 1.988447 -3.641659 255 0 0
0.665996 1.988440 -3.641048 255 0 0
0.666122 1.988403 -3.640600 255 0 0
0.666248 1.988367 -3.640153 255 0 0
0.666436 1.988379 -3.639751 255 0 0
0.666623 1.988391 -3.639348 255 0 0
0.666877 1.988387 -3.638820 255 0 0
0.667132 1.988383 -3.638292 255 0 0
0.667645 1.988422 -3.637631 255 0 0
0.668157 1.988460 -3.636970 255 0 0
0.668393 1.988477 -3.636622 255 0 0
0.668628 1.988494 -3.636275 255 0 0
0.668786 1.988500 -3.635834 255 0 0
0.668943 1.988506 -3.635394 255 0 0
0.669308 1.988554 -3.634963 255 0 0
0.669673 1.988603 -3.634533 255 0 0
0.669952 1.988613 -3.634057 255 0 0
0.670232 1.988622 -3.633581 255 0 0
0.670545 1.988740 -3.633616 255 0 0
0.670858 1.988858 -3.633650 255 0 0
0.671081 1.988871 -3.633274 255 0 0
0.671304 1.988883 -3.632897 255 0 0
0.671721 1.988924 -3.632307 255 0 0
0.672138 1.988965 -3.631717 255 0 0
0.672419 1.988970 -3.631246 255 0 0
0.672699 1.988975 -3.630776 255 0 0
0.672902 1.988989 -3.630454 255 0 0
0.673104 1.989003 -3.630132 255 0 0
0.673411 1.989031 -3.629655 255 0 0
0.673717 1.989059 -3.629179 255 0 0
0.673922 1.989075 -3.628845 255 0 0
0.674127 1.989091 -3.628512 255 0 0
0.674415 1.989088 -3.627941 255 0 0
0.674703 1.989085 -3.627370 255 0 0
0.674965 1.989094 -3.626689 255 0 0
0.675228 1.989104 -3.626009 255 0 0
0.675273 1.989007 -3.625664 255 0 0
0.675319 1.988911 -3.625319 255 0 0
0.676183 1.988770 -3.622738 255 0 0
0.677048 1.988628 -3.620156 255 0 0
3 0 1 2 3 2 3 4 3 4 5 6 3 6 7 8 3 8 9 10 3 10 11 12 3 12 13 14 3 14 15 16 3 16 17 18 3 18 19 20 3 20 21 22 3 22 23 24 3 24 25 26 3 26 27 28 3 28 29 30 3 30 31 32 3 32 33 34 3 34 35 36 3 36 37 38 3 38 39 40 3 40 41 42 3 42 43 44 