ply
format ascii 1.0
element vertex 15
property float x
property float y
property float z
property uchar red
property uchar green
property uchar blue
element face 7
property list uchar int vertex_index
end_header
0.759698 1.987372 -3.513945 255 0 0
0.759367 1.987408 -3.514309 255 0 0
0.759035 1.987445 -3.514674 255 0 0
0.758677 1.987457 -3.514997 255 0 0
0.758319 1.987468 -3.515319 255 0 0
0.757485 1.987489 -3.516054 255 0 0
0.756650 1.987509 -3.516789 255 0 0
0.756358 1.987470 -3.516910 255 0 0
0.756066 1.987430 -3.517031 255 0 0
0.755291 1.987481 -3.517776 255 0 0
0.754517 1.987532 -3.518520 255 0 0
0.754348 1.987527 -3.518643 255 0 0
0.754178 1.987522 -3.518766 255 0 0
0.753527 1.987492 -3.519212 255 0 0
0.752877 1.987463 -3.519658 255 0 0
3 0 1 2 3 2 3 4 3 4 5 6 3 6 7 8 3 8 9 10 3 10 11 12 3 12 13 14 