ply
format ascii 1.0
element vertex 59
property float x
property float y
property float z
property uchar red
property uchar green
property uchar blue
element face 29
property list uchar int vertex_index
end_header
0.863795 1.837648 -3.445273 255 0 0
0.863029 1.837717 -3.445043 255 0 0
0.862264 1.837785 -3.444812 255 0 0
0.861786 1.837818 -3.444691 255 0 0
0.861309 1.837851 -3.444570 255 0 0
0.860661 1.837833 -3.444882 255 0 0
0.860013 1.837815 -3.445195 255 0 0
0.859560 1.837830 -3.445379 255 0 0
0.859108 1.837845 -3.445564 255 0 0
0.858406 1.837819 -3.446048 255 0 0
0.857705 1.837794 -3.446533 255 0 0
0.857335 1.837792 -3.446678 255 0 0
0.856966 1.837791 -3.446824 255 0 0
0.856202 1.837781 -3.447117 255 0 0
0.855437 1.837771 -3.447410 255 0 0
0.854974 1.837766 -3.447584 255 0 0
0.854511 1.837760 -3.447757 255 0 0
0.853948 1.837766 -3.448142 255 0 0
0.853386 1.837772 -3.448527 255 0 0
0.852868 1.837792 -3.448827 255 0 0
0.852351 1.837811 -3.449128 255 0 0
0.851986 1.837794 -3.449408 255 0 0
0.851622 1.837777 -3.449688 255 0 0
0.850993 1.837797 -3.449774 255 0 0
0.850364 1.837816 -3.449859 255 0 0
0.849776 1.837822 -3.449957 255 0 0
0.849189 1.837828 -3.450054 255 0 0
0.848608 1.837840 -3.450119 255 0 0
0.848026 1.837852 -3.450183 255 0 0
0.847429 1.837872 -3.450276 255 0 0
0.846832 1.837892 -3.450368 255 0 0
0.846391 1.837905 -3.450531 255 0 0
0.845949 1.837919 -3.450693 255 0 0
0.845452 1.837975 -3.451207 255 0 0
0.844955 1.838030 -3.451720 255 0 0
0.844513 1.838043 -3.452005 255 0 0
0.844071 1.838056 -3.452289 255 0 0
0.843468 1.838114 -3.452787 255 0 0
0.842866 1.838171 -3.453284 255 0 0
0.842163 1.838193 -3.453781 255 0 0
0.841459 1.838216 -3.454278 255 0 0
0.841010 1.838225 -3.454514 255 0 0
0.840560 1.838234 -3.454750 255 0 0
0.840020 1.838233 -3.454964 255 0 0
0.839480 1.838232 -3.455178 255 0 0
0.838956 1.838240 -3.455382 255 0 0
0.838432 1.838247 -3.455586 255 0 0
0.837859 1.838244 -3.455838 255 0 0
0.837286 1.838240 -3.456089 255 0 0
0.836738 1.838229 -3.456329 255 0 0
0.836189 1.838218 -3.456569 255 0 0
0.835622 1.838204 -3.456814 255 0 0
0.835055 1.838189 -3.457059 255 0 0
0.834498 1.838179 -3.457267 255 0 0
0.833940 1.838170 -3.457475 255 0 0
0.833353 1.838144 -3.457690 255 0 0
0.832767 1.838119 -3.457904 255 0 0
0.832210 1.838108 -3.458168 255 0 0
0.831653 1.838097 -3.458432 255 0 0
3 0 1 2 3 2 3 4 3 4 5 6 3 6 7 8 3 8 9 10 3 10 11 12 3 12 13 14 3 14 15 16 3 16 17 18 3 18 19 20 3 20 21 22 3 22 23 24 3 24 25 26 3 26 27 28 3 28 29 30 3 30 31 32 3 32 33 34 3 34 35 36 3 36 37 38 3 38 39 40 3 40 41 42 3 42 43 44 3 44 45 46 3 46 47 48 3 48 49 50 3 50 51 52 3 52 53 54 3 54 55 56 3 56 57 58 