ply
format ascii 1.0
element vertex 25
property float x
property float y
property float z
property uchar red
property uchar green
property uchar blue
element face 12
property list uchar int vertex_index
end_header
0.735021 1.988673 -3.540258 255 0 0
0.734309 1.988676 -3.541053 255 0 0
0.733596 1.988679 -3.541848 255 0 0
0.733160 1.988692 -3.542353 255 0 0
0.732724 1.988704 -3.542859 255 0 0
0.732520 1.988727 -3.543148 255 0 0
0.732317 1.988750 -3.543438 255 0 0
0.731860 1.988767 -3.543999 255 0 0
0.731403 1.988783 -3.544560 255 0 0
0.731162 1.988792 -3.544847 255 0 0
0.730922 1.988800 -3.545133 255 0 0
0.730658 1.988809 -3.545417 255 0 0
0.730394 1.988818 -3.545701 255 0 0
0.729633 1.988775 -3.546295 255 0 0
0.728873 1.988732 -3.546888 255 0 0
0.728039 1.988718 -3.547746 255 0 0
0.727205 1.988703 -3.548603 255 0 0
0.726771 1.988693 -3.549059 255 0 0
0.726338 1.988682 -3.549515 255 0 0
0.725844 1.988694 -3.550092 255 0 0
0.725351 1.988707 -3.550669 255 0 0
0.725283 1.988709 -3.550748 255 0 0
0.725215 1.988711 -3.550827 255 0 0
0.724968 1.988711 -3.551095 255 0 0
0.724720 1.988711 -3.551363 255 0 0
3 0 1 2 3 2 3 4 3 4 5 6 3 6 7 8 3 8 9 10 3 10 11 12 3 12 13 14 3 14 15 16 3 16 17 18 3 18 19 20 3 20 21 22 3 22 23 24 