ply
format ascii 1.0
element vertex 37
property float x
property float y
property float z
property uchar red
property uchar green
property uchar blue
element face 18
property list uchar int vertex_index
end_header
0.632129 1.921838 -3.795627 255 0 0
0.632310 1.921869 -3.794766 255 0 0
0.632491 1.921901 -3.793906 255 0 0
0.632854 1.921946 -3.792724 255 0 0
0.633217 1.921992 -3.791542 255 0 0
0.633162 1.922078 -3.790822 255 0 0
0.633106 1.922165 -3.790103 255 0 0
0.633203 1.922225 -3.789043 255 0 0
0.633301 1.922286 -3.787983 255 0 0
0.633271 1.922319 -3.787376 255 0 0
0.633242 1.922352 -3.786768 255 0 0
0.633264 1.922380 -3.785999 255 0 0
0.633287 1.922409 -3.785230 255 0 0
0.633314 1.922413 -3.784539 255 0 0
0.633341 1.922417 -3.783849 255 0 0
0.633360 1.922407 -3.783151 255 0 0
0.633380 1.922398 -3.782453 255 0 0
0.633491 1.922389 -3.781554 255 0 0
0.633603 1.922380 -3.780656 255 0 0
0.633577 1.922374 -3.779994 255 0 0
0.633552 1.922369 -3.779332 255 0 0
0.633487 1.922342 -3.778567 255 0 0
0.633423 1.922316 -3.777803 255 0 0
0.633432 1.922286 -3.777121 255 0 0
0.633441 1.922257 -3.776439 255 0 0
0.633436 1.922244 -3.776025 255 0 0
0.633431 1.922230 -3.775611 255 0 0
0.633723 1.922299 -3.774470 255 0 0
0.634016 1.922368 -3.773328 255 0 0
0.634061 1.922370 -3.772676 255 0 0
0.634106 1.922372 -3.772023 255 0 0
0.634140 1.922363 -3.771394 255 0 0
0.634174 1.922353 -3.770766 255 0 0
0.634136 1.922302 -3.769980 255 0 0
0.634097 1.922251 -3.769195 255 0 0
0.633451 1.922003 -3.768855 255 0 0
0.632804 1.921756 -3.768515 255 0 0
3 0 1 2 3 2 3 4 3 4 5 6 3 6 7 8 3 8 9 10 3 10 11 12 3 12 13 14 3 14 15 16 3 16 17 18 3 18 19 20 3 20 21 22 3 22 23 24 3 24 25 26 3 26 27 28 3 28 29 30 3 30 31 32 3 32 33 34 3 34 35 36 