ply
format ascii 1.0
element vertex 55
property float x
property float y
property float z
property uchar red
property uchar green
property uchar blue
element face 27
property list uchar int vertex_index
end_header
0.637623 1.841704 -3.722602 255 0 0
0.637759 1.841726 -3.722073 255 0 0
0.637895 1.841748 -3.721544 255 0 0
0.638068 1.841779 -3.721027 255 0 0
0.638242 1.841810 -3.720509 255 0 0
0.638414 1.841836 -3.720002 255 0 0
0.638586 1.841863 -3.719494 255 0 0
0.638733 1.841884 -3.719020 255 0 0
0.638880 1.841904 -3.718545 255 0 0
0.639022 1.841921 -3.717973 255 0 0
0.639164 1.841939 -3.717401 255 0 0
0.639275 1.841953 -3.717019 255 0 0
0.639387 1.841967 -3.716637 255 0 0
0.639546 1.841984 -3.716139 255 0 0
0.639704 1.842001 -3.715640 255 0 0
0.639872 1.842024 -3.715112 255 0 0
0.640039 1.842046 -3.714583 255 0 0
0.640240 1.842083 -3.713980 255 0 0
0.640440 1.842119 -3.713378 255 0 0
0.640610 1.842135 -3.712793 255 0 0
0.640781 1.842150 -3.712209 255 0 0
0.640911 1.842154 -3.711712 255 0 0
0.641042 1.842157 -3.711216 255 0 0
0.641161 1.842156 -3.710703 255 0 0
0.641280 1.842154 -3.710190 255 0 0
0.641409 1.842159 -3.709663 255 0 0
0.641539 1.842163 -3.709137 255 0 0
0.641683 1.842166 -3.708592 255 0 0
0.641827 1.842169 -3.708048 255 0 0
0.642051 1.842213 -3.707557 255 0 0
0.642274 1.842257 -3.707065 255 0 0
0.642417 1.842265 -3.706526 255 0 0
0.642560 1.842274 -3.705987 255 0 0
0.642671 1.842262 -3.705395 255 0 0
0.642782 1.842251 -3.704803 255 0 0
0.642837 1.842226 -3.704380 255 0 0
0.642893 1.842200 -3.703956 255 0 0
0.642940 1.842168 -3.703483 255 0 0
0.642986 1.842136 -3.703010 255 0 0
0.643782 1.842135 -3.699448 255 0 0
0.644578 1.842134 -3.695887 255 0 0
0.645717 1.842209 -3.692828 255 0 0
0.646856 1.842283 -3.689769 255 0 0
0.646996 1.842290 -3.689460 255 0 0
0.647135 1.842296 -3.689151 255 0 0
0.647299 1.842317 -3.688914 255 0 0
0.647462 1.842338 -3.688677 255 0 0
0.647732 1.842328 -3.687880 255 0 0
0.648001 1.842318 -3.687083 255 0 0
0.648237 1.842308 -3.686382 255 0 0
0.648473 1.842299 -3.685682 255 0 0
0.648645 1.842299 -3.685191 255 0 0
0.648817 1.842298 -3.684700 255 0 0
0.655575 1.844831 -3.686895 255 0 0
0.662333 1.847363 -3.689089 255 0 0
3 0 1 2 3 2 3 4 3 4 5 6 3 6 7 8 3 8 9 10 3 10 11 12 3 12 13 14 3 14 15 16 3 16 17 18 3 18 19 20 3 20 21 22 3 22 23 24 3 24 25 26 3 26 27 28 3 28 29 30 3 30 31 32 3 32 33 34 3 34 35 36 3 36 37 38 3 38 39 40 3 40 41 42 3 42 43 44 3 44 45 46 3 46 47 48 3 48 49 50 3 50 51 52 3 52 53 54 