ply
format ascii 1.0
element vertex 17
property float x
property float y
property float z
property uchar red
property uchar green
property uchar blue
element face 8
property list uchar int vertex_index
end_header
0.645183 1.980695 -3.883178 255 0 0
0.645261 1.980174 -3.883144 255 0 0
0.645339 1.979653 -3.883110 255 0 0
0.645340 1.979112 -3.883220 255 0 0
0.645341 1.978571 -3.883330 255 0 0
0.645382 1.978125 -3.883329 255 0 0
0.645423 1.977679 -3.883328 255 0 0
0.645453 1.977084 -3.883332 255 0 0
0.645484 1.976490 -3.883335 255 0 0
0.645512 1.975838 -3.883334 255 0 0
0.645540 1.975187 -3.883333 255 0 0
0.645443 1.974529 -3.883437 255 0 0
0.645346 1.973870 -3.883541 255 0 0
0.645376 1.973446 -3.883575 255 0 0
0.645406 1.973022 -3.883609 255 0 0
0.645430 1.972638 -3.883605 255 0 0
0.645455 1.972253 -3.883601 255 0 0
3 0 1 2 3 2 3 4 3 4 5 6 3 6 7 8 3 8 9 10 3 10 11 12 3 12 13 14 3 14 15 16 