ply
format ascii 1.0
element vertex 11
property float x
property float y
property float z
property uchar red
property uchar green
property uchar blue
element face 5
property list uchar int vertex_index
end_header
0.826443 1.838262 -3.461853 255 0 0
0.825921 1.838273 -3.462229 255 0 0
0.825399 1.838285 -3.462605 255 0 0
0.824802 1.838285 -3.463023 255 0 0
0.824205 1.838285 -3.463441 255 0 0
0.823666 1.838284 -3.463675 255 0 0
0.823128 1.838283 -3.463909 255 0 0
0.822671 1.838291 -3.464125 255 0 0
0.822214 1.838299 -3.464341 255 0 0
0.821768 1.838322 -3.464576 255 0 0
0.821321 1.838344 -3.464812 255 0 0
3 0 1 2 3 2 3 4 3 4 5 6 3 6 7 8 3 8 9 10 