ply
format ascii 1.0
element vertex 25
property float x
property float y
property float z
property uchar red
property uchar green
property uchar blue
element face 12
property list uchar int vertex_index
end_header
0.633012 1.921572 -3.812584 255 0 0
0.633083 1.921608 -3.812388 255 0 0
0.633153 1.921645 -3.812193 255 0 0
0.633160 1.921671 -3.811639 255 0 0
0.633167 1.921697 -3.811085 255 0 0
0.633300 1.921764 -3.810727 255 0 0
0.633433 1.921831 -3.810369 255 0 0
0.633419 1.921844 -3.810045 255 0 0
0.633405 1.921856 -3.809721 255 0 0
0.633455 1.921891 -3.809508 255 0 0
0.633505 1.921925 -3.809295 255 0 0
0.633536 1.921961 -3.809143 255 0 0
0.633566 1.921996 -3.808990 255 0 0
0.633443 1.922053 -3.807974 255 0 0
0.633320 1.922109 -3.806959 255 0 0
0.633175 1.922092 -3.806392 255 0 0
0.633030 1.922075 -3.805825 255 0 0
0.633033 1.922090 -3.805715 255 0 0
0.633037 1.922104 -3.805605 255 0 0
0.632940 1.922094 -3.805047 255 0 0
0.632844 1.922084 -3.804489 255 0 0
0.632854 1.922102 -3.804002 255 0 0
0.632864 1.922120 -3.803516 255 0 0
0.632920 1.922121 -3.802860 255 0 0
0.632976 1.922123 -3.802204 255 0 0
3 0 1 2 3 2 3 4 3 4 5 6 3 6 7 8 3 8 9 10 3 10 11 12 3 12 13 14 3 14 15 16 3 16 17 18 3 18 19 20 3 20 21 22 3 22 23 24 