ply
format ascii 1.0
element vertex 37
property float x
property float y
property float z
property uchar red
property uchar green
property uchar blue
element face 18
property list uchar int vertex_index
end_header
0.645215 1.934653 -3.882628 255 0 0
0.645179 1.935113 -3.882634 255 0 0
0.645142 1.935572 -3.882641 255 0 0
0.645167 1.935934 -3.882603 255 0 0
0.645192 1.936295 -3.882565 255 0 0
0.645137 1.936924 -3.882613 255 0 0
0.645082 1.937553 -3.882660 255 0 0
0.645053 1.938025 -3.882700 255 0 0
0.645025 1.938497 -3.882740 255 0 0
0.645013 1.938978 -3.882770 255 0 0
0.645002 1.939459 -3.882800 255 0 0
0.645012 1.939855 -3.882800 255 0 0
0.645022 1.940251 -3.882801 255 0 0
0.645049 1.940865 -3.882786 255 0 0
0.645075 1.941479 -3.882772 255 0 0
0.645097 1.942028 -3.882757 255 0 0
0.645118 1.942577 -3.882743 255 0 0
0.645146 1.943076 -3.882723 255 0 0
0.645174 1.943576 -3.882704 255 0 0
0.645201 1.944149 -3.882684 255 0 0
0.645228 1.944723 -3.882664 255 0 0
0.645253 1.945397 -3.882673 255 0 0
0.645278 1.946072 -3.882681 255 0 0
0.645292 1.946647 -3.882694 255 0 0
0.645305 1.947223 -3.882707 255 0 0
0.645316 1.947753 -3.882725 255 0 0
0.645326 1.948284 -3.882742 255 0 0
0.645347 1.948823 -3.882761 255 0 0
0.645367 1.949363 -3.882780 255 0 0
0.645384 1.949910 -3.882796 255 0 0
0.645401 1.950458 -3.882811 255 0 0
0.645405 1.950933 -3.882827 255 0 0
0.645408 1.951408 -3.882842 255 0 0
0.645409 1.951969 -3.882863 255 0 0
0.645409 1.952529 -3.882885 255 0 0
0.645393 1.953009 -3.882935 255 0 0
0.645377 1.953489 -3.882986 255 0 0
3 0 1 2 3 2 3 4 3 4 5 6 3 6 7 8 3 8 9 10 3 10 11 12 3 12 13 14 3 14 15 16 3 16 17 18 3 18 19 20 3 20 21 22 3 22 23 24 3 24 25 26 3 26 27 28 3 28 29 30 3 30 31 32 3 32 33 34 3 34 35 36 