ply
format ascii 1.0
element vertex 367
property float x
property float y
property float z
property uchar red
property uchar green
property uchar blue
element face 183
property list uchar int vertex_index
end_header
0.645206 1.981363 -3.883133 255 0 0
0.645152 1.982114 -3.883081 255 0 0
0.645097 1.982865 -3.883029 255 0 0
0.645112 1.983235 -3.883024 255 0 0
0.645127 1.983605 -3.883019 255 0 0
0.644891 1.984151 -3.882838 255 0 0
0.644655 1.984696 -3.882658 255 0 0
0.644519 1.985040 -3.882490 255 0 0
0.644383 1.985383 -3.882323 255 0 0
0.644282 1.985679 -3.882116 255 0 0
0.644180 1.985975 -3.881909 255 0 0
0.643980 1.986258 -3.881653 255 0 0
0.643781 1.986541 -3.881397 255 0 0
0.643711 1.986759 -3.881129 255 0 0
0.643642 1.986977 -3.880862 255 0 0
0.643563 1.987173 -3.880583 255 0 0
0.643483 1.987369 -3.880304 255 0 0
0.643423 1.987612 -3.879885 255 0 0
0.643362 1.987854 -3.879467 255 0 0
0.643243 1.987969 -3.879044 255 0 0
0.643123 1.988083 -3.878620 255 0 0
0.643115 1.988259 -3.877739 255 0 0
0.643108 1.988435 -3.876859 255 0 0
0.643085 1.988519 -3.876391 255 0 0
0.643062 1.988603 -3.875922 255 0 0
0.643021 1.988652 -3.875558 255 0 0
0.642980 1.988702 -3.875194 255 0 0
0.643004 1.988830 -3.874555 255 0 0
0.643028 1.988959 -3.873917 255 0 0
0.643154 1.989088 -3.873113 255 0 0
0.643281 1.989216 -3.872310 255 0 0
0.643251 1.989254 -3.871763 255 0 0
0.643221 1.989292 -3.871217 255 0 0
0.643159 1.989343 -3.870377 255 0 0
0.643096 1.989395 -3.869537 255 0 0
0.642750 1.989423 -3.867419 255 0 0
0.642403 1.989451 -3.865301 255 0 0
0.642342 1.989435 -3.865217 255 0 0
0.642280 1.989418 -3.865134 255 0 0
0.642146 1.989404 -3.864647 255 0 0
0.642013 1.989390 -3.864160 255 0 0
0.641922 1.989389 -3.863709 255 0 0
0.641831 1.989389 -3.863257 255 0 0
0.641744 1.989396 -3.862769 255 0 0
0.641658 1.989403 -3.862281 255 0 0
0.641581 1.989423 -3.861753 255 0 0
0.641503 1.989443 -3.861225 255 0 0
0.641261 1.989418 -3.860658 255 0 0
0.641019 1.989394 -3.860090 255 0 0
0.640910 1.989408 -3.859512 255 0 0
0.640801 1.989423 -3.858935 255 0 0
0.640708 1.989439 -3.858404 255 0 0
0.640616 1.989455 -3.857873 255 0 0
0.640513 1.989477 -3.857207 255 0 0
0.640411 1.989499 -3.856541 255 0 0
0.640311 1.989515 -3.855879 255 0 0
0.640211 1.989531 -3.855217 255 0 0
0.640279 1.989598 -3.854525 255 0 0
0.640348 1.989666 -3.853832 255 0 0
0.640058 1.989608 -3.853147 255 0 0
0.639768 1.989550 -3.852462 255 0 0
0.639631 1.989545 -3.851784 255 0 0
0.639494 1.989540 -3.851105 255 0 0
0.639414 1.989549 -3.850457 255 0 0
0.639334 1.989558 -3.849809 255 0 0
0.639250 1.989558 -3.849162 255 0 0
0.639167 1.989558 -3.848514 255 0 0
0.639081 1.989558 -3.847906 255 0 0
0.638995 1.989558 -3.847298 255 0 0
0.638934 1.989563 -3.846631 255 0 0
0.638872 1.989568 -3.845965 255 0 0
0.638805 1.989568 -3.845396 255 0 0
0.638738 1.989567 -3.844827 255 0 0
0.638654 1.989559 -3.844220 255 0 0
0.638569 1.989551 -3.843613 255 0 0
0.638476 1.989539 -3.843053 255 0 0
0.638382 1.989527 -3.842492 255 0 0
0.638223 1.989510 -3.841375 255 0 0
0.638063 1.989494 -3.840257 255 0 0
0.637980 1.989486 -3.839706 255 0 0
0.637897 1.989479 -3.839154 255 0 0
0.637846 1.989491 -3.838594 255 0 0
0.637794 1.989503 -3.838033 255 0 0
0.637737 1.989518 -3.837416 255 0 0
0.637680 1.989532 -3.836798 255 0 0
0.637618 1.989546 -3.836184 255 0 0
0.637556 1.989559 -3.835571 255 0 0
0.637507 1.989587 -3.834769 255 0 0
0.637457 1.989615 -3.833968 255 0 0
0.637366 1.989620 -3.833277 255 0 0
0.637275 1.989624 -3.832587 255 0 0
0.637156 1.989609 -3.831983 255 0 0
0.637037 1.989594 -3.831379 255 0 0
0.636853 1.989555 -3.830803 255 0 0
0.636669 1.989516 -3.830227 255 0 0
0.636506 1.989483 -3.829724 255 0 0
0.636344 1.989449 -3.829222 255 0 0
0.635941 1.989371 -3.828302 255 0 0
0.635539 1.989294 -3.827383 255 0 0
0.635392 1.989287 -3.826527 255 0 0
0.635246 1.989281 -3.825672 255 0 0
0.635141 1.989274 -3.825089 255 0 0
0.635037 1.989267 -3.824507 255 0 0
0.634939 1.989257 -3.823822 255 0 0
0.634841 1.989247 -3.823136 255 0 0
0.634729 1.989201 -3.822437 255 0 0
0.634617 1.989154 -3.821737 255 0 0
0.634598 1.989174 -3.820975 255 0 0
0.634579 1.989194 -3.820213 255 0 0
0.634529 1.989176 -3.819333 255 0 0
0.634478 1.989158 -3.818453 255 0 0
0.634462 1.989170 -3.817802 255 0 0
0.634447 1.989183 -3.817152 255 0 0
0.634420 1.989189 -3.816519 255 0 0
0.634394 1.989195 -3.815885 255 0 0
0.634364 1.989195 -3.815273 255 0 0
0.634334 1.989195 -3.814660 255 0 0
0.634254 1.989207 -3.813922 255 0 0
0.634174 1.989218 -3.813184 255 0 0
0.634142 1.989217 -3.812478 255 0 0
0.634110 1.989216 -3.811773 255 0 0
0.634105 1.989225 -3.811139 255 0 0
0.634100 1.989233 -3.810505 255 0 0
0.633993 1.989202 -3.809829 255 0 0
0.633886 1.989171 -3.809153 255 0 0
0.633986 1.989184 -3.808099 255 0 0
0.634086 1.989197 -3.807045 255 0 0
0.634122 1.989210 -3.806424 255 0 0
0.634157 1.989222 -3.805803 255 0 0
0.634147 1.989221 -3.805219 255 0 0
0.634138 1.989220 -3.804635 255 0 0
0.634162 1.989237 -3.803959 255 0 0
0.634186 1.989255 -3.803282 255 0 0
0.634242 1.989286 -3.802705 255 0 0
0.634297 1.989317 -3.802128 255 0 0
0.634421 1.989364 -3.801019 255 0 0
0.634545 1.989411 -3.799910 255 0 0
0.634590 1.989425 -3.799204 255 0 0
0.634634 1.989440 -3.798499 255 0 0
0.634654 1.989449 -3.797992 255 0 0
0.634673 1.989458 -3.797485 255 0 0
0.634755 1.989482 -3.796716 255 0 0
0.634837 1.989505 -3.795948 255 0 0
0.634826 1.989486 -3.795140 255 0 0
0.634815 1.989466 -3.794331 255 0 0
0.634840 1.989468 -3.793613 255 0 0
0.634866 1.989469 -3.792896 255 0 0
0.634836 1.989446 -3.792115 255 0 0
0.634807 1.989422 -3.791333 255 0 0
0.634710 1.989375 -3.790500 255 0 0
0.634614 1.989328 -3.789667 255 0 0
0.634576 1.989304 -3.788945 255 0 0
0.634538 1.989280 -3.788223 255 0 0
0.634576 1.989292 -3.787206 255 0 0
0.634613 1.989303 -3.786190 255 0 0
0.634631 1.989304 -3.785413 255 0 0
0.634650 1.989305 -3.784636 255 0 0
0.634694 1.989312 -3.783919 255 0 0
0.634738 1.989319 -3.783201 255 0 0
0.634799 1.989340 -3.782523 255 0 0
0.634861 1.989362 -3.781844 255 0 0
0.634947 1.989396 -3.781023 255 0 0
0.635034 1.989430 -3.780202 255 0 0
0.635126 1.989464 -3.779595 255 0 0
0.635219 1.989498 -3.778988 255 0 0
0.635324 1.989532 -3.777933 255 0 0
0.635430 1.989567 -3.776879 255 0 0
0.635470 1.989576 -3.776097 255 0 0
0.635511 1.989586 -3.775316 255 0 0
0.635475 1.989560 -3.774398 255 0 0
0.635439 1.989533 -3.773480 255 0 0
0.635395 1.989518 -3.772871 255 0 0
0.635352 1.989503 -3.772261 255 0 0
0.635538 1.989565 -3.771468 255 0 0
0.635725 1.989628 -3.770675 255 0 0
0.635737 1.989615 -3.769989 255 0 0
0.635750 1.989601 -3.769303 255 0 0
0.635744 1.989591 -3.768607 255 0 0
0.635738 1.989582 -3.767910 255 0 0
0.635742 1.989562 -3.767086 255 0 0
0.635746 1.989542 -3.766261 255 0 0
0.635787 1.989532 -3.765492 255 0 0
0.635829 1.989523 -3.764722 255 0 0
0.635878 1.989520 -3.763963 255 0 0
0.635926 1.989517 -3.763204 255 0 0
0.635959 1.989505 -3.762365 255 0 0
0.635991 1.989492 -3.761525 255 0 0
0.636024 1.989485 -3.760771 255 0 0
0.636057 1.989477 -3.760016 255 0 0
0.636177 1.989492 -3.758999 255 0 0
0.636296 1.989508 -3.757981 255 0 0
0.636377 1.989512 -3.757200 255 0 0
0.636458 1.989516 -3.756419 255 0 0
0.636526 1.989516 -3.755530 255 0 0
0.636594 1.989516 -3.754641 255 0 0
0.636669 1.989525 -3.753922 255 0 0
0.636743 1.989535 -3.753202 255 0 0
0.636818 1.989545 -3.752316 255 0 0
0.636892 1.989556 -3.751430 255 0 0
0.637068 1.989582 -3.750640 255 0 0
0.637244 1.989607 -3.749850 255 0 0
0.637293 1.989590 -3.748767 255 0 0
0.637343 1.989572 -3.747683 255 0 0
0.637544 1.989603 -3.746805 255 0 0
0.637744 1.989634 -3.745927 255 0 0
0.638066 1.989699 -3.745000 255 0 0
0.638387 1.989763 -3.744073 255 0 0
0.638587 1.989784 -3.743124 255 0 0
0.638787 1.989805 -3.742175 255 0 0
0.638941 1.989809 -3.741265 255 0 0
0.639095 1.989812 -3.740356 255 0 0
0.639250 1.989813 -3.739471 255 0 0
0.639405 1.989814 -3.738585 255 0 0
0.639575 1.989833 -3.737775 255 0 0
0.639745 1.989851 -3.736965 255 0 0
0.639744 1.989822 -3.736109 255 0 0
0.639743 1.989793 -3.735253 255 0 0
0.639841 1.989805 -3.734549 255 0 0
0.639938 1.989817 -3.733846 255 0 0
0.640108 1.989835 -3.732890 255 0 0
0.640277 1.989852 -3.731934 255 0 0
0.640533 1.989894 -3.731025 255 0 0
0.640790 1.989935 -3.730115 255 0 0
0.640967 1.989915 -3.728818 255 0 0
0.641144 1.989896 -3.727521 255 0 0
0.641325 1.989876 -3.726486 255 0 0
0.641507 1.989856 -3.725452 255 0 0
0.641679 1.989829 -3.724417 255 0 0
0.641850 1.989802 -3.723381 255 0 0
0.642053 1.989773 -3.722225 255 0 0
0.642257 1.989744 -3.721068 255 0 0
0.642388 1.989731 -3.720289 255 0 0
0.642520 1.989718 -3.719510 255 0 0
0.642594 1.989708 -3.718969 255 0 0
0.642668 1.989698 -3.718428 255 0 0
0.642796 1.989690 -3.717556 255 0 0
0.642925 1.989683 -3.716683 255 0 0
0.643057 1.989681 -3.715899 255 0 0
0.643188 1.989679 -3.715114 255 0 0
0.643319 1.989658 -3.714191 255 0 0
0.643449 1.989636 -3.713267 255 0 0
0.643565 1.989589 -3.712316 255 0 0
0.643682 1.989542 -3.711364 255 0 0
0.643826 1.989511 -3.710490 255 0 0
0.643970 1.989480 -3.709616 255 0 0
0.644104 1.989453 -3.708874 255 0 0
0.644238 1.989426 -3.708131 255 0 0
0.644406 1.989410 -3.707238 255 0 0
0.644574 1.989393 -3.706345 255 0 0
0.644753 1.989392 -3.705565 255 0 0
0.644931 1.989392 -3.704786 255 0 0
0.645202 1.989413 -3.703850 255 0 0
0.645472 1.989434 -3.702913 255 0 0
0.645633 1.989461 -3.702398 255 0 0
0.645793 1.989489 -3.701883 255 0 0
0.645938 1.989498 -3.700895 255 0 0
0.646083 1.989508 -3.699908 255 0 0
0.646288 1.989531 -3.699032 255 0 0
0.646493 1.989555 -3.698157 255 0 0
0.646648 1.989555 -3.697329 255 0 0
0.646804 1.989555 -3.696502 255 0 0
0.646941 1.989533 -3.695523 255 0 0
0.647078 1.989511 -3.694545 255 0 0
0.647332 1.989503 -3.693549 255 0 0
0.647587 1.989494 -3.692554 255 0 0
0.647916 1.989478 -3.691386 255 0 0
0.648246 1.989462 -3.690217 255 0 0
0.648789 1.989463 -3.688894 255 0 0
0.649332 1.989465 -3.687571 255 0 0
0.649722 1.989452 -3.686611 255 0 0
0.650112 1.989439 -3.685652 255 0 0
0.650626 1.989436 -3.684600 255 0 0
0.651139 1.989433 -3.683548 255 0 0
0.651596 1.989423 -3.682428 255 0 0
0.652052 1.989413 -3.681308 255 0 0
0.652363 1.989373 -3.680031 255 0 0
0.652675 1.989333 -3.678755 255 0 0
0.652855 1.989272 -3.677753 255 0 0
0.653035 1.989210 -3.676752 255 0 0
0.653324 1.989175 -3.675695 255 0 0
0.653613 1.989140 -3.674637 255 0 0
0.653936 1.989105 -3.673503 255 0 0
0.654259 1.989070 -3.672368 255 0 0
0.654532 1.989041 -3.671286 255 0 0
0.654805 1.989012 -3.670203 255 0 0
0.655042 1.988968 -3.669214 255 0 0
0.655279 1.988924 -3.668224 255 0 0
0.655418 1.988869 -3.667284 255 0 0
0.655556 1.988813 -3.666343 255 0 0
0.655890 1.988758 -3.665105 255 0 0
0.656223 1.988703 -3.663866 255 0 0
0.656728 1.988667 -3.662545 255 0 0
0.657233 1.988631 -3.661223 255 0 0
0.657627 1.988620 -3.660333 255 0 0
0.658022 1.988610 -3.659443 255 0 0
0.658592 1.988611 -3.658284 255 0 0
0.659163 1.988612 -3.657125 255 0 0
0.659861 1.988616 -3.655706 255 0 0
0.660559 1.988621 -3.654287 255 0 0
0.661130 1.988618 -3.653091 255 0 0
0.661700 1.988615 -3.651895 255 0 0
0.662131 1.988590 -3.650791 255 0 0
0.662562 1.988564 -3.649687 255 0 0
0.663116 1.988541 -3.648306 255 0 0
0.663670 1.988518 -3.646925 255 0 0
0.664082 1.988500 -3.645840 255 0 0
0.664494 1.988482 -3.644755 255 0 0
0.664959 1.988467 -3.643598 255 0 0
0.665423 1.988451 -3.642441 255 0 0
0.666026 1.988438 -3.641087 255 0 0
0.666628 1.988425 -3.639733 255 0 0
0.667397 1.988444 -3.638355 255 0 0
0.668166 1.988462 -3.636976 255 0 0
0.669402 1.988573 -3.635129 255 0 0
0.670639 1.988684 -3.633283 255 0 0
0.671562 1.988742 -3.631856 255 0 0
0.672486 1.988799 -3.630430 255 0 0
0.673150 1.988844 -3.629371 255 0 0
0.673814 1.988888 -3.628311 255 0 0
0.674618 1.988858 -3.626515 255 0 0
0.675421 1.988829 -3.624719 255 0 0
0.675881 1.988798 -3.623576 255 0 0
0.676340 1.988768 -3.622433 255 0 0
0.676689 1.988735 -3.621536 255 0 0
0.677039 1.988702 -3.620638 255 0 0
0.677372 1.988644 -3.619738 255 0 0
0.677705 1.988587 -3.618838 255 0 0
0.678266 1.988578 -3.617674 255 0 0
0.678828 1.988569 -3.616510 255 0 0
0.679605 1.988559 -3.614889 255 0 0
0.680383 1.988548 -3.613267 255 0 0
0.680854 1.988546 -3.612265 255 0 0
0.681324 1.988543 -3.611264 255 0 0
0.682068 1.988521 -3.609572 255 0 0
0.682811 1.988499 -3.607880 255 0 0
0.683844 1.988480 -3.606069 255 0 0
0.684877 1.988462 -3.604257 255 0 0
0.686065 1.988476 -3.602442 255 0 0
0.687254 1.988490 -3.600627 255 0 0
0.688293 1.988475 -3.599041 255 0 0
0.689333 1.988459 -3.597456 255 0 0
0.690894 1.988490 -3.595192 255 0 0
0.692455 1.988520 -3.592928 255 0 0
0.693529 1.988538 -3.591351 255 0 0
0.694603 1.988556 -3.589774 255 0 0
0.695630 1.988516 -3.588110 255 0 0
0.696657 1.988476 -3.586446 255 0 0
0.699092 1.988628 -3.583512 255 0 0
0.701526 1.988781 -3.580579 255 0 0
0.703379 1.988900 -3.578344 255 0 0
0.705232 1.989018 -3.576109 255 0 0
0.705284 1.988852 -3.575542 255 0 0
0.705336 1.988685 -3.574975 255 0 0
0.706899 1.988684 -3.572892 255 0 0
0.708461 1.988683 -3.570809 255 0 0
0.710246 1.988582 -3.568361 255 0 0
0.712032 1.988481 -3.565912 255 0 0
0.713671 1.988502 -3.563687 255 0 0
0.715310 1.988522 -3.561462 255 0 0
0.716322 1.988507 -3.560248 255 0 0
0.717335 1.988491 -3.559034 255 0 0
0.718400 1.988499 -3.557799 255 0 0
0.719466 1.988507 -3.556565 255 0 0
0.720937 1.988537 -3.554956 255 0 0
0.722409 1.988567 -3.553347 255 0 0
0.724942 1.988623 -3.550779 255 0 0
0.727476 1.988679 -3.548212 255 0 0
3 0 1 2 3 2 3 4 3 4 5 6 3 6 7 8 3 8 9 10 3 10 11 12 3 12 13 14 3 14 15 16 3 16 17 18 3 18 19 20 3 20 21 22 3 22 23 24 3 24 25 26 3 26 27 28 3 28 29 30 3 30 31 32 3 32 33 34 3 34 35 36 3 36 37 38 3 38 39 40 3 40 41 42 3 42 43 44 3 44 45 46 3 46 47 48 3 48 49 50 3 50 51 52 3 52 53 54 3 54 55 56 3 56 57 58 3 58 59 60 3 60 61 62 3 62 63 64 3 64 65 66 3 66 67 68 3 68 69 70 3 70 71 72 3 72 73 74 3 74 75 76 3 76 77 78 3 78 79 80 3 80 81 82 3 82 83 84 3 84 85 86 3 86 87 88 3 88 89 90 3 90 91 92 3 92 93 94 3 94 95 96 3 96 97 98 3 98 99 100 3 100 101 102 3 102 103 104 3 104 105 106 3 106 107 108 3 108 109 110 3 110 111 112 3 112 113 114 3 114 115 116 3 116 117 118 3 118 119 120 3 120 121 122 3 122 123 124 3 124 125 126 3 126 127 128 3 128 129 130 3 130 131 132 3 132 133 134 3 134 135 136 3 136 137 138 3 138 139 140 3 140 141 142 3 142 143 144 3 144 145 146 3 146 147 148 3 148 149 150 3 150 151 152 3 152 153 154 3 154 155 156 3 156 157 158 3 158 159 160 3 160 161 162 3 162 163 164 3 164 165 166 3 166 167 168 3 168 169 170 3 170 171 172 3 172 173 174 3 174 175 176 3 176 177 178 3 178 179 180 3 180 181 182 3 182 183 184 3 184 185 186 3 186 187 188 3 188 189 190 3 190 191 192 3 192 193 194 3 194 195 196 3 196 197 198 3 198 199 200 3 200 201 202 3 202 203 204 3 204 205 206 3 206 207 208 3 208 209 210 3 210 211 212 3 212 213 214 3 214 215 216 3 216 217 218 3 218 219 220 3 220 221 222 3 222 223 224 3 224 225 226 3 226 227 228 3 228 229 230 3 230 231 232 3 232 233 234 3 234 235 236 3 236 237 238 3 238 239 240 3 240 241 242 3 242 243 244 3 244 245 246 3 246 247 248 3 248 249 250 3 250 251 252 3 252 253 254 3 254 255 256 3 256 257 258 3 258 259 260 3 260 261 262 3 262 263 264 3 264 265 266 3 266 267 268 3 268 269 270 3 270 271 272 3 272 273 274 3 274 275 276 3 276 277 278 3 278 279 280 3 280 281 282 3 282 283 284 3 284 285 286 3 286 287 288 3 288 289 290 3 290 291 292 3 292 293 294 3 294 295 296 3 296 297 298 3 298 299 300 3 300 301 302 3 302 303 304 3 304 305 306 3 306 307 308 3 308 309 310 3 310 311 312 3 312 313 314 3 314 315 316 3 316 317 318 3 318 319 320 3 320 321 322 3 322 323 324 3 324 325 326 3 326 327 328 3 328 329 330 3 330 331 332 3 332 333 334 3 334 335 336 3 336 337 338 3 338 339 340 3 340 341 342 3 342 343 344 3 344 345 346 3 346 347 348 3 348 349 350 3 350 351 352 3 352 353 354 3 354 355 356 3 356 357 358 3 358 359 360 3 360 361 362 3 362 363 364 3 364 365 366 