ply
format ascii 1.0
element vertex 67
property float x
property float y
property float z
property uchar red
property uchar green
property uchar blue
element face 33
property list uchar int vertex_index
end_header
0.640972 1.921121 -3.870062 255 0 0
0.640616 1.921265 -3.869831 255 0 0
0.640260 1.921409 -3.869599 255 0 0
0.640080 1.921478 -3.869336 255 0 0
0.639900 1.921547 -3.869072 255 0 0
0.639679 1.921596 -3.868662 255 0 0
0.639457 1.921644 -3.868252 255 0 0
0.639125 1.921671 -3.867488 255 0 0
0.638794 1.921699 -3.866725 255 0 0
0.638646 1.921668 -3.866335 255 0 0
0.638499 1.921638 -3.865946 255 0 0
0.638414 1.921619 -3.865769 255 0 0
0.638330 1.921600 -3.865593 255 0 0
0.637943 1.921495 -3.864901 255 0 0
0.637556 1.921390 -3.864209 255 0 0
0.637427 1.921350 -3.863518 255 0 0
0.637299 1.921309 -3.862826 255 0 0
0.637243 1.921281 -3.862191 255 0 0
0.637188 1.921253 -3.861556 255 0 0
0.637245 1.921254 -3.861073 255 0 0
0.637302 1.921255 -3.860591 255 0 0
0.637396 1.921264 -3.859971 255 0 0
0.637491 1.921272 -3.859352 255 0 0
0.637501 1.921281 -3.858881 255 0 0
0.637511 1.921289 -3.858411 255 0 0
0.637477 1.921295 -3.858018 255 0 0
0.637443 1.921301 -3.857625 255 0 0
0.637327 1.921289 -3.857293 255 0 0
0.637210 1.921278 -3.856960 255 0 0
0.637005 1.921261 -3.856361 255 0 0
0.636801 1.921245 -3.855761 255 0 0
0.636718 1.921269 -3.854947 255 0 0
0.636635 1.921294 -3.854132 255 0 0
0.636640 1.921326 -3.853584 255 0 0
0.636645 1.921357 -3.853036 255 0 0
0.636614 1.921373 -3.852533 255 0 0
0.636584 1.921389 -3.852030 255 0 0
0.636532 1.921424 -3.851581 255 0 0
0.636480 1.921459 -3.851133 255 0 0
0.636379 1.921495 -3.850632 255 0 0
0.636278 1.921532 -3.850132 255 0 0
0.636142 1.921573 -3.849701 255 0 0
0.636006 1.921613 -3.849270 255 0 0
0.635814 1.921640 -3.848766 255 0 0
0.635621 1.921667 -3.848262 255 0 0
0.635467 1.921681 -3.847678 255 0 0
0.635313 1.921694 -3.847093 255 0 0
0.635202 1.921689 -3.846648 255 0 0
0.635091 1.921684 -3.846202 255 0 0
0.635006 1.921669 -3.845416 255 0 0
0.634922 1.921654 -3.844629 255 0 0
0.634929 1.921651 -3.844122 255 0 0
0.634936 1.921648 -3.843616 255 0 0
0.634914 1.921624 -3.843154 255 0 0
0.634892 1.921599 -3.842692 255 0 0
0.634943 1.921601 -3.841776 255 0 0
0.634994 1.921604 -3.840860 255 0 0
0.635012 1.921614 -3.840606 255 0 0
0.635030 1.921624 -3.840353 255 0 0
0.635008 1.921642 -3.839982 255 0 0
0.634987 1.921659 -3.839612 255 0 0
0.635263 1.921710 -3.839396 255 0 0
0.635538 1.921761 -3.839181 255 0 0
0.636288 1.921682 -3.838359 255 0 0
0.637038 1.921602 -3.837537 255 0 0
0.637492 1.921688 -3.836772 255 0 0
0.637946 1.921774 -3.836007 255 0 0
3 0 1 2 3 2 3 4 3 4 5 6 3 6 7 8 3 8 9 10 3 10 11 12 3 12 13 14 3 14 15 16 3 16 17 18 3 18 19 20 3 20 21 22 3 22 23 24 3 24 25 26 3 26 27 28 3 28 29 30 3 30 31 32 3 32 33 34 3 34 35 36 3 36 37 38 3 38 39 40 3 40 41 42 3 42 43 44 3 44 45 46 3 46 47 48 3 48 49 50 3 50 51 52 3 52 53 54 3 54 55 56 3 56 57 58 3 58 59 60 3 60 61 62 3 62 63 64 3 64 65 66 