ply
format ascii 1.0
element vertex 669
property float x
property float y
property float z
property uchar red
property uchar green
property uchar blue
element face 334
property list uchar int vertex_index
end_header
0.841974 1.985489 -3.457154 255 0 0
0.841423 1.985508 -3.457432 255 0 0
0.840873 1.985527 -3.457711 255 0 0
0.839981 1.985505 -3.457859 255 0 0
0.839089 1.985483 -3.458008 255 0 0
0.838277 1.985449 -3.458674 255 0 0
0.837466 1.985415 -3.459340 255 0 0
0.836791 1.985384 -3.459745 255 0 0
0.836117 1.985353 -3.460149 255 0 0
0.835892 1.985350 -3.460317 255 0 0
0.835667 1.985347 -3.460484 255 0 0
0.834870 1.985350 -3.460930 255 0 0
0.834073 1.985352 -3.461375 255 0 0
0.833535 1.985375 -3.461772 255 0 0
0.832997 1.985397 -3.462170 255 0 0
0.832422 1.985425 -3.462445 255 0 0
0.831848 1.985453 -3.462720 255 0 0
0.831109 1.985443 -3.462969 255 0 0
0.830369 1.985432 -3.463218 255 0 0
0.829190 1.985469 -3.463606 255 0 0
0.828010 1.985506 -3.463994 255 0 0
0.827587 1.985514 -3.464221 255 0 0
0.827164 1.985521 -3.464448 255 0 0
0.826382 1.985532 -3.464889 255 0 0
0.825601 1.985542 -3.465331 255 0 0
0.824752 1.985553 -3.465860 255 0 0
0.823903 1.985564 -3.466390 255 0 0
0.823354 1.985570 -3.466761 255 0 0
0.822805 1.985576 -3.467133 255 0 0
0.821924 1.985580 -3.467647 255 0 0
0.821044 1.985584 -3.468162 255 0 0
0.820469 1.985570 -3.468452 255 0 0
0.819894 1.985556 -3.468742 255 0 0
0.818973 1.985530 -3.469174 255 0 0
0.818051 1.985504 -3.469607 255 0 0
0.817402 1.985519 -3.469952 255 0 0
0.816752 1.985535 -3.470298 255 0 0
0.815981 1.985572 -3.470788 255 0 0
0.815209 1.985609 -3.471279 255 0 0
0.814711 1.985655 -3.471645 255 0 0
0.814213 1.985701 -3.472010 255 0 0
0.813566 1.985794 -3.472558 255 0 0
0.812919 1.985886 -3.473105 255 0 0
0.812962 1.985884 -3.473074 255 0 0
0.813005 1.985883 -3.473044 255 0 0
0.812323 1.985968 -3.473586 255 0 0
0.811640 1.986054 -3.474128 255 0 0
0.810885 1.986109 -3.474672 255 0 0
0.810130 1.986165 -3.475215 255 0 0
0.809666 1.986188 -3.475520 255 0 0
0.809203 1.986211 -3.475825 255 0 0
0.808317 1.986268 -3.476511 255 0 0
0.807432 1.986326 -3.477198 255 0 0
0.807975 1.986314 -3.476822 255 0 0
0.808519 1.986302 -3.476446 255 0 0
0.807671 1.986299 -3.476974 255 0 0
0.806823 1.986296 -3.477501 255 0 0
0.806723 1.986303 -3.477576 255 0 0
0.806623 1.986309 -3.477652 255 0 0
0.805332 1.986324 -3.478562 255 0 0
0.804042 1.986339 -3.479473 255 0 0
0.803400 1.986334 -3.479952 255 0 0
0.802758 1.986328 -3.480430 255 0 0
0.802141 1.986347 -3.480959 255 0 0
0.801524 1.986365 -3.481488 255 0 0
0.801165 1.986372 -3.481767 255 0 0
0.800807 1.986379 -3.482047 255 0 0
0.800123 1.986380 -3.482538 255 0 0
0.799440 1.986381 -3.483028 255 0 0
0.798633 1.986333 -3.483538 255 0 0
0.797827 1.986284 -3.484048 255 0 0
0.796807 1.986270 -3.484723 255 0 0
0.795788 1.986256 -3.485399 255 0 0
0.795526 1.986281 -3.485604 255 0 0
0.795264 1.986306 -3.485809 255 0 0
0.794429 1.986318 -3.486482 255 0 0
0.793593 1.986330 -3.487156 255 0 0
0.793130 1.986360 -3.487509 255 0 0
0.792666 1.986391 -3.487863 255 0 0
0.792539 1.986440 -3.488022 255 0 0
0.792411 1.986488 -3.488181 255 0 0
0.791685 1.986527 -3.488659 255 0 0
0.790959 1.986566 -3.489138 255 0 0
0.790509 1.986574 -3.489439 255 0 0
0.790059 1.986582 -3.489740 255 0 0
0.788405 1.986582 -3.490786 255 0 0
0.786751 1.986581 -3.491832 255 0 0
0.786271 1.986582 -3.492127 255 0 0
0.785790 1.986583 -3.492423 255 0 0
0.785537 1.986593 -3.492581 255 0 0
0.785284 1.986604 -3.492739 255 0 0
0.784961 1.986619 -3.492937 255 0 0
0.784637 1.986634 -3.493136 255 0 0
0.784074 1.986669 -3.493572 255 0 0
0.783512 1.986705 -3.494009 255 0 0
0.783599 1.986721 -3.493977 255 0 0
0.783685 1.986737 -3.493944 255 0 0
0.783031 1.986749 -3.494425 255 0 0
0.782377 1.986762 -3.494906 255 0 0
0.782294 1.986777 -3.494992 255 0 0
0.782210 1.986793 -3.495077 255 0 0
0.780955 1.986804 -3.496108 255 0 0
0.779700 1.986815 -3.497139 255 0 0
0.779621 1.986831 -3.497223 255 0 0
0.779543 1.986848 -3.497308 255 0 0
0.778492 1.986959 -3.498386 255 0 0
0.777442 1.987071 -3.499463 255 0 0
0.777644 1.987039 -3.499232 255 0 0
0.777847 1.987006 -3.499001 255 0 0
0.777729 1.987024 -3.499130 255 0 0
0.777610 1.987043 -3.499258 255 0 0
0.777350 1.987075 -3.499541 255 0 0
0.777091 1.987107 -3.499823 255 0 0
0.776386 1.987127 -3.500416 255 0 0
0.775681 1.987147 -3.501008 255 0 0
0.775397 1.987150 -3.501228 255 0 0
0.775114 1.987153 -3.501447 255 0 0
0.774783 1.987153 -3.501702 255 0 0
0.774451 1.987153 -3.501956 255 0 0
0.774040 1.987146 -3.502250 255 0 0
0.773629 1.987139 -3.502545 255 0 0
0.773156 1.987136 -3.502889 255 0 0
0.772683 1.987134 -3.503233 255 0 0
0.770631 1.987053 -3.504561 255 0 0
0.768578 1.986972 -3.505888 255 0 0
0.768120 1.986960 -3.506219 255 0 0
0.767661 1.986947 -3.506550 255 0 0
0.766631 1.986908 -3.507207 255 0 0
0.765600 1.986868 -3.507863 255 0 0
0.765056 1.986872 -3.508279 255 0 0
0.764512 1.986876 -3.508694 255 0 0
0.764084 1.986867 -3.509005 255 0 0
0.763656 1.986858 -3.509316 255 0 0
0.763174 1.986884 -3.509777 255 0 0
0.762692 1.986910 -3.510239 255 0 0
0.762277 1.986946 -3.510690 255 0 0
0.761862 1.986983 -3.511141 255 0 0
0.761410 1.987007 -3.511591 255 0 0
0.760959 1.987031 -3.512041 255 0 0
0.760493 1.987059 -3.512503 255 0 0
0.760026 1.987086 -3.512965 255 0 0
0.759488 1.987134 -3.513555 255 0 0
0.758950 1.987182 -3.514145 255 0 0
0.758699 1.987184 -3.514361 255 0 0
0.758448 1.987187 -3.514576 255 0 0
0.758006 1.987185 -3.514954 255 0 0
0.757564 1.987183 -3.515332 255 0 0
0.757342 1.987192 -3.515533 255 0 0
0.757120 1.987201 -3.515734 255 0 0
0.756735 1.987180 -3.515987 255 0 0
0.756349 1.987160 -3.516241 255 0 0
0.755806 1.987184 -3.516664 255 0 0
0.755262 1.987208 -3.517087 255 0 0
0.754714 1.987206 -3.517510 255 0 0
0.754165 1.987203 -3.517934 255 0 0
0.753548 1.987181 -3.518382 255 0 0
0.752931 1.987160 -3.518829 255 0 0
0.752144 1.987142 -3.519438 255 0 0
0.751357 1.987125 -3.520047 255 0 0
0.750906 1.987129 -3.520410 255 0 0
0.750454 1.987133 -3.520772 255 0 0
0.750025 1.987165 -3.521271 255 0 0
0.749596 1.987198 -3.521770 255 0 0
0.749298 1.987265 -3.522208 255 0 0
0.749000 1.987332 -3.522647 255 0 0
0.748794 1.987543 -3.523346 255 0 0
0.748588 1.987755 -3.524046 255 0 0
0.748134 1.987811 -3.524586 255 0 0
0.747680 1.987868 -3.525127 255 0 0
0.747392 1.987734 -3.525030 255 0 0
0.747105 1.987600 -3.524934 255 0 0
0.746662 1.987792 -3.525804 255 0 0
0.746219 1.987983 -3.526674 255 0 0
0.745835 1.988002 -3.527056 255 0 0
0.745450 1.988021 -3.527437 255 0 0
0.745147 1.987870 -3.527280 255 0 0
0.744843 1.987719 -3.527122 255 0 0
0.746237 1.987811 -3.526163 255 0 0
0.747630 1.987903 -3.525203 255 0 0
0.747136 1.987932 -3.525695 255 0 0
0.746642 1.987961 -3.526187 255 0 0
0.746114 1.987982 -3.526701 255 0 0
0.745586 1.988002 -3.527214 255 0 0
0.744689 1.988064 -3.528125 255 0 0
0.743793 1.988126 -3.529035 255 0 0
0.742999 1.988140 -3.529832 255 0 0
0.742205 1.988155 -3.530629 255 0 0
0.741633 1.988181 -3.531406 255 0 0
0.741060 1.988206 -3.532183 255 0 0
0.740679 1.988214 -3.532675 255 0 0
0.740298 1.988221 -3.533167 255 0 0
0.740115 1.988240 -3.533448 255 0 0
0.739932 1.988259 -3.533730 255 0 0
0.739498 1.988286 -3.534313 255 0 0
0.739063 1.988313 -3.534896 255 0 0
0.738497 1.988347 -3.535627 255 0 0
0.737930 1.988381 -3.536358 255 0 0
0.737017 1.988397 -3.537304 255 0 0
0.736104 1.988413 -3.538251 255 0 0
0.735375 1.988373 -3.538866 255 0 0
0.734646 1.988334 -3.539482 255 0 0
0.734157 1.988328 -3.540013 255 0 0
0.733667 1.988322 -3.540544 255 0 0
0.733077 1.988305 -3.541115 255 0 0
0.732487 1.988289 -3.541686 255 0 0
0.732135 1.988312 -3.542131 255 0 0
0.731782 1.988335 -3.542575 255 0 0
0.731717 1.988397 -3.542839 255 0 0
0.731652 1.988459 -3.543104 255 0 0
0.731105 1.988454 -3.543746 255 0 0
0.730559 1.988448 -3.544388 255 0 0
0.730158 1.988449 -3.544785 255 0 0
0.729758 1.988450 -3.545182 255 0 0
0.728808 1.988426 -3.545998 255 0 0
0.727859 1.988402 -3.546814 255 0 0
0.727838 1.988415 -3.546864 255 0 0
0.727817 1.988427 -3.546913 255 0 0
0.727296 1.988421 -3.547490 255 0 0
0.726775 1.988416 -3.548067 255 0 0
0.726236 1.988432 -3.548715 255 0 0
0.725697 1.988449 -3.549363 255 0 0
0.725444 1.988567 -3.550026 255 0 0
0.725192 1.988686 -3.550689 255 0 0
0.725017 1.988716 -3.551001 255 0 0
0.724842 1.988746 -3.551313 255 0 0
0.724422 1.988736 -3.551741 255 0 0
0.724001 1.988725 -3.552170 255 0 0
0.723424 1.988691 -3.552690 255 0 0
0.722846 1.988658 -3.553211 255 0 0
0.722279 1.988622 -3.553686 255 0 0
0.721712 1.988587 -3.554161 255 0 0
0.721155 1.988580 -3.554778 255 0 0
0.720598 1.988573 -3.555395 255 0 0
0.720083 1.988559 -3.555961 255 0 0
0.719568 1.988544 -3.556527 255 0 0
0.719132 1.988540 -3.557058 255 0 0
0.718697 1.988536 -3.557588 255 0 0
0.718096 1.988525 -3.558260 255 0 0
0.717495 1.988515 -3.558931 255 0 0
0.717224 1.988513 -3.559226 255 0 0
0.716952 1.988511 -3.559521 255 0 0
0.716427 1.988509 -3.560110 255 0 0
0.715902 1.988507 -3.560698 255 0 0
0.715576 1.988552 -3.561225 255 0 0
0.715251 1.988596 -3.561751 255 0 0
0.714903 1.988631 -3.562337 255 0 0
0.714554 1.988666 -3.562922 255 0 0
0.714110 1.988679 -3.563543 255 0 0
0.713666 1.988691 -3.564164 255 0 0
0.713273 1.988717 -3.564752 255 0 0
0.712880 1.988743 -3.565341 255 0 0
0.712400 1.988768 -3.566040 255 0 0
0.711919 1.988794 -3.566739 255 0 0
0.711531 1.988843 -3.567389 255 0 0
0.711143 1.988892 -3.568039 255 0 0
0.710809 1.988929 -3.568575 255 0 0
0.710475 1.988965 -3.569112 255 0 0
0.710137 1.988994 -3.569589 255 0 0
0.709799 1.989023 -3.570066 255 0 0
0.709867 1.989022 -3.569986 255 0 0
0.709936 1.989021 -3.569905 255 0 0
0.709354 1.989056 -3.570686 255 0 0
0.708772 1.989090 -3.571468 255 0 0
0.708305 1.989109 -3.572171 255 0 0
0.707838 1.989128 -3.572875 255 0 0
0.707640 1.989136 -3.573185 255 0 0
0.707441 1.989144 -3.573495 255 0 0
0.706970 1.989156 -3.574170 255 0 0
0.706498 1.989168 -3.574845 255 0 0
0.706164 1.989191 -3.575404 255 0 0
0.705830 1.989214 -3.575962 255 0 0
0.705618 1.989231 -3.576335 255 0 0
0.705406 1.989247 -3.576708 255 0 0
0.705179 1.989257 -3.577076 255 0 0
0.704952 1.989267 -3.577445 255 0 0
0.702741 1.988965 -3.579423 255 0 0
0.700529 1.988664 -3.581400 255 0 0
0.699837 1.988603 -3.582258 255 0 0
0.699146 1.988542 -3.583116 255 0 0
0.698796 1.988519 -3.583542 255 0 0
0.698446 1.988496 -3.583968 255 0 0
0.697968 1.988480 -3.584596 255 0 0
0.697490 1.988465 -3.585223 255 0 0
0.697075 1.988486 -3.585856 255 0 0
0.696660 1.988508 -3.586489 255 0 0
0.696753 1.988516 -3.586396 255 0 0
0.696847 1.988525 -3.586302 255 0 0
0.696765 1.988538 -3.586457 255 0 0
0.696684 1.988551 -3.586613 255 0 0
0.696365 1.988566 -3.587130 255 0 0
0.696047 1.988580 -3.587648 255 0 0
0.695743 1.988595 -3.588162 255 0 0
0.695440 1.988610 -3.588675 255 0 0
0.694643 1.988577 -3.589757 255 0 0
0.693845 1.988544 -3.590839 255 0 0
0.693375 1.988537 -3.591535 255 0 0
0.692904 1.988530 -3.592232 255 0 0
0.692676 1.988530 -3.592630 255 0 0
0.692447 1.988529 -3.593028 255 0 0
0.692036 1.988532 -3.593672 255 0 0
0.691625 1.988534 -3.594316 255 0 0
0.691191 1.988514 -3.594873 255 0 0
0.690757 1.988494 -3.595429 255 0 0
0.690329 1.988480 -3.596049 255 0 0
0.689902 1.988466 -3.596669 255 0 0
0.689568 1.988463 -3.597159 255 0 0
0.689234 1.988459 -3.597648 255 0 0
0.689253 1.988465 -3.597644 255 0 0
0.689272 1.988470 -3.597639 255 0 0
0.688811 1.988471 -3.598339 255 0 0
0.688350 1.988473 -3.599039 255 0 0
0.688019 1.988481 -3.599533 255 0 0
0.687689 1.988490 -3.600026 255 0 0
0.687397 1.988502 -3.600513 255 0 0
0.687106 1.988514 -3.601000 255 0 0
0.686684 1.988512 -3.601636 255 0 0
0.686262 1.988510 -3.602273 255 0 0
0.685777 1.988494 -3.602957 255 0 0
0.685293 1.988479 -3.603640 255 0 0
0.684325 1.988477 -3.605204 255 0 0
0.683357 1.988476 -3.606767 255 0 0
0.683050 1.988488 -3.607338 255 0 0
0.682744 1.988499 -3.607909 255 0 0
0.682431 1.988507 -3.608596 255 0 0
0.682118 1.988514 -3.609282 255 0 0
0.681880 1.988539 -3.610058 255 0 0
0.681641 1.988565 -3.610835 255 0 0
0.681621 1.988568 -3.610896 255 0 0
0.681602 1.988572 -3.610957 255 0 0
0.681308 1.988574 -3.611589 255 0 0
0.681014 1.988575 -3.612220 255 0 0
0.680618 1.988575 -3.613172 255 0 0
0.680222 1.988575 -3.614124 255 0 0
0.679864 1.988572 -3.614793 255 0 0
0.679506 1.988569 -3.615461 255 0 0
0.679144 1.988571 -3.616196 255 0 0
0.678783 1.988573 -3.616930 255 0 0
0.678546 1.988564 -3.617430 255 0 0
0.678309 1.988555 -3.617930 255 0 0
0.678006 1.988562 -3.618518 255 0 0
0.677702 1.988569 -3.619106 255 0 0
0.677609 1.988708 -3.619864 255 0 0
0.677516 1.988847 -3.620622 255 0 0
0.677384 1.988875 -3.621034 255 0 0
0.677252 1.988903 -3.621445 255 0 0
0.676967 1.988887 -3.621996 255 0 0
0.676682 1.988871 -3.622547 255 0 0
0.676361 1.988868 -3.623220 255 0 0
0.676041 1.988865 -3.623893 255 0 0
0.675830 1.988874 -3.624437 255 0 0
0.675619 1.988882 -3.624980 255 0 0
0.675316 1.988889 -3.625604 255 0 0
0.675013 1.988896 -3.626229 255 0 0
0.674689 1.988887 -3.626837 255 0 0
0.674364 1.988879 -3.627445 255 0 0
0.674110 1.988873 -3.627921 255 0 0
0.673855 1.988867 -3.628397 255 0 0
0.673519 1.988841 -3.628918 255 0 0
0.673184 1.988814 -3.629439 255 0 0
0.672883 1.988803 -3.629955 255 0 0
0.672582 1.988791 -3.630471 255 0 0
0.672049 1.988779 -3.631153 255 0 0
0.671516 1.988767 -3.631836 255 0 0
0.671088 1.988716 -3.632416 255 0 0
0.670660 1.988665 -3.632996 255 0 0
0.670369 1.988646 -3.633445 255 0 0
0.670079 1.988627 -3.633895 255 0 0
0.669668 1.988573 -3.634485 255 0 0
0.669256 1.988519 -3.635076 255 0 0
0.668777 1.988478 -3.635774 255 0 0
0.668297 1.988438 -3.636472 255 0 0
0.667852 1.988433 -3.637336 255 0 0
0.667408 1.988429 -3.638199 255 0 0
0.667179 1.988427 -3.638621 255 0 0
0.666951 1.988424 -3.639042 255 0 0
0.666527 1.988420 -3.639891 255 0 0
0.666103 1.988416 -3.640739 255 0 0
0.665807 1.988426 -3.641433 255 0 0
0.665512 1.988437 -3.642127 255 0 0
0.665307 1.988442 -3.642610 255 0 0
0.665103 1.988448 -3.643093 255 0 0
0.664886 1.988455 -3.643635 255 0 0
0.664669 1.988463 -3.644177 255 0 0
0.664362 1.988479 -3.645003 255 0 0
0.664056 1.988495 -3.645828 255 0 0
0.663786 1.988497 -3.646469 255 0 0
0.663516 1.988499 -3.647109 255 0 0
0.663381 1.988509 -3.647529 255 0 0
0.663245 1.988518 -3.647949 255 0 0
0.663061 1.988534 -3.648447 255 0 0
0.662877 1.988550 -3.648946 255 0 0
0.662475 1.988575 -3.650004 255 0 0
0.662073 1.988600 -3.651062 255 0 0
0.661759 1.988609 -3.651789 255 0 0
0.661444 1.988617 -3.652516 255 0 0
0.661173 1.988618 -3.653073 255 0 0
0.660901 1.988618 -3.653630 255 0 0
0.660640 1.988618 -3.654186 255 0 0
0.660380 1.988619 -3.654742 255 0 0
0.660559 1.988628 -3.654421 255 0 0
0.660739 1.988638 -3.654100 255 0 0
0.660633 1.988636 -3.654314 255 0 0
0.660526 1.988635 -3.654527 255 0 0
0.660256 1.988632 -3.655083 255 0 0
0.659985 1.988629 -3.655639 255 0 0
0.659651 1.988628 -3.656311 255 0 0
0.659316 1.988627 -3.656983 255 0 0
0.659128 1.988629 -3.657376 255 0 0
0.658940 1.988631 -3.657770 255 0 0
0.658841 1.988636 -3.658121 255 0 0
0.658741 1.988641 -3.658471 255 0 0
0.658479 1.988638 -3.659038 255 0 0
0.658218 1.988635 -3.659604 255 0 0
0.658089 1.988647 -3.659982 255 0 0
0.657961 1.988658 -3.660361 255 0 0
0.657501 1.988653 -3.661085 255 0 0
0.657042 1.988649 -3.661809 255 0 0
0.656854 1.988665 -3.662332 255 0 0
0.656667 1.988682 -3.662854 255 0 0
0.656450 1.988700 -3.663433 255 0 0
0.656233 1.988718 -3.664011 255 0 0
0.656104 1.988742 -3.664478 255 0 0
0.655976 1.988767 -3.664944 255 0 0
0.655819 1.988787 -3.665509 255 0 0
0.655663 1.988807 -3.666074 255 0 0
0.655625 1.988839 -3.666467 255 0 0
0.655587 1.988870 -3.666860 255 0 0
0.655480 1.988884 -3.667264 255 0 0
0.655372 1.988897 -3.667668 255 0 0
0.655260 1.988919 -3.668287 255 0 0
0.655147 1.988942 -3.668905 255 0 0
0.655011 1.988968 -3.669383 255 0 0
0.654874 1.988994 -3.669860 255 0 0
0.654678 1.989002 -3.670569 255 0 0
0.654481 1.989010 -3.671277 255 0 0
0.654344 1.989025 -3.671796 255 0 0
0.654207 1.989039 -3.672315 255 0 0
0.654008 1.989058 -3.672975 255 0 0
0.653810 1.989078 -3.673635 255 0 0
0.653668 1.989095 -3.674131 255 0 0
0.653527 1.989113 -3.674626 255 0 0
0.653363 1.989127 -3.675150 255 0 0
0.653199 1.989140 -3.675674 255 0 0
0.653037 1.989159 -3.676274 255 0 0
0.652876 1.989179 -3.676875 255 0 0
0.652824 1.989218 -3.677371 255 0 0
0.652773 1.989257 -3.677867 255 0 0
0.652652 1.989282 -3.678420 255 0 0
0.652531 1.989306 -3.678972 255 0 0
0.652438 1.989332 -3.679470 255 0 0
0.652346 1.989357 -3.679968 255 0 0
0.652158 1.989361 -3.680574 255 0 0
0.651970 1.989364 -3.681180 255 0 0
0.651765 1.989370 -3.681739 255 0 0
0.651561 1.989377 -3.682297 255 0 0
0.651242 1.989385 -3.683028 255 0 0
0.650924 1.989394 -3.683758 255 0 0
0.650573 1.989400 -3.684500 255 0 0
0.650222 1.989407 -3.685241 255 0 0
0.649988 1.989411 -3.685731 255 0 0
0.649755 1.989415 -3.686221 255 0 0
0.649517 1.989423 -3.686776 255 0 0
0.649280 1.989430 -3.687331 255 0 0
0.648994 1.989432 -3.688017 255 0 0
0.648708 1.989434 -3.688704 255 0 0
0.648703 1.989439 -3.688761 255 0 0
0.648698 1.989444 -3.688818 255 0 0
0.648621 1.989446 -3.689026 255 0 0
0.648545 1.989447 -3.689234 255 0 0
0.648415 1.989448 -3.689568 255 0 0
0.648286 1.989449 -3.689902 255 0 0
0.648129 1.989454 -3.690371 255 0 0
0.647971 1.989459 -3.690841 255 0 0
0.647822 1.989476 -3.691469 255 0 0
0.647674 1.989494 -3.692098 255 0 0
0.647570 1.989508 -3.692597 255 0 0
0.647466 1.989523 -3.693096 255 0 0
0.647338 1.989534 -3.693697 255 0 0
0.647209 1.989545 -3.694299 255 0 0
0.647128 1.989560 -3.694861 255 0 0
0.647047 1.989575 -3.695424 255 0 0
0.646996 1.989597 -3.696355 255 0 0
0.646946 1.989618 -3.697287 255 0 0
0.646881 1.989622 -3.697693 255 0 0
0.646817 1.989626 -3.698099 255 0 0
0.646749 1.989617 -3.698426 255 0 0
0.646680 1.989608 -3.698754 255 0 0
0.646416 1.989577 -3.699821 255 0 0
0.646151 1.989545 -3.700888 255 0 0
0.646027 1.989526 -3.701356 255 0 0
0.645902 1.989507 -3.701824 255 0 0
0.645863 1.989501 -3.701967 255 0 0
0.645824 1.989495 -3.702109 255 0 0
0.645584 1.989482 -3.703166 255 0 0
0.645345 1.989470 -3.704222 255 0 0
0.645106 1.989441 -3.704813 255 0 0
0.644867 1.989412 -3.705404 255 0 0
0.644769 1.989418 -3.705876 255 0 0
0.644671 1.989424 -3.706347 255 0 0
0.644593 1.989431 -3.706770 255 0 0
0.644515 1.989438 -3.707192 255 0 0
0.644434 1.989447 -3.707628 255 0 0
0.644354 1.989457 -3.708064 255 0 0
0.644246 1.989486 -3.708694 255 0 0
0.644139 1.989516 -3.709324 255 0 0
0.644049 1.989532 -3.709853 255 0 0
0.643960 1.989548 -3.710382 255 0 0
0.643871 1.989569 -3.710940 255 0 0
0.643782 1.989589 -3.711497 255 0 0
0.643709 1.989619 -3.712058 255 0 0
0.643636 1.989649 -3.712620 255 0 0
0.643564 1.989673 -3.713188 255 0 0
0.643493 1.989697 -3.713756 255 0 0
0.643410 1.989705 -3.714309 255 0 0
0.643328 1.989712 -3.714862 255 0 0
0.643238 1.989713 -3.715383 255 0 0
0.643149 1.989714 -3.715903 255 0 0
0.643048 1.989715 -3.716522 255 0 0
0.642946 1.989716 -3.717142 255 0 0
0.642940 1.989733 -3.717568 255 0 0
0.642935 1.989751 -3.717995 255 0 0
0.642851 1.989759 -3.718578 255 0 0
0.642767 1.989767 -3.719162 255 0 0
0.642699 1.989774 -3.719634 255 0 0
0.642630 1.989781 -3.720106 255 0 0
0.642492 1.989791 -3.720817 255 0 0
0.642354 1.989800 -3.721528 255 0 0
0.642260 1.989814 -3.722038 255 0 0
0.642166 1.989827 -3.722549 255 0 0
0.642060 1.989841 -3.723123 255 0 0
0.641953 1.989855 -3.723698 255 0 0
0.642239 1.989939 -3.723793 255 0 0
0.642525 1.990023 -3.723887 255 0 0
0.642428 1.990042 -3.724423 255 0 0
0.642330 1.990060 -3.724958 255 0 0
0.642210 1.990058 -3.725484 255 0 0
0.642090 1.990056 -3.726010 255 0 0
0.641755 1.989990 -3.726368 255 0 0
0.641420 1.989924 -3.726726 255 0 0
0.641373 1.989934 -3.727081 255 0 0
0.641325 1.989945 -3.727437 255 0 0
0.641264 1.989956 -3.727896 255 0 0
0.641203 1.989968 -3.728356 255 0 0
0.641080 1.989976 -3.729228 255 0 0
0.640956 1.989983 -3.730099 255 0 0
0.640907 1.989983 -3.730539 255 0 0
0.640857 1.989983 -3.730980 255 0 0
0.640718 1.989978 -3.731865 255 0 0
0.640579 1.989973 -3.732751 255 0 0
0.640490 1.989968 -3.733266 255 0 0
0.640402 1.989962 -3.733781 255 0 0
0.640339 1.989959 -3.734231 255 0 0
0.640277 1.989956 -3.734681 255 0 0
0.640189 1.989942 -3.735158 255 0 0
0.640101 1.989928 -3.735636 255 0 0
0.640008 1.989914 -3.736125 255 0 0
0.639915 1.989900 -3.736613 255 0 0
0.639815 1.989889 -3.737157 255 0 0
0.639716 1.989878 -3.737701 255 0 0
0.639624 1.989870 -3.738150 255 0 0
0.639531 1.989861 -3.738600 255 0 0
0.639407 1.989860 -3.739300 255 0 0
0.639283 1.989859 -3.740000 255 0 0
0.639149 1.989864 -3.740922 255 0 0
0.639014 1.989870 -3.741843 255 0 0
0.638905 1.989860 -3.742388 255 0 0
0.638795 1.989851 -3.742934 255 0 0
0.638718 1.989843 -3.743310 255 0 0
0.638640 1.989835 -3.743687 255 0 0
0.638467 1.989810 -3.744496 255 0 0
0.638295 1.989784 -3.745306 255 0 0
0.638220 1.989778 -3.745777 255 0 0
0.638146 1.989772 -3.746248 255 0 0
0.638018 1.989748 -3.746685 255 0 0
0.637891 1.989724 -3.747122 255 0 0
0.637738 1.989702 -3.747879 255 0 0
0.637585 1.989680 -3.748636 255 0 0
0.637518 1.989673 -3.749034 255 0 0
0.637450 1.989666 -3.749433 255 0 0
0.637400 1.989663 -3.749828 255 0 0
0.637350 1.989660 -3.750222 255 0 0
0.637340 1.989660 -3.750363 255 0 0
0.637331 1.989661 -3.750503 255 0 0
0.637276 1.989659 -3.751225 255 0 0
0.637221 1.989657 -3.751948 255 0 0
0.637135 1.989651 -3.752792 255 0 0
0.637050 1.989645 -3.753637 255 0 0
0.637012 1.989642 -3.754077 255 0 0
0.636975 1.989639 -3.754518 255 0 0
0.636969 1.989651 -3.755018 255 0 0
0.636963 1.989663 -3.755518 255 0 0
0.636924 1.989665 -3.756024 255 0 0
0.636886 1.989666 -3.756530 255 0 0
0.636791 1.989659 -3.757255 255 0 0
0.636696 1.989652 -3.757981 255 0 0
0.636641 1.989650 -3.758464 255 0 0
0.636586 1.989648 -3.758947 255 0 0
0.636531 1.989641 -3.759561 255 0 0
0.636475 1.989635 -3.760175 255 0 0
0.636452 1.989636 -3.760566 255 0 0
0.636428 1.989637 -3.760957 255 0 0
0.636410 1.989640 -3.761360 255 0 0
0.636393 1.989642 -3.761763 255 0 0
0.636368 1.989649 -3.762334 255 0 0
0.636343 1.989655 -3.762904 255 0 0
0.636320 1.989661 -3.763371 255 0 0
0.636297 1.989667 -3.763837 255 0 0
0.636261 1.989669 -3.764362 255 0 0
0.636225 1.989672 -3.764888 255 0 0
0.636212 1.989681 -3.765332 255 0 0
0.636199 1.989690 -3.765777 255 0 0
0.636409 1.989775 -3.766189 255 0 0
0.636619 1.989861 -3.766601 255 0 0
0.636412 1.989806 -3.767077 255 0 0
0.636205 1.989752 -3.767552 255 0 0
0.636311 1.989768 -3.768147 255 0 0
0.636417 1.989783 -3.768741 255 0 0
0.636334 1.989769 -3.769309 255 0 0
0.636251 1.989755 -3.769876 255 0 0
0.636202 1.989746 -3.770309 255 0 0
0.636152 1.989737 -3.770742 255 0 0
0.636190 1.989782 -3.771174 255 0 0
0.636229 1.989827 -3.771607 255 0 0
0.636244 1.989829 -3.771953 255 0 0
0.636260 1.989831 -3.772299 255 0 0
0.636318 1.989855 -3.772900 255 0 0
0.636376 1.989880 -3.773501 255 0 0
0.636427 1.989908 -3.774152 255 0 0
0.636478 1.989937 -3.774802 255 0 0
0.636463 1.989936 -3.775236 255 0 0
0.636449 1.989935 -3.775670 255 0 0
0.636197 1.989850 -3.776852 255 0 0
0.635945 1.989764 -3.778034 255 0 0
0.635890 1.989745 -3.778534 255 0 0
0.635836 1.989726 -3.779035 255 0 0
0.635756 1.989697 -3.779487 255 0 0
0.635677 1.989668 -3.779939 255 0 0
0.635607 1.989641 -3.780367 255 0 0
0.635538 1.989613 -3.780794 255 0 0
0.635453 1.989584 -3.781224 255 0 0
0.635368 1.989554 -3.781654 255 0 0
0.635295 1.989530 -3.782118 255 0 0
0.635222 1.989506 -3.782583 255 0 0
0.635209 1.989500 -3.782857 255 0 0
0.635196 1.989494 -3.783132 255 0 0
0.635156 1.989481 -3.783486 255 0 0
0.635115 1.989469 -3.783840 255 0 0
0.635111 1.989471 -3.784314 255 0 0
0.635106 1.989473 -3.784788 255 0 0
0.635084 1.989470 -3.785402 255 0 0
0.635063 1.989467 -3.786015 255 0 0
0.635064 1.989472 -3.786663 255 0 0
0.635065 1.989477 -3.787310 255 0 0
0.635113 1.989501 -3.788065 255 0 0
0.635162 1.989526 -3.788820 255 0 0
0.635185 1.989540 -3.789223 255 0 0
0.635208 1.989555 -3.789626 255 0 0
0.635289 1.989598 -3.790126 255 0 0
0.635370 1.989642 -3.790626 255 0 0
0.635410 1.989664 -3.791099 255 0 0
0.635451 1.989686 -3.791572 255 0 0
0.635473 1.989700 -3.792025 255 0 0
0.635494 1.989714 -3.792479 255 0 0
0.635520 1.989729 -3.793041 255 0 0
0.635546 1.989743 -3.793603 255 0 0
0.654922 1.996442 -3.791973 255 0 0
0.674298 2.003141 -3.790344 255 0 0
0.674149 2.003091 -3.790889 255 0 0
0.674001 2.003041 -3.791434 255 0 0
3 0 1 2 3 2 3 4 3 4 5 6 3 6 7 8 3 8 9 10 3 10 11 12 3 12 13 14 3 14 15 16 3 16 17 18 3 18 19 20 3 20 21 22 3 22 23 24 3 24 25 26 3 26 27 28 3 28 29 30 3 30 31 32 3 32 33 34 3 34 35 36 3 36 37 38 3 38 39 40 3 40 41 42 3 42 43 44 3 44 45 46 3 46 47 48 3 48 49 50 3 50 51 52 3 52 53 54 3 54 55 56 3 56 57 58 3 58 59 60 3 60 61 62 3 62 63 64 3 64 65 66 3 66 67 68 3 68 69 70 3 70 71 72 3 72 73 74 3 74 75 76 3 76 77 78 3 78 79 80 3 80 81 82 3 82 83 84 3 84 85 86 3 86 87 88 3 88 89 90 3 90 91 92 3 92 93 94 3 94 95 96 3 96 97 98 3 98 99 100 3 100 101 102 3 102 103 104 3 104 105 106 3 106 107 108 3 108 109 110 3 110 111 112 3 112 113 114 3 114 115 116 3 116 117 118 3 118 119 120 3 120 121 122 3 122 123 124 3 124 125 126 3 126 127 128 3 128 129 130 3 130 131 132 3 132 133 134 3 134 135 136 3 136 137 138 3 138 139 140 3 140 141 142 3 142 143 144 3 144 145 146 3 146 147 148 3 148 149 150 3 150 151 152 3 152 153 154 3 154 155 156 3 156 157 158 3 158 159 160 3 160 161 162 3 162 163 164 3 164 165 166 3 166 167 168 3 168 169 170 3 170 171 172 3 172 173 174 3 174 175 176 3 176 177 178 3 178 179 180 3 180 181 182 3 182 183 184 3 184 185 186 3 186 187 188 3 188 189 190 3 190 191 192 3 192 193 194 3 194 195 196 3 196 197 198 3 198 199 200 3 200 201 202 3 202 203 204 3 204 205 206 3 206 207 208 3 208 209 210 3 210 211 212 3 212 213 214 3 214 215 216 3 216 217 218 3 218 219 220 3 220 221 222 3 222 223 224 3 224 225 226 3 226 227 228 3 228 229 230 3 230 231 232 3 232 233 234 3 234 235 236 3 236 237 238 3 238 239 240 3 240 241 242 3 242 243 244 3 244 245 246 3 246 247 248 3 248 249 250 3 250 251 252 3 252 253 254 3 254 255 256 3 256 257 258 3 258 259 260 3 260 261 262 3 262 263 264 3 264 265 266 3 266 267 268 3 268 269 270 3 270 271 272 3 272 273 274 3 274 275 276 3 276 277 278 3 278 279 280 3 280 281 282 3 282 283 284 3 284 285 286 3 286 287 288 3 288 289 290 3 290 291 292 3 292 293 294 3 294 295 296 3 296 297 298 3 298 299 300 3 300 301 302 3 302 303 304 3 304 305 306 3 306 307 308 3 308 309 310 3 310 311 312 3 312 313 314 3 314 315 316 3 316 317 318 3 318 319 320 3 320 321 322 3 322 323 324 3 324 325 326 3 326 327 328 3 328 329 330 3 330 331 332 3 332 333 334 3 334 335 336 3 336 337 338 3 338 339 340 3 340 341 342 3 342 343 344 3 344 345 346 3 346 347 348 3 348 349 350 3 350 351 352 3 352 353 354 3 354 355 356 3 356 357 358 3 358 359 360 3 360 361 362 3 362 363 364 3 364 365 366 3 366 367 368 3 368 369 370 3 370 371 372 3 372 373 374 3 374 375 376 3 376 377 378 3 378 379 380 3 380 381 382 3 382 383 384 3 384 385 386 3 386 387 388 3 388 389 390 3 390 391 392 3 392 393 394 3 394 395 396 3 396 397 398 3 398 399 400 3 400 401 402 3 402 403 404 3 404 405 406 3 406 407 408 3 408 409 410 3 410 411 412 3 412 413 414 3 414 415 416 3 416 417 418 3 418 419 420 3 420 421 422 3 422 423 424 3 424 425 426 3 426 427 428 3 428 429 430 3 430 431 432 3 432 433 434 3 434 435 436 3 436 437 438 3 438 439 440 3 440 441 442 3 442 443 444 3 444 445 446 3 446 447 448 3 448 449 450 3 450 451 452 3 452 453 454 3 454 455 456 3 456 457 458 3 458 459 460 3 460 461 462 3 462 463 464 3 464 465 466 3 466 467 468 3 468 469 470 3 470 471 472 3 472 473 474 3 474 475 476 3 476 477 478 3 478 479 480 3 480 481 482 3 482 483 484 3 484 485 486 3 486 487 488 3 488 489 490 3 490 491 492 3 492 493 494 3 494 495 496 3 496 497 498 3 498 499 500 3 500 501 502 3 502 503 504 3 504 505 506 3 506 507 508 3 508 509 510 3 510 511 512 3 512 513 514 3 514 515 516 3 516 517 518 3 518 519 520 3 520 521 522 3 522 523 524 3 524 525 526 3 526 527 528 3 528 529 530 3 530 531 532 3 532 533 534 3 534 535 536 3 536 537 538 3 538 539 540 3 540 541 542 3 542 543 544 3 544 545 546 3 546 547 548 3 548 549 550 3 550 551 552 3 552 553 554 3 554 555 556 3 556 557 558 3 558 559 560 3 560 561 562 3 562 563 564 3 564 565 566 3 566 567 568 3 568 569 570 3 570 571 572 3 572 573 574 3 574 575 576 3 576 577 578 3 578 579 580 3 580 581 582 3 582 583 584 3 584 585 586 3 586 587 588 3 588 589 590 3 590 591 592 3 592 593 594 3 594 595 596 3 596 597 598 3 598 599 600 3 600 601 602 3 602 603 604 3 604 605 606 3 606 607 608 3 608 609 610 3 610 611 612 3 612 613 614 3 614 615 616 3 616 617 618 3 618 619 620 3 620 621 622 3 622 623 624 3 624 625 626 3 626 627 628 3 628 629 630 3 630 631 632 3 632 633 634 3 634 635 636 3 636 637 638 3 638 639 640 3 640 641 642 3 642 643 644 3 644 645 646 3 646 647 648 3 648 649 650 3 650 651 652 3 652 653 654 3 654 655 656 3 656 657 658 3 658 659 660 3 660 661 662 3 662 663 664 3 664 665 666 3 666 667 668 