ply
format ascii 1.0
element vertex 43
property float x
property float y
property float z
property uchar red
property uchar green
property uchar blue
element face 21
property list uchar int vertex_index
end_header
0.636757 1.841609 -3.725179 255 0 0
0.636444 1.841589 -3.726254 255 0 0
0.636131 1.841568 -3.727328 255 0 0
0.635756 1.841524 -3.729460 255 0 0
0.635381 1.841480 -3.731593 255 0 0
0.635194 1.841472 -3.732705 255 0 0
0.635006 1.841464 -3.733818 255 0 0
0.634846 1.841454 -3.735440 255 0 0
0.634686 1.841444 -3.737061 255 0 0
0.634580 1.841442 -3.738846 255 0 0
0.634474 1.841439 -3.740630 255 0 0
0.634099 1.841371 -3.743344 255 0 0
0.633725 1.841303 -3.746058 255 0 0
0.633417 1.841310 -3.747854 255 0 0
0.633109 1.841318 -3.749650 255 0 0
0.633049 1.841332 -3.750215 255 0 0
0.632990 1.841346 -3.750781 255 0 0
0.632966 1.841396 -3.751717 255 0 0
0.632943 1.841446 -3.752653 255 0 0
0.633011 1.841520 -3.753731 255 0 0
0.633080 1.841593 -3.754810 255 0 0
0.632900 1.841567 -3.757345 255 0 0
0.632721 1.841541 -3.759880 255 0 0
0.632500 1.841553 -3.761911 255 0 0
0.632278 1.841565 -3.763942 255 0 0
0.632201 1.841567 -3.764685 255 0 0
0.632123 1.841570 -3.765427 255 0 0
0.631890 1.841553 -3.767781 255 0 0
0.631657 1.841536 -3.770135 255 0 0
0.631663 1.841596 -3.772168 255 0 0
0.631669 1.841655 -3.774200 255 0 0
0.631505 1.841676 -3.777230 255 0 0
0.631341 1.841697 -3.780261 255 0 0
0.631288 1.841693 -3.782971 255 0 0
0.631235 1.841689 -3.785681 255 0 0
0.631246 1.841703 -3.786988 255 0 0
0.631256 1.841716 -3.788295 255 0 0
0.631255 1.841722 -3.788583 255 0 0
0.631253 1.841729 -3.788870 255 0 0
0.631236 1.841758 -3.789897 255 0 0
0.631219 1.841788 -3.790925 255 0 0
0.631197 1.841811 -3.793956 255 0 0
0.631176 1.841834 -3.796987 255 0 0
3 0 1 2 3 2 3 4 3 4 5 6 3 6 7 8 3 8 9 10 3 10 11 12 3 12 13 14 3 14 15 16 3 16 17 18 3 18 19 20 3 20 21 22 3 22 23 24 3 24 25 26 3 26 27 28 3 28 29 30 3 30 31 32 3 32 33 34 3 34 35 36 3 36 37 38 3 38 39 40 3 40 41 42 