ply
format ascii 1.0
element vertex 31
property float x
property float y
property float z
property uchar red
property uchar green
property uchar blue
element face 15
property list uchar int vertex_index
end_header
0.738646 1.988771 -3.536877 255 0 0
0.739147 1.988686 -3.536070 255 0 0
0.739647 1.988600 -3.535263 255 0 0
0.739713 1.988597 -3.535176 255 0 0
0.739778 1.988594 -3.535089 255 0 0
0.739949 1.988579 -3.534841 255 0 0
0.740120 1.988564 -3.534593 255 0 0
0.740878 1.988518 -3.533575 255 0 0
0.741636 1.988472 -3.532557 255 0 0
0.742364 1.988468 -3.531742 255 0 0
0.743092 1.988464 -3.530927 255 0 0
0.743278 1.988454 -3.530720 255 0 0
0.743464 1.988445 -3.530513 255 0 0
0.743861 1.988415 -3.530034 255 0 0
0.744257 1.988384 -3.529554 255 0 0
0.745113 1.988324 -3.528626 255 0 0
0.745969 1.988263 -3.527698 255 0 0
0.746184 1.988248 -3.527464 255 0 0
0.746399 1.988234 -3.527230 255 0 0
0.746739 1.988208 -3.526848 255 0 0
0.747079 1.988182 -3.526466 255 0 0
0.747638 1.988137 -3.525871 255 0 0
0.748197 1.988091 -3.525276 255 0 0
0.748448 1.988042 -3.524938 255 0 0
0.748698 1.987993 -3.524599 255 0 0
0.749108 1.987966 -3.524178 255 0 0
0.749517 1.987940 -3.523757 255 0 0
0.749780 1.987906 -3.523440 255 0 0
0.750043 1.987873 -3.523123 255 0 0
0.750946 1.987777 -3.522093 255 0 0
0.751848 1.987682 -3.521063 255 0 0
3 0 1 2 3 2 3 4 3 4 5 6 3 6 7 8 3 8 9 10 3 10 11 12 3 12 13 14 3 14 15 16 3 16 17 18 3 18 19 20 3 20 21 22 3 22 23 24 3 24 25 26 3 26 27 28 3 28 29 30 