ply
format ascii 1.0
element vertex 1427
property float x
property float y
property float z
property uchar red
property uchar green
property uchar blue
element face 485
property list uchar int vertex_index
end_header
0.646694 1.856362 -3.881175 255 0 0
0.646873 1.857360 -3.881016 255 0 0
0.647052 1.858358 -3.880857 255 0 0
0.646989 1.859025 -3.880982 255 0 0
0.646926 1.859693 -3.881108 255 0 0
0.647060 1.860677 -3.880952 255 0 0
0.647195 1.861662 -3.880795 255 0 0
0.647060 1.862355 -3.880975 255 0 0
0.646926 1.863048 -3.881155 255 0 0
0.647085 1.864055 -3.880977 255 0 0
0.647245 1.865062 -3.880799 255 0 0
0.647178 1.865726 -3.880926 255 0 0
0.647111 1.866389 -3.881053 255 0 0
0.647266 1.867380 -3.880899 255 0 0
0.647420 1.868370 -3.880746 255 0 0
0.647360 1.869042 -3.880879 255 0 0
0.647299 1.869713 -3.881013 255 0 0
0.647454 1.870711 -3.880863 255 0 0
0.647610 1.871708 -3.880713 255 0 0
0.647543 1.872376 -3.880849 255 0 0
0.647475 1.873043 -3.880986 255 0 0
0.647554 1.874028 -3.880875 255 0 0
0.647634 1.875013 -3.880765 255 0 0
0.647582 1.875689 -3.880904 255 0 0
0.647530 1.876365 -3.881043 255 0 0
0.647687 1.877375 -3.880880 255 0 0
0.647844 1.878385 -3.880716 255 0 0
0.647768 1.879059 -3.880840 255 0 0
0.647692 1.879733 -3.880965 255 0 0
0.647832 1.880731 -3.880799 255 0 0
0.647972 1.881729 -3.880634 255 0 0
0.647890 1.882389 -3.880762 255 0 0
0.647808 1.883050 -3.880889 255 0 0
0.647961 1.884044 -3.880725 255 0 0
0.648114 1.885039 -3.880561 255 0 0
0.648010 1.885755 -3.880768 255 0 0
0.647906 1.886471 -3.880976 255 0 0
0.648093 1.887467 -3.880838 255 0 0
0.648281 1.888463 -3.880700 255 0 0
0.648248 1.889142 -3.880831 255 0 0
0.648215 1.889821 -3.880963 255 0 0
0.648394 1.890832 -3.880800 255 0 0
0.648573 1.891842 -3.880637 255 0 0
0.648527 1.892526 -3.880756 255 0 0
0.648481 1.893210 -3.880876 255 0 0
0.648654 1.894232 -3.880698 255 0 0
0.648827 1.895253 -3.880521 255 0 0
0.648955 1.896315 -3.880415 255 0 0
0.649082 1.897376 -3.880309 255 0 0
0.649003 1.898032 -3.880439 255 0 0
0.648924 1.898688 -3.880570 255 0 0
0.648828 1.899334 -3.880704 255 0 0
0.648732 1.899979 -3.880839 255 0 0
0.648831 1.900927 -3.880707 255 0 0
0.648930 1.901876 -3.880576 255 0 0
0.648809 1.902502 -3.880723 255 0 0
0.648688 1.903128 -3.880871 255 0 0
0.648778 1.904080 -3.880739 255 0 0
0.648869 1.905032 -3.880607 255 0 0
0.648869 1.905032 -3.880607 0 255 0
0.646957 1.904749 -3.881066 0 255 0
0.645045 1.904467 -3.881525 0 255 0
0.648869 1.905032 -3.880607 0 255 0
0.646913 1.904073 -3.881075 0 255 0
0.644957 1.903113 -3.881542 0 255 0
0.648732 1.899979 -3.880839 0 255 0
0.646797 1.900193 -3.881201 0 255 0
0.644862 1.900406 -3.881562 0 255 0
0.648924 1.898688 -3.880570 0 255 0
0.646747 1.898130 -3.881185 0 255 0
0.644569 1.897571 -3.881801 0 255 0
0.649082 1.897376 -3.880309 0 255 0
0.646867 1.896818 -3.881068 0 255 0
0.644651 1.896259 -3.881827 0 255 0
0.648827 1.895253 -3.880521 0 255 0
0.646730 1.895083 -3.881217 0 255 0
0.644632 1.894913 -3.881913 0 255 0
0.648827 1.895253 -3.880521 0 255 0
0.646727 1.894412 -3.881256 0 255 0
0.644626 1.893571 -3.881991 0 255 0
0.648573 1.891842 -3.880637 0 0 255
0.646606 1.892037 -3.881341 0 0 255
0.644639 1.892232 -3.882046 0 0 255
0.648481 1.893210 -3.880876 255 255 0
0.646560 1.892721 -3.881461 255 255 0
0.644639 1.892232 -3.882046 255 255 0
0.648573 1.891842 -3.880637 0 255 255
0.646635 1.891376 -3.881349 0 255 255
0.644696 1.890910 -3.882062 0 255 255
0.648215 1.889821 -3.880963 0 0 255
0.646456 1.889698 -3.881530 0 0 255
0.644696 1.889575 -3.882097 0 0 255
0.648281 1.888463 -3.880700 255 255 0
0.646490 1.888353 -3.881414 255 255 0
0.644698 1.888243 -3.882128 255 255 0
0.648215 1.889821 -3.880963 0 0 255
0.646457 1.889032 -3.881545 0 0 255
0.644698 1.888243 -3.882128 0 0 255
0.648281 1.888463 -3.880700 0 0 255
0.646510 1.887691 -3.881421 0 0 255
0.644739 1.886920 -3.882141 0 0 255
0.647906 1.886471 -3.880976 0 255 0
0.646322 1.886696 -3.881558 0 255 0
0.644739 1.886920 -3.882141 0 255 0
0.647906 1.886471 -3.880976 0 255 255
0.646355 1.886038 -3.881566 0 255 255
0.644804 1.885606 -3.882156 0 255 255
0.648114 1.885039 -3.880561 0 255 0
0.646459 1.885322 -3.881359 0 255 0
0.644804 1.885606 -3.882156 0 255 0
0.648114 1.885039 -3.880561 255 255 0
0.646426 1.884645 -3.881406 255 255 0
0.644738 1.884251 -3.882252 255 255 0
0.647808 1.883050 -3.880889 0 255 0
0.646273 1.883650 -3.881570 0 255 0
0.644738 1.884251 -3.882252 0 255 0
0.647906 1.886471 -3.880976 0 255 0
0.646322 1.885361 -3.881614 0 255 0
0.644738 1.884251 -3.882252 0 255 0
0.647808 1.883050 -3.880889 255 255 0
0.646314 1.882994 -3.881577 255 255 0
0.644821 1.882939 -3.882266 255 255 0
0.648114 1.885039 -3.880561 0 255 0
0.646467 1.883989 -3.881413 0 255 0
0.644821 1.882939 -3.882266 0 255 0
0.647972 1.881729 -3.880634 0 0 255
0.646397 1.882334 -3.881450 0 0 255
0.644821 1.882939 -3.882266 0 0 255
0.647972 1.881729 -3.880634 255 255 0
0.646411 1.881672 -3.881461 255 255 0
0.644849 1.881615 -3.882288 255 255 0
0.647808 1.883050 -3.880889 255 255 0
0.646328 1.882332 -3.881589 255 255 0
0.644849 1.881615 -3.882288 255 255 0
0.647692 1.879733 -3.880965 0 255 0
0.646271 1.880674 -3.881627 0 255 0
0.644849 1.881615 -3.882288 0 255 0
0.647692 1.879733 -3.880965 0 255 255
0.646312 1.880024 -3.881603 0 255 255
0.644932 1.880315 -3.882241 0 255 255
0.647972 1.881729 -3.880634 0 255 255
0.646452 1.881022 -3.881438 0 255 255
0.644932 1.880315 -3.882241 0 255 255
0.647692 1.879733 -3.880965 0 255 255
0.646300 1.879363 -3.881582 0 255 255
0.644907 1.878992 -3.882199 0 255 255
0.647972 1.881729 -3.880634 0 255 0
0.646439 1.880361 -3.881417 0 255 0
0.644907 1.878992 -3.882199 0 255 0
0.647844 1.878385 -3.880716 0 0 255
0.646376 1.878689 -3.881458 0 0 255
0.644907 1.878992 -3.882199 0 0 255
0.647844 1.878385 -3.880716 0 255 255
0.646316 1.878021 -3.881422 0 255 255
0.644788 1.877656 -3.882128 0 255 255
0.647692 1.879733 -3.880965 0 255 0
0.646240 1.878695 -3.881546 0 255 0
0.644788 1.877656 -3.882128 0 255 0
0.647844 1.878385 -3.880716 0 255 0
0.646286 1.877295 -3.881340 0 255 0
0.644728 1.876204 -3.881964 0 255 0
0.647530 1.876365 -3.881043 255 255 0
0.646129 1.876284 -3.881504 255 255 0
0.644728 1.876204 -3.881964 255 255 0
0.647634 1.875013 -3.880765 255 255 0
0.646171 1.874962 -3.881270 255 255 0
0.644709 1.874910 -3.881776 255 255 0
0.647530 1.876365 -3.881043 0 255 0
0.646119 1.875638 -3.881410 0 255 0
0.644709 1.874910 -3.881776 0 255 0
0.647475 1.873043 -3.880986 0 0 255
0.646057 1.873323 -3.881296 0 0 255
0.644640 1.873604 -3.881606 0 0 255
0.647634 1.875013 -3.880765 0 255 0
0.646137 1.874308 -3.881185 0 255 0
0.644640 1.873604 -3.881606 0 255 0
0.647475 1.873043 -3.880986 255 255 0
0.645931 1.872638 -3.881270 255 255 0
0.644387 1.872233 -3.881553 255 255 0
0.647610 1.871708 -3.880713 255 255 0
0.645922 1.871293 -3.881106 255 255 0
0.644233 1.870877 -3.881498 255 255 0
0.647475 1.873043 -3.880986 0 255 0
0.645854 1.871960 -3.881242 0 255 0
0.644233 1.870877 -3.881498 0 255 0
0.647299 1.869713 -3.881013 255 255 0
0.645724 1.869622 -3.881243 255 255 0
0.644149 1.869531 -3.881474 255 255 0
0.647420 1.868370 -3.880746 0 255 255
0.645532 1.868160 -3.881253 0 255 255
0.643643 1.867949 -3.881760 0 255 255
0.647111 1.866389 -3.881053 255 255 0
0.645294 1.866483 -3.881449 255 255 0
0.643477 1.866577 -3.881844 255 255 0
0.647420 1.868370 -3.880746 0 255 255
0.645449 1.867474 -3.881295 0 255 255
0.643477 1.866577 -3.881844 0 255 255
0.647245 1.865062 -3.880799 0 255 0
0.645361 1.865820 -3.881322 0 255 0
0.643477 1.866577 -3.881844 0 255 0
0.647111 1.866389 -3.881053 0 255 255
0.645258 1.865811 -3.881459 0 255 255
0.643405 1.865232 -3.881865 0 255 255
0.647245 1.865062 -3.880799 0 255 0
0.645325 1.865147 -3.881332 0 255 0
0.643405 1.865232 -3.881865 0 255 0
0.647245 1.865062 -3.880799 255 255 0
0.645317 1.864486 -3.881319 255 255 0
0.643389 1.863911 -3.881839 255 255 0
0.646926 1.863048 -3.881155 0 0 255
0.644898 1.862747 -3.881616 0 0 255
0.642870 1.862446 -3.882077 0 0 255
0.647195 1.861662 -3.880795 0 0 255
0.644998 1.861386 -3.881435 0 0 255
0.642802 1.861110 -3.882075 0 0 255
0.646926 1.863048 -3.881155 0 255 0
0.644864 1.862079 -3.881615 0 255 0
0.642802 1.861110 -3.882075 0 255 0
0.646926 1.859693 -3.881108 0 255 0
0.644874 1.859746 -3.881571 0 255 0
0.642822 1.859799 -3.882035 0 255 0
0.647052 1.858358 -3.880857 0 255 0
0.644882 1.858400 -3.881463 0 255 0
0.642713 1.858442 -3.882070 0 255 0
0.646926 1.859693 -3.881108 0 0 255
0.644819 1.859068 -3.881589 0 0 255
0.642713 1.858442 -3.882070 0 0 255
0.646694 1.856362 -3.881175 0 255 0
0.644679 1.856732 -3.881627 0 255 0
0.642664 1.857103 -3.882078 0 255 0
0.647052 1.858358 -3.880857 0 255 0
0.644858 1.857730 -3.881468 0 255 0
0.642664 1.857103 -3.882078 0 255 0
0.646694 1.856362 -3.881175 0 0 255
0.644641 1.856060 -3.881639 0 0 255
0.642589 1.855758 -3.882103 0 0 255
0.647052 1.858358 -3.880857 0 255 0
0.644820 1.857058 -3.881480 0 255 0
0.642589 1.855758 -3.882103 0 255 0
0.648869 1.905032 -3.880607 0 255 0
0.647628 1.905371 -3.881207 0 255 0
0.646388 1.905710 -3.881807 0 255 0
0.648869 1.905032 -3.880607 255 255 0
0.647591 1.904629 -3.881216 255 255 0
0.646313 1.904226 -3.881824 255 255 0
0.648688 1.903128 -3.880871 0 255 0
0.647501 1.903677 -3.881347 0 255 0
0.646313 1.904226 -3.881824 0 255 0
0.648688 1.903128 -3.880871 0 255 255
0.647483 1.903013 -3.881331 0 255 255
0.646279 1.902899 -3.881792 0 255 255
0.648930 1.901876 -3.880576 0 0 255
0.647604 1.902387 -3.881184 0 0 255
0.646279 1.902899 -3.881792 0 0 255
0.648869 1.905032 -3.880607 0 255 0
0.647574 1.903965 -3.881200 0 255 0
0.646279 1.902899 -3.881792 0 255 0
0.648688 1.903128 -3.880871 0 255 0
0.647483 1.902353 -3.881297 0 255 0
0.646278 1.901578 -3.881724 0 255 0
0.648930 1.901876 -3.880576 0 0 255
0.647604 1.901727 -3.881150 0 0 255
0.646278 1.901578 -3.881724 0 0 255
0.648924 1.898688 -3.880570 0 0 255
0.647550 1.899455 -3.881155 0 0 255
0.646175 1.900222 -3.881740 0 0 255
0.648732 1.899979 -3.880839 255 255 0
0.647454 1.900101 -3.881289 255 255 0
0.646175 1.900222 -3.881740 255 255 0
0.648924 1.898688 -3.880570 255 255 0
0.647501 1.898776 -3.881167 255 255 0
0.646078 1.898864 -3.881764 255 255 0
0.648732 1.899979 -3.880839 0 0 255
0.647405 1.899422 -3.881302 0 0 255
0.646078 1.898864 -3.881764 0 0 255
0.648924 1.898688 -3.880570 0 0 255
0.647505 1.898114 -3.881153 0 0 255
0.646086 1.897539 -3.881736 0 0 255
0.649082 1.897376 -3.880309 0 255 0
0.647584 1.897458 -3.881022 0 255 0
0.646086 1.897539 -3.881736 0 255 0
0.649082 1.897376 -3.880309 0 0 255
0.647552 1.896783 -3.881050 0 0 255
0.646022 1.896189 -3.881791 0 0 255
0.648827 1.895253 -3.880521 0 0 255
0.647405 1.895046 -3.881196 0 0 255
0.645983 1.894838 -3.881871 0 0 255
0.648481 1.893210 -3.880876 0 255 0
0.647226 1.893346 -3.881426 0 255 0
0.645970 1.893483 -3.881976 0 255 0
0.648481 1.893210 -3.880876 0 0 255
0.647283 1.892684 -3.881454 0 0 255
0.646084 1.892158 -3.882032 0 0 255
0.648573 1.891842 -3.880637 0 0 255
0.647329 1.892000 -3.881334 0 0 255
0.646084 1.892158 -3.882032 0 0 255
0.648573 1.891842 -3.880637 0 0 255
0.647332 1.891316 -3.881422 0 0 255
0.646090 1.890790 -3.882208 0 0 255
0.648215 1.889821 -3.880963 0 255 0
0.647152 1.890306 -3.881585 0 255 0
0.646090 1.890790 -3.882208 0 255 0
0.648215 1.889821 -3.880963 255 255 0
0.647166 1.889625 -3.881671 255 255 0
0.646117 1.889428 -3.882380 255 255 0
0.648281 1.888463 -3.880700 0 255 0
0.647199 1.888946 -3.881540 0 255 0
0.646117 1.889428 -3.882380 0 255 0
0.648281 1.888463 -3.880700 255 255 0
0.647236 1.888276 -3.881595 255 255 0
0.646190 1.888089 -3.882489 255 255 0
0.648281 1.888463 -3.880700 0 0 255
0.647238 1.887598 -3.881652 0 0 255
0.646196 1.886733 -3.882603 0 0 255
0.647906 1.886471 -3.880976 255 255 0
0.647051 1.886602 -3.881789 255 255 0
0.646196 1.886733 -3.882603 255 255 0
0.648114 1.885039 -3.880561 0 255 0
0.647155 1.885886 -3.881582 0 255 0
0.646196 1.886733 -3.882603 0 255 0
0.648114 1.885039 -3.880561 0 0 255
0.647178 1.885220 -3.881594 0 0 255
0.646243 1.885401 -3.882626 0 0 255
0.647906 1.886471 -3.880976 0 0 255
0.647074 1.885936 -3.881801 0 0 255
0.646243 1.885401 -3.882626 0 0 255
0.648114 1.885039 -3.880561 255 255 0
0.647168 1.884549 -3.881609 255 255 0
0.646221 1.884060 -3.882656 255 255 0
0.647808 1.883050 -3.880889 0 0 255
0.647015 1.883555 -3.881773 0 0 255
0.646221 1.884060 -3.882656 0 0 255
0.647808 1.883050 -3.880889 0 255 255
0.647031 1.882901 -3.881755 0 255 255
0.646254 1.882752 -3.882621 0 255 255
0.647972 1.881729 -3.880634 255 255 0
0.647113 1.882240 -3.881627 255 255 0
0.646254 1.882752 -3.882621 255 255 0
0.647808 1.883050 -3.880889 255 255 0
0.647009 1.882244 -3.881767 255 255 0
0.646211 1.881439 -3.882645 255 255 0
0.647972 1.881729 -3.880634 255 255 0
0.647091 1.881584 -3.881640 255 255 0
0.646211 1.881439 -3.882645 255 255 0
0.647692 1.879733 -3.880965 0 0 255
0.646952 1.880586 -3.881805 0 0 255
0.646211 1.881439 -3.882645 0 0 255
0.647692 1.879733 -3.880965 0 255 255
0.646953 1.879843 -3.881841 0 255 255
0.646213 1.879952 -3.882717 0 255 255
0.647972 1.881729 -3.880634 0 255 0
0.647092 1.880841 -3.881675 0 255 0
0.646213 1.879952 -3.882717 0 255 0
0.647844 1.878385 -3.880716 0 255 0
0.647029 1.879169 -3.881716 0 255 0
0.646213 1.879952 -3.882717 0 255 0
0.647692 1.879733 -3.880965 0 255 255
0.646921 1.879165 -3.881880 0 255 255
0.646149 1.878597 -3.882796 0 255 255
0.647844 1.878385 -3.880716 0 255 255
0.646997 1.878491 -3.881756 0 255 255
0.646149 1.878597 -3.882796 0 255 255
0.647530 1.876365 -3.881043 0 255 255
0.646853 1.876822 -3.881919 0 255 255
0.646177 1.877279 -3.882794 0 255 255
0.647844 1.878385 -3.880716 255 255 0
0.647010 1.877832 -3.881755 255 255 0
0.646177 1.877279 -3.882794 255 255 0
0.647530 1.876365 -3.881043 0 0 255
0.646614 1.876084 -3.882106 0 0 255
0.645699 1.875804 -3.883169 0 0 255
0.647634 1.875013 -3.880765 0 0 255
0.646666 1.875408 -3.881967 0 0 255
0.645699 1.875804 -3.883169 0 0 255
0.647475 1.873043 -3.880986 0 255 255
0.646528 1.873742 -3.882114 0 255 255
0.645580 1.874441 -3.883242 0 255 255
0.647634 1.875013 -3.880765 255 255 0
0.646607 1.874727 -3.882003 255 255 0
0.645580 1.874441 -3.883242 255 255 0
0.647475 1.873043 -3.880986 0 255 255
0.646487 1.873066 -3.882118 0 255 255
0.645499 1.873089 -3.883251 0 255 255
0.647634 1.875013 -3.880765 0 255 0
0.646566 1.874051 -3.882008 0 255 0
0.645499 1.873089 -3.883251 0 255 0
0.647610 1.871708 -3.880713 0 255 0
0.646555 1.872399 -3.881982 0 255 0
0.645499 1.873089 -3.883251 0 255 0
0.647299 1.869713 -3.881013 0 255 0
0.645600 1.870490 -3.882691 0 255 0
0.643901 1.871267 -3.884370 0 255 0
0.647610 1.871708 -3.880713 0 0 255
0.645756 1.871488 -3.882541 0 0 255
0.643901 1.871267 -3.884370 0 0 255
0.647475 1.873043 -3.880986 0 255 0
0.645688 1.872155 -3.882678 0 255 0
0.643901 1.871267 -3.884370 0 255 0
0.647610 1.871708 -3.880713 0 255 0
0.645960 1.870904 -3.882270 0 255 0
0.644310 1.870099 -3.883828 0 255 0
0.647299 1.869713 -3.881013 0 255 0
0.645804 1.869906 -3.882421 0 255 0
0.644310 1.870099 -3.883828 0 255 0
0.647299 1.869713 -3.881013 0 0 255
0.645734 1.869208 -3.882240 0 0 255
0.644170 1.868704 -3.883466 0 0 255
0.647420 1.868370 -3.880746 0 255 0
0.645795 1.868537 -3.882106 0 255 0
0.644170 1.868704 -3.883466 0 255 0
0.647420 1.868370 -3.880746 0 255 255
0.645948 1.867957 -3.881790 0 255 255
0.644475 1.867543 -3.882835 0 255 255
0.647245 1.865062 -3.880799 255 255 0
0.646381 1.865835 -3.881252 255 255 0
0.645517 1.866608 -3.881704 255 255 0
0.647111 1.866389 -3.881053 255 255 0
0.646314 1.866499 -3.881379 255 255 0
0.645517 1.866608 -3.881704 255 255 0
0.647420 1.868370 -3.880746 255 255 0
0.646468 1.867489 -3.881225 255 255 0
0.645517 1.866608 -3.881704 255 255 0
0.647245 1.865062 -3.880799 0 255 255
0.646292 1.865087 -3.881202 0 255 255
0.645339 1.865112 -3.881605 0 255 255
0.647111 1.866389 -3.881053 0 255 255
0.646225 1.865751 -3.881329 0 255 255
0.645339 1.865112 -3.881605 0 255 255
0.647245 1.865062 -3.880799 0 255 0
0.646265 1.864429 -3.881154 0 255 0
0.645285 1.863796 -3.881510 0 255 0
0.646926 1.863048 -3.881155 0 255 0
0.646105 1.863422 -3.881333 0 255 0
0.645285 1.863796 -3.881510 0 255 0
0.646926 1.863048 -3.881155 0 255 255
0.646083 1.862762 -3.881300 0 255 255
0.645240 1.862477 -3.881444 0 255 255
0.647245 1.865062 -3.880799 0 255 0
0.646242 1.863769 -3.881121 0 255 0
0.645240 1.862477 -3.881444 0 255 0
0.647195 1.861662 -3.880795 0 0 255
0.646218 1.862069 -3.881120 0 0 255
0.645240 1.862477 -3.881444 0 0 255
0.647195 1.861662 -3.880795 0 255 255
0.645913 1.861318 -3.881323 0 255 255
0.644631 1.860974 -3.881850 0 255 255
0.646926 1.863048 -3.881155 0 255 0
0.645779 1.862011 -3.881503 0 255 0
0.644631 1.860974 -3.881850 0 255 0
0.647195 1.861662 -3.880795 0 255 0
0.645775 1.860617 -3.881409 0 255 0
0.644356 1.859572 -3.882022 0 255 0
0.646926 1.859693 -3.881108 0 255 255
0.645641 1.859633 -3.881565 0 255 255
0.644356 1.859572 -3.882022 0 255 255
0.647052 1.858358 -3.880857 0 255 0
0.645704 1.858965 -3.881440 0 255 0
0.644356 1.859572 -3.882022 0 255 0
0.647052 1.858358 -3.880857 255 255 0
0.645694 1.858304 -3.881436 255 255 0
0.644335 1.858251 -3.882015 255 255 0
0.647052 1.858358 -3.880857 255 255 0
0.645679 1.857645 -3.881435 255 255 0
0.644306 1.856933 -3.882014 255 255 0
0.646694 1.856362 -3.881175 0 255 0
0.645500 1.856647 -3.881594 0 255 0
0.644306 1.856933 -3.882014 0 255 0
0.646694 1.856362 -3.881175 0 255 255
0.645488 1.855997 -3.881580 0 255 255
0.644282 1.855632 -3.881985 0 255 255
0.646694 1.856362 -3.881175 0 255 0
0.644606 1.855145 -3.881535 0 255 0
0.642518 1.853929 -3.881894 0 255 0
0.646694 1.856362 -3.881175 255 255 0
0.644476 1.855736 -3.881735 255 255 0
0.642259 1.855110 -3.882295 255 255 0
0.647052 1.858358 -3.880857 0 0 255
0.644675 1.857383 -3.881609 0 0 255
0.642298 1.856409 -3.882361 0 0 255
0.646694 1.856362 -3.881175 0 255 0
0.644496 1.856385 -3.881768 0 255 0
0.642298 1.856409 -3.882361 0 255 0
0.647052 1.858358 -3.880857 0 255 0
0.644702 1.858039 -3.881626 0 255 0
0.642353 1.857721 -3.882394 0 255 0
0.647052 1.858358 -3.880857 0 255 0
0.644725 1.858696 -3.881642 0 255 0
0.642399 1.859035 -3.882426 0 255 0
0.646926 1.859693 -3.881108 0 255 0
0.644662 1.859364 -3.881767 0 255 0
0.642399 1.859035 -3.882426 0 255 0
0.647195 1.861662 -3.880795 255 255 0
0.644797 1.861070 -3.881634 255 255 0
0.642400 1.860479 -3.882472 255 255 0
0.646926 1.863048 -3.881155 0 0 255
0.644832 1.862472 -3.881680 0 0 255
0.642737 1.861897 -3.882205 0 0 255
0.647245 1.865062 -3.880799 0 255 0
0.645031 1.864138 -3.881511 0 255 0
0.642817 1.863215 -3.882223 0 255 0
0.647245 1.865062 -3.880799 255 255 0
0.645068 1.864796 -3.881526 255 255 0
0.642891 1.864530 -3.882254 255 255 0
0.647111 1.866389 -3.881053 255 255 0
0.645001 1.865459 -3.881653 255 255 0
0.642891 1.864530 -3.882254 255 255 0
0.647111 1.866389 -3.881053 0 255 0
0.645022 1.866110 -3.881696 0 255 0
0.642933 1.865830 -3.882340 0 255 0
0.647420 1.868370 -3.880746 0 255 0
0.645177 1.867100 -3.881543 0 255 0
0.642933 1.865830 -3.882340 0 255 0
0.647420 1.868370 -3.880746 255 255 0
0.645290 1.867782 -3.881505 255 255 0
0.643160 1.867195 -3.882265 255 255 0
0.647111 1.866389 -3.881053 0 255 0
0.645136 1.866792 -3.881659 0 255 0
0.643160 1.867195 -3.882265 0 255 0
0.647420 1.868370 -3.880746 0 255 0
0.645204 1.868432 -3.881740 0 255 0
0.642987 1.868495 -3.882735 0 255 0
0.647610 1.871708 -3.880713 0 255 0
0.645462 1.871428 -3.881802 0 255 0
0.643313 1.871147 -3.882891 0 255 0
0.647475 1.873043 -3.880986 0 255 0
0.645394 1.872095 -3.881939 0 255 0
0.643313 1.871147 -3.882891 0 255 0
0.647475 1.873043 -3.880986 255 255 0
0.645476 1.872767 -3.881948 255 255 0
0.643477 1.872491 -3.882910 255 255 0
0.647634 1.875013 -3.880765 0 255 0
0.645555 1.873752 -3.881837 0 255 0
0.643477 1.872491 -3.882910 0 255 0
0.647475 1.873043 -3.880986 0 0 255
0.645530 1.873432 -3.881961 0 0 255
0.643586 1.873820 -3.882936 0 0 255
0.647634 1.875013 -3.880765 255 255 0
0.645610 1.874417 -3.881850 255 255 0
0.643586 1.873820 -3.882936 255 255 0
0.647530 1.876365 -3.881043 255 255 0
0.645593 1.875754 -3.881997 255 255 0
0.643657 1.875144 -3.882951 255 255 0
0.647634 1.875013 -3.880765 0 255 0
0.645645 1.875078 -3.881858 0 255 0
0.643657 1.875144 -3.882951 0 255 0
0.647530 1.876365 -3.881043 0 0 255
0.645573 1.876398 -3.882040 0 0 255
0.643616 1.876432 -3.883037 0 0 255
0.647844 1.878385 -3.880716 255 255 0
0.645730 1.877409 -3.881877 255 255 0
0.643616 1.876432 -3.883037 255 255 0
0.647692 1.879733 -3.880965 0 0 255
0.645641 1.878805 -3.881987 0 0 255
0.643590 1.877877 -3.883009 0 0 255
0.647844 1.878385 -3.880716 0 255 0
0.645717 1.878131 -3.881863 0 255 0
0.643590 1.877877 -3.883009 0 255 0
0.647692 1.879733 -3.880965 0 255 255
0.645646 1.879467 -3.881962 0 255 255
0.643600 1.879202 -3.882960 0 255 255
0.647844 1.878385 -3.880716 0 255 0
0.645722 1.878793 -3.881838 0 255 0
0.643600 1.879202 -3.882960 0 255 0
0.647972 1.881729 -3.880634 0 255 255
0.645756 1.881118 -3.881794 0 255 255
0.643540 1.880507 -3.882954 0 255 255
0.647692 1.879733 -3.880965 255 255 0
0.645616 1.880120 -3.881959 255 255 0
0.643540 1.880507 -3.882954 255 255 0
0.647808 1.883050 -3.880889 0 255 0
0.645674 1.881778 -3.881921 0 255 0
0.643540 1.880507 -3.882954 0 255 0
0.647808 1.883050 -3.880889 255 255 0
0.645663 1.882440 -3.881894 255 255 0
0.643517 1.881830 -3.882898 255 255 0
0.647972 1.881729 -3.880634 0 255 0
0.645745 1.881779 -3.881766 0 255 0
0.643517 1.881830 -3.882898 0 255 0
0.647808 1.883050 -3.880889 0 0 255
0.645663 1.883104 -3.881859 0 0 255
0.643518 1.883158 -3.882829 0 0 255
0.648114 1.885039 -3.880561 0 255 0
0.645816 1.884098 -3.881695 0 255 0
0.643518 1.883158 -3.882829 0 255 0
0.647972 1.881729 -3.880634 0 255 0
0.645745 1.882443 -3.881732 0 255 0
0.643518 1.883158 -3.882829 0 255 0
0.647906 1.886471 -3.880976 0 255 0
0.645715 1.885479 -3.881866 0 255 0
0.643524 1.884488 -3.882757 0 255 0
0.647906 1.886471 -3.880976 0 255 255
0.645819 1.886183 -3.881724 0 255 255
0.643733 1.885896 -3.882473 0 255 255
0.648281 1.888463 -3.880700 0 0 255
0.646008 1.887845 -3.881560 0 0 255
0.643735 1.887227 -3.882420 0 0 255
0.648215 1.889821 -3.880963 0 255 0
0.645961 1.889183 -3.881684 0 255 0
0.643707 1.888545 -3.882405 0 255 0
0.648281 1.888463 -3.880700 0 255 0
0.645994 1.888504 -3.881552 0 255 0
0.643707 1.888545 -3.882405 0 255 0
0.648481 1.893210 -3.880876 0 255 0
0.646053 1.892189 -3.881638 0 255 0
0.643626 1.891167 -3.882401 0 255 0
0.648481 1.893210 -3.880876 0 255 0
0.646062 1.892856 -3.881603 0 255 0
0.643644 1.892503 -3.882331 0 255 0
0.648827 1.895253 -3.880521 0 255 0
0.646252 1.895212 -3.881369 0 255 0
0.643676 1.895170 -3.882218 0 255 0
0.648924 1.898688 -3.880570 0 255 0
0.646301 1.897590 -3.881389 0 255 0
0.643677 1.896492 -3.882208 0 255 0
0.648924 1.898688 -3.880570 0 255 0
0.646334 1.898259 -3.881364 0 255 0
0.643744 1.897831 -3.882159 0 255 0
0.648688 1.903128 -3.880871 0 255 0
0.646338 1.902525 -3.881529 0 255 0
0.643987 1.901922 -3.882187 0 255 0
0.646694 1.856362 -3.881175 0 255 0
0.644945 1.855871 -3.882654 0 255 0
0.643197 1.855380 -3.884133 0 255 0
0.646694 1.856362 -3.881175 0 255 0
0.645168 1.856481 -3.882786 0 255 0
0.643641 1.856600 -3.884396 0 255 0
0.647052 1.858358 -3.880857 0 255 0
0.645472 1.858052 -3.882700 0 255 0
0.643893 1.857747 -3.884544 0 255 0
0.647052 1.858358 -3.880857 0 255 0
0.645594 1.858626 -3.882778 0 255 0
0.644137 1.858893 -3.884698 0 255 0
0.647195 1.861662 -3.880795 0 255 0
0.645917 1.861425 -3.882911 0 255 0
0.644639 1.861189 -3.885027 0 255 0
0.647195 1.861662 -3.880795 255 255 0
0.645340 1.861713 -3.882521 255 255 0
0.643485 1.861764 -3.884247 255 255 0
0.646926 1.863048 -3.881155 0 255 0
0.645333 1.862979 -3.882773 0 255 0
0.643740 1.862909 -3.884391 0 255 0
0.647245 1.865062 -3.880799 0 255 0
0.645618 1.864556 -3.882663 0 255 0
0.643992 1.864050 -3.884527 0 255 0
0.647245 1.865062 -3.880799 0 255 0
0.645741 1.865126 -3.882726 0 255 0
0.644236 1.865190 -3.884653 0 255 0
0.647906 1.886471 -3.880976 0 255 0
0.646484 1.886492 -3.883109 0 255 0
0.645062 1.886514 -3.885242 0 255 0
0.648573 1.891842 -3.880637 0 255 0
0.647039 1.891846 -3.882829 0 255 0
0.645505 1.891850 -3.885021 0 255 0
0.648924 1.898688 -3.880570 0 0 255
0.645638 1.897777 -3.881805 0 0 255
0.642352 1.896867 -3.883041 0 0 255
0.648869 1.905032 -3.880607 0 0 255
0.646733 1.904639 -3.881454 0 0 255
0.644598 1.904246 -3.882300 0 0 255
0.648869 1.905032 -3.880607 0 0 255
0.646662 1.904115 -3.881463 0 0 255
0.644456 1.903199 -3.882318 0 0 255
0.648688 1.903128 -3.880871 0 255 0
0.646481 1.902633 -3.881611 0 255 0
0.644274 1.902138 -3.882351 0 255 0
0.648930 1.901876 -3.880576 0 255 0
0.646544 1.901490 -3.881468 0 255 0
0.644158 1.901104 -3.882359 0 255 0
0.648924 1.898688 -3.880570 0 255 0
0.646573 1.898418 -3.881421 0 255 0
0.644222 1.898147 -3.882272 0 255 0
0.648924 1.898688 -3.880570 0 255 0
0.646327 1.897825 -3.881495 0 255 0
0.643731 1.896962 -3.882420 0 255 0
0.648281 1.888463 -3.880700 255 255 0
0.646250 1.888276 -3.881502 255 255 0
0.644220 1.888089 -3.882303 255 255 0
0.648215 1.889821 -3.880963 0 0 255
0.646217 1.888955 -3.881633 0 0 255
0.644220 1.888089 -3.882303 0 0 255
0.648281 1.888463 -3.880700 255 255 0
0.646210 1.887759 -3.881530 255 255 0
0.644139 1.887056 -3.882360 255 255 0
0.647906 1.886471 -3.880976 255 255 0
0.646062 1.886278 -3.881664 255 255 0
0.644218 1.886085 -3.882353 255 255 0
0.648281 1.888463 -3.880700 0 255 0
0.646250 1.887274 -3.881527 0 255 0
0.644218 1.886085 -3.882353 0 255 0
0.648114 1.885039 -3.880561 0 0 255
0.646088 1.885034 -3.881489 0 0 255
0.644062 1.885030 -3.882417 0 0 255
0.647906 1.886471 -3.880976 0 0 255
0.645984 1.885750 -3.881696 0 0 255
0.644062 1.885030 -3.882417 0 0 255
0.648114 1.885039 -3.880561 255 255 0
0.646153 1.884563 -3.881463 255 255 0
0.644193 1.884087 -3.882366 255 255 0
0.647808 1.883050 -3.880889 0 255 255
0.646087 1.883108 -3.881586 0 255 255
0.644366 1.883166 -3.882282 0 255 255
0.648114 1.885039 -3.880561 0 255 0
0.646240 1.884102 -3.881422 0 255 0
0.644366 1.883166 -3.882282 0 255 0
0.647972 1.881729 -3.880634 0 255 0
0.646169 1.882447 -3.881458 0 255 0
0.644366 1.883166 -3.882282 0 255 0
0.647808 1.883050 -3.880889 0 255 255
0.646049 1.882600 -3.881581 0 255 255
0.644291 1.882150 -3.882273 0 255 255
0.647972 1.881729 -3.880634 0 0 255
0.646131 1.881940 -3.881454 0 0 255
0.644291 1.882150 -3.882273 0 0 255
0.647972 1.881729 -3.880634 255 255 0
0.646141 1.881401 -3.881451 255 255 0
0.644311 1.881072 -3.882268 255 255 0
0.647808 1.883050 -3.880889 255 255 0
0.646059 1.882061 -3.881579 255 255 0
0.644311 1.881072 -3.882268 255 255 0
0.647692 1.879733 -3.880965 0 255 0
0.646001 1.880403 -3.881617 0 255 0
0.644311 1.881072 -3.882268 0 255 0
0.647692 1.879733 -3.880965 0 255 255
0.646257 1.880002 -3.881532 0 255 255
0.644822 1.880271 -3.882100 0 255 255
0.647972 1.881729 -3.880634 0 255 255
0.646397 1.881000 -3.881367 0 255 255
0.644822 1.880271 -3.882100 0 255 255
0.647692 1.879733 -3.880965 0 255 255
0.646336 1.879535 -3.881513 0 255 255
0.644979 1.879336 -3.882061 0 255 255
0.647972 1.881729 -3.880634 0 255 0
0.646475 1.880532 -3.881348 0 255 0
0.644979 1.879336 -3.882061 0 255 0
0.647844 1.878385 -3.880716 0 255 0
0.646412 1.878861 -3.881389 0 255 0
0.644979 1.879336 -3.882061 0 255 0
0.647692 1.879733 -3.880965 0 255 255
0.646242 1.879000 -3.881554 0 255 255
0.644791 1.878267 -3.882144 0 255 255
0.647844 1.878385 -3.880716 0 0 255
0.646318 1.878326 -3.881430 0 0 255
0.644791 1.878267 -3.882144 0 0 255
0.647530 1.876365 -3.881043 0 0 255
0.646052 1.876777 -3.881637 0 0 255
0.644574 1.877190 -3.882230 0 0 255
0.647844 1.878385 -3.880716 0 255 255
0.646209 1.877788 -3.881473 0 255 255
0.644574 1.877190 -3.882230 0 255 255
0.647530 1.876365 -3.881043 255 255 0
0.646054 1.876281 -3.881637 255 255 0
0.644578 1.876197 -3.882232 255 255 0
0.647844 1.878385 -3.880716 255 255 0
0.646211 1.877291 -3.881474 255 255 0
0.644578 1.876197 -3.882232 255 255 0
0.647530 1.876365 -3.881043 0 0 255
0.645977 1.875755 -3.881660 0 0 255
0.644425 1.875145 -3.882277 0 0 255
0.647634 1.875013 -3.880765 0 0 255
0.646029 1.875079 -3.881521 0 0 255
0.644425 1.875145 -3.882277 0 0 255
0.647475 1.873043 -3.880986 0 0 255
0.645894 1.873579 -3.881644 0 0 255
0.644314 1.874114 -3.882301 0 0 255
0.647634 1.875013 -3.880765 0 255 255
0.645974 1.874563 -3.881533 0 255 255
0.644314 1.874114 -3.882301 0 255 255
0.647475 1.873043 -3.880986 0 255 255
0.645761 1.873037 -3.881674 0 255 255
0.644048 1.873031 -3.882362 0 255 255
0.647475 1.873043 -3.880986 0 255 255
0.645761 1.872548 -3.881649 0 255 255
0.644048 1.872053 -3.882311 0 255 255
0.647475 1.873043 -3.880986 0 0 255
0.645696 1.872038 -3.881631 0 0 255
0.643917 1.871032 -3.882275 0 0 255
0.647610 1.871708 -3.880713 255 255 0
0.645764 1.871370 -3.881494 255 255 0
0.643917 1.871032 -3.882275 255 255 0
0.647610 1.871708 -3.880713 0 0 255
0.645630 1.870770 -3.881482 0 0 255
0.643650 1.869831 -3.882251 0 0 255
0.647299 1.869713 -3.881013 0 255 0
0.645474 1.869772 -3.881632 0 255 0
0.643650 1.869831 -3.882251 0 255 0
0.647420 1.868370 -3.880746 0 0 255
0.645601 1.868637 -3.881429 0 0 255
0.643781 1.868904 -3.882112 0 0 255
0.647299 1.869713 -3.881013 0 255 255
0.645540 1.869309 -3.881563 0 255 255
0.643781 1.868904 -3.882112 0 255 255
0.647420 1.868370 -3.880746 0 255 255
0.645625 1.868158 -3.881377 0 255 255
0.643830 1.867945 -3.882008 0 255 255
0.647420 1.868370 -3.880746 0 255 255
0.645589 1.867654 -3.881354 0 255 255
0.643758 1.866938 -3.881962 0 255 255
0.647111 1.866389 -3.881053 0 255 0
0.645435 1.866664 -3.881508 0 255 0
0.643758 1.866938 -3.881962 0 255 0
0.647245 1.865062 -3.880799 0 0 255
0.645461 1.865489 -3.881373 0 0 255
0.643677 1.865917 -3.881948 0 0 255
0.647111 1.866389 -3.881053 0 255 255
0.645394 1.866153 -3.881500 0 255 255
0.643677 1.865917 -3.881948 0 255 255
0.647420 1.868370 -3.880746 0 255 255
0.645549 1.867143 -3.881347 0 255 255
0.643677 1.865917 -3.881948 0 255 255
0.647245 1.865062 -3.880799 0 255 255
0.645446 1.864986 -3.881376 0 255 255
0.643648 1.864910 -3.881953 0 255 255
0.647111 1.866389 -3.881053 0 255 255
0.645380 1.865650 -3.881503 0 255 255
0.643648 1.864910 -3.881953 0 255 255
0.647245 1.865062 -3.880799 0 255 255
0.645380 1.864461 -3.881409 0 255 255
0.643515 1.863861 -3.882019 0 255 255
0.647111 1.866389 -3.881053 0 0 255
0.645313 1.865125 -3.881536 0 0 255
0.643515 1.863861 -3.882019 0 0 255
0.646926 1.863048 -3.881155 255 255 0
0.645209 1.862906 -3.881615 255 255 0
0.643492 1.862765 -3.882074 255 255 0
0.646926 1.863048 -3.881155 0 255 255
0.645198 1.862407 -3.881623 0 255 255
0.643470 1.861765 -3.882090 0 255 255
0.647195 1.861662 -3.880795 0 0 255
0.645332 1.861714 -3.881443 0 0 255
0.643470 1.861765 -3.882090 0 0 255
0.647195 1.861662 -3.880795 0 255 255
0.645292 1.861202 -3.881450 0 255 255
0.643389 1.860742 -3.882105 0 255 255
0.647195 1.861662 -3.880795 0 0 255
0.645356 1.860731 -3.881415 0 0 255
0.643518 1.859800 -3.882035 0 0 255
0.646926 1.859693 -3.881108 0 0 255
0.645222 1.859746 -3.881572 0 0 255
0.643518 1.859800 -3.882035 0 0 255
0.647052 1.858358 -3.880857 0 0 255
0.645288 1.858587 -3.881429 0 0 255
0.643524 1.858816 -3.882000 0 0 255
0.646926 1.859693 -3.881108 0 255 255
0.645225 1.859254 -3.881554 0 255 255
0.643524 1.858816 -3.882000 0 255 255
0.647052 1.858358 -3.880857 0 255 255
0.645258 1.858082 -3.881423 0 255 255
0.643464 1.857807 -3.881988 0 255 255
0.646694 1.856362 -3.881175 0 255 0
0.645079 1.857084 -3.881582 0 255 0
0.643464 1.857807 -3.881988 0 255 0
0.647052 1.858358 -3.880857 0 0 255
0.645164 1.857555 -3.881440 0 0 255
0.643276 1.856752 -3.882023 0 0 255
0.646694 1.856362 -3.881175 0 255 0
0.644985 1.856557 -3.881599 0 255 0
0.643276 1.856752 -3.882023 0 255 0
0.646694 1.856362 -3.881175 0 255 255
0.644665 1.855942 -3.881701 0 255 255
0.642636 1.855523 -3.882227 0 255 255
0.646694 1.856362 -3.881175 0 255 255
0.646144 1.855995 -3.881201 0 255 255
0.645593 1.855628 -3.881227 0 255 255
0.646694 1.856362 -3.881175 0 0 255
0.646591 1.855663 -3.881053 0 0 255
0.646487 1.854965 -3.880931 0 0 255
0.646694 1.856362 -3.881175 0 255 0
0.645721 1.856352 -3.880360 0 255 0
0.644748 1.856342 -3.879545 0 255 0
0.647052 1.858358 -3.880857 0 255 0
0.645818 1.857842 -3.880232 0 255 0
0.644585 1.857326 -3.879606 0 255 0
0.647245 1.865062 -3.880799 0 255 0
0.645928 1.864877 -3.880266 0 255 0
0.644611 1.864691 -3.879733 0 255 0
0.647111 1.866389 -3.881053 0 255 0
0.645861 1.865540 -3.880393 0 255 0
0.644611 1.864691 -3.879733 0 255 0
0.647111 1.866389 -3.881053 255 255 0
0.645915 1.866069 -3.880410 255 255 0
0.644720 1.865749 -3.879766 255 255 0
0.647111 1.866389 -3.881053 0 255 0
0.645937 1.866582 -3.880459 0 255 0
0.644763 1.866776 -3.879866 0 255 0
0.647420 1.868370 -3.880746 0 0 255
0.646092 1.867573 -3.880306 0 0 255
0.644763 1.866776 -3.879866 0 0 255
0.647420 1.868370 -3.880746 0 0 255
0.646198 1.868182 -3.880332 0 0 255
0.644975 1.867993 -3.879918 0 0 255
0.647634 1.875013 -3.880765 0 0 255
0.647776 1.874092 -3.879757 0 0 255
0.647918 1.873172 -3.878749 0 0 255
0.647530 1.876365 -3.881043 0 255 0
0.647903 1.875917 -3.879922 0 255 0
0.648276 1.875470 -3.878801 0 255 0
0.647530 1.876365 -3.881043 0 255 0
0.647827 1.876395 -3.880016 0 255 0
0.648125 1.876425 -3.878989 0 255 0
0.647844 1.878385 -3.880716 0 0 255
0.647984 1.877405 -3.879852 0 0 255
0.648125 1.876425 -3.878989 0 0 255
0.647844 1.878385 -3.880716 0 255 0
0.647353 1.878184 -3.880299 0 255 0
0.646862 1.877982 -3.879882 0 255 0
0.647692 1.879733 -3.880965 0 0 255
0.647354 1.879930 -3.880401 0 0 255
0.647016 1.880126 -3.879838 0 0 255
0.647692 1.879733 -3.880965 0 255 0
0.647390 1.880498 -3.880358 0 255 0
0.647087 1.881263 -3.879751 0 255 0
0.647972 1.881729 -3.880634 0 255 0
0.647530 1.881496 -3.880192 0 255 0
0.647087 1.881263 -3.879751 0 255 0
0.647972 1.881729 -3.880634 0 255 0
0.647212 1.881894 -3.880357 0 255 0
0.646453 1.882060 -3.880080 0 255 0
0.647808 1.883050 -3.880889 0 0 255
0.647130 1.882555 -3.880484 0 0 255
0.646453 1.882060 -3.880080 0 0 255
0.647808 1.883050 -3.880889 0 255 0
0.647089 1.883065 -3.880461 0 255 0
0.646371 1.883081 -3.880034 0 255 0
0.648114 1.885039 -3.880561 0 255 0
0.647313 1.884605 -3.880201 0 255 0
0.646513 1.884170 -3.879840 0 255 0
0.646694 1.856362 -3.881175 0 255 0
0.645364 1.855181 -3.881768 0 255 0
0.644033 1.854000 -3.882360 0 255 0
0.646694 1.856362 -3.881175 255 255 0
0.645371 1.855760 -3.881798 255 255 0
0.644047 1.855158 -3.882421 255 255 0
0.646694 1.856362 -3.881175 0 255 255
0.645399 1.856337 -3.881791 0 255 255
0.644103 1.856313 -3.882406 0 255 255
0.647052 1.858358 -3.880857 0 0 255
0.645577 1.857335 -3.881632 0 0 255
0.644103 1.856313 -3.882406 0 0 255
0.647052 1.858358 -3.880857 255 255 0
0.645583 1.857914 -3.881625 255 255 0
0.644113 1.857471 -3.882394 255 255 0
0.646694 1.856362 -3.881175 0 0 255
0.645404 1.856916 -3.881784 0 0 255
0.644113 1.857471 -3.882394 0 0 255
0.647052 1.858358 -3.880857 0 255 255
0.645799 1.858475 -3.881433 0 255 255
0.644545 1.858593 -3.882009 0 255 255
0.646926 1.859693 -3.881108 255 255 0
0.645736 1.859143 -3.881558 255 255 0
0.644545 1.858593 -3.882009 255 255 0
0.646926 1.859693 -3.881108 0 255 255
0.645926 1.859707 -3.881386 0 255 255
0.644926 1.859721 -3.881664 0 255 255
0.647195 1.861662 -3.880795 0 255 0
0.646060 1.860691 -3.881229 0 255 0
0.644926 1.859721 -3.881664 0 255 0
0.647052 1.858358 -3.880857 0 0 255
0.645989 1.859039 -3.881260 0 0 255
0.644926 1.859721 -3.881664 0 0 255
0.647195 1.861662 -3.880795 0 255 255
0.646099 1.861267 -3.881186 0 255 255
0.645004 1.860872 -3.881577 0 255 255
0.646926 1.859693 -3.881108 0 255 0
0.645965 1.860282 -3.881343 0 255 0
0.645004 1.860872 -3.881577 0 255 0
0.646926 1.863048 -3.881155 0 255 255
0.645947 1.862541 -3.881378 0 255 255
0.644968 1.862033 -3.881600 0 255 255
0.647195 1.861662 -3.880795 0 255 255
0.646081 1.861847 -3.881198 0 255 255
0.644968 1.862033 -3.881600 0 255 255
0.646926 1.863048 -3.881155 0 255 255
0.645953 1.863121 -3.881378 0 255 255
0.644980 1.863194 -3.881601 0 255 255
0.647195 1.861662 -3.880795 255 255 0
0.646087 1.862428 -3.881198 255 255 0
0.644980 1.863194 -3.881601 255 255 0
0.647245 1.865062 -3.880799 0 255 0
0.646112 1.864128 -3.881200 0 255 0
0.644980 1.863194 -3.881601 0 255 0
0.647245 1.865062 -3.880799 0 255 255
0.646130 1.864708 -3.881201 0 255 255
0.645014 1.864353 -3.881604 0 255 255
0.647111 1.866389 -3.881053 0 255 0
0.646063 1.865371 -3.881328 0 255 0
0.645014 1.864353 -3.881604 0 255 0
0.647245 1.865062 -3.880799 0 255 255
0.646130 1.865290 -3.881227 0 255 255
0.645015 1.865517 -3.881656 0 255 255
0.647111 1.866389 -3.881053 255 255 0
0.646063 1.865953 -3.881354 255 255 0
0.645015 1.865517 -3.881656 255 255 0
0.647420 1.868370 -3.880746 0 255 0
0.646218 1.866944 -3.881201 0 255 0
0.645015 1.865517 -3.881656 0 255 0
0.647111 1.866389 -3.881053 0 255 255
0.646287 1.866518 -3.881210 0 255 255
0.645463 1.866646 -3.881366 0 255 255
0.647420 1.868370 -3.880746 0 0 255
0.646442 1.867508 -3.881056 0 0 255
0.645463 1.866646 -3.881366 0 0 255
0.647245 1.865062 -3.880799 0 255 0
0.646486 1.866426 -3.881024 0 255 0
0.645728 1.867789 -3.881249 0 255 0
0.647111 1.866389 -3.881053 0 0 255
0.646420 1.867089 -3.881151 0 0 255
0.645728 1.867789 -3.881249 0 0 255
0.647420 1.868370 -3.880746 0 255 255
0.646574 1.868080 -3.880997 0 255 255
0.645728 1.867789 -3.881249 0 255 255
0.647299 1.869713 -3.881013 0 255 0
0.646513 1.868751 -3.881131 0 255 0
0.645728 1.867789 -3.881249 0 255 0
0.647420 1.868370 -3.880746 0 255 255
0.646587 1.868658 -3.881051 0 255 255
0.645754 1.868945 -3.881356 0 255 255
0.647299 1.869713 -3.881013 0 255 0
0.646526 1.869329 -3.881185 0 255 0
0.645754 1.868945 -3.881356 0 255 0
0.647299 1.869713 -3.881013 0 0 255
0.646539 1.869906 -3.881250 0 0 255
0.645779 1.870099 -3.881487 0 0 255
0.647475 1.873043 -3.880986 0 255 0
0.646325 1.872172 -3.881573 0 255 0
0.645174 1.871301 -3.882160 0 255 0
0.647610 1.871708 -3.880713 0 255 0
0.646392 1.871505 -3.881436 0 255 0
0.645174 1.871301 -3.882160 0 255 0
0.647475 1.873043 -3.880986 0 255 255
0.646351 1.872749 -3.881638 0 255 255
0.645227 1.872456 -3.882291 0 255 255
0.647634 1.875013 -3.880765 0 0 255
0.646431 1.873734 -3.881528 0 0 255
0.645227 1.872456 -3.882291 0 0 255
0.647475 1.873043 -3.880986 0 255 255
0.646445 1.873343 -3.881651 0 255 255
0.645415 1.873642 -3.882316 0 255 255
0.647634 1.875013 -3.880765 0 0 255
0.646524 1.874327 -3.881540 0 0 255
0.645415 1.873642 -3.882316 0 0 255
0.647475 1.873043 -3.880986 0 0 255
0.646487 1.873913 -3.881697 0 0 255
0.645499 1.874783 -3.882409 0 0 255
0.647634 1.875013 -3.880765 0 255 255
0.646567 1.874898 -3.881587 0 255 255
0.645499 1.874783 -3.882409 0 255 255
0.647530 1.876365 -3.881043 0 255 0
0.646515 1.875574 -3.881726 0 255 0
0.645499 1.874783 -3.882409 0 255 0
0.647844 1.878385 -3.880716 0 255 0
0.646672 1.876584 -3.881562 0 255 0
0.645499 1.874783 -3.882409 0 255 0
0.647530 1.876365 -3.881043 0 255 255
0.646562 1.876146 -3.881768 0 255 255
0.645594 1.875927 -3.882494 0 255 255
0.647844 1.878385 -3.880716 0 255 0
0.646719 1.877156 -3.881605 0 255 0
0.645594 1.875927 -3.882494 0 255 0
0.647634 1.875013 -3.880765 0 255 0
0.646614 1.875470 -3.881629 0 255 0
0.645594 1.875927 -3.882494 0 255 0
0.647530 1.876365 -3.881043 0 0 255
0.646529 1.876726 -3.881877 0 0 255
0.645529 1.877088 -3.882711 0 0 255
0.647844 1.878385 -3.880716 0 255 255
0.646687 1.877736 -3.881713 0 255 255
0.645529 1.877088 -3.882711 0 255 255
0.647844 1.878385 -3.880716 0 255 255
0.646771 1.878308 -3.881723 0 255 255
0.645697 1.878231 -3.882729 0 255 255
0.647692 1.879733 -3.880965 0 0 255
0.646695 1.878982 -3.881847 0 0 255
0.645697 1.878231 -3.882729 0 0 255
0.647692 1.879733 -3.880965 0 255 255
0.646744 1.879557 -3.881879 0 255 255
0.645796 1.879380 -3.882794 0 255 255
0.647844 1.878385 -3.880716 0 0 255
0.646820 1.878883 -3.881755 0 0 255
0.645796 1.879380 -3.882794 0 0 255
0.647972 1.881729 -3.880634 0 255 0
0.646884 1.880554 -3.881714 0 255 0
0.645796 1.879380 -3.882794 0 255 0
0.647692 1.879733 -3.880965 0 255 255
0.646830 1.880128 -3.881862 0 255 255
0.645969 1.880523 -3.882759 0 255 255
0.647972 1.881729 -3.880634 0 0 255
0.646970 1.881126 -3.881696 0 0 255
0.645969 1.880523 -3.882759 0 0 255
0.647972 1.881729 -3.880634 0 255 255
0.647062 1.881698 -3.881648 0 255 255
0.646151 1.881667 -3.882662 0 255 255
0.647808 1.883050 -3.880889 255 255 0
0.646980 1.882358 -3.881776 255 255 0
0.646151 1.881667 -3.882662 255 255 0
0.647692 1.879733 -3.880965 0 255 0
0.646922 1.880700 -3.881813 0 255 0
0.646151 1.881667 -3.882662 0 255 0
0.647808 1.883050 -3.880889 255 255 0
0.646810 1.882946 -3.881909 255 255 0
0.645813 1.882843 -3.882929 255 255 0
0.647972 1.881729 -3.880634 0 255 0
0.646893 1.882286 -3.881782 0 255 0
0.645813 1.882843 -3.882929 0 255 0
0.647808 1.883050 -3.880889 0 0 255
0.646842 1.883520 -3.881844 0 0 255
0.645877 1.883990 -3.882798 0 0 255
0.648114 1.885039 -3.880561 0 255 0
0.646995 1.884514 -3.881680 0 255 0
0.645877 1.883990 -3.882798 0 255 0
0.648114 1.885039 -3.880561 0 255 0
0.646919 1.885095 -3.881676 0 255 0
0.645725 1.885151 -3.882791 0 255 0
0.647906 1.886471 -3.880976 0 255 0
0.646815 1.885811 -3.881883 0 255 0
0.645725 1.885151 -3.882791 0 255 0
0.647906 1.886471 -3.880976 0 255 255
0.646924 1.886379 -3.881712 0 255 255
0.645943 1.886286 -3.882448 0 255 255
0.648281 1.888463 -3.880700 0 0 255
0.647112 1.887375 -3.881574 0 0 255
0.645943 1.886286 -3.882448 0 0 255
0.648281 1.888463 -3.880700 0 0 255
0.647097 1.887982 -3.881500 0 0 255
0.645913 1.887501 -3.882300 0 0 255
0.648281 1.888463 -3.880700 0 255 255
0.647074 1.888559 -3.881442 0 255 255
0.645868 1.888655 -3.882184 0 255 255
0.648215 1.889821 -3.880963 0 0 255
0.647041 1.889238 -3.881573 0 0 255
0.645868 1.888655 -3.882184 0 0 255
0.648215 1.889821 -3.880963 0 255 255
0.646990 1.889817 -3.881545 0 255 255
0.645765 1.889813 -3.882126 0 255 255
0.648573 1.891842 -3.880637 255 255 0
0.647245 1.891397 -3.881255 255 255 0
0.645917 1.890951 -3.881873 255 255 0
0.648481 1.893210 -3.880876 0 255 0
0.647199 1.892080 -3.881374 0 255 0
0.645917 1.890951 -3.881873 0 255 0
0.648481 1.893210 -3.880876 0 255 0
0.647118 1.892660 -3.881389 0 255 0
0.645755 1.892111 -3.881903 0 255 0
0.648573 1.891842 -3.880637 0 0 255
0.647164 1.891977 -3.881270 0 0 255
0.645755 1.892111 -3.881903 0 0 255
0.648481 1.893210 -3.880876 0 255 0
0.647116 1.893236 -3.881351 0 255 0
0.645751 1.893262 -3.881826 0 255 0
0.648827 1.895253 -3.880521 0 255 0
0.647289 1.894258 -3.881174 0 255 0
0.645751 1.893262 -3.881826 0 255 0
0.648827 1.895253 -3.880521 0 255 0
0.647292 1.895421 -3.881154 0 255 0
0.645757 1.895589 -3.881786 0 255 0
0.649082 1.897376 -3.880309 0 255 0
0.647420 1.896482 -3.881048 0 255 0
0.645757 1.895589 -3.881786 0 255 0
0.649082 1.897376 -3.880309 0 255 0
0.647402 1.897069 -3.881089 0 255 0
0.645722 1.896762 -3.881868 0 255 0
0.648924 1.898688 -3.880570 0 255 0
0.647323 1.897725 -3.881219 0 255 0
0.645722 1.896762 -3.881868 0 255 0
0.648924 1.898688 -3.880570 0 255 0
0.647383 1.898304 -3.881210 0 255 0
0.645842 1.897920 -3.881850 0 255 0
0.648930 1.901876 -3.880576 0 255 0
0.647385 1.900481 -3.881263 0 255 0
0.645841 1.899087 -3.881950 0 255 0
0.648924 1.898688 -3.880570 0 255 0
0.647383 1.898887 -3.881260 0 255 0
0.645841 1.899087 -3.881950 0 255 0
0.648732 1.899979 -3.880839 0 255 0
0.647287 1.899533 -3.881395 0 255 0
0.645841 1.899087 -3.881950 0 255 0
0.648930 1.901876 -3.880576 0 255 0
0.647407 1.901061 -3.881306 0 255 0
0.645885 1.900246 -3.882037 0 255 0
0.648930 1.901876 -3.880576 0 0 255
0.647480 1.901634 -3.881322 0 0 255
0.646030 1.901392 -3.882068 0 0 255
0.648688 1.903128 -3.880871 0 255 0
0.647359 1.902260 -3.881470 0 255 0
0.646030 1.901392 -3.882068 0 255 0
0.648688 1.903128 -3.880871 0 255 0
0.647265 1.902843 -3.881639 0 255 0
0.645842 1.902557 -3.882408 0 255 0
0.648869 1.905032 -3.880607 0 0 255
0.647380 1.904367 -3.881588 0 0 255
0.645892 1.903703 -3.882568 0 0 255
0.648688 1.903128 -3.880871 0 255 0
0.647326 1.903988 -3.881796 0 255 0
0.645965 1.904849 -3.882721 0 255 0
0.648869 1.905032 -3.880607 0 255 0
0.647417 1.904940 -3.881664 0 255 0
0.645965 1.904849 -3.882721 0 255 0
0.646694 1.856362 -3.881175 0 255 0
0.644692 1.855936 -3.883104 0 255 0
0.642690 1.855511 -3.885033 0 255 0
0.646694 1.856362 -3.881175 0 0 255
0.644727 1.856545 -3.883094 0 0 255
0.642761 1.856729 -3.885012 0 0 255
0.647052 1.858358 -3.880857 0 255 0
0.644902 1.858157 -3.882950 0 255 0
0.642752 1.857957 -3.885042 0 255 0
0.647052 1.858358 -3.880857 0 0 255
0.645066 1.858760 -3.882772 0 0 255
0.643080 1.859163 -3.884686 0 0 255
0.646926 1.859693 -3.881108 0 255 0
0.645003 1.859428 -3.882897 0 255 0
0.643080 1.859163 -3.884686 0 255 0
0.647195 1.861662 -3.880795 0 0 255
0.645239 1.861022 -3.882652 0 0 255
0.643283 1.860383 -3.884509 0 0 255
0.647195 1.861662 -3.880795 0 255 0
0.645303 1.861635 -3.882619 0 255 0
0.643411 1.861609 -3.884443 0 255 0
0.646926 1.863048 -3.881155 0 255 0
0.644812 1.862974 -3.883252 0 255 0
0.642698 1.862901 -3.885349 0 255 0
0.647245 1.865062 -3.880799 0 255 0
0.645604 1.864549 -3.882364 0 255 0
0.643963 1.864037 -3.883929 0 255 0
0.647245 1.865062 -3.880799 0 255 0
0.645579 1.865168 -3.882402 0 255 0
0.643912 1.865273 -3.884005 0 255 0
0.647111 1.866389 -3.881053 0 255 0
0.645512 1.865831 -3.882529 0 255 0
0.643912 1.865273 -3.884005 0 255 0
0.647111 1.866389 -3.881053 255 255 0
0.645532 1.866447 -3.882514 255 255 0
0.643953 1.866505 -3.883974 255 255 0
0.647420 1.868370 -3.880746 0 255 0
0.645687 1.867437 -3.882360 0 255 0
0.643953 1.866505 -3.883974 0 255 0
0.647245 1.865062 -3.880799 0 255 0
0.645599 1.865784 -3.882386 0 255 0
0.643953 1.866505 -3.883974 0 255 0
0.647111 1.866389 -3.881053 0 255 0
0.645542 1.867062 -3.882531 0 255 0
0.643973 1.867734 -3.884009 0 255 0
0.647420 1.868370 -3.880746 0 255 255
0.645697 1.868052 -3.882377 0 255 255
0.643973 1.867734 -3.884009 0 255 255
0.647299 1.869713 -3.881013 0 255 0
0.645636 1.868724 -3.882511 0 255 0
0.643973 1.867734 -3.884009 0 255 0
0.647299 1.869713 -3.881013 0 0 255
0.645643 1.869338 -3.882560 0 0 255
0.643988 1.868962 -3.884107 0 0 255
0.647420 1.868370 -3.880746 0 0 255
0.645704 1.868666 -3.882427 0 0 255
0.643988 1.868962 -3.884107 0 0 255
0.647610 1.871708 -3.880713 0 0 255
0.646065 1.870930 -3.882184 0 0 255
0.644520 1.870151 -3.883655 0 0 255
0.647299 1.869713 -3.881013 0 0 255
0.645909 1.869932 -3.882334 0 0 255
0.644520 1.870151 -3.883655 0 0 255
0.647610 1.871708 -3.880713 0 0 255
0.646102 1.871542 -3.882238 0 0 255
0.644593 1.871376 -3.883763 0 0 255
0.647475 1.873043 -3.880986 255 255 0
0.646034 1.872210 -3.882374 255 255 0
0.644593 1.871376 -3.883763 255 255 0
0.647475 1.873043 -3.880986 255 255 0
0.646133 1.872819 -3.882362 255 255 0
0.644790 1.872595 -3.883738 255 255 0
0.647610 1.871708 -3.880713 0 255 0
0.646200 1.872152 -3.882226 0 255 0
0.644790 1.872595 -3.883738 0 255 0
0.647475 1.873043 -3.880986 0 0 255
0.646150 1.873434 -3.882442 0 0 255
0.644825 1.873825 -3.883899 0 0 255
0.647634 1.875013 -3.880765 0 0 255
0.646229 1.874419 -3.882332 0 0 255
0.644825 1.873825 -3.883899 0 0 255
0.647475 1.873043 -3.880986 0 255 0
0.646169 1.874052 -3.882515 0 255 0
0.644863 1.875060 -3.884044 0 255 0
0.647634 1.875013 -3.880765 255 255 0
0.646248 1.875036 -3.882404 255 255 0
0.644863 1.875060 -3.884044 255 255 0
0.647530 1.876365 -3.881043 0 0 255
0.646196 1.875712 -3.882544 0 0 255
0.644863 1.875060 -3.884044 0 0 255
0.647844 1.878385 -3.880716 0 255 0
0.646354 1.876723 -3.882380 0 255 0
0.644863 1.875060 -3.884044 0 255 0
0.647530 1.876365 -3.881043 0 255 0
0.646457 1.876313 -3.882328 0 255 0
0.645385 1.876261 -3.883614 0 255 0
0.647844 1.878385 -3.880716 0 255 0
0.646615 1.877323 -3.882165 0 255 0
0.645385 1.876261 -3.883614 0 255 0
0.647530 1.876365 -3.881043 0 0 255
0.646489 1.876928 -3.882365 0 0 255
0.645447 1.877491 -3.883687 0 0 255
0.647844 1.878385 -3.880716 255 255 0
0.646646 1.877938 -3.882202 255 255 0
0.645447 1.877491 -3.883687 255 255 0
0.647692 1.879733 -3.880965 255 255 0
0.646615 1.879223 -3.882322 255 255 0
0.645538 1.878713 -3.883680 255 255 0
0.647844 1.878385 -3.880716 255 255 0
0.646691 1.878549 -3.882198 255 255 0
0.645538 1.878713 -3.883680 255 255 0
0.647692 1.879733 -3.880965 0 255 255
0.646895 1.879816 -3.882017 0 255 255
0.646098 1.879899 -3.883070 0 255 255
0.647972 1.881729 -3.880634 0 255 0
0.647035 1.880814 -3.881852 0 255 0
0.646098 1.879899 -3.883070 0 255 0
0.647972 1.881729 -3.880634 255 255 0
0.647007 1.881429 -3.881871 255 255 0
0.646041 1.881128 -3.883108 255 255 0
0.647692 1.879733 -3.880965 0 255 0
0.646867 1.880431 -3.882036 0 255 0
0.646041 1.881128 -3.883108 0 255 0
0.647808 1.883050 -3.880889 255 255 0
0.646908 1.882702 -3.881985 255 255 0
0.646009 1.882355 -3.883082 255 255 0
0.647972 1.881729 -3.880634 0 255 0
0.646990 1.882042 -3.881858 0 255 0
0.646009 1.882355 -3.883082 0 255 0
0.647808 1.883050 -3.880889 0 0 255
0.646624 1.883338 -3.882282 0 0 255
0.645439 1.883626 -3.883674 0 0 255
0.648114 1.885039 -3.880561 0 255 0
0.646563 1.884963 -3.882341 0 255 0
0.645011 1.884887 -3.884121 0 255 0
0.647906 1.886471 -3.880976 0 255 0
0.646411 1.886297 -3.882586 0 255 0
0.644917 1.886123 -3.884196 0 255 0
0.647906 1.886471 -3.880976 0 255 0
0.646417 1.886911 -3.882566 0 255 0
0.644928 1.887351 -3.884156 0 255 0
0.648281 1.888463 -3.880700 0 0 255
0.646606 1.888522 -3.882413 0 0 255
0.644931 1.888580 -3.884126 0 0 255
0.648215 1.889821 -3.880963 0 255 0
0.646573 1.889201 -3.882544 0 255 0
0.644931 1.888580 -3.884126 0 255 0
0.648281 1.888463 -3.880700 0 255 0
0.646607 1.889136 -3.882397 0 255 0
0.644934 1.889809 -3.884095 0 255 0
0.648215 1.889821 -3.880963 0 255 0
0.646574 1.889815 -3.882529 0 255 0
0.644934 1.889809 -3.884095 0 255 0
0.648573 1.891842 -3.880637 0 255 0
0.646669 1.892060 -3.882434 0 255 0
0.644766 1.892278 -3.884232 0 255 0
0.648924 1.898688 -3.880570 0 255 0
0.646913 1.898546 -3.882256 0 255 0
0.644901 1.898404 -3.883943 0 255 0
0.648930 1.901876 -3.880576 0 255 0
0.647149 1.901971 -3.882042 0 255 0
0.645368 1.902067 -3.883508 0 255 0
0.648688 1.903128 -3.880871 0 0 255
0.647049 1.903214 -3.882210 0 0 255
0.645410 1.903300 -3.883550 0 0 255
0.648869 1.905032 -3.880607 0 255 0
0.647207 1.904778 -3.882056 0 255 0
0.645545 1.904524 -3.883505 0 255 0
0.648869 1.905032 -3.880607 0 255 0
0.647282 1.905389 -3.882028 0 255 0
0.645694 1.905746 -3.883448 0 255 0
0.646694 1.856362 -3.881175 0 0 255
0.644609 1.855138 -3.881955 0 0 255
0.642524 1.853914 -3.882735 0 0 255
0.646694 1.856362 -3.881175 255 255 0
0.644647 1.855768 -3.881966 255 255 0
0.642600 1.855175 -3.882757 255 255 0
0.647052 1.858358 -3.880857 0 0 255
0.644838 1.857456 -3.881749 0 0 255
0.642625 1.856555 -3.882641 0 0 255
0.646694 1.856362 -3.881175 0 255 255
0.644660 1.856458 -3.881908 0 255 255
0.642625 1.856555 -3.882641 0 255 255
0.647052 1.858358 -3.880857 0 0 255
0.644874 1.858083 -3.881779 0 0 255
0.642697 1.857809 -3.882702 0 0 255
0.647052 1.858358 -3.880857 255 255 0
0.644906 1.858712 -3.881814 255 255 0
0.642760 1.859066 -3.882771 255 255 0
0.646926 1.859693 -3.881108 0 255 0
0.644843 1.859379 -3.881940 0 255 0
0.642760 1.859066 -3.882771 0 255 0
0.647195 1.861662 -3.880795 0 255 255
0.645010 1.860994 -3.881823 0 255 255
0.642824 1.860327 -3.882851 0 255 255
0.646926 1.859693 -3.881108 0 255 0
0.644875 1.860010 -3.881980 0 255 0
0.642824 1.860327 -3.882851 0 255 0
0.647195 1.861662 -3.880795 0 0 255
0.644991 1.861629 -3.881786 0 0 255
0.642786 1.861596 -3.882776 0 0 255
0.646926 1.863048 -3.881155 255 255 0
0.644879 1.862955 -3.881983 255 255 0
0.642832 1.862862 -3.882811 255 255 0
0.647245 1.865062 -3.880799 0 255 0
0.645038 1.863962 -3.881805 0 255 0
0.642832 1.862862 -3.882811 0 255 0
0.647245 1.865062 -3.880799 0 255 255
0.645071 1.864595 -3.881842 0 255 255
0.642898 1.864128 -3.882885 0 255 255
0.647111 1.866389 -3.881053 0 0 255
0.645004 1.865259 -3.881969 0 0 255
0.642898 1.864128 -3.882885 0 0 255
0.647245 1.865062 -3.880799 255 255 0
0.645108 1.865227 -3.881884 255 255 0
0.642970 1.865391 -3.882969 255 255 0
0.647111 1.866389 -3.881053 0 255 255
0.645041 1.865890 -3.882011 0 255 255
0.642970 1.865391 -3.882969 0 255 255
0.647420 1.868370 -3.880746 0 255 0
0.645195 1.866881 -3.881857 0 255 0
0.642970 1.865391 -3.882969 0 255 0
0.647420 1.868370 -3.880746 0 255 255
0.645150 1.867517 -3.881749 0 255 255
0.642880 1.866663 -3.882753 0 255 255
0.647111 1.866389 -3.881053 0 0 255
0.644996 1.866526 -3.881903 0 0 255
0.642880 1.866663 -3.882753 0 0 255
0.647420 1.868370 -3.880746 0 0 255
0.645178 1.868123 -3.881658 0 0 255
0.642936 1.867876 -3.882570 0 0 255
3 0 1 2 3 2 3 4 3 4 5 6 3 6 7 8 3 8 9 10 3 10 11 12 3 12 13 14 3 14 15 16 3 16 17 18 3 18 19 20 3 20 21 22 3 22 23 24 3 24 25 26 3 26 27 28 3 28 29 30 3 30 31 32 3 32 33 34 3 34 35 36 3 36 37 38 3 38 39 40 3 40 41 42 3 42 43 44 3 44 45 46 3 46 47 48 3 48 49 50 3 50 51 52 3 52 53 54 3 54 55 56 3 56 57 58 3 59 60 61 3 62 63 64 3 65 66 67 3 68 69 70 3 71 72 73 3 74 75 76 3 77 78 79 3 80 81 82 3 83 84 85 3 86 87 88 3 89 90 91 3 92 93 94 3 95 96 97 3 98 99 100 3 101 102 103 3 104 105 106 3 107 108 109 3 110 111 112 3 113 114 115 3 116 117 118 3 119 120 121 3 122 123 124 3 125 126 127 3 128 129 130 3 131 132 133 3 134 135 136 3 137 138 139 3 140 141 142 3 143 144 145 3 146 147 148 3 149 150 151 3 152 153 154 3 155 156 157 3 158 159 160 3 161 162 163 3 164 165 166 3 167 168 169 3 170 171 172 3 173 174 175 3 176 177 178 3 179 180 181 3 182 183 184 3 185 186 187 3 188 189 190 3 191 192 193 3 194 195 196 3 197 198 199 3 200 201 202 3 203 204 205 3 206 207 208 3 209 210 211 3 212 213 214 3 215 216 217 3 218 219 220 3 221 222 223 3 224 225 226 3 227 228 229 3 230 231 232 3 233 234 235 3 236 237 238 3 239 240 241 3 242 243 244 3 245 246 247 3 248 249 250 3 251 252 253 3 254 255 256 3 257 258 259 3 260 261 262 3 263 264 265 3 266 267 268 3 269 270 271 3 272 273 274 3 275 276 277 3 278 279 280 3 281 282 283 3 284 285 286 3 287 288 289 3 290 291 292 3 293 294 295 3 296 297 298 3 299 300 301 3 302 303 304 3 305 306 307 3 308 309 310 3 311 312 313 3 314 315 316 3 317 318 319 3 320 321 322 3 323 324 325 3 326 327 328 3 329 330 331 3 332 333 334 3 335 336 337 3 338 339 340 3 341 342 343 3 344 345 346 3 347 348 349 3 350 351 352 3 353 354 355 3 356 357 358 3 359 360 361 3 362 363 364 3 365 366 367 3 368 369 370 3 371 372 373 3 374 375 376 3 377 378 379 3 380 381 382 3 383 384 385 3 386 387 388 3 389 390 391 3 392 393 394 3 395 396 397 3 398 399 400 3 401 402 403 3 404 405 406 3 407 408 409 3 410 411 412 3 413 414 415 3 416 417 418 3 419 420 421 3 422 423 424 3 425 426 427 3 428 429 430 3 431 432 433 3 434 435 436 3 437 438 439 3 440 441 442 3 443 444 445 3 446 447 448 3 449 450 451 3 452 453 454 3 455 456 457 3 458 459 460 3 461 462 463 3 464 465 466 3 467 468 469 3 470 471 472 3 473 474 475 3 476 477 478 3 479 480 481 3 482 483 484 3 485 486 487 3 488 489 490 3 491 492 493 3 494 495 496 3 497 498 499 3 500 501 502 3 503 504 505 3 506 507 508 3 509 510 511 3 512 513 514 3 515 516 517 3 518 519 520 3 521 522 523 3 524 525 526 3 527 528 529 3 530 531 532 3 533 534 535 3 536 537 538 3 539 540 541 3 542 543 544 3 545 546 547 3 548 549 550 3 551 552 553 3 554 555 556 3 557 558 559 3 560 561 562 3 563 564 565 3 566 567 568 3 569 570 571 3 572 573 574 3 575 576 577 3 578 579 580 3 581 582 583 3 584 585 586 3 587 588 589 3 590 591 592 3 593 594 595 3 596 597 598 3 599 600 601 3 602 603 604 3 605 606 607 3 608 609 610 3 611 612 613 3 614 615 616 3 617 618 619 3 620 621 622 3 623 624 625 3 626 627 628 3 629 630 631 3 632 633 634 3 635 636 637 3 638 639 640 3 641 642 643 3 644 645 646 3 647 648 649 3 650 651 652 3 653 654 655 3 656 657 658 3 659 660 661 3 662 663 664 3 665 666 667 3 668 669 670 3 671 672 673 3 674 675 676 3 677 678 679 3 680 681 682 3 683 684 685 3 686 687 688 3 689 690 691 3 692 693 694 3 695 696 697 3 698 699 700 3 701 702 703 3 704 705 706 3 707 708 709 3 710 711 712 3 713 714 715 3 716 717 718 3 719 720 721 3 722 723 724 3 725 726 727 3 728 729 730 3 731 732 733 3 734 735 736 3 737 738 739 3 740 741 742 3 743 744 745 3 746 747 748 3 749 750 751 3 752 753 754 3 755 756 757 3 758 759 760 3 761 762 763 3 764 765 766 3 767 768 769 3 770 771 772 3 773 774 775 3 776 777 778 3 779 780 781 3 782 783 784 3 785 786 787 3 788 789 790 3 791 792 793 3 794 795 796 3 797 798 799 3 800 801 802 3 803 804 805 3 806 807 808 3 809 810 811 3 812 813 814 3 815 816 817 3 818 819 820 3 821 822 823 3 824 825 826 3 827 828 829 3 830 831 832 3 833 834 835 3 836 837 838 3 839 840 841 3 842 843 844 3 845 846 847 3 848 849 850 3 851 852 853 3 854 855 856 3 857 858 859 3 860 861 862 3 863 864 865 3 866 867 868 3 869 870 871 3 872 873 874 3 875 876 877 3 878 879 880 3 881 882 883 3 884 885 886 3 887 888 889 3 890 891 892 3 893 894 895 3 896 897 898 3 899 900 901 3 902 903 904 3 905 906 907 3 908 909 910 3 911 912 913 3 914 915 916 3 917 918 919 3 920 921 922 3 923 924 925 3 926 927 928 3 929 930 931 3 932 933 934 3 935 936 937 3 938 939 940 3 941 942 943 3 944 945 946 3 947 948 949 3 950 951 952 3 953 954 955 3 956 957 958 3 959 960 961 3 962 963 964 3 965 966 967 3 968 969 970 3 971 972 973 3 974 975 976 3 977 978 979 3 980 981 982 3 983 984 985 3 986 987 988 3 989 990 991 3 992 993 994 3 995 996 997 3 998 999 1000 3 1001 1002 1003 3 1004 1005 1006 3 1007 1008 1009 3 1010 1011 1012 3 1013 1014 1015 3 1016 1017 1018 3 1019 1020 1021 3 1022 1023 1024 3 1025 1026 1027 3 1028 1029 1030 3 1031 1032 1033 3 1034 1035 1036 3 1037 1038 1039 3 1040 1041 1042 3 1043 1044 1045 3 1046 1047 1048 3 1049 1050 1051 3 1052 1053 1054 3 1055 1056 1057 3 1058 1059 1060 3 1061 1062 1063 3 1064 1065 1066 3 1067 1068 1069 3 1070 1071 1072 3 1073 1074 1075 3 1076 1077 1078 3 1079 1080 1081 3 1082 1083 1084 3 1085 1086 1087 3 1088 1089 1090 3 1091 1092 1093 3 1094 1095 1096 3 1097 1098 1099 3 1100 1101 1102 3 1103 1104 1105 3 1106 1107 1108 3 1109 1110 1111 3 1112 1113 1114 3 1115 1116 1117 3 1118 1119 1120 3 1121 1122 1123 3 1124 1125 1126 3 1127 1128 1129 3 1130 1131 1132 3 1133 1134 1135 3 1136 1137 1138 3 1139 1140 1141 3 1142 1143 1144 3 1145 1146 1147 3 1148 1149 1150 3 1151 1152 1153 3 1154 1155 1156 3 1157 1158 1159 3 1160 1161 1162 3 1163 1164 1165 3 1166 1167 1168 3 1169 1170 1171 3 1172 1173 1174 3 1175 1176 1177 3 1178 1179 1180 3 1181 1182 1183 3 1184 1185 1186 3 1187 1188 1189 3 1190 1191 1192 3 1193 1194 1195 3 1196 1197 1198 3 1199 1200 1201 3 1202 1203 1204 3 1205 1206 1207 3 1208 1209 1210 3 1211 1212 1213 3 1214 1215 1216 3 1217 1218 1219 3 1220 1221 1222 3 1223 1224 1225 3 1226 1227 1228 3 1229 1230 1231 3 1232 1233 1234 3 1235 1236 1237 3 1238 1239 1240 3 1241 1242 1243 3 1244 1245 1246 3 1247 1248 1249 3 1250 1251 1252 3 1253 1254 1255 3 1256 1257 1258 3 1259 1260 1261 3 1262 1263 1264 3 1265 1266 1267 3 1268 1269 1270 3 1271 1272 1273 3 1274 1275 1276 3 1277 1278 1279 3 1280 1281 1282 3 1283 1284 1285 3 1286 1287 1288 3 1289 1290 1291 3 1292 1293 1294 3 1295 1296 1297 3 1298 1299 1300 3 1301 1302 1303 3 1304 1305 1306 3 1307 1308 1309 3 1310 1311 1312 3 1313 1314 1315 3 1316 1317 1318 3 1319 1320 1321 3 1322 1323 1324 3 1325 1326 1327 3 1328 1329 1330 3 1331 1332 1333 3 1334 1335 1336 3 1337 1338 1339 3 1340 1341 1342 3 1343 1344 1345 3 1346 1347 1348 3 1349 1350 1351 3 1352 1353 1354 3 1355 1356 1357 3 1358 1359 1360 3 1361 1362 1363 3 1364 1365 1366 3 1367 1368 1369 3 1370 1371 1372 3 1373 1374 1375 3 1376 1377 1378 3 1379 1380 1381 3 1382 1383 1384 3 1385 1386 1387 3 1388 1389 1390 3 1391 1392 1393 3 1394 1395 1396 3 1397 1398 1399 3 1400 1401 1402 3 1403 1404 1405 3 1406 1407 1408 3 1409 1410 1411 3 1412 1413 1414 3 1415 1416 1417 3 1418 1419 1420 3 1421 1422 1423 3 1424 1425 1426 