ply
format ascii 1.0
element vertex 1638
property float x
property float y
property float z
property uchar red
property uchar green
property uchar blue
element face 549
property list uchar int vertex_index
end_header
0.642058 1.988758 -3.874073 255 0 0
0.642336 1.988801 -3.874552 255 0 0
0.642614 1.988844 -3.875031 255 0 0
0.642218 1.988648 -3.875573 255 0 0
0.641823 1.988451 -3.876116 255 0 0
0.641848 1.988340 -3.876763 255 0 0
0.641873 1.988229 -3.877409 255 0 0
0.642099 1.988188 -3.877870 255 0 0
0.642325 1.988147 -3.878331 255 0 0
0.642546 1.988054 -3.878742 255 0 0
0.642767 1.987961 -3.879152 255 0 0
0.642835 1.987792 -3.879385 255 0 0
0.642903 1.987624 -3.879619 255 0 0
0.643145 1.987440 -3.879906 255 0 0
0.643388 1.987257 -3.880192 255 0 0
0.643582 1.986974 -3.880432 255 0 0
0.643775 1.986691 -3.880671 255 0 0
0.643741 1.986468 -3.880842 255 0 0
0.643707 1.986245 -3.881014 255 0 0
0.643793 1.985850 -3.881273 255 0 0
0.643879 1.985455 -3.881533 255 0 0
0.642058 1.988758 -3.874073 0 255 0
0.642186 1.988929 -3.871897 0 255 0
0.642314 1.989100 -3.869721 0 255 0
0.642058 1.988758 -3.874073 255 255 0
0.642143 1.988881 -3.872643 255 255 0
0.642228 1.989004 -3.871213 255 255 0
0.642614 1.988844 -3.875031 0 255 0
0.642421 1.988924 -3.873122 0 255 0
0.642228 1.989004 -3.871213 0 255 0
0.642058 1.988758 -3.874073 0 255 255
0.642093 1.988830 -3.873397 0 255 255
0.642127 1.988903 -3.872721 0 255 255
0.642614 1.988844 -3.875031 0 255 255
0.642371 1.988873 -3.873876 0 255 255
0.642127 1.988903 -3.872721 0 255 255
0.641823 1.988451 -3.876116 0 0 255
0.641975 1.988677 -3.874418 0 0 255
0.642127 1.988903 -3.872721 0 0 255
0.642058 1.988758 -3.874073 0 255 255
0.642393 1.988874 -3.873966 0 255 255
0.642729 1.988989 -3.873859 0 255 255
0.642614 1.988844 -3.875031 0 255 255
0.642671 1.988917 -3.874445 0 255 255
0.642729 1.988989 -3.873859 0 255 255
0.641823 1.988451 -3.876116 0 255 255
0.642276 1.988720 -3.874988 0 255 255
0.642729 1.988989 -3.873859 0 255 255
0.642058 1.988758 -3.874073 0 255 255
0.642017 1.988687 -3.874895 0 255 255
0.641976 1.988615 -3.875717 0 255 255
0.642614 1.988844 -3.875031 0 255 255
0.642295 1.988730 -3.875374 0 255 255
0.641976 1.988615 -3.875717 0 255 255
0.641823 1.988451 -3.876116 0 255 255
0.641900 1.988533 -3.875916 0 255 255
0.641976 1.988615 -3.875717 0 255 255
0.641873 1.988229 -3.877409 0 255 255
0.641925 1.988422 -3.876563 0 255 255
0.641976 1.988615 -3.875717 0 255 255
0.642058 1.988758 -3.874073 0 255 255
0.642304 1.988654 -3.875458 0 255 255
0.642551 1.988550 -3.876843 0 255 255
0.642614 1.988844 -3.875031 0 255 255
0.642582 1.988697 -3.875937 0 255 255
0.642551 1.988550 -3.876843 0 255 255
0.641823 1.988451 -3.876116 0 255 255
0.642187 1.988501 -3.876480 0 255 255
0.642551 1.988550 -3.876843 0 255 255
0.641873 1.988229 -3.877409 0 255 255
0.642212 1.988389 -3.877126 0 255 255
0.642551 1.988550 -3.876843 0 255 255
0.642325 1.988147 -3.878331 0 255 255
0.642438 1.988348 -3.877587 0 255 255
0.642551 1.988550 -3.876843 0 255 255
0.642325 1.988147 -3.878331 0 255 255
0.642700 1.988247 -3.878116 0 255 255
0.643076 1.988346 -3.877902 0 255 255
0.642767 1.987961 -3.879152 0 255 255
0.642921 1.988154 -3.878527 0 255 255
0.643076 1.988346 -3.877902 0 255 255
0.642903 1.987624 -3.879619 255 255 0
0.642989 1.987985 -3.878760 255 255 0
0.643076 1.988346 -3.877902 255 255 0
0.641873 1.988229 -3.877409 0 255 255
0.642475 1.988288 -3.877656 0 255 255
0.643076 1.988346 -3.877902 0 255 255
0.641823 1.988451 -3.876116 0 255 0
0.642449 1.988399 -3.877009 0 255 0
0.643076 1.988346 -3.877902 0 255 0
0.642767 1.987961 -3.879152 0 255 255
0.642911 1.987931 -3.879111 0 255 255
0.643056 1.987901 -3.879070 0 255 255
0.642903 1.987624 -3.879619 0 255 255
0.642979 1.987762 -3.879344 0 255 255
0.643056 1.987901 -3.879070 0 255 255
0.642325 1.988147 -3.878331 0 255 255
0.642690 1.988024 -3.878700 0 255 255
0.643056 1.987901 -3.879070 0 255 255
0.641873 1.988229 -3.877409 0 255 0
0.642464 1.988065 -3.878240 0 255 0
0.643056 1.987901 -3.879070 0 255 0
0.642767 1.987961 -3.879152 0 255 255
0.643013 1.987770 -3.879451 0 255 255
0.643259 1.987578 -3.879750 0 255 255
0.642903 1.987624 -3.879619 0 255 255
0.643081 1.987601 -3.879684 0 255 255
0.643259 1.987578 -3.879750 0 255 255
0.642325 1.988147 -3.878331 0 255 255
0.642792 1.987862 -3.879040 0 255 255
0.643259 1.987578 -3.879750 0 255 255
0.642058 1.988758 -3.874073 0 255 0
0.642658 1.988168 -3.876911 0 255 0
0.643259 1.987578 -3.879750 0 255 0
0.643775 1.986691 -3.880671 0 255 0
0.643517 1.987135 -3.880210 0 255 0
0.643259 1.987578 -3.879750 0 255 0
0.643388 1.987257 -3.880192 0 255 255
0.643323 1.987418 -3.879971 0 255 255
0.643259 1.987578 -3.879750 0 255 255
0.641873 1.988229 -3.877409 0 255 0
0.642566 1.987903 -3.878580 0 255 0
0.643259 1.987578 -3.879750 0 255 0
0.643388 1.987257 -3.880192 0 255 255
0.643612 1.987215 -3.880315 0 255 255
0.643835 1.987172 -3.880438 0 255 255
0.643775 1.986691 -3.880671 0 255 255
0.643805 1.986932 -3.880554 0 255 255
0.643835 1.987172 -3.880438 0 255 255
0.643707 1.986245 -3.881014 0 255 255
0.643771 1.986709 -3.880726 0 255 255
0.643835 1.987172 -3.880438 0 255 255
0.643879 1.985455 -3.881533 0 255 0
0.643857 1.986314 -3.880986 0 255 0
0.643835 1.987172 -3.880438 0 255 0
0.643707 1.986245 -3.881014 0 255 255
0.643894 1.986311 -3.881086 0 255 255
0.644081 1.986377 -3.881159 0 255 255
0.643388 1.987257 -3.880192 255 255 0
0.643735 1.986817 -3.880676 255 255 0
0.644081 1.986377 -3.881159 255 255 0
0.643775 1.986691 -3.880671 0 255 255
0.643928 1.986534 -3.880915 0 255 255
0.644081 1.986377 -3.881159 0 255 255
0.643879 1.985455 -3.881533 255 255 0
0.643980 1.985916 -3.881346 255 255 0
0.644081 1.986377 -3.881159 255 255 0
0.643879 1.985455 -3.881533 0 255 255
0.644168 1.985686 -3.881510 0 255 255
0.644457 1.985916 -3.881486 0 255 255
0.643775 1.986691 -3.880671 0 255 255
0.644116 1.986304 -3.881078 0 255 255
0.644457 1.985916 -3.881486 0 255 255
0.643707 1.986245 -3.881014 0 255 255
0.644082 1.986081 -3.881250 0 255 255
0.644457 1.985916 -3.881486 0 255 255
0.643879 1.985455 -3.881533 255 255 0
0.644222 1.985117 -3.881784 255 255 0
0.644564 1.984780 -3.882036 255 255 0
0.642058 1.988758 -3.874073 0 255 0
0.642628 1.989249 -3.871433 0 255 0
0.643199 1.989741 -3.868793 0 255 0
0.642058 1.988758 -3.874073 255 255 0
0.642517 1.989169 -3.872328 255 255 0
0.642975 1.989581 -3.870583 255 255 0
0.642614 1.988844 -3.875031 0 255 0
0.642795 1.989212 -3.872807 0 255 0
0.642975 1.989581 -3.870583 0 255 0
0.642058 1.988758 -3.874073 0 255 255
0.642535 1.989125 -3.873126 0 255 255
0.643012 1.989491 -3.872178 0 255 255
0.642614 1.988844 -3.875031 0 255 255
0.642813 1.989168 -3.873604 0 255 255
0.643012 1.989491 -3.872178 0 255 255
0.642058 1.988758 -3.874073 0 255 255
0.641997 1.988886 -3.874359 0 255 255
0.641936 1.989014 -3.874646 0 255 255
0.642614 1.988844 -3.875031 0 255 255
0.642275 1.988929 -3.874838 0 255 255
0.641936 1.989014 -3.874646 0 255 255
0.641823 1.988451 -3.876116 0 255 255
0.641879 1.988733 -3.875381 0 255 255
0.641936 1.989014 -3.874646 0 255 255
0.641873 1.988229 -3.877409 0 255 0
0.641905 1.988621 -3.876028 0 255 0
0.641936 1.989014 -3.874646 0 255 0
0.642058 1.988758 -3.874073 0 255 255
0.642161 1.988866 -3.875052 0 255 255
0.642263 1.988975 -3.876031 0 255 255
0.642614 1.988844 -3.875031 0 255 255
0.642439 1.988909 -3.875531 0 255 255
0.642263 1.988975 -3.876031 0 255 255
0.641823 1.988451 -3.876116 0 255 255
0.642043 1.988713 -3.876073 0 255 255
0.642263 1.988975 -3.876031 0 255 255
0.641873 1.988229 -3.877409 0 255 255
0.642068 1.988602 -3.876720 0 255 255
0.642263 1.988975 -3.876031 0 255 255
0.642325 1.988147 -3.878331 255 255 0
0.642294 1.988561 -3.877181 255 255 0
0.642263 1.988975 -3.876031 255 255 0
0.641873 1.988229 -3.877409 0 255 255
0.641851 1.988419 -3.877713 0 255 255
0.641829 1.988608 -3.878016 0 255 255
0.642325 1.988147 -3.878331 0 255 255
0.642077 1.988378 -3.878174 0 255 255
0.641829 1.988608 -3.878016 0 255 255
0.641823 1.988451 -3.876116 255 255 0
0.641826 1.988530 -3.877066 255 255 0
0.641829 1.988608 -3.878016 255 255 0
0.642614 1.988844 -3.875031 0 255 0
0.642222 1.988726 -3.876524 0 255 0
0.641829 1.988608 -3.878016 0 255 0
0.641873 1.988229 -3.877409 0 255 255
0.642099 1.988337 -3.878322 0 255 255
0.642324 1.988445 -3.879234 0 255 255
0.642325 1.988147 -3.878331 0 255 255
0.642324 1.988296 -3.878782 0 255 255
0.642324 1.988445 -3.879234 0 255 255
0.642767 1.987961 -3.879152 0 255 255
0.642545 1.988203 -3.879193 0 255 255
0.642324 1.988445 -3.879234 0 255 255
0.642903 1.987624 -3.879619 0 0 255
0.642613 1.988034 -3.879426 0 0 255
0.642324 1.988445 -3.879234 0 0 255
0.642767 1.987961 -3.879152 0 255 255
0.643232 1.988209 -3.879400 0 255 255
0.643697 1.988456 -3.879647 0 255 255
0.642903 1.987624 -3.879619 0 255 255
0.643300 1.988040 -3.879633 0 255 255
0.643697 1.988456 -3.879647 0 255 255
0.642325 1.988147 -3.878331 0 0 255
0.643011 1.988301 -3.878989 0 0 255
0.643697 1.988456 -3.879647 0 0 255
0.642767 1.987961 -3.879152 0 255 0
0.643458 1.988004 -3.879847 0 255 0
0.644148 1.988047 -3.880542 0 255 0
0.642903 1.987624 -3.879619 0 0 255
0.643526 1.987835 -3.880080 0 0 255
0.644148 1.988047 -3.880542 0 0 255
0.642325 1.988147 -3.878331 0 0 255
0.643237 1.988097 -3.879436 0 0 255
0.644148 1.988047 -3.880542 0 0 255
0.643388 1.987257 -3.880192 0 255 0
0.643768 1.987652 -3.880367 0 255 0
0.644148 1.988047 -3.880542 0 255 0
0.643775 1.986691 -3.880671 0 255 255
0.644559 1.986607 -3.881745 0 255 255
0.645343 1.986524 -3.882819 0 255 255
0.643707 1.986245 -3.881014 255 255 0
0.644525 1.986384 -3.881916 255 255 0
0.645343 1.986524 -3.882819 255 255 0
0.643879 1.985455 -3.881533 0 255 0
0.644611 1.985989 -3.882176 0 255 0
0.645343 1.986524 -3.882819 0 255 0
0.643388 1.987257 -3.880192 0 0 255
0.644366 1.986890 -3.881506 0 0 255
0.645343 1.986524 -3.882819 0 0 255
0.642058 1.988758 -3.874073 0 255 255
0.642740 1.989230 -3.872145 0 255 255
0.643421 1.989703 -3.870216 0 255 255
0.642614 1.988844 -3.875031 255 255 0
0.643018 1.989273 -3.872623 255 255 0
0.643421 1.989703 -3.870216 255 255 0
0.642058 1.988758 -3.874073 0 255 255
0.642747 1.989170 -3.873056 0 255 255
0.643435 1.989582 -3.872038 0 255 255
0.642614 1.988844 -3.875031 0 255 255
0.643025 1.989213 -3.873534 0 255 255
0.643435 1.989582 -3.872038 0 255 255
0.641823 1.988451 -3.876116 0 255 0
0.642629 1.989017 -3.874077 0 255 0
0.643435 1.989582 -3.872038 0 255 0
0.642058 1.988758 -3.874073 255 255 0
0.642841 1.989087 -3.873876 255 255 0
0.643624 1.989417 -3.873679 255 255 0
0.642614 1.988844 -3.875031 0 255 255
0.643119 1.989130 -3.874355 0 255 255
0.643624 1.989417 -3.873679 0 255 255
0.641823 1.988451 -3.876116 255 255 0
0.642723 1.988934 -3.874898 255 255 0
0.643624 1.989417 -3.873679 255 255 0
0.641873 1.988229 -3.877409 0 0 255
0.642749 1.988823 -3.875544 0 0 255
0.643624 1.989417 -3.873679 0 0 255
0.641823 1.988451 -3.876116 0 255 0
0.642255 1.988550 -3.876325 0 255 0
0.642687 1.988649 -3.876534 0 255 0
0.641873 1.988229 -3.877409 0 0 255
0.642280 1.988439 -3.876972 0 0 255
0.642687 1.988649 -3.876534 0 0 255
0.642325 1.988147 -3.878331 0 0 255
0.642506 1.988398 -3.877433 0 0 255
0.642687 1.988649 -3.876534 0 0 255
0.641873 1.988229 -3.877409 0 255 255
0.642429 1.988229 -3.877640 0 255 255
0.642984 1.988228 -3.877871 0 255 255
0.642325 1.988147 -3.878331 0 255 255
0.642654 1.988188 -3.878101 0 255 255
0.642984 1.988228 -3.877871 0 255 255
0.642767 1.987961 -3.879152 0 0 255
0.642875 1.988095 -3.878512 0 0 255
0.642984 1.988228 -3.877871 0 0 255
0.642903 1.987624 -3.879619 0 255 0
0.642943 1.987926 -3.878745 0 255 0
0.642984 1.988228 -3.877871 0 255 0
0.641823 1.988451 -3.876116 0 255 0
0.642403 1.988340 -3.876993 0 255 0
0.642984 1.988228 -3.877871 0 255 0
0.641873 1.988229 -3.877409 255 255 0
0.642300 1.988072 -3.878185 255 255 0
0.642727 1.987914 -3.878960 255 255 0
0.642325 1.988147 -3.878331 0 255 255
0.642526 1.988031 -3.878645 0 255 255
0.642727 1.987914 -3.878960 0 255 255
0.642767 1.987961 -3.879152 0 255 255
0.642747 1.987938 -3.879056 0 255 255
0.642727 1.987914 -3.878960 0 255 255
0.642903 1.987624 -3.879619 255 255 0
0.642815 1.987769 -3.879289 255 255 0
0.642727 1.987914 -3.878960 255 255 0
0.642767 1.987961 -3.879152 0 0 255
0.642926 1.987704 -3.879734 0 0 255
0.643085 1.987447 -3.880315 0 0 255
0.642903 1.987624 -3.879619 255 255 0
0.642994 1.987535 -3.879967 255 255 0
0.643085 1.987447 -3.880315 255 255 0
0.643879 1.985455 -3.881533 0 255 255
0.644613 1.985854 -3.881519 0 255 255
0.645347 1.986253 -3.881505 0 255 255
0.643775 1.986691 -3.880671 0 255 0
0.644561 1.986472 -3.881088 0 255 0
0.645347 1.986253 -3.881505 0 255 0
0.643707 1.986245 -3.881014 0 255 0
0.644527 1.986249 -3.881259 0 255 0
0.645347 1.986253 -3.881505 0 255 0
0.643775 1.986691 -3.880671 0 255 255
0.644120 1.986852 -3.881098 0 255 255
0.644464 1.987012 -3.881526 0 255 255
0.643707 1.986245 -3.881014 0 255 255
0.644086 1.986629 -3.881270 0 255 255
0.644464 1.987012 -3.881526 0 255 255
0.642058 1.988758 -3.874073 0 255 0
0.643261 1.987885 -3.877800 0 255 0
0.644464 1.987012 -3.881526 0 255 0
0.643388 1.987257 -3.880192 255 255 0
0.643926 1.987135 -3.880859 255 255 0
0.644464 1.987012 -3.881526 255 255 0
0.643879 1.985455 -3.881533 255 255 0
0.644172 1.986234 -3.881530 255 255 0
0.644464 1.987012 -3.881526 255 255 0
0.642058 1.988758 -3.874073 0 255 255
0.640753 1.988379 -3.873419 0 255 255
0.639448 1.988000 -3.872764 0 255 255
0.642614 1.988844 -3.875031 255 255 0
0.641031 1.988422 -3.873897 255 255 0
0.639448 1.988000 -3.872764 255 255 0
0.642058 1.988758 -3.874073 0 255 255
0.640959 1.988286 -3.874815 0 255 255
0.639861 1.987815 -3.875556 0 255 255
0.642614 1.988844 -3.875031 0 255 255
0.641237 1.988329 -3.875293 0 255 255
0.639861 1.987815 -3.875556 0 255 255
0.641823 1.988451 -3.876116 0 255 255
0.640842 1.988133 -3.875836 0 255 255
0.639861 1.987815 -3.875556 0 255 255
0.641873 1.988229 -3.877409 0 255 255
0.640867 1.988022 -3.876483 0 255 255
0.639861 1.987815 -3.875556 0 255 255
0.642058 1.988758 -3.874073 0 0 255
0.641139 1.988094 -3.875928 0 0 255
0.640220 1.987430 -3.877783 0 0 255
0.642614 1.988844 -3.875031 0 255 255
0.641417 1.988137 -3.876407 0 255 255
0.640220 1.987430 -3.877783 0 255 255
0.641823 1.988451 -3.876116 0 255 255
0.641021 1.987941 -3.876949 0 255 255
0.640220 1.987430 -3.877783 0 255 255
0.641873 1.988229 -3.877409 0 255 255
0.641047 1.987829 -3.877596 0 255 255
0.640220 1.987430 -3.877783 0 255 255
0.642325 1.988147 -3.878331 0 255 255
0.641272 1.987788 -3.878057 0 255 255
0.640220 1.987430 -3.877783 0 255 255
0.642767 1.987961 -3.879152 0 255 0
0.641493 1.987695 -3.878467 0 255 0
0.640220 1.987430 -3.877783 0 255 0
0.642767 1.987961 -3.879152 0 255 255
0.641596 1.987331 -3.879070 0 255 255
0.640425 1.986701 -3.878988 0 255 255
0.642058 1.988758 -3.874073 0 255 0
0.641242 1.987729 -3.876531 0 255 0
0.640425 1.986701 -3.878988 0 255 0
0.641873 1.988229 -3.877409 0 255 0
0.641149 1.987465 -3.878199 0 255 0
0.640425 1.986701 -3.878988 0 255 0
0.642325 1.988147 -3.878331 0 255 255
0.641375 1.987424 -3.878660 0 255 255
0.640425 1.986701 -3.878988 0 255 255
0.642903 1.987624 -3.879619 255 255 0
0.641664 1.987162 -3.879303 255 255 0
0.640425 1.986701 -3.878988 255 255 0
0.643388 1.987257 -3.880192 0 255 0
0.641907 1.986979 -3.879590 0 255 0
0.640425 1.986701 -3.878988 0 255 0
0.642767 1.987961 -3.879152 0 255 0
0.641790 1.987132 -3.880142 0 255 0
0.640814 1.986304 -3.881131 0 255 0
0.642903 1.987624 -3.879619 0 255 0
0.641858 1.986964 -3.880375 0 255 0
0.640814 1.986304 -3.881131 0 255 0
0.643775 1.986691 -3.880671 0 0 255
0.642294 1.986497 -3.880901 0 0 255
0.640814 1.986304 -3.881131 0 0 255
0.643707 1.986245 -3.881014 255 255 0
0.642260 1.986274 -3.881072 255 255 0
0.640814 1.986304 -3.881131 255 255 0
0.643388 1.987257 -3.880192 0 0 255
0.642101 1.986780 -3.880662 0 0 255
0.640814 1.986304 -3.881131 0 0 255
0.643775 1.986691 -3.880671 0 255 255
0.642329 1.985988 -3.881046 0 255 255
0.640884 1.985285 -3.881421 0 255 255
0.643707 1.986245 -3.881014 0 255 255
0.642295 1.985765 -3.881217 0 255 255
0.640884 1.985285 -3.881421 0 255 255
0.643879 1.985455 -3.881533 0 255 255
0.642490 1.985008 -3.882050 0 255 255
0.641100 1.984561 -3.882567 0 255 255
0.643879 1.985455 -3.881533 0 0 255
0.642522 1.984513 -3.882242 0 0 255
0.641165 1.983571 -3.882951 0 0 255
0.643879 1.985455 -3.881533 0 0 255
0.643629 1.984923 -3.882393 0 0 255
0.643379 1.984390 -3.883253 0 0 255
0.643879 1.985455 -3.881533 0 255 255
0.643548 1.985362 -3.882198 0 255 255
0.643218 1.985268 -3.882864 0 255 255
0.643775 1.986691 -3.880671 0 255 255
0.643496 1.985980 -3.881767 0 255 255
0.643218 1.985268 -3.882864 0 255 255
0.643707 1.986245 -3.881014 0 255 255
0.643462 1.985757 -3.881939 0 255 255
0.643218 1.985268 -3.882864 0 255 255
0.643775 1.986691 -3.880671 0 255 255
0.643400 1.986374 -3.881505 0 255 255
0.643025 1.986056 -3.882340 0 255 255
0.643707 1.986245 -3.881014 0 255 255
0.643366 1.986151 -3.881677 0 255 255
0.643025 1.986056 -3.882340 0 255 255
0.643388 1.987257 -3.880192 0 0 255
0.643206 1.986657 -3.881266 0 0 255
0.643025 1.986056 -3.882340 0 0 255
0.643879 1.985455 -3.881533 0 255 0
0.643452 1.985756 -3.881937 0 255 0
0.643025 1.986056 -3.882340 0 255 0
0.643388 1.987257 -3.880192 0 255 255
0.643062 1.987087 -3.880756 0 255 255
0.642736 1.986916 -3.881319 0 255 255
0.643775 1.986691 -3.880671 0 255 255
0.643255 1.986804 -3.880995 0 255 255
0.642736 1.986916 -3.881319 0 255 255
0.643707 1.986245 -3.881014 255 255 0
0.643222 1.986581 -3.881166 255 255 0
0.642736 1.986916 -3.881319 255 255 0
0.642767 1.987961 -3.879152 0 255 255
0.642631 1.987710 -3.879804 0 255 255
0.642495 1.987459 -3.880457 0 255 255
0.642903 1.987624 -3.879619 0 255 255
0.642699 1.987541 -3.880038 0 255 255
0.642495 1.987459 -3.880457 0 255 255
0.642325 1.988147 -3.878331 0 0 255
0.642410 1.987803 -3.879394 0 0 255
0.642495 1.987459 -3.880457 0 0 255
0.643388 1.987257 -3.880192 0 255 0
0.642941 1.987358 -3.880325 0 255 0
0.642495 1.987459 -3.880457 0 255 0
0.642767 1.987961 -3.879152 0 255 255
0.642644 1.987850 -3.879568 0 255 255
0.642521 1.987740 -3.879983 0 255 255
0.642903 1.987624 -3.879619 0 255 255
0.642712 1.987682 -3.879801 0 255 255
0.642521 1.987740 -3.879983 0 255 255
0.642325 1.988147 -3.878331 0 255 255
0.642423 1.987943 -3.879157 0 255 255
0.642521 1.987740 -3.879983 0 255 255
0.643388 1.987257 -3.880192 0 255 0
0.642954 1.987498 -3.880088 0 255 0
0.642521 1.987740 -3.879983 0 255 0
0.641873 1.988229 -3.877409 0 255 255
0.641915 1.988091 -3.878037 0 255 255
0.641956 1.987953 -3.878665 0 255 255
0.642325 1.988147 -3.878331 0 255 255
0.642140 1.988050 -3.878498 0 255 255
0.641956 1.987953 -3.878665 0 255 255
0.642767 1.987961 -3.879152 0 255 255
0.642361 1.987957 -3.878908 0 255 255
0.641956 1.987953 -3.878665 0 255 255
0.642903 1.987624 -3.879619 0 255 255
0.642429 1.987788 -3.879142 0 255 255
0.641956 1.987953 -3.878665 0 255 255
0.642058 1.988758 -3.874073 0 0 255
0.642007 1.988355 -3.876369 0 0 255
0.641956 1.987953 -3.878665 0 0 255
0.642614 1.988844 -3.875031 0 255 255
0.642285 1.988398 -3.876848 0 255 255
0.641956 1.987953 -3.878665 0 255 255
0.641823 1.988451 -3.876116 0 255 255
0.641889 1.988202 -3.877390 0 255 255
0.641956 1.987953 -3.878665 0 255 255
0.642058 1.988758 -3.874073 0 255 255
0.641741 1.988353 -3.875741 0 255 255
0.641423 1.987948 -3.877410 0 255 255
0.642614 1.988844 -3.875031 0 255 255
0.642019 1.988396 -3.876220 0 255 255
0.641423 1.987948 -3.877410 0 255 255
0.641823 1.988451 -3.876116 0 255 255
0.641623 1.988200 -3.876763 0 255 255
0.641423 1.987948 -3.877410 0 255 255
0.641873 1.988229 -3.877409 0 255 255
0.641648 1.988089 -3.877409 0 255 255
0.641423 1.987948 -3.877410 0 255 255
0.642325 1.988147 -3.878331 0 255 255
0.641874 1.988047 -3.877870 0 255 255
0.641423 1.987948 -3.877410 0 255 255
0.642767 1.987961 -3.879152 0 255 255
0.642095 1.987955 -3.878281 0 255 255
0.641423 1.987948 -3.877410 0 255 255
0.642903 1.987624 -3.879619 0 0 255
0.642163 1.987786 -3.878514 0 0 255
0.641423 1.987948 -3.877410 0 0 255
0.642058 1.988758 -3.874073 0 255 255
0.641618 1.988466 -3.875235 0 255 255
0.641178 1.988173 -3.876396 0 255 255
0.642614 1.988844 -3.875031 0 255 255
0.641896 1.988509 -3.875713 0 255 255
0.641178 1.988173 -3.876396 0 255 255
0.641823 1.988451 -3.876116 0 255 255
0.641500 1.988312 -3.876256 0 255 255
0.641178 1.988173 -3.876396 0 255 255
0.641873 1.988229 -3.877409 0 255 255
0.641526 1.988201 -3.876903 0 255 255
0.641178 1.988173 -3.876396 0 255 255
0.642325 1.988147 -3.878331 0 255 255
0.641751 1.988160 -3.877364 0 255 255
0.641178 1.988173 -3.876396 0 255 255
0.642058 1.988758 -3.874073 0 255 255
0.641557 1.988545 -3.874732 0 255 255
0.641055 1.988332 -3.875391 0 255 255
0.642614 1.988844 -3.875031 0 255 255
0.641835 1.988588 -3.875211 0 255 255
0.641055 1.988332 -3.875391 0 255 255
0.641823 1.988451 -3.876116 0 255 255
0.641439 1.988392 -3.875753 0 255 255
0.641055 1.988332 -3.875391 0 255 255
0.641873 1.988229 -3.877409 0 255 255
0.641464 1.988280 -3.876400 0 255 255
0.641055 1.988332 -3.875391 0 255 255
0.642058 1.988758 -3.874073 0 255 255
0.641324 1.988547 -3.874129 0 255 255
0.640590 1.988336 -3.874186 0 255 255
0.642614 1.988844 -3.875031 0 255 255
0.641602 1.988590 -3.874608 0 255 255
0.640590 1.988336 -3.874186 0 255 255
0.641823 1.988451 -3.876116 0 255 255
0.641206 1.988394 -3.875151 0 255 255
0.640590 1.988336 -3.874186 0 255 255
0.642058 1.988758 -3.874073 0 255 255
0.641145 1.988524 -3.873438 0 255 255
0.640233 1.988290 -3.872803 0 255 255
0.642614 1.988844 -3.875031 0 255 255
0.641423 1.988567 -3.873917 0 255 255
0.640233 1.988290 -3.872803 0 255 255
0.642058 1.988758 -3.874073 0 255 255
0.640849 1.988447 -3.872787 0 255 255
0.639640 1.988137 -3.871502 0 255 255
0.642614 1.988844 -3.875031 0 0 255
0.641127 1.988490 -3.873266 0 0 255
0.639640 1.988137 -3.871502 0 0 255
0.643879 1.985455 -3.881533 0 255 255
0.643991 1.985210 -3.882391 0 255 255
0.644104 1.984966 -3.883249 0 255 255
0.643775 1.986691 -3.880671 0 255 0
0.643939 1.985829 -3.881960 0 255 0
0.644104 1.984966 -3.883249 0 255 0
0.643879 1.985455 -3.881533 0 255 255
0.643855 1.985626 -3.882191 0 255 255
0.643832 1.985797 -3.882850 0 255 255
0.643775 1.986691 -3.880671 0 255 255
0.643804 1.986244 -3.881760 0 255 255
0.643832 1.985797 -3.882850 0 255 255
0.643707 1.986245 -3.881014 0 255 255
0.643770 1.986021 -3.881932 0 255 255
0.643832 1.985797 -3.882850 0 255 255
0.643388 1.987257 -3.880192 0 255 0
0.643610 1.986527 -3.881521 0 255 0
0.643832 1.985797 -3.882850 0 255 0
0.643707 1.986245 -3.881014 0 255 255
0.643308 1.986348 -3.881359 0 255 255
0.642908 1.986451 -3.881705 0 255 255
0.643775 1.986691 -3.880671 0 255 255
0.643342 1.986571 -3.881188 0 255 255
0.642908 1.986451 -3.881705 0 255 255
0.643879 1.985455 -3.881533 0 255 0
0.643394 1.985953 -3.881619 0 255 0
0.642908 1.986451 -3.881705 0 255 0
0.642767 1.987961 -3.879152 0 255 255
0.642652 1.987486 -3.880038 0 255 255
0.642537 1.987011 -3.880923 0 255 255
0.642903 1.987624 -3.879619 0 255 255
0.642720 1.987317 -3.880271 0 255 255
0.642537 1.987011 -3.880923 0 255 255
0.642325 1.988147 -3.878331 0 0 255
0.642431 1.987579 -3.879627 0 0 255
0.642537 1.987011 -3.880923 0 0 255
0.643388 1.987257 -3.880192 0 255 255
0.642962 1.987134 -3.880558 0 255 255
0.642537 1.987011 -3.880923 0 255 255
0.643775 1.986691 -3.880671 255 255 0
0.643156 1.986851 -3.880797 255 255 0
0.642537 1.987011 -3.880923 255 255 0
0.642767 1.987961 -3.879152 0 255 255
0.642675 1.987623 -3.879827 0 255 255
0.642583 1.987286 -3.880502 0 255 255
0.642903 1.987624 -3.879619 0 255 255
0.642743 1.987455 -3.880060 0 255 255
0.642583 1.987286 -3.880502 0 255 255
0.642325 1.988147 -3.878331 0 0 255
0.642454 1.987716 -3.879416 0 0 255
0.642583 1.987286 -3.880502 0 0 255
0.643388 1.987257 -3.880192 0 255 255
0.642985 1.987271 -3.880347 0 255 255
0.642583 1.987286 -3.880502 0 255 255
0.643775 1.986691 -3.880671 255 255 0
0.643179 1.986989 -3.880586 255 255 0
0.642583 1.987286 -3.880502 255 255 0
0.641873 1.988229 -3.877409 0 255 0
0.641985 1.987900 -3.878463 0 255 0
0.642097 1.987570 -3.879517 0 255 0
0.642325 1.988147 -3.878331 0 255 255
0.642211 1.987859 -3.878924 0 255 255
0.642097 1.987570 -3.879517 0 255 255
0.642767 1.987961 -3.879152 0 255 255
0.642432 1.987766 -3.879335 0 255 255
0.642097 1.987570 -3.879517 0 255 255
0.642903 1.987624 -3.879619 0 255 255
0.642500 1.987597 -3.879568 0 255 255
0.642097 1.987570 -3.879517 0 255 255
0.641873 1.988229 -3.877409 0 255 255
0.642131 1.988083 -3.878216 0 255 255
0.642389 1.987936 -3.879023 0 255 255
0.642325 1.988147 -3.878331 0 255 255
0.642357 1.988042 -3.878677 0 255 255
0.642389 1.987936 -3.879023 0 255 255
0.642767 1.987961 -3.879152 0 255 255
0.642578 1.987949 -3.879088 0 255 255
0.642389 1.987936 -3.879023 0 255 255
0.642903 1.987624 -3.879619 0 255 255
0.642646 1.987780 -3.879321 0 255 255
0.642389 1.987936 -3.879023 0 255 255
0.642058 1.988758 -3.874073 255 255 0
0.641935 1.988356 -3.876030 255 255 0
0.641813 1.987954 -3.877987 255 255 0
0.642614 1.988844 -3.875031 0 255 255
0.642213 1.988399 -3.876509 0 255 255
0.641813 1.987954 -3.877987 0 255 255
0.641823 1.988451 -3.876116 0 255 255
0.641818 1.988203 -3.877051 0 255 255
0.641813 1.987954 -3.877987 0 255 255
0.641873 1.988229 -3.877409 0 255 255
0.641843 1.988091 -3.877698 0 255 255
0.641813 1.987954 -3.877987 0 255 255
0.642325 1.988147 -3.878331 0 255 255
0.642069 1.988050 -3.878159 0 255 255
0.641813 1.987954 -3.877987 0 255 255
0.642767 1.987961 -3.879152 0 255 255
0.642290 1.987958 -3.878570 0 255 255
0.641813 1.987954 -3.877987 0 255 255
0.642903 1.987624 -3.879619 0 0 255
0.642358 1.987789 -3.878803 0 0 255
0.641813 1.987954 -3.877987 0 0 255
0.642058 1.988758 -3.874073 0 255 255
0.641888 1.988444 -3.875596 0 255 255
0.641717 1.988130 -3.877118 0 255 255
0.642614 1.988844 -3.875031 0 255 255
0.642166 1.988487 -3.876074 0 255 255
0.641717 1.988130 -3.877118 0 255 255
0.641823 1.988451 -3.876116 0 255 255
0.641770 1.988291 -3.876617 0 255 255
0.641717 1.988130 -3.877118 0 255 255
0.641873 1.988229 -3.877409 0 255 255
0.641795 1.988179 -3.877264 0 255 255
0.641717 1.988130 -3.877118 0 255 255
0.642325 1.988147 -3.878331 0 255 255
0.642021 1.988138 -3.877725 0 255 255
0.641717 1.988130 -3.877118 0 255 255
0.642767 1.987961 -3.879152 0 0 255
0.642242 1.988046 -3.878135 0 0 255
0.641717 1.988130 -3.877118 0 0 255
0.642903 1.987624 -3.879619 0 255 0
0.642310 1.987877 -3.878368 0 255 0
0.641717 1.988130 -3.877118 0 255 0
0.642058 1.988758 -3.874073 0 255 255
0.641871 1.988526 -3.875117 0 255 255
0.641685 1.988294 -3.876160 0 255 255
0.642614 1.988844 -3.875031 0 255 255
0.642149 1.988569 -3.875595 0 255 255
0.641685 1.988294 -3.876160 0 255 255
0.641823 1.988451 -3.876116 0 255 255
0.641754 1.988373 -3.876138 0 255 255
0.641685 1.988294 -3.876160 0 255 255
0.641873 1.988229 -3.877409 0 255 255
0.641779 1.988261 -3.876785 0 255 255
0.641685 1.988294 -3.876160 0 255 255
0.642325 1.988147 -3.878331 0 255 255
0.642005 1.988220 -3.877246 0 255 255
0.641685 1.988294 -3.876160 0 255 255
0.642058 1.988758 -3.874073 0 255 255
0.641813 1.988572 -3.874817 0 255 255
0.641567 1.988385 -3.875561 0 255 255
0.642614 1.988844 -3.875031 0 255 255
0.642091 1.988615 -3.875296 0 255 255
0.641567 1.988385 -3.875561 0 255 255
0.641823 1.988451 -3.876116 0 255 255
0.641695 1.988418 -3.875838 0 255 255
0.641567 1.988385 -3.875561 0 255 255
0.641873 1.988229 -3.877409 0 255 255
0.641720 1.988307 -3.876485 0 255 255
0.641567 1.988385 -3.875561 0 255 255
0.642325 1.988147 -3.878331 255 255 0
0.641946 1.988266 -3.876946 255 255 0
0.641567 1.988385 -3.875561 255 255 0
0.642058 1.988758 -3.874073 0 255 255
0.641658 1.988577 -3.874229 0 255 255
0.641258 1.988397 -3.874385 0 255 255
0.642614 1.988844 -3.875031 0 255 255
0.641936 1.988620 -3.874708 0 255 255
0.641258 1.988397 -3.874385 0 255 255
0.641823 1.988451 -3.876116 0 255 255
0.641540 1.988424 -3.875250 0 255 255
0.641258 1.988397 -3.874385 0 255 255
0.641873 1.988229 -3.877409 255 255 0
0.641566 1.988313 -3.875897 255 255 0
0.641258 1.988397 -3.874385 255 255 0
0.642325 1.988147 -3.878331 0 255 0
0.641791 1.988272 -3.876358 0 255 0
0.641258 1.988397 -3.874385 0 255 0
0.642058 1.988758 -3.874073 0 255 255
0.641531 1.988583 -3.873633 0 255 255
0.641004 1.988409 -3.873193 0 255 255
0.642614 1.988844 -3.875031 0 255 255
0.641809 1.988626 -3.874112 0 255 255
0.641004 1.988409 -3.873193 0 255 255
0.641823 1.988451 -3.876116 255 255 0
0.641413 1.988430 -3.874655 255 255 0
0.641004 1.988409 -3.873193 255 255 0
0.642058 1.988758 -3.874073 0 255 255
0.641600 1.988651 -3.873465 0 255 255
0.641143 1.988545 -3.872857 0 255 255
0.642614 1.988844 -3.875031 0 255 255
0.641878 1.988695 -3.873944 0 255 255
0.641143 1.988545 -3.872857 0 255 255
0.641823 1.988451 -3.876116 0 0 255
0.641483 1.988498 -3.874486 0 0 255
0.641143 1.988545 -3.872857 0 0 255
0.642058 1.988758 -3.874073 0 255 255
0.641409 1.988605 -3.873032 0 255 255
0.640759 1.988453 -3.871991 0 255 255
0.642614 1.988844 -3.875031 0 255 255
0.641686 1.988648 -3.873511 0 255 255
0.640759 1.988453 -3.871991 0 255 255
0.642058 1.988758 -3.874073 0 255 255
0.641764 1.988803 -3.873064 0 255 255
0.641470 1.988848 -3.872055 0 255 255
0.642614 1.988844 -3.875031 0 255 255
0.642042 1.988846 -3.873543 0 255 255
0.641470 1.988848 -3.872055 0 255 255
0.642058 1.988758 -3.874073 0 255 255
0.641574 1.988773 -3.872409 0 255 255
0.641090 1.988788 -3.870745 0 255 255
0.642058 1.988758 -3.874073 255 255 0
0.641714 1.988539 -3.872286 255 255 0
0.641369 1.988321 -3.870498 255 255 0
0.642614 1.988844 -3.875031 0 255 0
0.641992 1.988582 -3.872764 0 255 0
0.641369 1.988321 -3.870498 0 255 0
0.642058 1.988758 -3.874073 0 255 255
0.641870 1.988584 -3.872891 0 255 255
0.641682 1.988410 -3.871708 0 255 255
0.642614 1.988844 -3.875031 255 255 0
0.642148 1.988627 -3.873369 255 255 0
0.641682 1.988410 -3.871708 255 255 0
0.642058 1.988758 -3.874073 0 255 255
0.641991 1.988627 -3.873493 0 255 255
0.641925 1.988495 -3.872912 0 255 255
0.642614 1.988844 -3.875031 0 255 255
0.642269 1.988670 -3.873971 0 255 255
0.641925 1.988495 -3.872912 0 255 255
0.641823 1.988451 -3.876116 0 255 255
0.641874 1.988473 -3.874514 0 255 255
0.641925 1.988495 -3.872912 0 255 255
0.642058 1.988758 -3.874073 0 255 255
0.642151 1.988676 -3.874099 0 255 255
0.642245 1.988595 -3.874126 0 255 255
0.642614 1.988844 -3.875031 0 255 255
0.642429 1.988719 -3.874578 0 255 255
0.642245 1.988595 -3.874126 0 255 255
0.641823 1.988451 -3.876116 0 255 255
0.642034 1.988523 -3.875121 0 255 255
0.642245 1.988595 -3.874126 0 255 255
0.641873 1.988229 -3.877409 0 255 0
0.642059 1.988412 -3.875768 0 255 0
0.642245 1.988595 -3.874126 0 255 0
0.642058 1.988758 -3.874073 0 255 255
0.642203 1.988670 -3.874683 0 255 255
0.642348 1.988582 -3.875293 0 255 255
0.642614 1.988844 -3.875031 0 255 255
0.642481 1.988713 -3.875162 0 255 255
0.642348 1.988582 -3.875293 0 255 255
0.641823 1.988451 -3.876116 0 255 255
0.642085 1.988517 -3.875704 0 255 255
0.642348 1.988582 -3.875293 0 255 255
0.641873 1.988229 -3.877409 0 255 255
0.642110 1.988405 -3.876351 0 255 255
0.642348 1.988582 -3.875293 0 255 255
0.642325 1.988147 -3.878331 255 255 0
0.642336 1.988364 -3.876812 255 255 0
0.642348 1.988582 -3.875293 255 255 0
0.642058 1.988758 -3.874073 0 255 255
0.642270 1.988632 -3.875247 0 255 255
0.642481 1.988506 -3.876421 0 255 255
0.642614 1.988844 -3.875031 0 255 255
0.642548 1.988675 -3.875726 0 255 255
0.642481 1.988506 -3.876421 0 255 255
0.641823 1.988451 -3.876116 0 255 255
0.642152 1.988479 -3.876268 0 255 255
0.642481 1.988506 -3.876421 0 255 255
0.641873 1.988229 -3.877409 0 255 255
0.642177 1.988367 -3.876915 0 255 255
0.642481 1.988506 -3.876421 0 255 255
0.642325 1.988147 -3.878331 0 255 255
0.642403 1.988326 -3.877376 0 255 255
0.642481 1.988506 -3.876421 0 255 255
0.642767 1.987961 -3.879152 0 255 0
0.642624 1.988233 -3.877787 0 255 0
0.642481 1.988506 -3.876421 0 255 0
0.642903 1.987624 -3.879619 0 255 0
0.642692 1.988065 -3.878020 0 255 0
0.642481 1.988506 -3.876421 0 255 0
0.642058 1.988758 -3.874073 0 255 255
0.642261 1.988575 -3.875447 0 255 255
0.642463 1.988392 -3.876822 0 255 255
0.642614 1.988844 -3.875031 0 255 255
0.642539 1.988618 -3.875926 0 255 255
0.642463 1.988392 -3.876822 0 255 255
0.641823 1.988451 -3.876116 0 255 255
0.642143 1.988422 -3.876469 0 255 255
0.642463 1.988392 -3.876822 0 255 255
0.641873 1.988229 -3.877409 0 255 255
0.642168 1.988310 -3.877116 0 255 255
0.642463 1.988392 -3.876822 0 255 255
0.642325 1.988147 -3.878331 0 255 255
0.642394 1.988269 -3.877576 0 255 255
0.642463 1.988392 -3.876822 0 255 255
0.642767 1.987961 -3.879152 255 255 0
0.642615 1.988176 -3.877987 255 255 0
0.642463 1.988392 -3.876822 255 255 0
0.642903 1.987624 -3.879619 0 0 255
0.642683 1.988008 -3.878220 0 0 255
0.642463 1.988392 -3.876822 0 0 255
0.642058 1.988758 -3.874073 0 255 255
0.642335 1.988538 -3.875763 0 255 255
0.642612 1.988319 -3.877452 0 255 255
0.642614 1.988844 -3.875031 0 255 255
0.642613 1.988581 -3.876241 0 255 255
0.642612 1.988319 -3.877452 0 255 255
0.641823 1.988451 -3.876116 0 255 255
0.642217 1.988385 -3.876784 0 255 255
0.642612 1.988319 -3.877452 0 255 255
0.641873 1.988229 -3.877409 0 255 255
0.642243 1.988274 -3.877431 0 255 255
0.642612 1.988319 -3.877452 0 255 255
0.642325 1.988147 -3.878331 0 255 255
0.642468 1.988233 -3.877892 0 255 255
0.642612 1.988319 -3.877452 0 255 255
0.642767 1.987961 -3.879152 255 255 0
0.642689 1.988140 -3.878302 255 255 0
0.642612 1.988319 -3.877452 255 255 0
0.642903 1.987624 -3.879619 0 0 255
0.642757 1.987971 -3.878535 0 0 255
0.642612 1.988319 -3.877452 0 0 255
0.641823 1.988451 -3.876116 0 255 0
0.642171 1.988291 -3.877022 0 255 0
0.642520 1.988130 -3.877929 0 255 0
0.641873 1.988229 -3.877409 0 255 255
0.642197 1.988179 -3.877669 0 255 255
0.642520 1.988130 -3.877929 0 255 255
0.642325 1.988147 -3.878331 0 255 255
0.642422 1.988138 -3.878130 0 255 255
0.642520 1.988130 -3.877929 0 255 255
0.642767 1.987961 -3.879152 0 255 255
0.642643 1.988045 -3.878541 0 255 255
0.642520 1.988130 -3.877929 0 255 255
0.642903 1.987624 -3.879619 0 0 255
0.642711 1.987877 -3.878774 0 0 255
0.642520 1.988130 -3.877929 0 0 255
0.641873 1.988229 -3.877409 0 0 255
0.642393 1.988062 -3.878167 0 0 255
0.642912 1.987895 -3.878925 0 0 255
0.642325 1.988147 -3.878331 0 255 255
0.642618 1.988021 -3.878628 0 255 255
0.642912 1.987895 -3.878925 0 255 255
0.642767 1.987961 -3.879152 0 255 255
0.642840 1.987928 -3.879039 0 255 255
0.642912 1.987895 -3.878925 0 255 255
0.642903 1.987624 -3.879619 0 255 255
0.642908 1.987759 -3.879272 0 255 255
0.642912 1.987895 -3.878925 0 255 255
0.643388 1.987257 -3.880192 0 255 0
0.643150 1.987576 -3.879559 0 255 0
0.642912 1.987895 -3.878925 0 255 0
0.642767 1.987961 -3.879152 0 255 0
0.643266 1.987865 -3.879444 0 255 0
0.643766 1.987769 -3.879735 0 255 0
0.642903 1.987624 -3.879619 0 0 255
0.643334 1.987696 -3.879677 0 0 255
0.643766 1.987769 -3.879735 0 0 255
0.642058 1.988758 -3.874073 0 255 0
0.642912 1.988263 -3.876904 0 255 0
0.643766 1.987769 -3.879735 0 255 0
0.643775 1.986691 -3.880671 0 255 0
0.643770 1.987230 -3.880203 0 255 0
0.643766 1.987769 -3.879735 0 255 0
0.642325 1.988147 -3.878331 0 255 0
0.643045 1.987958 -3.879033 0 255 0
0.643766 1.987769 -3.879735 0 255 0
0.643388 1.987257 -3.880192 0 0 255
0.643577 1.987513 -3.879964 0 0 255
0.643766 1.987769 -3.879735 0 0 255
0.643388 1.987257 -3.880192 0 255 255
0.643594 1.987243 -3.880318 0 255 255
0.643801 1.987229 -3.880444 0 255 255
0.643775 1.986691 -3.880671 0 255 255
0.643788 1.986960 -3.880557 0 255 255
0.643801 1.987229 -3.880444 0 255 255
0.642058 1.988758 -3.874073 0 255 0
0.642929 1.987993 -3.877259 0 255 0
0.643801 1.987229 -3.880444 0 255 0
0.643707 1.986245 -3.881014 0 255 0
0.643754 1.986737 -3.880729 0 255 0
0.643801 1.987229 -3.880444 0 255 0
0.642325 1.988147 -3.878331 0 255 0
0.643063 1.987688 -3.879388 0 255 0
0.643801 1.987229 -3.880444 0 255 0
0.642903 1.987624 -3.879619 0 255 0
0.643352 1.987426 -3.880031 0 255 0
0.643801 1.987229 -3.880444 0 255 0
0.643775 1.986691 -3.880671 0 255 255
0.643882 1.986815 -3.880772 0 255 255
0.643990 1.986939 -3.880874 0 255 255
0.643707 1.986245 -3.881014 255 255 0
0.643849 1.986592 -3.880944 255 255 0
0.643990 1.986939 -3.880874 255 255 0
0.643388 1.987257 -3.880192 0 255 255
0.643689 1.987098 -3.880533 0 255 255
0.643990 1.986939 -3.880874 0 255 255
0.642058 1.988758 -3.874073 0 255 0
0.643024 1.987849 -3.877474 0 255 0
0.643990 1.986939 -3.880874 0 255 0
0.643879 1.985455 -3.881533 0 0 255
0.644648 1.985299 -3.881847 0 0 255
0.645417 1.985143 -3.882161 0 0 255
0.643879 1.985455 -3.881533 0 255 0
0.643799 1.984962 -3.882135 0 255 0
0.643719 1.984469 -3.882736 0 255 0
0.643879 1.985455 -3.881533 0 255 255
0.643675 1.985319 -3.882032 0 255 255
0.643471 1.985183 -3.882531 0 255 255
0.643879 1.985455 -3.881533 0 255 255
0.643574 1.985527 -3.881924 0 255 255
0.643269 1.985599 -3.882314 0 255 255
0.643775 1.986691 -3.880671 0 255 0
0.643522 1.986145 -3.881492 0 255 0
0.643269 1.985599 -3.882314 0 255 0
0.643707 1.986245 -3.881014 0 255 0
0.643488 1.985922 -3.881664 0 255 0
0.643269 1.985599 -3.882314 0 255 0
0.643775 1.986691 -3.880671 0 255 255
0.643452 1.986455 -3.881296 0 255 255
0.643129 1.986219 -3.881922 0 255 255
0.643707 1.986245 -3.881014 0 255 255
0.643418 1.986232 -3.881468 0 255 255
0.643129 1.986219 -3.881922 0 255 255
0.643388 1.987257 -3.880192 0 255 0
0.643259 1.986738 -3.881057 0 255 0
0.643129 1.986219 -3.881922 0 255 0
0.643388 1.987257 -3.880192 0 255 255
0.643122 1.986940 -3.880800 0 255 255
0.642856 1.986622 -3.881408 0 255 255
0.643775 1.986691 -3.880671 0 255 255
0.643316 1.986657 -3.881039 0 255 255
0.642856 1.986622 -3.881408 0 255 255
0.643707 1.986245 -3.881014 0 0 255
0.643282 1.986434 -3.881211 0 0 255
0.642856 1.986622 -3.881408 0 0 255
0.643388 1.987257 -3.880192 0 255 0
0.643117 1.987129 -3.880573 0 255 0
0.642845 1.987002 -3.880953 0 255 0
0.642767 1.987961 -3.879152 0 0 255
0.642806 1.987482 -3.880053 0 0 255
0.642845 1.987002 -3.880953 0 0 255
0.642903 1.987624 -3.879619 255 255 0
0.642874 1.987313 -3.880286 255 255 0
0.642845 1.987002 -3.880953 255 255 0
0.642767 1.987961 -3.879152 255 255 0
0.642635 1.987595 -3.879706 255 255 0
0.642504 1.987229 -3.880260 255 255 0
0.642903 1.987624 -3.879619 0 255 255
0.642703 1.987426 -3.879939 0 255 255
0.642504 1.987229 -3.880260 0 255 255
0.642325 1.988147 -3.878331 0 255 255
0.642414 1.987688 -3.879296 0 255 255
0.642504 1.987229 -3.880260 0 255 255
0.643388 1.987257 -3.880192 0 255 0
0.642946 1.987243 -3.880226 0 255 0
0.642504 1.987229 -3.880260 0 255 0
0.642767 1.987961 -3.879152 0 255 255
0.642734 1.987787 -3.879225 0 255 255
0.642701 1.987613 -3.879297 0 255 255
0.642903 1.987624 -3.879619 0 255 255
0.642802 1.987618 -3.879458 0 255 255
0.642701 1.987613 -3.879297 0 255 255
0.642325 1.988147 -3.878331 0 255 255
0.642513 1.987880 -3.878814 0 255 255
0.642701 1.987613 -3.879297 0 255 255
0.642767 1.987961 -3.879152 0 255 255
0.642733 1.987849 -3.879067 0 255 255
0.642699 1.987737 -3.878983 0 255 255
0.642903 1.987624 -3.879619 0 0 255
0.642801 1.987680 -3.879301 0 0 255
0.642699 1.987737 -3.878983 0 0 255
0.642325 1.988147 -3.878331 0 255 255
0.642512 1.987942 -3.878657 0 255 255
0.642699 1.987737 -3.878983 0 255 255
0.641873 1.988229 -3.877409 0 255 0
0.642286 1.987983 -3.878196 0 255 0
0.642699 1.987737 -3.878983 0 255 0
0.641873 1.988229 -3.877409 0 255 255
0.642041 1.987990 -3.877823 0 255 255
0.642208 1.987751 -3.878237 0 255 255
0.642325 1.988147 -3.878331 0 255 255
0.642266 1.987949 -3.878284 0 255 255
0.642208 1.987751 -3.878237 0 255 255
0.642058 1.988758 -3.874073 0 255 0
0.642133 1.988254 -3.876155 0 255 0
0.642208 1.987751 -3.878237 0 255 0
0.641823 1.988451 -3.876116 0 0 255
0.642015 1.988101 -3.877176 0 0 255
0.642208 1.987751 -3.878237 0 0 255
0.641823 1.988451 -3.876116 0 255 255
0.642173 1.988238 -3.876652 0 255 255
0.642522 1.988025 -3.877189 0 255 255
0.641873 1.988229 -3.877409 0 255 255
0.642198 1.988127 -3.877299 0 255 255
0.642522 1.988025 -3.877189 0 255 255
0.642058 1.988758 -3.874073 0 255 0
0.642290 1.988392 -3.875631 0 255 0
0.642522 1.988025 -3.877189 0 255 0
0.642614 1.988844 -3.875031 0 255 255
0.642568 1.988435 -3.876110 0 255 255
0.642522 1.988025 -3.877189 0 255 255
0.642325 1.988147 -3.878331 255 255 0
0.642424 1.988086 -3.877760 255 255 0
0.642522 1.988025 -3.877189 255 255 0
0.642058 1.988758 -3.874073 255 255 0
0.642098 1.988367 -3.875215 255 255 0
0.642139 1.987976 -3.876358 255 255 0
0.642614 1.988844 -3.875031 0 255 255
0.642376 1.988410 -3.875694 0 255 255
0.642139 1.987976 -3.876358 0 255 255
0.641823 1.988451 -3.876116 0 255 255
0.641981 1.988214 -3.876237 0 255 255
0.642139 1.987976 -3.876358 0 255 255
0.641873 1.988229 -3.877409 0 255 255
0.642006 1.988102 -3.876884 0 255 255
0.642139 1.987976 -3.876358 0 255 255
0.642325 1.988147 -3.878331 0 0 255
0.642232 1.988061 -3.877344 0 0 255
0.642139 1.987976 -3.876358 0 0 255
0.642058 1.988758 -3.874073 0 255 255
0.642189 1.988442 -3.874700 0 255 255
0.642320 1.988127 -3.875327 0 255 255
0.642614 1.988844 -3.875031 0 255 255
0.642467 1.988486 -3.875179 0 255 255
0.642320 1.988127 -3.875327 0 255 255
0.641823 1.988451 -3.876116 0 255 255
0.642071 1.988289 -3.875721 0 255 255
0.642320 1.988127 -3.875327 0 255 255
0.641873 1.988229 -3.877409 0 0 255
0.642097 1.988178 -3.876368 0 0 255
0.642320 1.988127 -3.875327 0 0 255
0.642325 1.988147 -3.878331 0 255 0
0.642322 1.988137 -3.876829 0 255 0
0.642320 1.988127 -3.875327 0 255 0
0.642058 1.988758 -3.874073 0 255 255
0.642076 1.988432 -3.874251 0 255 255
0.642095 1.988107 -3.874429 0 255 255
0.642614 1.988844 -3.875031 0 255 255
0.642354 1.988475 -3.874730 0 255 255
0.642095 1.988107 -3.874429 0 255 255
0.641823 1.988451 -3.876116 0 255 255
0.641959 1.988279 -3.875272 0 255 255
0.642095 1.988107 -3.874429 0 255 255
0.641873 1.988229 -3.877409 255 255 0
0.641984 1.988168 -3.875919 255 255 0
0.642095 1.988107 -3.874429 255 255 0
0.642058 1.988758 -3.874073 0 255 255
0.641852 1.988381 -3.873838 0 255 255
0.641646 1.988004 -3.873603 0 255 255
0.642614 1.988844 -3.875031 0 255 255
0.642130 1.988424 -3.874317 0 255 255
0.641646 1.988004 -3.873603 0 255 255
0.641823 1.988451 -3.876116 255 255 0
0.641735 1.988228 -3.874859 255 255 0
0.641646 1.988004 -3.873603 255 255 0
0.641873 1.988229 -3.877409 0 255 0
0.641760 1.988116 -3.875506 0 255 0
0.641646 1.988004 -3.873603 0 255 0
0.642058 1.988758 -3.874073 0 255 255
0.641939 1.988463 -3.873319 0 255 255
0.641819 1.988168 -3.872566 0 255 255
0.642614 1.988844 -3.875031 255 255 0
0.642217 1.988506 -3.873798 255 255 0
0.641819 1.988168 -3.872566 255 255 0
0.641823 1.988451 -3.876116 0 255 0
0.641821 1.988310 -3.874341 0 255 0
0.641819 1.988168 -3.872566 0 255 0
0.642058 1.988758 -3.874073 255 255 0
0.641699 1.988422 -3.872911 255 255 0
0.641339 1.988085 -3.871750 255 255 0
0.642614 1.988844 -3.875031 0 255 0
0.641977 1.988465 -3.873390 0 255 0
0.641339 1.988085 -3.871750 0 255 0
0.642058 1.988758 -3.874073 0 0 255
0.641559 1.988420 -3.872469 0 0 255
0.641060 1.988082 -3.870866 0 0 255
0.643879 1.985455 -3.881533 0 255 255
0.644156 1.985509 -3.881496 0 255 255
0.644432 1.985562 -3.881459 0 255 255
0.643775 1.986691 -3.880671 0 255 0
0.644104 1.986127 -3.881065 0 255 0
0.644432 1.985562 -3.881459 0 255 0
0.643707 1.986245 -3.881014 0 255 0
0.644070 1.985903 -3.881237 0 255 0
0.644432 1.985562 -3.881459 0 255 0
0.643775 1.986691 -3.880671 0 255 255
0.644078 1.986338 -3.880911 0 255 255
0.644381 1.985985 -3.881151 0 255 255
0.643707 1.986245 -3.881014 0 255 255
0.644044 1.986115 -3.881082 0 255 255
0.644381 1.985985 -3.881151 0 255 255
0.643879 1.985455 -3.881533 0 255 255
0.644130 1.985720 -3.881342 0 255 255
0.644381 1.985985 -3.881151 0 255 255
0.643775 1.986691 -3.880671 0 255 255
0.643315 1.986394 -3.880996 0 255 255
0.642855 1.986097 -3.881321 0 255 255
0.643707 1.986245 -3.881014 0 255 255
0.643281 1.986171 -3.881167 0 255 255
0.642855 1.986097 -3.881321 0 255 255
0.643388 1.987257 -3.880192 0 0 255
0.643122 1.986677 -3.880757 0 0 255
0.642855 1.986097 -3.881321 0 0 255
0.643879 1.985455 -3.881533 0 0 255
0.643367 1.985776 -3.881427 0 0 255
0.642855 1.986097 -3.881321 0 0 255
0.643388 1.987257 -3.880192 0 255 255
0.643642 1.987192 -3.880101 0 255 255
0.643895 1.987127 -3.880009 0 255 255
0.643775 1.986691 -3.880671 255 255 0
0.643835 1.986909 -3.880340 255 255 0
0.643895 1.987127 -3.880009 255 255 0
0.643775 1.986691 -3.880671 0 255 0
0.643717 1.987085 -3.880131 0 255 0
0.643659 1.987478 -3.879591 0 255 0
0.642767 1.987961 -3.879152 255 255 0
0.642988 1.987997 -3.878878 255 255 0
0.643210 1.988034 -3.878603 255 255 0
0.642903 1.987624 -3.879619 0 0 255
0.643056 1.987829 -3.879111 0 0 255
0.643210 1.988034 -3.878603 0 0 255
0.642325 1.988147 -3.878331 255 255 0
0.642767 1.988090 -3.878467 255 255 0
0.643210 1.988034 -3.878603 255 255 0
0.641873 1.988229 -3.877409 255 255 0
0.643223 1.988397 -3.878008 255 255 0
0.644573 1.988565 -3.878607 255 255 0
0.642325 1.988147 -3.878331 0 255 255
0.643449 1.988356 -3.878469 0 255 255
0.644573 1.988565 -3.878607 0 255 255
0.642767 1.987961 -3.879152 0 255 255
0.643670 1.988263 -3.878879 0 255 255
0.644573 1.988565 -3.878607 0 255 255
0.642903 1.987624 -3.879619 0 255 255
0.643738 1.988094 -3.879113 0 255 255
0.644573 1.988565 -3.878607 0 255 255
0.641873 1.988229 -3.877409 0 255 255
0.643097 1.988499 -3.877362 0 255 255
0.644321 1.988769 -3.877314 0 255 255
0.642325 1.988147 -3.878331 0 255 255
0.643323 1.988458 -3.877823 0 255 255
0.644321 1.988769 -3.877314 0 255 255
0.642767 1.987961 -3.879152 0 0 255
0.643544 1.988365 -3.878233 0 0 255
0.644321 1.988769 -3.877314 0 0 255
0.642903 1.987624 -3.879619 0 255 0
0.643612 1.988197 -3.878466 0 255 0
0.644321 1.988769 -3.877314 0 255 0
0.642058 1.988758 -3.874073 0 255 0
0.643190 1.988764 -3.875694 0 255 0
0.644321 1.988769 -3.877314 0 255 0
0.641823 1.988451 -3.876116 0 0 255
0.643072 1.988610 -3.876715 0 0 255
0.644321 1.988769 -3.877314 0 0 255
0.641873 1.988229 -3.877409 255 255 0
0.643222 1.988624 -3.876972 255 255 0
0.644570 1.989020 -3.876535 255 255 0
0.642325 1.988147 -3.878331 0 255 255
0.643447 1.988583 -3.877433 0 255 255
0.644570 1.989020 -3.876535 0 255 255
0.641823 1.988451 -3.876116 0 255 255
0.643196 1.988736 -3.876325 0 255 255
0.644570 1.989020 -3.876535 0 255 255
0.642903 1.987624 -3.879619 0 255 0
0.643737 1.988322 -3.878077 0 255 0
0.644570 1.989020 -3.876535 0 255 0
0.642614 1.988844 -3.875031 0 0 255
0.643592 1.988932 -3.875783 0 0 255
0.644570 1.989020 -3.876535 0 0 255
0.642058 1.988758 -3.874073 0 255 255
0.643306 1.989071 -3.874518 0 255 255
0.644553 1.989383 -3.874963 0 255 255
0.642614 1.988844 -3.875031 0 255 255
0.643584 1.989114 -3.874997 0 255 255
0.644553 1.989383 -3.874963 0 255 255
0.641823 1.988451 -3.876116 255 255 0
0.643188 1.988917 -3.875540 255 255 0
0.644553 1.989383 -3.874963 255 255 0
0.641873 1.988229 -3.877409 255 255 0
0.643213 1.988806 -3.876186 255 255 0
0.644553 1.989383 -3.874963 255 255 0
0.642325 1.988147 -3.878331 0 0 255
0.643439 1.988765 -3.876647 0 0 255
0.644553 1.989383 -3.874963 0 0 255
0.642058 1.988758 -3.874073 0 255 255
0.643202 1.989070 -3.873890 0 255 255
0.644346 1.989382 -3.873707 0 255 255
0.642614 1.988844 -3.875031 0 255 255
0.643480 1.989113 -3.874369 0 255 255
0.644346 1.989382 -3.873707 0 255 255
0.641823 1.988451 -3.876116 0 255 255
0.643085 1.988917 -3.874911 0 255 255
0.644346 1.989382 -3.873707 0 255 255
0.641873 1.988229 -3.877409 0 0 255
0.643110 1.988805 -3.875558 0 0 255
0.644346 1.989382 -3.873707 0 0 255
0.642058 1.988758 -3.874073 0 255 255
0.643257 1.989148 -3.873549 0 255 255
0.644457 1.989539 -3.873024 0 255 255
0.642614 1.988844 -3.875031 0 255 255
0.643535 1.989191 -3.874027 0 255 255
0.644457 1.989539 -3.873024 0 255 255
0.641823 1.988451 -3.876116 255 255 0
0.643140 1.988995 -3.874570 255 255 0
0.644457 1.989539 -3.873024 255 255 0
0.641873 1.988229 -3.877409 0 0 255
0.643165 1.988884 -3.875217 0 0 255
0.644457 1.989539 -3.873024 0 0 255
0.642058 1.988758 -3.874073 0 255 255
0.643123 1.989150 -3.872933 0 255 255
0.644189 1.989542 -3.871793 0 255 255
0.642614 1.988844 -3.875031 0 255 255
0.643401 1.989193 -3.873412 0 255 255
0.644189 1.989542 -3.871793 0 255 255
0.641823 1.988451 -3.876116 0 0 255
0.643006 1.988997 -3.873954 0 0 255
0.644189 1.989542 -3.871793 0 0 255
0.642058 1.988758 -3.874073 0 255 255
0.642981 1.989135 -3.872338 0 255 255
0.643905 1.989511 -3.870602 0 255 255
0.642614 1.988844 -3.875031 255 255 0
0.643259 1.989178 -3.872816 255 255 0
0.643905 1.989511 -3.870602 255 255 0
0.642058 1.988758 -3.874073 255 255 0
0.642949 1.989111 -3.872093 255 255 0
0.643841 1.989464 -3.870113 255 255 0
0.642614 1.988844 -3.875031 0 255 0
0.643227 1.989154 -3.872572 0 255 0
0.643841 1.989464 -3.870113 0 255 0
0.641823 1.988451 -3.876116 0 255 0
0.647093 1.990630 -3.873657 0 255 0
0.652362 1.992808 -3.871199 0 255 0
0.641823 1.988451 -3.876116 0 255 0
0.646863 1.990483 -3.873231 0 255 0
0.651904 1.992515 -3.870346 0 255 0
0.642614 1.988844 -3.875031 0 255 0
0.647053 1.990544 -3.872266 0 255 0
0.651493 1.992244 -3.869502 0 255 0
0.642058 1.988758 -3.874073 0 255 0
0.646644 1.990481 -3.871139 0 255 0
0.651230 1.992204 -3.868205 0 255 0
0.642058 1.988758 -3.874073 0 255 0
0.646540 1.990488 -3.870633 0 255 0
0.651022 1.992217 -3.867193 0 255 0
0.642058 1.988758 -3.874073 0 255 0
0.646513 1.990458 -3.870449 0 255 0
0.650967 1.992158 -3.866825 0 255 0
0.643879 1.985455 -3.881533 0 255 0
0.644521 1.985167 -3.882184 0 255 0
0.645163 1.984878 -3.882836 0 255 0
0.643879 1.985455 -3.881533 0 255 255
0.644399 1.985623 -3.881973 0 255 255
0.644918 1.985790 -3.882412 0 255 255
0.643775 1.986691 -3.880671 255 255 0
0.644347 1.986241 -3.881541 255 255 0
0.644918 1.985790 -3.882412 255 255 0
0.643707 1.986245 -3.881014 255 255 0
0.644313 1.986018 -3.881713 255 255 0
0.644918 1.985790 -3.882412 255 255 0
0.643879 1.985455 -3.881533 0 255 255
0.644446 1.985867 -3.881702 0 255 255
0.645013 1.986278 -3.881871 0 255 255
0.643775 1.986691 -3.880671 0 255 255
0.644394 1.986485 -3.881271 0 255 255
0.645013 1.986278 -3.881871 0 255 255
0.643707 1.986245 -3.881014 0 255 255
0.644360 1.986262 -3.881442 0 255 255
0.645013 1.986278 -3.881871 0 255 255
0.643388 1.987257 -3.880192 255 255 0
0.644201 1.986768 -3.881032 255 255 0
0.645013 1.986278 -3.881871 255 255 0
0.643775 1.986691 -3.880671 0 255 255
0.644353 1.986854 -3.880996 0 255 255
0.644931 1.987016 -3.881322 0 255 255
0.643707 1.986245 -3.881014 0 255 255
0.644319 1.986630 -3.881168 0 255 255
0.644931 1.987016 -3.881322 0 255 255
0.643879 1.985455 -3.881533 0 255 0
0.644405 1.986235 -3.881428 0 255 0
0.644931 1.987016 -3.881322 0 255 0
0.642058 1.988758 -3.874073 0 255 0
0.643495 1.987887 -3.877698 0 255 0
0.644931 1.987016 -3.881322 0 255 0
0.643388 1.987257 -3.880192 0 0 255
0.644160 1.987136 -3.880757 0 0 255
0.644931 1.987016 -3.881322 0 0 255
0.643388 1.987257 -3.880192 0 255 255
0.644052 1.987472 -3.880413 0 255 255
0.644716 1.987688 -3.880634 0 255 255
0.642767 1.987961 -3.879152 0 255 0
0.643742 1.987824 -3.879893 0 255 0
0.644716 1.987688 -3.880634 0 255 0
0.642903 1.987624 -3.879619 0 255 0
0.643810 1.987656 -3.880126 0 255 0
0.644716 1.987688 -3.880634 0 255 0
0.643775 1.986691 -3.880671 0 255 255
0.644246 1.987190 -3.880652 0 255 255
0.644716 1.987688 -3.880634 0 255 255
0.643707 1.986245 -3.881014 255 255 0
0.644212 1.986966 -3.880824 255 255 0
0.644716 1.987688 -3.880634 255 255 0
0.642058 1.988758 -3.874073 0 255 0
0.643387 1.988223 -3.877354 0 255 0
0.644716 1.987688 -3.880634 0 255 0
0.642325 1.988147 -3.878331 0 255 0
0.643521 1.987917 -3.879483 0 255 0
0.644716 1.987688 -3.880634 0 255 0
0.642767 1.987961 -3.879152 0 255 0
0.643683 1.988019 -3.879671 0 255 0
0.644598 1.988077 -3.880189 0 255 0
0.642903 1.987624 -3.879619 255 255 0
0.643751 1.987851 -3.879904 255 255 0
0.644598 1.988077 -3.880189 255 255 0
0.643388 1.987257 -3.880192 255 255 0
0.643993 1.987667 -3.880191 255 255 0
0.644598 1.988077 -3.880189 255 255 0
0.643775 1.986691 -3.880671 0 0 255
0.644187 1.987384 -3.880430 0 0 255
0.644598 1.988077 -3.880189 0 0 255
0.642058 1.988758 -3.874073 0 255 0
0.643328 1.988418 -3.877131 0 255 0
0.644598 1.988077 -3.880189 0 255 0
0.643707 1.986245 -3.881014 0 255 0
0.644153 1.987161 -3.880601 0 255 0
0.644598 1.988077 -3.880189 0 255 0
0.642325 1.988147 -3.878331 255 255 0
0.643461 1.988112 -3.879260 255 255 0
0.644598 1.988077 -3.880189 255 255 0
0.642767 1.987961 -3.879152 0 255 255
0.643424 1.988203 -3.879244 0 255 255
0.644081 1.988444 -3.879335 0 255 255
0.642903 1.987624 -3.879619 0 255 255
0.643492 1.988034 -3.879477 0 255 255
0.644081 1.988444 -3.879335 0 255 255
0.641873 1.988229 -3.877409 0 255 0
0.642977 1.988336 -3.878372 0 255 0
0.644081 1.988444 -3.879335 0 255 0
0.642325 1.988147 -3.878331 0 255 255
0.643203 1.988295 -3.878833 0 255 255
0.644081 1.988444 -3.879335 0 255 255
0.641873 1.988229 -3.877409 0 255 255
0.642716 1.988439 -3.877876 0 255 255
0.643558 1.988649 -3.878343 0 255 255
0.642325 1.988147 -3.878331 0 255 255
0.642942 1.988398 -3.878337 0 255 255
0.643558 1.988649 -3.878343 0 255 255
0.642767 1.987961 -3.879152 0 255 255
0.643163 1.988305 -3.878748 0 255 255
0.643558 1.988649 -3.878343 0 255 255
0.642903 1.987624 -3.879619 0 255 0
0.643231 1.988136 -3.878981 0 255 0
0.643558 1.988649 -3.878343 0 255 0
0.641823 1.988451 -3.876116 0 255 255
0.642691 1.988594 -3.876494 0 255 255
0.643560 1.988737 -3.876872 0 255 255
0.641873 1.988229 -3.877409 0 255 255
0.642716 1.988483 -3.877141 0 255 255
0.643560 1.988737 -3.876872 0 255 255
0.642325 1.988147 -3.878331 0 255 255
0.642942 1.988442 -3.877602 0 255 255
0.643560 1.988737 -3.876872 0 255 255
0.642058 1.988758 -3.874073 0 0 255
0.642809 1.988748 -3.875473 0 0 255
0.643560 1.988737 -3.876872 0 0 255
0.642614 1.988844 -3.875031 0 255 255
0.643087 1.988791 -3.875952 0 255 255
0.643560 1.988737 -3.876872 0 255 255
0.642767 1.987961 -3.879152 0 255 0
0.643163 1.988349 -3.878012 0 255 0
0.643560 1.988737 -3.876872 0 255 0
0.642058 1.988758 -3.874073 0 255 255
0.642493 1.988771 -3.874920 0 255 255
0.642929 1.988785 -3.875767 0 255 255
0.642614 1.988844 -3.875031 0 255 255
0.642771 1.988814 -3.875399 0 255 255
0.642929 1.988785 -3.875767 0 255 255
0.641823 1.988451 -3.876116 0 255 255
0.642376 1.988618 -3.875942 0 255 255
0.642929 1.988785 -3.875767 0 255 255
0.641873 1.988229 -3.877409 0 255 255
0.642401 1.988507 -3.876588 0 255 255
0.642929 1.988785 -3.875767 0 255 255
0.642325 1.988147 -3.878331 0 255 255
0.642627 1.988466 -3.877049 0 255 255
0.642929 1.988785 -3.875767 0 255 255
0.642058 1.988758 -3.874073 0 255 255
0.642164 1.988798 -3.874469 0 255 255
0.642270 1.988839 -3.874865 0 255 255
0.642614 1.988844 -3.875031 0 255 255
0.642442 1.988841 -3.874948 0 255 255
0.642270 1.988839 -3.874865 0 255 255
0.641823 1.988451 -3.876116 0 255 255
0.642046 1.988645 -3.875491 0 255 255
0.642270 1.988839 -3.874865 0 255 255
0.641873 1.988229 -3.877409 255 255 0
0.642071 1.988534 -3.876137 255 255 0
0.642270 1.988839 -3.874865 255 255 0
0.642058 1.988758 -3.874073 0 255 255
0.641948 1.988816 -3.873919 0 255 255
0.641838 1.988874 -3.873765 0 255 255
0.642614 1.988844 -3.875031 0 255 255
0.642226 1.988859 -3.874398 0 255 255
0.641838 1.988874 -3.873765 0 255 255
0.641823 1.988451 -3.876116 0 255 255
0.641831 1.988663 -3.874940 0 255 255
0.641838 1.988874 -3.873765 0 255 255
0.642058 1.988758 -3.874073 0 255 255
0.641895 1.988824 -3.873233 0 255 255
0.641733 1.988889 -3.872392 0 255 255
0.642614 1.988844 -3.875031 0 255 255
0.642173 1.988867 -3.873711 0 255 255
0.641733 1.988889 -3.872392 0 255 255
0.642058 1.988758 -3.874073 0 0 255
0.641772 1.988833 -3.872605 0 0 255
0.641487 1.988909 -3.871137 0 0 255
0.643879 1.985455 -3.881533 255 255 0
0.644592 1.985461 -3.882171 255 255 0
0.645305 1.985466 -3.882809 255 255 0
0.643775 1.986691 -3.880671 0 255 0
0.644540 1.986079 -3.881740 0 255 0
0.645305 1.985466 -3.882809 0 255 0
0.643707 1.986245 -3.881014 0 255 0
0.644506 1.985855 -3.881911 0 255 0
0.645305 1.985466 -3.882809 0 255 0
0.643879 1.985455 -3.881533 0 255 255
0.644494 1.985692 -3.882003 0 255 255
0.645108 1.985929 -3.882473 0 255 255
0.643707 1.986245 -3.881014 0 255 255
0.644408 1.986087 -3.881743 0 255 255
0.645108 1.985929 -3.882473 0 255 255
0.643775 1.986691 -3.880671 0 255 255
0.644442 1.986310 -3.881572 0 255 255
0.645108 1.985929 -3.882473 0 255 255
0.643388 1.987257 -3.880192 0 255 0
0.644248 1.986593 -3.881333 0 255 0
0.645108 1.985929 -3.882473 0 255 0
0.643775 1.986691 -3.880671 0 255 255
0.644331 1.986705 -3.881258 0 255 255
0.644887 1.986718 -3.881846 0 255 255
0.643707 1.986245 -3.881014 0 255 255
0.644297 1.986482 -3.881430 0 255 255
0.644887 1.986718 -3.881846 0 255 255
0.643388 1.987257 -3.880192 0 255 255
0.644137 1.986988 -3.881019 0 255 255
0.644887 1.986718 -3.881846 0 255 255
0.643879 1.985455 -3.881533 0 255 255
0.644383 1.986087 -3.881690 0 255 255
0.644887 1.986718 -3.881846 0 255 255
0.643775 1.986691 -3.880671 0 255 255
0.644157 1.987007 -3.880947 0 255 255
0.644539 1.987323 -3.881223 0 255 255
0.643707 1.986245 -3.881014 0 255 255
0.644123 1.986784 -3.881118 0 255 255
0.644539 1.987323 -3.881223 0 255 255
0.643388 1.987257 -3.880192 0 255 255
0.643964 1.987290 -3.880708 0 255 255
0.644539 1.987323 -3.881223 0 255 255
0.642058 1.988758 -3.874073 0 255 0
0.643299 1.988041 -3.877648 0 255 0
0.644539 1.987323 -3.881223 0 255 0
0.643388 1.987257 -3.880192 0 255 255
0.643977 1.987525 -3.880318 0 255 255
0.644566 1.987793 -3.880444 0 255 255
0.642767 1.987961 -3.879152 255 255 0
0.643667 1.987877 -3.879798 255 255 0
0.644566 1.987793 -3.880444 255 255 0
0.642903 1.987624 -3.879619 0 255 255
0.643735 1.987708 -3.880032 0 255 255
0.644566 1.987793 -3.880444 0 255 255
0.643775 1.986691 -3.880671 0 255 255
0.644171 1.987242 -3.880557 0 255 255
0.644566 1.987793 -3.880444 0 255 255
0.642058 1.988758 -3.874073 0 255 0
0.643312 1.988275 -3.877259 0 255 0
0.644566 1.987793 -3.880444 0 255 0
0.643707 1.986245 -3.881014 0 255 0
0.644137 1.987019 -3.880729 0 255 0
0.644566 1.987793 -3.880444 0 255 0
0.642325 1.988147 -3.878331 0 0 255
0.643445 1.987970 -3.879388 0 0 255
0.644566 1.987793 -3.880444 0 0 255
0.642767 1.987961 -3.879152 0 255 255
0.643423 1.988121 -3.879356 0 255 255
0.644080 1.988282 -3.879559 0 255 255
0.642903 1.987624 -3.879619 0 255 255
0.643491 1.987953 -3.879589 0 255 255
0.644080 1.988282 -3.879559 0 255 255
0.642058 1.988758 -3.874073 0 255 0
0.643069 1.988520 -3.876816 0 255 0
0.644080 1.988282 -3.879559 0 255 0
0.643775 1.986691 -3.880671 0 255 0
0.643928 1.987486 -3.880115 0 255 0
0.644080 1.988282 -3.879559 0 255 0
0.642325 1.988147 -3.878331 0 255 255
0.643202 1.988214 -3.878945 0 255 255
0.644080 1.988282 -3.879559 0 255 255
0.641873 1.988229 -3.877409 0 0 255
0.642977 1.988255 -3.878484 0 0 255
0.644080 1.988282 -3.879559 0 0 255
0.641873 1.988229 -3.877409 0 255 255
0.642941 1.988455 -3.877470 0 255 255
0.644009 1.988682 -3.877530 0 255 255
0.642325 1.988147 -3.878331 0 255 255
0.643167 1.988414 -3.877930 0 255 255
0.644009 1.988682 -3.877530 0 255 255
0.642767 1.987961 -3.879152 0 255 255
0.643388 1.988322 -3.878341 0 255 255
0.644009 1.988682 -3.877530 0 255 255
0.642903 1.987624 -3.879619 0 255 0
0.643456 1.988153 -3.878574 0 255 0
0.644009 1.988682 -3.877530 0 255 0
0.642058 1.988758 -3.874073 0 0 255
0.643033 1.988720 -3.875801 0 0 255
0.644009 1.988682 -3.877530 0 0 255
0.641823 1.988451 -3.876116 0 255 0
0.642916 1.988567 -3.876823 0 255 0
0.644009 1.988682 -3.877530 0 255 0
0.642058 1.988758 -3.874073 0 255 255
0.642841 1.988811 -3.875161 0 255 255
0.643623 1.988863 -3.876248 0 255 255
0.642614 1.988844 -3.875031 0 255 255
0.643119 1.988854 -3.875640 0 255 255
0.643623 1.988863 -3.876248 0 255 255
0.641823 1.988451 -3.876116 0 255 255
0.642723 1.988657 -3.876182 0 255 255
0.643623 1.988863 -3.876248 0 255 255
0.641873 1.988229 -3.877409 0 255 255
0.642748 1.988546 -3.876829 0 255 255
0.643623 1.988863 -3.876248 0 255 255
0.642325 1.988147 -3.878331 255 255 0
0.642974 1.988505 -3.877290 255 255 0
0.643623 1.988863 -3.876248 255 255 0
0.642058 1.988758 -3.874073 0 255 255
0.642596 1.988864 -3.874549 0 255 255
0.643135 1.988971 -3.875025 0 255 255
0.642614 1.988844 -3.875031 0 255 255
0.642874 1.988908 -3.875028 0 255 255
0.643135 1.988971 -3.875025 0 255 255
0.641823 1.988451 -3.876116 0 255 255
0.642479 1.988711 -3.875571 0 255 255
0.643135 1.988971 -3.875025 0 255 255
0.641873 1.988229 -3.877409 0 255 255
0.642504 1.988600 -3.876217 0 255 255
0.643135 1.988971 -3.875025 0 255 255
0.642325 1.988147 -3.878331 255 255 0
0.642730 1.988559 -3.876678 255 255 0
0.643135 1.988971 -3.875025 255 255 0
0.642058 1.988758 -3.874073 0 255 255
0.642311 1.988899 -3.873974 0 255 255
0.642563 1.989041 -3.873875 0 255 255
0.642614 1.988844 -3.875031 0 255 255
0.642589 1.988942 -3.874453 0 255 255
0.642563 1.989041 -3.873875 0 255 255
0.641823 1.988451 -3.876116 0 255 255
0.642193 1.988746 -3.874996 0 255 255
0.642563 1.989041 -3.873875 0 255 255
0.641873 1.988229 -3.877409 0 255 0
0.642218 1.988635 -3.875642 0 255 0
0.642563 1.989041 -3.873875 0 255 0
0.642058 1.988758 -3.874073 0 255 255
0.642208 1.988915 -3.873182 0 255 255
0.642358 1.989072 -3.872292 0 255 255
0.642614 1.988844 -3.875031 0 255 255
0.642486 1.988958 -3.873661 0 255 255
0.642358 1.989072 -3.872292 0 255 255
0.642058 1.988758 -3.874073 0 0 255
0.641977 1.988930 -3.872537 0 0 255
0.641895 1.989102 -3.871002 0 0 255
3 0 1 2 3 2 3 4 3 4 5 6 3 6 7 8 3 8 9 10 3 10 11 12 3 12 13 14 3 14 15 16 3 16 17 18 3 18 19 20 3 21 22 23 3 24 25 26 3 27 28 29 3 30 31 32 3 33 34 35 3 36 37 38 3 39 40 41 3 42 43 44 3 45 46 47 3 48 49 50 3 51 52 53 3 54 55 56 3 57 58 59 3 60 61 62 3 63 64 65 3 66 67 68 3 69 70 71 3 72 73 74 3 75 76 77 3 78 79 80 3 81 82 83 3 84 85 86 3 87 88 89 3 90 91 92 3 93 94 95 3 96 97 98 3 99 100 101 3 102 103 104 3 105 106 107 3 108 109 110 3 111 112 113 3 114 115 116 3 117 118 119 3 120 121 122 3 123 124 125 3 126 127 128 3 129 130 131 3 132 133 134 3 135 136 137 3 138 139 140 3 141 142 143 3 144 145 146 3 147 148 149 3 150 151 152 3 153 154 155 3 156 157 158 3 159 160 161 3 162 163 164 3 165 166 167 3 168 169 170 3 171 172 173 3 174 175 176 3 177 178 179 3 180 181 182 3 183 184 185 3 186 187 188 3 189 190 191 3 192 193 194 3 195 196 197 3 198 199 200 3 201 202 203 3 204 205 206 3 207 208 209 3 210 211 212 3 213 214 215 3 216 217 218 3 219 220 221 3 222 223 224 3 225 226 227 3 228 229 230 3 231 232 233 3 234 235 236 3 237 238 239 3 240 241 242 3 243 244 245 3 246 247 248 3 249 250 251 3 252 253 254 3 255 256 257 3 258 259 260 3 261 262 263 3 264 265 266 3 267 268 269 3 270 271 272 3 273 274 275 3 276 277 278 3 279 280 281 3 282 283 284 3 285 286 287 3 288 289 290 3 291 292 293 3 294 295 296 3 297 298 299 3 300 301 302 3 303 304 305 3 306 307 308 3 309 310 311 3 312 313 314 3 315 316 317 3 318 319 320 3 321 322 323 3 324 325 326 3 327 328 329 3 330 331 332 3 333 334 335 3 336 337 338 3 339 340 341 3 342 343 344 3 345 346 347 3 348 349 350 3 351 352 353 3 354 355 356 3 357 358 359 3 360 361 362 3 363 364 365 3 366 367 368 3 369 370 371 3 372 373 374 3 375 376 377 3 378 379 380 3 381 382 383 3 384 385 386 3 387 388 389 3 390 391 392 3 393 394 395 3 396 397 398 3 399 400 401 3 402 403 404 3 405 406 407 3 408 409 410 3 411 412 413 3 414 415 416 3 417 418 419 3 420 421 422 3 423 424 425 3 426 427 428 3 429 430 431 3 432 433 434 3 435 436 437 3 438 439 440 3 441 442 443 3 444 445 446 3 447 448 449 3 450 451 452 3 453 454 455 3 456 457 458 3 459 460 461 3 462 463 464 3 465 466 467 3 468 469 470 3 471 472 473 3 474 475 476 3 477 478 479 3 480 481 482 3 483 484 485 3 486 487 488 3 489 490 491 3 492 493 494 3 495 496 497 3 498 499 500 3 501 502 503 3 504 505 506 3 507 508 509 3 510 511 512 3 513 514 515 3 516 517 518 3 519 520 521 3 522 523 524 3 525 526 527 3 528 529 530 3 531 532 533 3 534 535 536 3 537 538 539 3 540 541 542 3 543 544 545 3 546 547 548 3 549 550 551 3 552 553 554 3 555 556 557 3 558 559 560 3 561 562 563 3 564 565 566 3 567 568 569 3 570 571 572 3 573 574 575 3 576 577 578 3 579 580 581 3 582 583 584 3 585 586 587 3 588 589 590 3 591 592 593 3 594 595 596 3 597 598 599 3 600 601 602 3 603 604 605 3 606 607 608 3 609 610 611 3 612 613 614 3 615 616 617 3 618 619 620 3 621 622 623 3 624 625 626 3 627 628 629 3 630 631 632 3 633 634 635 3 636 637 638 3 639 640 641 3 642 643 644 3 645 646 647 3 648 649 650 3 651 652 653 3 654 655 656 3 657 658 659 3 660 661 662 3 663 664 665 3 666 667 668 3 669 670 671 3 672 673 674 3 675 676 677 3 678 679 680 3 681 682 683 3 684 685 686 3 687 688 689 3 690 691 692 3 693 694 695 3 696 697 698 3 699 700 701 3 702 703 704 3 705 706 707 3 708 709 710 3 711 712 713 3 714 715 716 3 717 718 719 3 720 721 722 3 723 724 725 3 726 727 728 3 729 730 731 3 732 733 734 3 735 736 737 3 738 739 740 3 741 742 743 3 744 745 746 3 747 748 749 3 750 751 752 3 753 754 755 3 756 757 758 3 759 760 761 3 762 763 764 3 765 766 767 3 768 769 770 3 771 772 773 3 774 775 776 3 777 778 779 3 780 781 782 3 783 784 785 3 786 787 788 3 789 790 791 3 792 793 794 3 795 796 797 3 798 799 800 3 801 802 803 3 804 805 806 3 807 808 809 3 810 811 812 3 813 814 815 3 816 817 818 3 819 820 821 3 822 823 824 3 825 826 827 3 828 829 830 3 831 832 833 3 834 835 836 3 837 838 839 3 840 841 842 3 843 844 845 3 846 847 848 3 849 850 851 3 852 853 854 3 855 856 857 3 858 859 860 3 861 862 863 3 864 865 866 3 867 868 869 3 870 871 872 3 873 874 875 3 876 877 878 3 879 880 881 3 882 883 884 3 885 886 887 3 888 889 890 3 891 892 893 3 894 895 896 3 897 898 899 3 900 901 902 3 903 904 905 3 906 907 908 3 909 910 911 3 912 913 914 3 915 916 917 3 918 919 920 3 921 922 923 3 924 925 926 3 927 928 929 3 930 931 932 3 933 934 935 3 936 937 938 3 939 940 941 3 942 943 944 3 945 946 947 3 948 949 950 3 951 952 953 3 954 955 956 3 957 958 959 3 960 961 962 3 963 964 965 3 966 967 968 3 969 970 971 3 972 973 974 3 975 976 977 3 978 979 980 3 981 982 983 3 984 985 986 3 987 988 989 3 990 991 992 3 993 994 995 3 996 997 998 3 999 1000 1001 3 1002 1003 1004 3 1005 1006 1007 3 1008 1009 1010 3 1011 1012 1013 3 1014 1015 1016 3 1017 1018 1019 3 1020 1021 1022 3 1023 1024 1025 3 1026 1027 1028 3 1029 1030 1031 3 1032 1033 1034 3 1035 1036 1037 3 1038 1039 1040 3 1041 1042 1043 3 1044 1045 1046 3 1047 1048 1049 3 1050 1051 1052 3 1053 1054 1055 3 1056 1057 1058 3 1059 1060 1061 3 1062 1063 1064 3 1065 1066 1067 3 1068 1069 1070 3 1071 1072 1073 3 1074 1075 1076 3 1077 1078 1079 3 1080 1081 1082 3 1083 1084 1085 3 1086 1087 1088 3 1089 1090 1091 3 1092 1093 1094 3 1095 1096 1097 3 1098 1099 1100 3 1101 1102 1103 3 1104 1105 1106 3 1107 1108 1109 3 1110 1111 1112 3 1113 1114 1115 3 1116 1117 1118 3 1119 1120 1121 3 1122 1123 1124 3 1125 1126 1127 3 1128 1129 1130 3 1131 1132 1133 3 1134 1135 1136 3 1137 1138 1139 3 1140 1141 1142 3 1143 1144 1145 3 1146 1147 1148 3 1149 1150 1151 3 1152 1153 1154 3 1155 1156 1157 3 1158 1159 1160 3 1161 1162 1163 3 1164 1165 1166 3 1167 1168 1169 3 1170 1171 1172 3 1173 1174 1175 3 1176 1177 1178 3 1179 1180 1181 3 1182 1183 1184 3 1185 1186 1187 3 1188 1189 1190 3 1191 1192 1193 3 1194 1195 1196 3 1197 1198 1199 3 1200 1201 1202 3 1203 1204 1205 3 1206 1207 1208 3 1209 1210 1211 3 1212 1213 1214 3 1215 1216 1217 3 1218 1219 1220 3 1221 1222 1223 3 1224 1225 1226 3 1227 1228 1229 3 1230 1231 1232 3 1233 1234 1235 3 1236 1237 1238 3 1239 1240 1241 3 1242 1243 1244 3 1245 1246 1247 3 1248 1249 1250 3 1251 1252 1253 3 1254 1255 1256 3 1257 1258 1259 3 1260 1261 1262 3 1263 1264 1265 3 1266 1267 1268 3 1269 1270 1271 3 1272 1273 1274 3 1275 1276 1277 3 1278 1279 1280 3 1281 1282 1283 3 1284 1285 1286 3 1287 1288 1289 3 1290 1291 1292 3 1293 1294 1295 3 1296 1297 1298 3 1299 1300 1301 3 1302 1303 1304 3 1305 1306 1307 3 1308 1309 1310 3 1311 1312 1313 3 1314 1315 1316 3 1317 1318 1319 3 1320 1321 1322 3 1323 1324 1325 3 1326 1327 1328 3 1329 1330 1331 3 1332 1333 1334 3 1335 1336 1337 3 1338 1339 1340 3 1341 1342 1343 3 1344 1345 1346 3 1347 1348 1349 3 1350 1351 1352 3 1353 1354 1355 3 1356 1357 1358 3 1359 1360 1361 3 1362 1363 1364 3 1365 1366 1367 3 1368 1369 1370 3 1371 1372 1373 3 1374 1375 1376 3 1377 1378 1379 3 1380 1381 1382 3 1383 1384 1385 3 1386 1387 1388 3 1389 1390 1391 3 1392 1393 1394 3 1395 1396 1397 3 1398 1399 1400 3 1401 1402 1403 3 1404 1405 1406 3 1407 1408 1409 3 1410 1411 1412 3 1413 1414 1415 3 1416 1417 1418 3 1419 1420 1421 3 1422 1423 1424 3 1425 1426 1427 3 1428 1429 1430 3 1431 1432 1433 3 1434 1435 1436 3 1437 1438 1439 3 1440 1441 1442 3 1443 1444 1445 3 1446 1447 1448 3 1449 1450 1451 3 1452 1453 1454 3 1455 1456 1457 3 1458 1459 1460 3 1461 1462 1463 3 1464 1465 1466 3 1467 1468 1469 3 1470 1471 1472 3 1473 1474 1475 3 1476 1477 1478 3 1479 1480 1481 3 1482 1483 1484 3 1485 1486 1487 3 1488 1489 1490 3 1491 1492 1493 3 1494 1495 1496 3 1497 1498 1499 3 1500 1501 1502 3 1503 1504 1505 3 1506 1507 1508 3 1509 1510 1511 3 1512 1513 1514 3 1515 1516 1517 3 1518 1519 1520 3 1521 1522 1523 3 1524 1525 1526 3 1527 1528 1529 3 1530 1531 1532 3 1533 1534 1535 3 1536 1537 1538 3 1539 1540 1541 3 1542 1543 1544 3 1545 1546 1547 3 1548 1549 1550 3 1551 1552 1553 3 1554 1555 1556 3 1557 1558 1559 3 1560 1561 1562 3 1563 1564 1565 3 1566 1567 1568 3 1569 1570 1571 3 1572 1573 1574 3 1575 1576 1577 3 1578 1579 1580 3 1581 1582 1583 3 1584 1585 1586 3 1587 1588 1589 3 1590 1591 1592 3 1593 1594 1595 3 1596 1597 1598 3 1599 1600 1601 3 1602 1603 1604 3 1605 1606 1607 3 1608 1609 1610 3 1611 1612 1613 3 1614 1615 1616 3 1617 1618 1619 3 1620 1621 1622 3 1623 1624 1625 3 1626 1627 1628 3 1629 1630 1631 3 1632 1633 1634 3 1635 1636 1637 