ply
format ascii 1.0
element vertex 2305
property float x
property float y
property float z
property uchar red
property uchar green
property uchar blue
element face 775
property list uchar int vertex_index
end_header
0.654558 1.841938 -3.672610 255 0 0
0.654809 1.841956 -3.672045 255 0 0
0.655061 1.841974 -3.671480 255 0 0
0.655072 1.841900 -3.671007 255 0 0
0.655084 1.841826 -3.670534 255 0 0
0.655245 1.841789 -3.669916 255 0 0
0.655407 1.841752 -3.669299 255 0 0
0.655687 1.841763 -3.668727 255 0 0
0.655967 1.841774 -3.668156 255 0 0
0.655997 1.841693 -3.667679 255 0 0
0.656028 1.841612 -3.667203 255 0 0
0.655701 1.841405 -3.666860 255 0 0
0.655374 1.841198 -3.666517 255 0 0
0.655605 1.841210 -3.665953 255 0 0
0.655836 1.841221 -3.665390 255 0 0
0.656013 1.841217 -3.664776 255 0 0
0.656190 1.841213 -3.664161 255 0 0
0.656409 1.841245 -3.663599 255 0 0
0.656627 1.841277 -3.663037 255 0 0
0.656760 1.841273 -3.662506 255 0 0
0.656892 1.841268 -3.661975 255 0 0
0.656941 1.841225 -3.661480 255 0 0
0.656990 1.841182 -3.660984 255 0 0
0.657218 1.841196 -3.660423 255 0 0
0.657446 1.841210 -3.659862 255 0 0
0.657678 1.841217 -3.659303 255 0 0
0.657910 1.841224 -3.658744 255 0 0
0.658148 1.841222 -3.658187 255 0 0
0.658386 1.841219 -3.657631 255 0 0
0.658480 1.841134 -3.657054 255 0 0
0.658574 1.841049 -3.656478 255 0 0
0.658808 1.841044 -3.655920 255 0 0
0.659042 1.841039 -3.655363 255 0 0
0.659274 1.841037 -3.654804 255 0 0
0.659505 1.841034 -3.654244 255 0 0
0.660850 1.841447 -3.653256 255 0 0
0.662195 1.841859 -3.652268 255 0 0
0.662385 1.841835 -3.651656 255 0 0
0.662574 1.841810 -3.651044 255 0 0
0.662576 1.841738 -3.650568 255 0 0
0.662577 1.841667 -3.650092 255 0 0
0.662836 1.841691 -3.649517 255 0 0
0.663095 1.841716 -3.648942 255 0 0
0.654558 1.841938 -3.672610 0 0 255
0.651961 1.841923 -3.673054 0 0 255
0.649364 1.841908 -3.673497 0 0 255
0.655084 1.841826 -3.670534 0 0 255
0.652224 1.841867 -3.672015 0 0 255
0.649364 1.841908 -3.673497 0 0 255
0.654558 1.841938 -3.672610 0 255 0
0.652344 1.841849 -3.672034 0 255 0
0.650130 1.841761 -3.671459 0 255 0
0.656190 1.841213 -3.664161 0 255 0
0.654287 1.841339 -3.664516 0 255 0
0.652384 1.841466 -3.664870 0 255 0
0.656627 1.841277 -3.663037 0 0 255
0.654506 1.841371 -3.663954 0 0 255
0.652384 1.841466 -3.664870 0 0 255
0.656892 1.841268 -3.661975 0 0 255
0.654638 1.841367 -3.663423 0 0 255
0.652384 1.841466 -3.664870 0 0 255
0.656990 1.841182 -3.660984 0 0 255
0.656775 1.841783 -3.660278 0 0 255
0.656560 1.842385 -3.659572 0 0 255
0.657446 1.841210 -3.659862 0 255 0
0.657003 1.841798 -3.659717 0 255 0
0.656560 1.842385 -3.659572 0 255 0
0.657910 1.841224 -3.658744 0 255 0
0.657235 1.841805 -3.659158 0 255 0
0.656560 1.842385 -3.659572 0 255 0
0.656892 1.841268 -3.661975 0 255 0
0.656726 1.841827 -3.660773 0 255 0
0.656560 1.842385 -3.659572 0 255 0
0.658386 1.841219 -3.657631 0 255 0
0.657892 1.841758 -3.657540 0 255 0
0.657399 1.842296 -3.657450 0 255 0
0.658574 1.841049 -3.656478 0 0 255
0.657986 1.841672 -3.656964 0 0 255
0.657399 1.842296 -3.657450 0 0 255
0.662574 1.841810 -3.651044 255 255 0
0.660523 1.842007 -3.652883 255 255 0
0.658472 1.842204 -3.654721 255 255 0
0.662577 1.841667 -3.650092 0 255 0
0.660525 1.841935 -3.652406 0 255 0
0.658472 1.842204 -3.654721 0 255 0
0.659042 1.841039 -3.655363 0 255 255
0.658757 1.841622 -3.655042 0 255 255
0.658472 1.842204 -3.654721 0 255 255
0.659505 1.841034 -3.654244 0 255 255
0.658988 1.841619 -3.654483 0 255 255
0.658472 1.842204 -3.654721 0 255 255
0.662195 1.841859 -3.652268 255 255 0
0.660334 1.842031 -3.653495 255 255 0
0.658472 1.842204 -3.654721 255 255 0
0.658574 1.841049 -3.656478 255 255 0
0.658523 1.841626 -3.655599 255 255 0
0.658472 1.842204 -3.654721 255 255 0
0.662574 1.841810 -3.651044 255 255 0
0.661872 1.842295 -3.651040 255 255 0
0.661170 1.842780 -3.651035 255 255 0
0.659505 1.841034 -3.654244 0 255 255
0.660338 1.841907 -3.652640 0 255 255
0.661170 1.842780 -3.651035 0 255 255
0.662195 1.841859 -3.652268 0 255 255
0.661683 1.842319 -3.651652 0 255 255
0.661170 1.842780 -3.651035 0 255 255
0.662574 1.841810 -3.651044 255 255 0
0.662242 1.842279 -3.649995 255 255 0
0.661910 1.842748 -3.648946 255 255 0
0.662577 1.841667 -3.650092 0 0 255
0.662244 1.842207 -3.649519 0 0 255
0.661910 1.842748 -3.648946 0 0 255
0.663095 1.841716 -3.648942 0 255 0
0.662502 1.842232 -3.648944 0 255 0
0.661910 1.842748 -3.648946 0 255 0
0.659505 1.841034 -3.654244 0 255 0
0.660707 1.841891 -3.651595 0 255 0
0.661910 1.842748 -3.648946 0 255 0
0.662195 1.841859 -3.652268 0 255 0
0.662053 1.842303 -3.650607 0 255 0
0.661910 1.842748 -3.648946 0 255 0
0.663095 1.841716 -3.648942 0 255 0
0.663203 1.842314 -3.647419 0 255 0
0.663311 1.842913 -3.645896 0 255 0
0.662574 1.841810 -3.651044 0 0 255
0.661136 1.841867 -3.650448 0 0 255
0.659697 1.841924 -3.649853 0 0 255
0.662577 1.841667 -3.650092 0 0 255
0.661137 1.841795 -3.649972 0 0 255
0.659697 1.841924 -3.649853 0 0 255
0.663095 1.841716 -3.648942 0 255 0
0.661396 1.841820 -3.649397 0 255 0
0.659697 1.841924 -3.649853 0 255 0
0.662574 1.841810 -3.651044 255 255 0
0.660963 1.841945 -3.651002 255 255 0
0.659351 1.842080 -3.650960 255 255 0
0.662577 1.841667 -3.650092 0 0 255
0.660964 1.841873 -3.650526 0 0 255
0.659351 1.842080 -3.650960 0 0 255
0.659505 1.841034 -3.654244 0 255 0
0.659428 1.841557 -3.652602 0 255 0
0.659351 1.842080 -3.650960 0 255 0
0.662195 1.841859 -3.652268 0 255 0
0.660773 1.841970 -3.651614 0 255 0
0.659351 1.842080 -3.650960 0 255 0
0.662574 1.841810 -3.651044 0 0 255
0.660505 1.841959 -3.652249 0 0 255
0.658435 1.842107 -3.653454 0 0 255
0.658574 1.841049 -3.656478 0 0 255
0.658505 1.841578 -3.654966 0 0 255
0.658435 1.842107 -3.653454 0 0 255
0.659042 1.841039 -3.655363 0 255 0
0.658739 1.841573 -3.654409 0 255 0
0.658435 1.842107 -3.653454 0 255 0
0.659505 1.841034 -3.654244 0 255 255
0.658970 1.841571 -3.653849 0 255 255
0.658435 1.842107 -3.653454 0 255 255
0.662195 1.841859 -3.652268 255 255 0
0.660315 1.841983 -3.652861 255 255 0
0.658435 1.842107 -3.653454 255 255 0
0.662574 1.841810 -3.651044 0 255 0
0.659961 1.841891 -3.653233 0 255 0
0.657347 1.841971 -3.655422 0 255 0
0.659042 1.841039 -3.655363 0 255 255
0.658195 1.841505 -3.655393 0 255 255
0.657347 1.841971 -3.655422 0 255 255
0.659505 1.841034 -3.654244 0 255 255
0.658426 1.841503 -3.654833 0 255 255
0.657347 1.841971 -3.655422 0 255 255
0.662195 1.841859 -3.652268 255 255 0
0.659771 1.841915 -3.653845 255 255 0
0.657347 1.841971 -3.655422 255 255 0
0.658386 1.841219 -3.657631 0 255 0
0.657867 1.841595 -3.656526 0 255 0
0.657347 1.841971 -3.655422 0 255 0
0.658574 1.841049 -3.656478 0 255 255
0.657961 1.841510 -3.655950 0 255 255
0.657347 1.841971 -3.655422 0 255 255
0.658386 1.841219 -3.657631 0 255 0
0.657552 1.841665 -3.657606 0 255 0
0.656718 1.842110 -3.657582 0 255 0
0.658574 1.841049 -3.656478 0 0 255
0.657646 1.841579 -3.657030 0 0 255
0.656718 1.842110 -3.657582 0 0 255
0.659042 1.841039 -3.655363 0 255 0
0.657880 1.841575 -3.656473 0 255 0
0.656718 1.842110 -3.657582 0 255 0
0.659505 1.841034 -3.654244 0 255 0
0.658112 1.841572 -3.655913 0 255 0
0.656718 1.842110 -3.657582 0 255 0
0.657910 1.841224 -3.658744 0 255 0
0.657314 1.841667 -3.658163 0 255 0
0.656718 1.842110 -3.657582 0 255 0
0.658386 1.841219 -3.657631 0 255 0
0.657276 1.841721 -3.658665 0 255 0
0.656165 1.842223 -3.659698 0 255 0
0.658574 1.841049 -3.656478 0 255 0
0.657370 1.841636 -3.658088 0 255 0
0.656165 1.842223 -3.659698 0 255 0
0.659042 1.841039 -3.655363 0 255 0
0.657604 1.841631 -3.657531 0 255 0
0.656165 1.842223 -3.659698 0 255 0
0.659505 1.841034 -3.654244 0 255 0
0.657835 1.841628 -3.656971 0 255 0
0.656165 1.842223 -3.659698 0 255 0
0.657446 1.841210 -3.659862 0 0 255
0.656806 1.841717 -3.659780 0 0 255
0.656165 1.842223 -3.659698 0 0 255
0.657910 1.841224 -3.658744 0 255 0
0.657038 1.841723 -3.659221 0 255 0
0.656165 1.842223 -3.659698 0 255 0
0.656892 1.841268 -3.661975 0 255 0
0.656529 1.841745 -3.660837 0 255 0
0.656165 1.842223 -3.659698 0 255 0
0.656990 1.841182 -3.660984 0 255 0
0.656578 1.841702 -3.660341 0 255 0
0.656165 1.842223 -3.659698 0 255 0
0.656892 1.841268 -3.661975 0 255 0
0.656499 1.841856 -3.661241 0 255 0
0.656106 1.842443 -3.660507 0 255 0
0.656990 1.841182 -3.660984 0 255 0
0.656548 1.841812 -3.660746 0 255 0
0.656106 1.842443 -3.660507 0 255 0
0.657910 1.841224 -3.658744 0 255 0
0.657008 1.841834 -3.659625 0 255 0
0.656106 1.842443 -3.660507 0 255 0
0.656892 1.841268 -3.661975 255 255 0
0.655922 1.841789 -3.662651 255 255 0
0.654952 1.842309 -3.663326 255 255 0
0.656627 1.841277 -3.663037 0 255 0
0.655790 1.841793 -3.663181 0 255 0
0.654952 1.842309 -3.663326 0 255 0
0.656190 1.841213 -3.664161 0 255 0
0.655571 1.841761 -3.663744 0 255 0
0.654952 1.842309 -3.663326 0 255 0
0.656627 1.841277 -3.663037 0 255 0
0.655561 1.841845 -3.664195 0 255 0
0.654494 1.842414 -3.665353 0 255 0
0.655374 1.841198 -3.666517 0 255 0
0.654651 1.841820 -3.666648 0 255 0
0.653928 1.842441 -3.666780 0 255 0
0.656028 1.841612 -3.667203 0 255 0
0.654842 1.842136 -3.667876 0 255 0
0.653656 1.842660 -3.668549 0 255 0
0.655407 1.841752 -3.669299 0 255 0
0.654531 1.842206 -3.668924 0 255 0
0.653656 1.842660 -3.668549 0 255 0
0.656028 1.841612 -3.667203 0 255 0
0.654379 1.842116 -3.669144 0 255 0
0.652729 1.842621 -3.671085 0 255 0
0.655061 1.841974 -3.671480 255 255 0
0.653895 1.842297 -3.671282 255 255 0
0.652729 1.842621 -3.671085 255 255 0
0.655407 1.841752 -3.669299 0 255 0
0.654068 1.842186 -3.670192 0 255 0
0.652729 1.842621 -3.671085 0 255 0
0.654558 1.841938 -3.672610 0 0 255
0.653643 1.842279 -3.671847 0 0 255
0.652729 1.842621 -3.671085 0 0 255
0.655084 1.841826 -3.670534 0 0 255
0.653907 1.842223 -3.670809 0 0 255
0.652729 1.842621 -3.671085 0 0 255
0.654558 1.841938 -3.672610 0 255 0
0.653527 1.842360 -3.672358 0 255 0
0.652495 1.842782 -3.672106 0 255 0
0.655061 1.841974 -3.671480 0 0 255
0.653778 1.842378 -3.671793 0 0 255
0.652495 1.842782 -3.672106 0 0 255
0.655084 1.841826 -3.670534 0 0 255
0.653790 1.842304 -3.671320 0 0 255
0.652495 1.842782 -3.672106 0 0 255
0.663095 1.841716 -3.648942 0 255 0
0.661665 1.841518 -3.648222 0 255 0
0.660235 1.841320 -3.647502 0 255 0
0.662577 1.841667 -3.650092 0 255 0
0.661284 1.841513 -3.649274 0 255 0
0.659991 1.841360 -3.648455 0 255 0
0.662574 1.841810 -3.651044 0 255 255
0.661155 1.841876 -3.651344 0 255 255
0.659735 1.841942 -3.651643 0 255 255
0.662577 1.841667 -3.650092 255 255 0
0.661156 1.841804 -3.650868 255 255 0
0.659735 1.841942 -3.651643 255 255 0
0.659042 1.841039 -3.655363 0 255 0
0.659389 1.841491 -3.653503 0 255 0
0.659735 1.841942 -3.651643 0 255 0
0.659505 1.841034 -3.654244 255 255 0
0.659620 1.841488 -3.652944 255 255 0
0.659735 1.841942 -3.651643 255 255 0
0.662195 1.841859 -3.652268 0 0 255
0.660965 1.841901 -3.651956 0 0 255
0.659735 1.841942 -3.651643 0 0 255
0.659042 1.841039 -3.655363 0 0 255
0.659048 1.841424 -3.653985 0 0 255
0.659053 1.841809 -3.652607 0 0 255
0.659505 1.841034 -3.654244 0 0 255
0.659279 1.841421 -3.653426 0 0 255
0.659053 1.841809 -3.652607 0 0 255
0.662195 1.841859 -3.652268 0 255 0
0.660624 1.841834 -3.652438 0 255 0
0.659053 1.841809 -3.652607 0 255 0
0.662574 1.841810 -3.651044 0 0 255
0.660814 1.841809 -3.651826 0 0 255
0.659053 1.841809 -3.652607 0 0 255
0.662574 1.841810 -3.651044 0 255 0
0.660693 1.841825 -3.652253 0 255 0
0.658811 1.841840 -3.653463 0 255 0
0.662577 1.841667 -3.650092 0 255 0
0.660694 1.841753 -3.651777 0 255 0
0.658811 1.841840 -3.653463 0 255 0
0.659042 1.841039 -3.655363 0 255 255
0.658927 1.841440 -3.654413 0 255 255
0.658811 1.841840 -3.653463 0 255 255
0.659505 1.841034 -3.654244 0 255 255
0.659158 1.841437 -3.653854 0 255 255
0.658811 1.841840 -3.653463 0 255 255
0.662195 1.841859 -3.652268 0 255 0
0.660503 1.841849 -3.652866 0 255 0
0.658811 1.841840 -3.653463 0 255 0
0.658386 1.841219 -3.657631 0 255 0
0.658599 1.841530 -3.655547 0 255 0
0.658811 1.841840 -3.653463 0 255 0
0.658574 1.841049 -3.656478 255 255 0
0.658692 1.841444 -3.654970 255 255 0
0.658811 1.841840 -3.653463 255 255 0
0.658386 1.841219 -3.657631 0 255 0
0.658454 1.841562 -3.655956 0 255 0
0.658521 1.841904 -3.654282 0 255 0
0.658574 1.841049 -3.656478 255 255 0
0.658547 1.841476 -3.655380 255 255 0
0.658521 1.841904 -3.654282 255 255 0
0.659042 1.841039 -3.655363 0 0 255
0.658782 1.841472 -3.654822 0 0 255
0.658521 1.841904 -3.654282 0 0 255
0.659505 1.841034 -3.654244 255 255 0
0.659013 1.841469 -3.654263 255 255 0
0.658521 1.841904 -3.654282 255 255 0
0.657446 1.841210 -3.659862 0 255 0
0.657983 1.841557 -3.657072 0 255 0
0.658521 1.841904 -3.654282 0 255 0
0.657910 1.841224 -3.658744 0 255 0
0.658216 1.841564 -3.656513 0 255 0
0.658521 1.841904 -3.654282 0 255 0
0.662574 1.841810 -3.651044 0 255 0
0.660268 1.841575 -3.652217 0 255 0
0.657961 1.841340 -3.653391 0 255 0
0.662577 1.841667 -3.650092 0 255 0
0.660269 1.841503 -3.651741 0 255 0
0.657961 1.841340 -3.653391 0 255 0
0.662195 1.841859 -3.652268 0 255 0
0.660078 1.841600 -3.652829 0 255 0
0.657961 1.841340 -3.653391 0 255 0
0.662574 1.841810 -3.651044 0 255 0
0.660004 1.841655 -3.653127 0 255 0
0.657434 1.841499 -3.655210 0 255 0
0.662577 1.841667 -3.650092 0 255 0
0.660006 1.841583 -3.652651 0 255 0
0.657434 1.841499 -3.655210 0 255 0
0.659505 1.841034 -3.654244 0 0 255
0.658469 1.841267 -3.654727 0 0 255
0.657434 1.841499 -3.655210 0 0 255
0.662195 1.841859 -3.652268 0 255 0
0.659815 1.841679 -3.653739 0 255 0
0.657434 1.841499 -3.655210 0 255 0
0.662577 1.841667 -3.650092 0 255 0
0.659866 1.841580 -3.653032 0 255 0
0.657154 1.841494 -3.655973 0 255 0
0.658386 1.841219 -3.657631 255 255 0
0.657770 1.841357 -3.656802 255 255 0
0.657154 1.841494 -3.655973 255 255 0
0.658574 1.841049 -3.656478 0 255 255
0.657864 1.841271 -3.656225 0 255 255
0.657154 1.841494 -3.655973 0 255 255
0.659042 1.841039 -3.655363 255 255 0
0.658098 1.841267 -3.655668 255 255 0
0.657154 1.841494 -3.655973 255 255 0
0.659505 1.841034 -3.654244 255 255 0
0.658329 1.841264 -3.655109 255 255 0
0.657154 1.841494 -3.655973 255 255 0
0.657446 1.841210 -3.659862 0 255 0
0.657300 1.841352 -3.657917 0 255 0
0.657154 1.841494 -3.655973 0 255 0
0.657910 1.841224 -3.658744 0 0 255
0.657532 1.841359 -3.657358 0 0 255
0.657154 1.841494 -3.655973 0 0 255
0.662195 1.841859 -3.652268 0 255 0
0.659675 1.841677 -3.654121 0 255 0
0.657154 1.841494 -3.655973 0 255 0
0.658386 1.841219 -3.657631 0 255 0
0.657598 1.841352 -3.657062 0 255 0
0.656809 1.841484 -3.656494 0 255 0
0.658574 1.841049 -3.656478 255 255 0
0.657692 1.841266 -3.656486 255 255 0
0.656809 1.841484 -3.656494 255 255 0
0.659042 1.841039 -3.655363 0 0 255
0.657926 1.841262 -3.655929 0 0 255
0.656809 1.841484 -3.656494 0 0 255
0.659505 1.841034 -3.654244 0 255 0
0.658157 1.841259 -3.655369 0 255 0
0.656809 1.841484 -3.656494 0 255 0
0.657446 1.841210 -3.659862 0 255 0
0.657128 1.841347 -3.658178 0 255 0
0.656809 1.841484 -3.656494 0 255 0
0.658386 1.841219 -3.657631 255 255 0
0.657484 1.841393 -3.657592 255 255 0
0.656583 1.841567 -3.657552 255 255 0
0.658574 1.841049 -3.656478 255 255 0
0.657578 1.841308 -3.657015 255 255 0
0.656583 1.841567 -3.657552 255 255 0
0.659042 1.841039 -3.655363 0 255 0
0.657813 1.841303 -3.656458 0 255 0
0.656583 1.841567 -3.657552 0 255 0
0.659505 1.841034 -3.654244 0 255 0
0.658044 1.841301 -3.655898 0 255 0
0.656583 1.841567 -3.657552 0 255 0
0.657910 1.841224 -3.658744 0 0 255
0.657247 1.841396 -3.658148 0 0 255
0.656583 1.841567 -3.657552 0 0 255
0.656892 1.841268 -3.661975 0 255 0
0.656738 1.841418 -3.659764 0 255 0
0.656583 1.841567 -3.657552 0 255 0
0.658386 1.841219 -3.657631 0 0 255
0.657132 1.841329 -3.658013 0 0 255
0.655878 1.841439 -3.658394 0 0 255
0.658574 1.841049 -3.656478 0 0 255
0.657226 1.841244 -3.657436 0 0 255
0.655878 1.841439 -3.658394 0 0 255
0.659042 1.841039 -3.655363 0 255 0
0.657460 1.841239 -3.656879 0 255 0
0.655878 1.841439 -3.658394 0 255 0
0.659505 1.841034 -3.654244 0 255 0
0.657691 1.841236 -3.656319 0 255 0
0.655878 1.841439 -3.658394 0 255 0
0.657910 1.841224 -3.658744 0 0 255
0.656894 1.841331 -3.658569 0 0 255
0.655878 1.841439 -3.658394 0 0 255
0.658386 1.841219 -3.657631 0 0 255
0.656825 1.841361 -3.658744 0 0 255
0.655264 1.841502 -3.659858 0 0 255
0.658574 1.841049 -3.656478 0 255 255
0.656919 1.841275 -3.658168 0 255 255
0.655264 1.841502 -3.659858 0 255 255
0.659042 1.841039 -3.655363 0 0 255
0.657153 1.841271 -3.657610 0 0 255
0.655264 1.841502 -3.659858 0 0 255
0.659505 1.841034 -3.654244 0 0 255
0.657384 1.841268 -3.657051 0 0 255
0.655264 1.841502 -3.659858 0 0 255
0.657446 1.841210 -3.659862 0 255 255
0.656355 1.841356 -3.659860 0 255 255
0.655264 1.841502 -3.659858 0 255 255
0.657910 1.841224 -3.658744 255 255 0
0.656587 1.841363 -3.659301 255 255 0
0.655264 1.841502 -3.659858 255 255 0
0.662195 1.841859 -3.652268 0 255 0
0.658730 1.841681 -3.656063 0 255 0
0.655264 1.841502 -3.659858 0 255 0
0.656990 1.841182 -3.660984 0 255 0
0.656127 1.841342 -3.660421 0 255 0
0.655264 1.841502 -3.659858 0 255 0
0.656190 1.841213 -3.664161 0 255 0
0.655727 1.841358 -3.662010 0 255 0
0.655264 1.841502 -3.659858 0 255 0
0.656627 1.841277 -3.663037 0 255 0
0.655946 1.841390 -3.661447 0 255 0
0.655264 1.841502 -3.659858 0 255 0
0.656892 1.841268 -3.661975 0 255 0
0.656078 1.841385 -3.660916 0 255 0
0.655264 1.841502 -3.659858 0 255 0
0.657446 1.841210 -3.659862 0 0 255
0.656225 1.841364 -3.660302 0 0 255
0.655005 1.841518 -3.660743 0 0 255
0.657910 1.841224 -3.658744 0 0 255
0.656458 1.841371 -3.659743 0 0 255
0.655005 1.841518 -3.660743 0 0 255
0.658574 1.841049 -3.656478 0 0 255
0.656789 1.841283 -3.658610 0 0 255
0.655005 1.841518 -3.660743 0 0 255
0.659042 1.841039 -3.655363 0 255 0
0.657024 1.841278 -3.658053 0 255 0
0.655005 1.841518 -3.660743 0 255 0
0.659505 1.841034 -3.654244 0 255 0
0.657255 1.841276 -3.657494 0 255 0
0.655005 1.841518 -3.660743 0 255 0
0.662195 1.841859 -3.652268 0 255 0
0.658600 1.841688 -3.656505 0 255 0
0.655005 1.841518 -3.660743 0 255 0
0.656990 1.841182 -3.660984 255 255 0
0.655998 1.841350 -3.660863 255 255 0
0.655005 1.841518 -3.660743 255 255 0
0.658386 1.841219 -3.657631 0 255 0
0.656409 1.841397 -3.659918 0 255 0
0.654433 1.841575 -3.662206 0 255 0
0.658574 1.841049 -3.656478 0 255 0
0.656503 1.841312 -3.659342 0 255 0
0.654433 1.841575 -3.662206 0 255 0
0.659042 1.841039 -3.655363 0 255 0
0.656737 1.841307 -3.658785 0 255 0
0.654433 1.841575 -3.662206 0 255 0
0.659505 1.841034 -3.654244 0 255 0
0.656969 1.841304 -3.658225 0 255 0
0.654433 1.841575 -3.662206 0 255 0
0.662195 1.841859 -3.652268 0 255 0
0.658314 1.841717 -3.657237 0 255 0
0.654433 1.841575 -3.662206 0 255 0
0.656892 1.841268 -3.661975 0 255 255
0.655373 1.841415 -3.662745 0 255 255
0.653853 1.841563 -3.663516 0 255 255
0.656990 1.841182 -3.660984 255 255 0
0.655422 1.841372 -3.662250 255 255 0
0.653853 1.841563 -3.663516 255 255 0
0.657910 1.841224 -3.658744 0 0 255
0.655882 1.841393 -3.661130 0 0 255
0.653853 1.841563 -3.663516 0 0 255
0.658386 1.841219 -3.657631 0 0 255
0.656119 1.841391 -3.660573 0 0 255
0.653853 1.841563 -3.663516 0 0 255
0.658574 1.841049 -3.656478 0 255 0
0.656213 1.841306 -3.659997 0 255 0
0.653853 1.841563 -3.663516 0 255 0
0.656190 1.841213 -3.664161 0 255 0
0.655022 1.841388 -3.663839 0 255 0
0.653853 1.841563 -3.663516 0 255 0
0.656627 1.841277 -3.663037 0 0 255
0.655240 1.841420 -3.663276 0 0 255
0.653853 1.841563 -3.663516 0 0 255
0.656190 1.841213 -3.664161 0 0 255
0.654944 1.841491 -3.664687 0 0 255
0.653698 1.841769 -3.665213 0 0 255
0.656627 1.841277 -3.663037 0 255 0
0.655163 1.841523 -3.664125 0 255 0
0.653698 1.841769 -3.665213 0 255 0
0.656892 1.841268 -3.661975 0 0 255
0.655295 1.841518 -3.663594 0 0 255
0.653698 1.841769 -3.665213 0 0 255
0.656190 1.841213 -3.664161 0 255 0
0.654619 1.841367 -3.665033 0 255 0
0.653048 1.841520 -3.665904 0 255 0
0.656627 1.841277 -3.663037 0 255 0
0.654838 1.841399 -3.664470 0 255 0
0.653048 1.841520 -3.665904 0 255 0
0.656892 1.841268 -3.661975 0 255 0
0.654970 1.841394 -3.663939 0 255 0
0.653048 1.841520 -3.665904 0 255 0
0.655407 1.841752 -3.669299 0 255 0
0.654014 1.841659 -3.668451 0 255 0
0.652621 1.841567 -3.667602 0 255 0
0.656028 1.841612 -3.667203 0 255 0
0.654242 1.841659 -3.668225 0 255 0
0.652456 1.841707 -3.669248 0 255 0
0.655061 1.841974 -3.671480 0 255 0
0.653758 1.841841 -3.670364 0 255 0
0.652456 1.841707 -3.669248 0 255 0
0.655084 1.841826 -3.670534 0 255 0
0.653770 1.841766 -3.669891 0 255 0
0.652456 1.841707 -3.669248 0 255 0
0.656028 1.841612 -3.667203 0 255 0
0.654055 1.841775 -3.669341 0 255 0
0.652083 1.841939 -3.671480 0 255 0
0.654558 1.841938 -3.672610 0 0 255
0.653320 1.841938 -3.672045 0 0 255
0.652083 1.841939 -3.671480 0 0 255
0.655061 1.841974 -3.671480 255 255 0
0.653572 1.841956 -3.671480 255 255 0
0.652083 1.841939 -3.671480 255 255 0
0.655084 1.841826 -3.670534 0 0 255
0.653583 1.841882 -3.671007 0 0 255
0.652083 1.841939 -3.671480 0 0 255
0.654558 1.841938 -3.672610 0 0 255
0.653212 1.841930 -3.672607 0 0 255
0.651865 1.841923 -3.672604 0 0 255
0.655061 1.841974 -3.671480 0 0 255
0.653463 1.841948 -3.672042 0 0 255
0.651865 1.841923 -3.672604 0 0 255
0.655084 1.841826 -3.670534 255 255 0
0.653475 1.841874 -3.671569 255 255 0
0.651865 1.841923 -3.672604 255 255 0
0.654558 1.841938 -3.672610 0 0 255
0.652928 1.841902 -3.673245 0 0 255
0.651298 1.841865 -3.673881 0 0 255
0.655061 1.841974 -3.671480 0 0 255
0.653180 1.841920 -3.672680 0 0 255
0.651298 1.841865 -3.673881 0 0 255
0.655084 1.841826 -3.670534 0 0 255
0.653191 1.841845 -3.672207 0 0 255
0.651298 1.841865 -3.673881 0 0 255
0.654558 1.841938 -3.672610 0 0 255
0.652655 1.841914 -3.674060 0 0 255
0.650753 1.841891 -3.675510 0 0 255
0.655061 1.841974 -3.671480 0 0 255
0.652907 1.841932 -3.673495 0 0 255
0.650753 1.841891 -3.675510 0 0 255
0.655084 1.841826 -3.670534 0 0 255
0.652918 1.841858 -3.673022 0 0 255
0.650753 1.841891 -3.675510 0 0 255
0.655084 1.841826 -3.670534 0 255 0
0.652820 1.841874 -3.673524 0 255 0
0.650556 1.841922 -3.676515 0 255 0
0.663095 1.841716 -3.648942 0 255 0
0.662870 1.841837 -3.647772 0 255 0
0.662646 1.841959 -3.646603 0 255 0
0.662577 1.841667 -3.650092 0 255 0
0.662340 1.841805 -3.648798 0 255 0
0.662103 1.841943 -3.647503 0 255 0
0.662574 1.841810 -3.651044 0 0 255
0.661827 1.842028 -3.650531 0 0 255
0.661080 1.842245 -3.650019 0 0 255
0.662577 1.841667 -3.650092 0 255 0
0.661829 1.841956 -3.650055 0 255 0
0.661080 1.842245 -3.650019 0 255 0
0.662574 1.841810 -3.651044 255 255 0
0.661591 1.842093 -3.651069 255 255 0
0.660608 1.842376 -3.651094 255 255 0
0.662577 1.841667 -3.650092 0 255 0
0.661593 1.842021 -3.650593 0 255 0
0.660608 1.842376 -3.651094 0 255 0
0.659505 1.841034 -3.654244 0 0 255
0.660057 1.841705 -3.652669 0 0 255
0.660608 1.842376 -3.651094 0 0 255
0.662195 1.841859 -3.652268 0 0 255
0.661402 1.842118 -3.651681 0 0 255
0.660608 1.842376 -3.651094 0 0 255
0.662574 1.841810 -3.651044 0 0 255
0.661366 1.842152 -3.651621 0 0 255
0.660158 1.842494 -3.652197 0 0 255
0.662577 1.841667 -3.650092 0 255 0
0.661368 1.842080 -3.651145 0 255 0
0.660158 1.842494 -3.652197 0 255 0
0.659505 1.841034 -3.654244 0 255 0
0.659832 1.841764 -3.653221 0 255 0
0.660158 1.842494 -3.652197 0 255 0
0.662195 1.841859 -3.652268 0 0 255
0.661177 1.842176 -3.652233 0 0 255
0.660158 1.842494 -3.652197 0 0 255
0.659042 1.841039 -3.655363 0 0 255
0.659403 1.841808 -3.654357 0 0 255
0.659764 1.842577 -3.653350 0 0 255
0.659505 1.841034 -3.654244 0 255 255
0.659634 1.841806 -3.653797 0 255 255
0.659764 1.842577 -3.653350 0 255 255
0.662195 1.841859 -3.652268 0 0 255
0.660980 1.842218 -3.652809 0 0 255
0.659764 1.842577 -3.653350 0 0 255
0.657446 1.841210 -3.659862 0 255 0
0.658605 1.841894 -3.656606 0 255 0
0.659764 1.842577 -3.653350 0 255 0
0.657910 1.841224 -3.658744 0 255 0
0.658837 1.841901 -3.656047 0 255 0
0.659764 1.842577 -3.653350 0 255 0
0.662574 1.841810 -3.651044 0 0 255
0.661169 1.842194 -3.652197 0 0 255
0.659764 1.842577 -3.653350 0 0 255
0.659042 1.841039 -3.655363 0 0 255
0.659289 1.841763 -3.654446 0 0 255
0.659536 1.842486 -3.653529 0 0 255
0.659505 1.841034 -3.654244 0 255 255
0.659520 1.841760 -3.653887 0 255 255
0.659536 1.842486 -3.653529 0 255 255
0.662195 1.841859 -3.652268 0 0 255
0.660866 1.842173 -3.652899 0 0 255
0.659536 1.842486 -3.653529 0 0 255
0.657446 1.841210 -3.659862 0 255 0
0.658491 1.841848 -3.656695 0 255 0
0.659536 1.842486 -3.653529 0 255 0
0.657910 1.841224 -3.658744 0 255 0
0.658723 1.841855 -3.656136 0 255 0
0.659536 1.842486 -3.653529 0 255 0
0.662574 1.841810 -3.651044 0 0 255
0.661055 1.842148 -3.652286 0 0 255
0.659536 1.842486 -3.653529 0 0 255
0.659042 1.841039 -3.655363 0 0 255
0.659186 1.841776 -3.654843 0 0 255
0.659330 1.842512 -3.654323 0 0 255
0.659505 1.841034 -3.654244 255 255 0
0.659417 1.841773 -3.654284 255 255 0
0.659330 1.842512 -3.654323 255 255 0
0.662195 1.841859 -3.652268 0 255 0
0.660763 1.842186 -3.653295 0 255 0
0.659330 1.842512 -3.654323 0 255 0
0.658386 1.841219 -3.657631 0 255 0
0.658858 1.841866 -3.655977 0 255 0
0.659330 1.842512 -3.654323 0 255 0
0.658574 1.841049 -3.656478 0 0 255
0.658952 1.841780 -3.655400 0 0 255
0.659330 1.842512 -3.654323 0 0 255
0.657446 1.841210 -3.659862 0 255 0
0.658388 1.841861 -3.657092 0 255 0
0.659330 1.842512 -3.654323 0 255 0
0.657910 1.841224 -3.658744 0 255 0
0.658620 1.841868 -3.656533 0 255 0
0.659330 1.842512 -3.654323 0 255 0
0.659042 1.841039 -3.655363 0 0 255
0.659126 1.841770 -3.655058 0 0 255
0.659210 1.842501 -3.654753 0 0 255
0.659505 1.841034 -3.654244 0 255 255
0.659357 1.841767 -3.654499 0 255 255
0.659210 1.842501 -3.654753 0 255 255
0.662195 1.841859 -3.652268 0 255 0
0.660703 1.842180 -3.653510 0 255 0
0.659210 1.842501 -3.654753 0 255 0
0.658386 1.841219 -3.657631 0 255 0
0.658798 1.841860 -3.656192 0 255 0
0.659210 1.842501 -3.654753 0 255 0
0.658574 1.841049 -3.656478 0 0 255
0.658892 1.841775 -3.655615 0 0 255
0.659210 1.842501 -3.654753 0 0 255
0.657446 1.841210 -3.659862 0 255 0
0.658328 1.841855 -3.657307 0 255 0
0.659210 1.842501 -3.654753 0 255 0
0.657910 1.841224 -3.658744 0 255 0
0.658560 1.841862 -3.656748 0 255 0
0.659210 1.842501 -3.654753 0 255 0
0.658386 1.841219 -3.657631 0 255 0
0.658654 1.841864 -3.656809 0 255 0
0.658923 1.842508 -3.655987 0 255 0
0.658574 1.841049 -3.656478 0 0 255
0.658748 1.841778 -3.656232 0 0 255
0.658923 1.842508 -3.655987 0 0 255
0.659042 1.841039 -3.655363 0 0 255
0.658982 1.841774 -3.655675 0 0 255
0.658923 1.842508 -3.655987 0 0 255
0.659505 1.841034 -3.654244 255 255 0
0.659214 1.841771 -3.655116 255 255 0
0.658923 1.842508 -3.655987 255 255 0
0.662574 1.841810 -3.651044 0 255 0
0.659097 1.841141 -3.652429 0 255 0
0.655621 1.840472 -3.653813 0 255 0
0.662577 1.841667 -3.650092 0 255 0
0.658963 1.841105 -3.652594 0 255 0
0.655348 1.840543 -3.655096 0 255 0
0.659505 1.841034 -3.654244 0 255 0
0.657427 1.840789 -3.654670 0 255 0
0.655348 1.840543 -3.655096 0 255 0
0.662577 1.841667 -3.650092 0 255 0
0.659165 1.841304 -3.653368 0 255 0
0.655753 1.840942 -3.656645 0 255 0
0.658386 1.841219 -3.657631 0 0 255
0.657070 1.841081 -3.657138 0 0 255
0.655753 1.840942 -3.656645 0 0 255
0.658574 1.841049 -3.656478 0 0 255
0.657163 1.840995 -3.656561 0 0 255
0.655753 1.840942 -3.656645 0 0 255
0.659042 1.841039 -3.655363 0 255 0
0.657398 1.840991 -3.656004 0 255 0
0.655753 1.840942 -3.656645 0 255 0
0.659505 1.841034 -3.654244 255 255 0
0.657629 1.840988 -3.655444 255 255 0
0.655753 1.840942 -3.656645 255 255 0
0.657446 1.841210 -3.659862 0 255 0
0.656599 1.841076 -3.658253 0 255 0
0.655753 1.840942 -3.656645 0 255 0
0.657910 1.841224 -3.658744 255 255 0
0.656832 1.841083 -3.657694 255 255 0
0.655753 1.840942 -3.656645 255 255 0
0.662195 1.841859 -3.652268 0 255 0
0.658974 1.841400 -3.654456 0 255 0
0.655753 1.840942 -3.656645 0 255 0
0.659042 1.841039 -3.655363 0 0 255
0.657454 1.841134 -3.656650 0 0 255
0.655865 1.841228 -3.657936 0 0 255
0.659505 1.841034 -3.654244 0 0 255
0.657685 1.841131 -3.656090 0 0 255
0.655865 1.841228 -3.657936 0 0 255
0.662195 1.841859 -3.652268 0 0 255
0.659030 1.841544 -3.655102 0 0 255
0.655865 1.841228 -3.657936 0 0 255
0.657446 1.841210 -3.659862 0 255 0
0.656655 1.841219 -3.658899 0 255 0
0.655865 1.841228 -3.657936 0 255 0
0.657910 1.841224 -3.658744 255 255 0
0.656888 1.841226 -3.658340 255 255 0
0.655865 1.841228 -3.657936 255 255 0
0.658386 1.841219 -3.657631 0 255 0
0.657125 1.841224 -3.657784 0 255 0
0.655865 1.841228 -3.657936 0 255 0
0.658574 1.841049 -3.656478 0 255 0
0.657219 1.841138 -3.657207 0 255 0
0.655865 1.841228 -3.657936 0 255 0
0.659042 1.841039 -3.655363 255 255 0
0.657193 1.840979 -3.656517 255 255 0
0.655344 1.840918 -3.657671 255 255 0
0.659505 1.841034 -3.654244 255 255 0
0.657424 1.840976 -3.655958 255 255 0
0.655344 1.840918 -3.657671 255 255 0
0.662195 1.841859 -3.652268 0 0 255
0.658770 1.841389 -3.654970 0 0 255
0.655344 1.840918 -3.657671 0 0 255
0.658386 1.841219 -3.657631 0 0 255
0.656865 1.841069 -3.657651 0 0 255
0.655344 1.840918 -3.657671 0 0 255
0.658574 1.841049 -3.656478 255 255 0
0.656959 1.840983 -3.657075 255 255 0
0.655344 1.840918 -3.657671 255 255 0
0.657446 1.841210 -3.659862 0 255 0
0.656395 1.841064 -3.658767 0 255 0
0.655344 1.840918 -3.657671 0 255 0
0.657910 1.841224 -3.658744 0 255 255
0.656627 1.841071 -3.658208 0 255 255
0.655344 1.840918 -3.657671 0 255 255
0.658386 1.841219 -3.657631 0 0 255
0.656720 1.841118 -3.658293 0 0 255
0.655054 1.841017 -3.658956 0 0 255
0.658574 1.841049 -3.656478 255 255 0
0.656814 1.841033 -3.657717 255 255 0
0.655054 1.841017 -3.658956 255 255 0
0.659042 1.841039 -3.655363 0 0 255
0.657048 1.841028 -3.657159 0 0 255
0.655054 1.841017 -3.658956 0 0 255
0.659505 1.841034 -3.654244 0 0 255
0.657280 1.841026 -3.656600 0 0 255
0.655054 1.841017 -3.658956 0 0 255
0.657446 1.841210 -3.659862 0 255 0
0.656250 1.841114 -3.659409 0 255 0
0.655054 1.841017 -3.658956 0 255 0
0.657910 1.841224 -3.658744 0 255 0
0.656482 1.841121 -3.658850 0 255 0
0.655054 1.841017 -3.658956 0 255 0
0.662195 1.841859 -3.652268 0 255 0
0.658625 1.841438 -3.655612 0 255 0
0.655054 1.841017 -3.658956 0 255 0
0.659042 1.841039 -3.655363 0 255 0
0.656709 1.840923 -3.657421 0 255 0
0.654377 1.840807 -3.659478 0 255 0
0.659505 1.841034 -3.654244 0 255 0
0.656941 1.840921 -3.656861 0 255 0
0.654377 1.840807 -3.659478 0 255 0
0.662195 1.841859 -3.652268 0 255 0
0.658286 1.841333 -3.655873 0 255 0
0.654377 1.840807 -3.659478 0 255 0
0.658574 1.841049 -3.656478 0 255 0
0.656475 1.840928 -3.657978 0 255 0
0.654377 1.840807 -3.659478 0 255 0
0.657446 1.841210 -3.659862 0 255 0
0.655911 1.841009 -3.659670 0 255 0
0.654377 1.840807 -3.659478 0 255 0
0.657910 1.841224 -3.658744 0 255 0
0.656143 1.841016 -3.659111 0 255 0
0.654377 1.840807 -3.659478 0 255 0
0.658386 1.841219 -3.657631 0 255 0
0.656381 1.841013 -3.658555 0 255 0
0.654377 1.840807 -3.659478 0 255 0
0.656990 1.841182 -3.660984 0 255 0
0.655683 1.840994 -3.660231 0 255 0
0.654377 1.840807 -3.659478 0 255 0
0.658574 1.841049 -3.656478 0 255 0
0.656647 1.841109 -3.658693 0 255 0
0.654721 1.841170 -3.660909 0 255 0
0.659042 1.841039 -3.655363 0 255 0
0.656882 1.841105 -3.658136 0 255 0
0.654721 1.841170 -3.660909 0 255 0
0.659505 1.841034 -3.654244 0 255 0
0.657113 1.841102 -3.657577 0 255 0
0.654721 1.841170 -3.660909 0 255 0
0.662195 1.841859 -3.652268 0 255 0
0.658458 1.841515 -3.656589 0 255 0
0.654721 1.841170 -3.660909 0 255 0
0.659042 1.841039 -3.655363 0 255 0
0.656329 1.840766 -3.657583 0 255 0
0.653615 1.840492 -3.659802 0 255 0
0.659505 1.841034 -3.654244 0 0 255
0.656560 1.840763 -3.657023 0 0 255
0.653615 1.840492 -3.659802 0 0 255
0.662195 1.841859 -3.652268 0 0 255
0.657905 1.841175 -3.656035 0 0 255
0.653615 1.840492 -3.659802 0 0 255
0.658386 1.841219 -3.657631 255 255 0
0.656000 1.840856 -3.658717 255 255 0
0.653615 1.840492 -3.659802 255 255 0
0.658574 1.841049 -3.656478 255 255 0
0.656094 1.840770 -3.658140 255 255 0
0.653615 1.840492 -3.659802 255 255 0
0.657910 1.841224 -3.658744 0 255 0
0.655763 1.840858 -3.659273 0 255 0
0.653615 1.840492 -3.659802 0 255 0
0.658386 1.841219 -3.657631 0 0 255
0.656152 1.841022 -3.659391 0 0 255
0.653918 1.840825 -3.661152 0 0 255
0.658574 1.841049 -3.656478 0 255 0
0.656246 1.840937 -3.658815 0 255 0
0.653918 1.840825 -3.661152 0 255 0
0.659042 1.841039 -3.655363 0 255 0
0.656480 1.840932 -3.658258 0 255 0
0.653918 1.840825 -3.661152 0 255 0
0.659505 1.841034 -3.654244 0 255 0
0.656711 1.840930 -3.657698 0 255 0
0.653918 1.840825 -3.661152 0 255 0
0.657446 1.841210 -3.659862 0 255 0
0.655682 1.841018 -3.660507 0 255 0
0.653918 1.840825 -3.661152 0 255 0
0.657910 1.841224 -3.658744 0 0 255
0.655914 1.841025 -3.659948 0 0 255
0.653918 1.840825 -3.661152 0 0 255
0.656990 1.841182 -3.660984 0 255 0
0.655454 1.841003 -3.661068 0 255 0
0.653918 1.840825 -3.661152 0 255 0
0.657446 1.841210 -3.659862 0 255 0
0.655219 1.840804 -3.660511 0 255 0
0.652992 1.840397 -3.661159 0 255 0
0.657910 1.841224 -3.658744 0 255 0
0.655451 1.840811 -3.659951 0 255 0
0.652992 1.840397 -3.661159 0 255 0
0.657446 1.841210 -3.659862 0 255 0
0.655013 1.840791 -3.661029 0 255 0
0.652579 1.840372 -3.662195 0 255 0
0.657910 1.841224 -3.658744 0 255 0
0.655245 1.840798 -3.660469 0 255 0
0.652579 1.840372 -3.662195 0 255 0
0.656892 1.841268 -3.661975 0 255 0
0.654736 1.840820 -3.662085 0 255 0
0.652579 1.840372 -3.662195 0 255 0
0.656990 1.841182 -3.660984 255 255 0
0.654785 1.840777 -3.661590 255 255 0
0.652579 1.840372 -3.662195 255 255 0
0.657446 1.841210 -3.659862 0 255 0
0.654911 1.840759 -3.661193 0 255 0
0.652376 1.840307 -3.662525 0 255 0
0.657910 1.841224 -3.658744 0 255 0
0.655143 1.840766 -3.660634 0 255 0
0.652376 1.840307 -3.662525 0 255 0
0.656990 1.841182 -3.660984 0 0 255
0.654683 1.840744 -3.661755 0 0 255
0.652376 1.840307 -3.662525 0 0 255
0.657446 1.841210 -3.659862 0 255 0
0.654688 1.840671 -3.661316 0 255 0
0.651929 1.840132 -3.662770 0 255 0
0.657910 1.841224 -3.658744 0 255 0
0.654920 1.840678 -3.660757 0 255 0
0.651929 1.840132 -3.662770 0 255 0
0.656892 1.841268 -3.661975 0 255 0
0.654411 1.840700 -3.662373 0 255 0
0.651929 1.840132 -3.662770 0 255 0
0.656990 1.841182 -3.660984 255 255 0
0.654460 1.840657 -3.661877 255 255 0
0.651929 1.840132 -3.662770 255 255 0
0.657446 1.841210 -3.659862 0 255 0
0.654670 1.840715 -3.661630 0 255 0
0.651894 1.840220 -3.663397 0 255 0
0.657910 1.841224 -3.658744 0 255 0
0.654902 1.840722 -3.661071 0 255 0
0.651894 1.840220 -3.663397 0 255 0
0.656892 1.841268 -3.661975 0 255 0
0.654393 1.840744 -3.662686 0 255 0
0.651894 1.840220 -3.663397 0 255 0
0.656990 1.841182 -3.660984 255 255 0
0.654442 1.840701 -3.662191 255 255 0
0.651894 1.840220 -3.663397 255 255 0
0.656892 1.841268 -3.661975 0 255 0
0.654252 1.840796 -3.663349 0 255 0
0.651612 1.840324 -3.664724 0 255 0
0.656190 1.841213 -3.664161 0 255 0
0.653959 1.840980 -3.665519 0 255 0
0.651727 1.840748 -3.666876 0 255 0
0.656627 1.841277 -3.663037 0 255 0
0.654177 1.841012 -3.664957 0 255 0
0.651727 1.840748 -3.666876 0 255 0
0.656892 1.841268 -3.661975 0 255 0
0.654310 1.841008 -3.664426 0 255 0
0.651727 1.840748 -3.666876 0 255 0
0.654558 1.841938 -3.672610 0 0 255
0.653529 1.842010 -3.672711 0 0 255
0.652501 1.842082 -3.672813 0 0 255
0.655061 1.841974 -3.671480 0 255 0
0.653781 1.842028 -3.672147 0 255 0
0.652501 1.842082 -3.672813 0 255 0
0.655084 1.841826 -3.670534 0 0 255
0.653792 1.841954 -3.671673 0 0 255
0.652501 1.842082 -3.672813 0 0 255
0.654558 1.841938 -3.672610 0 255 0
0.653295 1.841979 -3.673208 0 255 0
0.652033 1.842020 -3.673807 0 255 0
0.655084 1.841826 -3.670534 0 255 0
0.653558 1.841923 -3.672170 0 255 0
0.652033 1.842020 -3.673807 0 255 0
0.663095 1.841716 -3.648942 0 255 0
0.661661 1.841570 -3.648462 0 255 0
0.660226 1.841424 -3.647982 0 255 0
0.662574 1.841810 -3.651044 0 0 255
0.661144 1.841663 -3.650717 0 0 255
0.659714 1.841516 -3.650389 0 0 255
0.662577 1.841667 -3.650092 0 0 255
0.661146 1.841591 -3.650241 0 0 255
0.659714 1.841516 -3.650389 0 0 255
0.662574 1.841810 -3.651044 0 255 0
0.660901 1.841622 -3.651127 0 255 0
0.659227 1.841434 -3.651210 0 255 0
0.662577 1.841667 -3.650092 0 255 0
0.660902 1.841550 -3.650651 0 255 0
0.659227 1.841434 -3.651210 0 255 0
0.662574 1.841810 -3.651044 0 255 0
0.660668 1.841591 -3.651553 0 255 0
0.658762 1.841371 -3.652063 0 255 0
0.662577 1.841667 -3.650092 0 255 0
0.660670 1.841519 -3.651077 0 255 0
0.658762 1.841371 -3.652063 0 255 0
0.662574 1.841810 -3.651044 0 255 0
0.660567 1.841631 -3.652115 0 255 0
0.658560 1.841451 -3.653187 0 255 0
0.662577 1.841667 -3.650092 0 255 0
0.660569 1.841559 -3.651639 0 255 0
0.658560 1.841451 -3.653187 0 255 0
0.662195 1.841859 -3.652268 0 255 0
0.660378 1.841655 -3.652728 0 255 0
0.658560 1.841451 -3.653187 0 255 0
0.658386 1.841219 -3.657631 0 0 255
0.658376 1.841409 -3.656102 0 0 255
0.658367 1.841599 -3.654574 0 0 255
0.658574 1.841049 -3.656478 0 255 255
0.658470 1.841324 -3.655526 0 255 255
0.658367 1.841599 -3.654574 0 255 255
0.659042 1.841039 -3.655363 0 0 255
0.658705 1.841319 -3.654969 0 0 255
0.658367 1.841599 -3.654574 0 0 255
0.659505 1.841034 -3.654244 255 255 0
0.658936 1.841316 -3.654409 255 255 0
0.658367 1.841599 -3.654574 255 255 0
0.657446 1.841210 -3.659862 0 255 0
0.657906 1.841404 -3.657218 0 255 0
0.658367 1.841599 -3.654574 0 255 0
0.657910 1.841224 -3.658744 0 255 0
0.658139 1.841411 -3.656659 0 255 0
0.658367 1.841599 -3.654574 0 255 0
0.662195 1.841859 -3.652268 0 255 0
0.660281 1.841729 -3.653421 0 255 0
0.658367 1.841599 -3.654574 0 255 0
0.662574 1.841810 -3.651044 0 255 0
0.660266 1.841721 -3.653269 0 255 0
0.657957 1.841632 -3.655494 0 255 0
0.659505 1.841034 -3.654244 0 255 0
0.658731 1.841333 -3.654869 0 255 0
0.657957 1.841632 -3.655494 0 255 0
0.662195 1.841859 -3.652268 0 255 0
0.660076 1.841745 -3.653881 0 255 0
0.657957 1.841632 -3.655494 0 255 0
0.657910 1.841224 -3.658744 0 255 0
0.657697 1.841431 -3.657550 0 255 0
0.657484 1.841637 -3.656357 0 255 0
0.658386 1.841219 -3.657631 0 255 0
0.657935 1.841428 -3.656994 0 255 0
0.657484 1.841637 -3.656357 0 255 0
0.658574 1.841049 -3.656478 0 255 0
0.658029 1.841343 -3.656417 0 255 0
0.657484 1.841637 -3.656357 0 255 0
0.657910 1.841224 -3.658744 0 255 0
0.657647 1.841520 -3.658163 0 255 0
0.657383 1.841816 -3.657582 0 255 0
0.658386 1.841219 -3.657631 0 255 0
0.657885 1.841518 -3.657606 0 255 0
0.657383 1.841816 -3.657582 0 255 0
0.658574 1.841049 -3.656478 0 255 0
0.657978 1.841432 -3.657030 0 255 0
0.657383 1.841816 -3.657582 0 255 0
0.659042 1.841039 -3.655363 0 255 0
0.658213 1.841428 -3.656472 0 255 0
0.657383 1.841816 -3.657582 0 255 0
0.659505 1.841034 -3.654244 0 255 0
0.658444 1.841425 -3.655913 0 255 0
0.657383 1.841816 -3.657582 0 255 0
0.658386 1.841219 -3.657631 0 255 255
0.657707 1.841535 -3.658089 0 255 255
0.657027 1.841850 -3.658548 0 255 255
0.658574 1.841049 -3.656478 255 255 0
0.657800 1.841449 -3.657513 255 255 0
0.657027 1.841850 -3.658548 255 255 0
0.659042 1.841039 -3.655363 0 255 0
0.658035 1.841445 -3.656956 0 255 0
0.657027 1.841850 -3.658548 0 255 0
0.659505 1.841034 -3.654244 0 255 0
0.658266 1.841442 -3.656396 0 255 0
0.657027 1.841850 -3.658548 0 255 0
0.657446 1.841210 -3.659862 0 0 255
0.657236 1.841530 -3.659205 0 0 255
0.657027 1.841850 -3.658548 0 0 255
0.657910 1.841224 -3.658744 0 255 255
0.657469 1.841537 -3.658646 0 255 255
0.657027 1.841850 -3.658548 0 255 255
0.656892 1.841268 -3.661975 0 255 0
0.656960 1.841559 -3.660262 0 255 0
0.657027 1.841850 -3.658548 0 255 0
0.656990 1.841182 -3.660984 0 255 255
0.657009 1.841516 -3.659766 0 255 255
0.657027 1.841850 -3.658548 0 255 255
0.658386 1.841219 -3.657631 0 0 255
0.657410 1.841481 -3.658451 0 0 255
0.656435 1.841743 -3.659270 0 0 255
0.658574 1.841049 -3.656478 0 255 255
0.657504 1.841396 -3.657874 0 255 255
0.656435 1.841743 -3.659270 0 255 255
0.659042 1.841039 -3.655363 0 255 0
0.657739 1.841391 -3.657317 0 255 0
0.656435 1.841743 -3.659270 0 255 0
0.659505 1.841034 -3.654244 0 255 0
0.657970 1.841388 -3.656757 0 255 0
0.656435 1.841743 -3.659270 0 255 0
0.656892 1.841268 -3.661975 0 0 255
0.656664 1.841505 -3.660623 0 0 255
0.656435 1.841743 -3.659270 0 0 255
0.656990 1.841182 -3.660984 0 255 0
0.656712 1.841462 -3.660127 0 255 0
0.656435 1.841743 -3.659270 0 255 0
0.657910 1.841224 -3.658744 0 255 0
0.657173 1.841483 -3.659007 0 255 0
0.656435 1.841743 -3.659270 0 255 0
0.658386 1.841219 -3.657631 0 255 0
0.657241 1.841486 -3.659090 0 255 0
0.656096 1.841753 -3.660549 0 255 0
0.658574 1.841049 -3.656478 0 0 255
0.657335 1.841401 -3.658513 0 0 255
0.656096 1.841753 -3.660549 0 0 255
0.659042 1.841039 -3.655363 0 255 0
0.657569 1.841396 -3.657956 0 255 0
0.656096 1.841753 -3.660549 0 255 0
0.659505 1.841034 -3.654244 0 255 0
0.657801 1.841394 -3.657397 0 255 0
0.656096 1.841753 -3.660549 0 255 0
0.662195 1.841859 -3.652268 0 255 0
0.659146 1.841806 -3.656409 0 255 0
0.656096 1.841753 -3.660549 0 255 0
0.656892 1.841268 -3.661975 255 255 0
0.656494 1.841511 -3.661262 255 255 0
0.656096 1.841753 -3.660549 255 255 0
0.656990 1.841182 -3.660984 0 255 0
0.656543 1.841467 -3.660767 0 255 0
0.656096 1.841753 -3.660549 0 255 0
0.656627 1.841277 -3.663037 0 0 255
0.656362 1.841515 -3.661793 0 0 255
0.656096 1.841753 -3.660549 0 0 255
0.657446 1.841210 -3.659862 0 0 255
0.656592 1.841462 -3.660673 0 0 255
0.655739 1.841713 -3.661483 0 0 255
0.657910 1.841224 -3.658744 255 255 0
0.656824 1.841468 -3.660113 255 255 0
0.655739 1.841713 -3.661483 255 255 0
0.658386 1.841219 -3.657631 0 0 255
0.657062 1.841466 -3.659557 0 0 255
0.655739 1.841713 -3.661483 0 0 255
0.658574 1.841049 -3.656478 0 255 0
0.657156 1.841381 -3.658980 0 255 0
0.655739 1.841713 -3.661483 0 255 0
0.656892 1.841268 -3.661975 255 255 0
0.656315 1.841490 -3.661729 255 255 0
0.655739 1.841713 -3.661483 255 255 0
0.656990 1.841182 -3.660984 0 0 255
0.656364 1.841447 -3.661234 0 0 255
0.655739 1.841713 -3.661483 0 0 255
0.656627 1.841277 -3.663037 0 255 0
0.656183 1.841495 -3.662260 0 255 0
0.655739 1.841713 -3.661483 0 255 0
0.657910 1.841224 -3.658744 0 255 0
0.656621 1.841425 -3.660550 0 255 0
0.655331 1.841627 -3.662357 0 255 0
0.658386 1.841219 -3.657631 0 255 0
0.656859 1.841423 -3.659994 0 255 0
0.655331 1.841627 -3.662357 0 255 0
0.656627 1.841277 -3.663037 0 255 0
0.655884 1.841449 -3.663239 0 255 0
0.655141 1.841622 -3.663440 0 255 0
0.656892 1.841268 -3.661975 0 255 0
0.656017 1.841445 -3.662708 0 255 0
0.655141 1.841622 -3.663440 0 255 0
0.658386 1.841219 -3.657631 0 255 0
0.656764 1.841421 -3.660535 0 255 0
0.655141 1.841622 -3.663440 0 255 0
0.656190 1.841213 -3.664161 0 255 0
0.655492 1.841397 -3.664449 0 255 0
0.654794 1.841582 -3.664736 0 255 0
0.656892 1.841268 -3.661975 0 255 0
0.655843 1.841425 -3.663356 0 255 0
0.654794 1.841582 -3.664736 0 255 0
0.656190 1.841213 -3.664161 0 0 255
0.655432 1.841445 -3.665035 0 0 255
0.654673 1.841678 -3.665909 0 0 255
0.656627 1.841277 -3.663037 0 255 0
0.655650 1.841478 -3.664473 0 255 0
0.654673 1.841678 -3.665909 0 255 0
0.656892 1.841268 -3.661975 0 0 255
0.655783 1.841473 -3.663942 0 0 255
0.654673 1.841678 -3.665909 0 0 255
0.655407 1.841752 -3.669299 0 255 0
0.654796 1.841695 -3.668019 0 255 0
0.654185 1.841639 -3.666740 0 255 0
0.656190 1.841213 -3.664161 0 255 0
0.655188 1.841426 -3.665451 0 255 0
0.654185 1.841639 -3.666740 0 255 0
0.655407 1.841752 -3.669299 0 255 0
0.654725 1.841772 -3.668611 0 255 0
0.654042 1.841793 -3.667924 0 255 0
0.655374 1.841198 -3.666517 0 255 0
0.653544 1.841134 -3.667385 0 255 0
0.651714 1.841069 -3.668253 0 255 0
0.655084 1.841826 -3.670534 0 0 255
0.653357 1.841554 -3.670164 0 0 255
0.651630 1.841281 -3.669794 0 0 255
0.655061 1.841974 -3.671480 0 255 0
0.653286 1.841695 -3.671236 0 255 0
0.651511 1.841415 -3.670992 0 255 0
0.655084 1.841826 -3.670534 0 0 255
0.653297 1.841621 -3.670763 0 0 255
0.651511 1.841415 -3.670992 0 0 255
0.654558 1.841938 -3.672610 0 255 0
0.653034 1.841677 -3.671801 0 255 0
0.651511 1.841415 -3.670992 0 255 0
0.654558 1.841938 -3.672610 0 0 255
0.652933 1.841719 -3.672360 0 0 255
0.651307 1.841501 -3.672109 0 0 255
0.655061 1.841974 -3.671480 0 255 0
0.653184 1.841738 -3.671795 0 255 0
0.651307 1.841501 -3.672109 0 255 0
0.655084 1.841826 -3.670534 0 0 255
0.653196 1.841663 -3.671321 0 0 255
0.651307 1.841501 -3.672109 0 0 255
0.654558 1.841938 -3.672610 0 0 255
0.652834 1.841757 -3.672921 0 0 255
0.651110 1.841575 -3.673233 0 0 255
0.655061 1.841974 -3.671480 0 0 255
0.653086 1.841775 -3.672357 0 0 255
0.651110 1.841575 -3.673233 0 0 255
0.655084 1.841826 -3.670534 0 255 0
0.653097 1.841700 -3.671883 0 255 0
0.651110 1.841575 -3.673233 0 255 0
0.654558 1.841938 -3.672610 255 255 0
0.652799 1.841813 -3.673542 255 255 0
0.651041 1.841688 -3.674473 255 255 0
0.655061 1.841974 -3.671480 0 0 255
0.653051 1.841831 -3.672977 0 0 255
0.651041 1.841688 -3.674473 0 0 255
0.655084 1.841826 -3.670534 0 0 255
0.653062 1.841757 -3.672503 0 0 255
0.651041 1.841688 -3.674473 0 0 255
0.654558 1.841938 -3.672610 0 255 0
0.652693 1.841842 -3.674228 0 255 0
0.650828 1.841746 -3.675846 0 255 0
0.655061 1.841974 -3.671480 0 255 0
0.652944 1.841860 -3.673663 0 255 0
0.650828 1.841746 -3.675846 0 255 0
0.655084 1.841826 -3.670534 0 0 255
0.652956 1.841786 -3.673190 0 0 255
0.650828 1.841746 -3.675846 0 0 255
0.654558 1.841938 -3.672610 0 255 0
0.652617 1.841873 -3.674807 0 255 0
0.650676 1.841809 -3.677004 0 255 0
0.655061 1.841974 -3.671480 0 255 0
0.652869 1.841891 -3.674242 0 255 0
0.650676 1.841809 -3.677004 0 255 0
0.655084 1.841826 -3.670534 0 255 0
0.653907 1.842172 -3.673336 0 255 0
0.652730 1.842519 -3.676138 0 255 0
0.654558 1.841938 -3.672610 0 255 0
0.653660 1.842163 -3.673798 0 255 0
0.652763 1.842388 -3.674987 0 255 0
0.655061 1.841974 -3.671480 0 255 0
0.653912 1.842181 -3.673233 0 255 0
0.652763 1.842388 -3.674987 0 255 0
0.655084 1.841826 -3.670534 0 255 0
0.653923 1.842107 -3.672760 0 255 0
0.652763 1.842388 -3.674987 0 255 0
0.654558 1.841938 -3.672610 0 0 255
0.653774 1.842118 -3.673235 0 0 255
0.652991 1.842299 -3.673859 0 0 255
0.655061 1.841974 -3.671480 0 0 255
0.654026 1.842136 -3.672670 0 0 255
0.652991 1.842299 -3.673859 0 0 255
0.655084 1.841826 -3.670534 0 0 255
0.654037 1.842062 -3.672196 0 0 255
0.652991 1.842299 -3.673859 0 0 255
0.654558 1.841938 -3.672610 0 0 255
0.654024 1.842108 -3.672687 0 0 255
0.653491 1.842278 -3.672764 0 0 255
0.655061 1.841974 -3.671480 255 255 0
0.654276 1.842126 -3.672122 255 255 0
0.653491 1.842278 -3.672764 255 255 0
0.655084 1.841826 -3.670534 0 0 255
0.654287 1.842052 -3.671649 0 0 255
0.653491 1.842278 -3.672764 0 0 255
0.655061 1.841974 -3.671480 255 255 0
0.654419 1.842083 -3.671564 255 255 0
0.653777 1.842191 -3.671648 255 255 0
0.654558 1.841938 -3.672610 0 255 255
0.654167 1.842064 -3.672129 0 255 255
0.653777 1.842191 -3.671648 0 255 255
0.655084 1.841826 -3.670534 255 255 0
0.654430 1.842008 -3.671091 255 255 0
0.653777 1.842191 -3.671648 255 255 0
0.655061 1.841974 -3.671480 255 255 0
0.654565 1.842039 -3.671007 255 255 0
0.654069 1.842103 -3.670533 255 255 0
0.655407 1.841752 -3.669299 0 255 0
0.654738 1.841927 -3.669916 0 255 0
0.654069 1.842103 -3.670533 0 255 0
0.654558 1.841938 -3.672610 0 0 255
0.654313 1.842021 -3.671572 0 0 255
0.654069 1.842103 -3.670533 0 0 255
0.655084 1.841826 -3.670534 0 255 255
0.654576 1.841964 -3.670533 0 255 255
0.654069 1.842103 -3.670533 0 255 255
0.656028 1.841612 -3.667203 0 255 0
0.655181 1.841814 -3.668307 0 255 0
0.654334 1.842017 -3.669410 0 255 0
0.655061 1.841974 -3.671480 0 0 255
0.654697 1.841995 -3.670445 0 0 255
0.654334 1.842017 -3.669410 0 0 255
0.655084 1.841826 -3.670534 0 0 255
0.654709 1.841921 -3.669972 0 0 255
0.654334 1.842017 -3.669410 0 0 255
0.655407 1.841752 -3.669299 0 255 0
0.655040 1.841858 -3.668793 0 255 0
0.654673 1.841965 -3.668288 0 255 0
0.655084 1.841826 -3.670534 0 255 0
0.654879 1.841895 -3.669411 0 255 0
0.654673 1.841965 -3.668288 0 255 0
0.656028 1.841612 -3.667203 0 255 0
0.655592 1.841793 -3.667189 0 255 0
0.655155 1.841974 -3.667176 0 255 0
0.655967 1.841774 -3.668156 0 255 0
0.655561 1.841874 -3.667666 0 255 0
0.655155 1.841974 -3.667176 0 255 0
0.655407 1.841752 -3.669299 0 255 0
0.655281 1.841863 -3.668237 0 255 0
0.655155 1.841974 -3.667176 0 255 0
0.656028 1.841612 -3.667203 0 255 0
0.655496 1.841709 -3.666597 0 255 0
0.654963 1.841807 -3.665991 0 255 0
0.655374 1.841198 -3.666517 0 255 0
0.655169 1.841502 -3.666254 0 255 0
0.654963 1.841807 -3.665991 0 255 0
0.656190 1.841213 -3.664161 0 255 0
0.655577 1.841510 -3.665076 0 255 0
0.654963 1.841807 -3.665991 0 255 0
0.656892 1.841268 -3.661975 0 255 0
0.655928 1.841537 -3.663983 0 255 0
0.654963 1.841807 -3.665991 0 255 0
0.656190 1.841213 -3.664161 0 0 255
0.655708 1.841490 -3.664505 0 0 255
0.655225 1.841768 -3.664848 0 0 255
0.656627 1.841277 -3.663037 0 255 0
0.655926 1.841523 -3.663943 0 255 0
0.655225 1.841768 -3.664848 0 255 0
0.656892 1.841268 -3.661975 0 0 255
0.656059 1.841518 -3.663412 0 0 255
0.655225 1.841768 -3.664848 0 0 255
0.656892 1.841268 -3.661975 255 255 0
0.656141 1.841487 -3.662836 255 255 0
0.655390 1.841705 -3.663698 255 255 0
0.658574 1.841049 -3.656478 0 255 0
0.656982 1.841377 -3.660088 0 255 0
0.655390 1.841705 -3.663698 0 255 0
0.656190 1.841213 -3.664161 0 0 255
0.655790 1.841459 -3.663930 0 0 255
0.655390 1.841705 -3.663698 0 0 255
0.656627 1.841277 -3.663037 0 255 0
0.656009 1.841491 -3.663367 0 255 0
0.655390 1.841705 -3.663698 0 255 0
0.656892 1.841268 -3.661975 0 255 255
0.656312 1.841482 -3.662271 0 255 255
0.655731 1.841697 -3.662568 0 255 255
0.656990 1.841182 -3.660984 0 0 255
0.656361 1.841439 -3.661776 0 0 255
0.655731 1.841697 -3.662568 0 0 255
0.657910 1.841224 -3.658744 0 0 255
0.656821 1.841460 -3.660656 0 0 255
0.655731 1.841697 -3.662568 0 0 255
0.658386 1.841219 -3.657631 0 0 255
0.657059 1.841458 -3.660099 0 0 255
0.655731 1.841697 -3.662568 0 0 255
0.658574 1.841049 -3.656478 0 255 0
0.657152 1.841373 -3.659523 0 255 0
0.655731 1.841697 -3.662568 0 255 0
0.656190 1.841213 -3.664161 0 0 255
0.655961 1.841455 -3.663365 0 0 255
0.655731 1.841697 -3.662568 0 0 255
0.656627 1.841277 -3.663037 255 255 0
0.656179 1.841487 -3.662802 255 255 0
0.655731 1.841697 -3.662568 255 255 0
0.657446 1.841210 -3.659862 0 0 255
0.656749 1.841451 -3.660653 0 0 255
0.656051 1.841693 -3.661444 0 0 255
0.657910 1.841224 -3.658744 0 255 255
0.656981 1.841458 -3.660094 0 255 255
0.656051 1.841693 -3.661444 0 255 255
0.658386 1.841219 -3.657631 0 0 255
0.657219 1.841456 -3.659537 0 0 255
0.656051 1.841693 -3.661444 0 0 255
0.658574 1.841049 -3.656478 0 255 0
0.657313 1.841371 -3.658961 0 255 0
0.656051 1.841693 -3.661444 0 255 0
0.656892 1.841268 -3.661975 255 255 0
0.656472 1.841480 -3.661710 255 255 0
0.656051 1.841693 -3.661444 255 255 0
0.656990 1.841182 -3.660984 255 255 0
0.656521 1.841437 -3.661214 255 255 0
0.656051 1.841693 -3.661444 255 255 0
0.656627 1.841277 -3.663037 0 0 255
0.656339 1.841485 -3.662241 0 0 255
0.656051 1.841693 -3.661444 0 0 255
0.657446 1.841210 -3.659862 0 0 255
0.657075 1.841505 -3.660111 0 0 255
0.656703 1.841799 -3.660361 0 0 255
0.657910 1.841224 -3.658744 255 255 0
0.657307 1.841512 -3.659552 255 255 0
0.656703 1.841799 -3.660361 255 255 0
0.658386 1.841219 -3.657631 0 0 255
0.657545 1.841509 -3.658996 0 0 255
0.656703 1.841799 -3.660361 0 0 255
0.658574 1.841049 -3.656478 0 0 255
0.657639 1.841424 -3.658419 0 0 255
0.656703 1.841799 -3.660361 0 0 255
0.659042 1.841039 -3.655363 0 255 0
0.657873 1.841419 -3.657862 0 255 0
0.656703 1.841799 -3.660361 0 255 0
0.659505 1.841034 -3.654244 0 255 0
0.658104 1.841417 -3.657303 0 255 0
0.656703 1.841799 -3.660361 0 255 0
0.662195 1.841859 -3.652268 0 255 0
0.659449 1.841829 -3.656315 0 255 0
0.656703 1.841799 -3.660361 0 255 0
0.656892 1.841268 -3.661975 0 0 255
0.656798 1.841534 -3.661168 0 0 255
0.656703 1.841799 -3.660361 0 0 255
0.656990 1.841182 -3.660984 0 255 255
0.656847 1.841490 -3.660673 0 255 255
0.656703 1.841799 -3.660361 0 255 255
0.658386 1.841219 -3.657631 255 255 0
0.657562 1.841481 -3.658424 255 255 0
0.656737 1.841742 -3.659218 255 255 0
0.658574 1.841049 -3.656478 0 255 255
0.657655 1.841395 -3.657848 0 255 255
0.656737 1.841742 -3.659218 0 255 255
0.659042 1.841039 -3.655363 0 0 255
0.657890 1.841391 -3.657290 0 0 255
0.656737 1.841742 -3.659218 0 0 255
0.659505 1.841034 -3.654244 0 0 255
0.658121 1.841388 -3.656731 0 0 255
0.656737 1.841742 -3.659218 0 0 255
0.657446 1.841210 -3.659862 255 255 0
0.657091 1.841476 -3.659540 255 255 0
0.656737 1.841742 -3.659218 255 255 0
0.657910 1.841224 -3.658744 255 255 0
0.657324 1.841483 -3.658981 255 255 0
0.656737 1.841742 -3.659218 255 255 0
0.662195 1.841859 -3.652268 0 255 0
0.659466 1.841801 -3.655743 0 255 0
0.656737 1.841742 -3.659218 0 255 0
0.656892 1.841268 -3.661975 0 0 255
0.656815 1.841505 -3.660596 0 0 255
0.656737 1.841742 -3.659218 0 0 255
0.656990 1.841182 -3.660984 0 255 255
0.656864 1.841462 -3.660101 0 255 255
0.656737 1.841742 -3.659218 0 255 255
0.658386 1.841219 -3.657631 255 255 0
0.657732 1.841497 -3.657868 255 255 0
0.657079 1.841774 -3.658106 255 255 0
0.658574 1.841049 -3.656478 0 255 255
0.657826 1.841411 -3.657292 0 255 255
0.657079 1.841774 -3.658106 0 255 255
0.659042 1.841039 -3.655363 0 0 255
0.658060 1.841407 -3.656735 0 0 255
0.657079 1.841774 -3.658106 0 0 255
0.659505 1.841034 -3.654244 0 0 255
0.658292 1.841404 -3.656175 0 0 255
0.657079 1.841774 -3.658106 0 0 255
0.657446 1.841210 -3.659862 0 255 0
0.657262 1.841492 -3.658984 0 255 0
0.657079 1.841774 -3.658106 0 255 0
0.657910 1.841224 -3.658744 0 255 255
0.657495 1.841499 -3.658425 0 255 255
0.657079 1.841774 -3.658106 0 255 255
0.662195 1.841859 -3.652268 0 255 0
0.659637 1.841816 -3.655187 0 255 0
0.657079 1.841774 -3.658106 0 255 0
0.656892 1.841268 -3.661975 0 255 0
0.656986 1.841521 -3.660041 0 255 0
0.657079 1.841774 -3.658106 0 255 0
0.656990 1.841182 -3.660984 0 0 255
0.657034 1.841478 -3.659545 0 0 255
0.657079 1.841774 -3.658106 0 0 255
0.659042 1.841039 -3.655363 0 255 255
0.658357 1.841450 -3.656190 0 255 255
0.657672 1.841861 -3.657016 0 255 255
0.659505 1.841034 -3.654244 255 255 0
0.658588 1.841448 -3.655630 255 255 0
0.657672 1.841861 -3.657016 255 255 0
0.662195 1.841859 -3.652268 0 0 255
0.659934 1.841860 -3.654642 0 0 255
0.657672 1.841861 -3.657016 0 0 255
0.658386 1.841219 -3.657631 0 0 255
0.658029 1.841540 -3.657324 0 0 255
0.657672 1.841861 -3.657016 0 0 255
0.658574 1.841049 -3.656478 0 255 255
0.658123 1.841455 -3.656747 0 255 255
0.657672 1.841861 -3.657016 0 255 255
0.657910 1.841224 -3.658744 0 255 0
0.657791 1.841543 -3.657880 0 255 0
0.657672 1.841861 -3.657016 0 255 0
0.656892 1.841268 -3.661975 0 255 0
0.657282 1.841565 -3.659496 0 255 0
0.657672 1.841861 -3.657016 0 255 0
0.659042 1.841039 -3.655363 0 255 255
0.658556 1.841454 -3.655635 0 255 255
0.658069 1.841869 -3.655906 0 255 255
0.659505 1.841034 -3.654244 0 255 255
0.658787 1.841452 -3.655075 0 255 255
0.658069 1.841869 -3.655906 0 255 255
0.662195 1.841859 -3.652268 0 0 255
0.660132 1.841864 -3.654087 0 0 255
0.658069 1.841869 -3.655906 0 0 255
0.658386 1.841219 -3.657631 255 255 0
0.658227 1.841544 -3.656768 255 255 0
0.658069 1.841869 -3.655906 255 255 0
0.658574 1.841049 -3.656478 0 255 255
0.658321 1.841459 -3.656192 0 255 255
0.658069 1.841869 -3.655906 0 255 255
0.657446 1.841210 -3.659862 0 255 0
0.657757 1.841540 -3.657884 0 255 0
0.658069 1.841869 -3.655906 0 255 0
0.657910 1.841224 -3.658744 255 255 0
0.657990 1.841547 -3.657325 255 255 0
0.658069 1.841869 -3.655906 255 255 0
0.656892 1.841268 -3.661975 0 255 0
0.657481 1.841569 -3.658941 0 255 0
0.658069 1.841869 -3.655906 0 255 0
0.656990 1.841182 -3.660984 0 255 0
0.657530 1.841526 -3.658445 0 255 0
0.658069 1.841869 -3.655906 0 255 0
0.662574 1.841810 -3.651044 0 255 0
0.660551 1.841839 -3.652923 0 255 0
0.658528 1.841869 -3.654801 0 255 0
0.658386 1.841219 -3.657631 0 0 255
0.658457 1.841544 -3.656216 0 0 255
0.658528 1.841869 -3.654801 0 0 255
0.658574 1.841049 -3.656478 0 255 255
0.658551 1.841459 -3.655639 0 255 255
0.658528 1.841869 -3.654801 0 255 255
0.659042 1.841039 -3.655363 0 255 255
0.658785 1.841454 -3.655082 0 255 255
0.658528 1.841869 -3.654801 0 255 255
0.659505 1.841034 -3.654244 0 255 255
0.659016 1.841451 -3.654523 0 255 255
0.658528 1.841869 -3.654801 0 255 255
0.657446 1.841210 -3.659862 0 255 0
0.657987 1.841539 -3.657331 0 255 0
0.658528 1.841869 -3.654801 0 255 0
0.657910 1.841224 -3.658744 0 0 255
0.658219 1.841546 -3.656772 0 0 255
0.658528 1.841869 -3.654801 0 0 255
0.662195 1.841859 -3.652268 0 255 255
0.660362 1.841864 -3.653535 0 255 255
0.658528 1.841869 -3.654801 0 255 255
0.662574 1.841810 -3.651044 0 0 255
0.660538 1.841760 -3.652345 0 0 255
0.658501 1.841710 -3.653645 0 0 255
0.659042 1.841039 -3.655363 0 255 0
0.658772 1.841375 -3.654504 0 255 0
0.658501 1.841710 -3.653645 0 255 0
0.659505 1.841034 -3.654244 0 255 255
0.659003 1.841372 -3.653945 0 255 255
0.658501 1.841710 -3.653645 0 255 255
0.662195 1.841859 -3.652268 255 255 0
0.660348 1.841784 -3.652957 255 255 0
0.658501 1.841710 -3.653645 255 255 0
0.658386 1.841219 -3.657631 0 255 0
0.658444 1.841465 -3.655638 0 255 0
0.658501 1.841710 -3.653645 0 255 0
0.658574 1.841049 -3.656478 0 0 255
0.658538 1.841379 -3.655061 0 0 255
0.658501 1.841710 -3.653645 0 0 255
0.662574 1.841810 -3.651044 0 0 255
0.660878 1.841774 -3.651803 0 0 255
0.659182 1.841737 -3.652563 0 0 255
0.659505 1.841034 -3.654244 0 0 255
0.659343 1.841386 -3.653404 0 0 255
0.659182 1.841737 -3.652563 0 0 255
0.662195 1.841859 -3.652268 0 0 255
0.660689 1.841798 -3.652415 0 0 255
0.659182 1.841737 -3.652563 0 0 255
0.662574 1.841810 -3.651044 0 0 255
0.661082 1.841748 -3.651247 0 0 255
0.659590 1.841686 -3.651450 0 0 255
0.662577 1.841667 -3.650092 0 255 0
0.661084 1.841676 -3.650771 0 255 0
0.659590 1.841686 -3.651450 0 255 0
0.662195 1.841859 -3.652268 0 255 0
0.660893 1.841772 -3.651859 0 255 0
0.659590 1.841686 -3.651450 0 255 0
0.659505 1.841034 -3.654244 0 255 0
0.659548 1.841360 -3.652847 0 255 0
0.659590 1.841686 -3.651450 0 255 0
0.662574 1.841810 -3.651044 0 0 255
0.661224 1.841709 -3.650684 0 0 255
0.659874 1.841609 -3.650324 0 0 255
0.662577 1.841667 -3.650092 0 0 255
0.661226 1.841638 -3.650208 0 0 255
0.659874 1.841609 -3.650324 0 0 255
0.663095 1.841716 -3.648942 0 255 0
0.661685 1.841643 -3.649075 0 255 0
0.660275 1.841569 -3.649207 0 255 0
0.662574 1.841810 -3.651044 0 255 0
0.661425 1.841690 -3.650126 0 255 0
0.660275 1.841569 -3.649207 0 255 0
0.663095 1.841716 -3.648942 0 255 0
0.661801 1.841627 -3.648512 0 255 0
0.660507 1.841539 -3.648081 0 255 0
0.662577 1.841667 -3.650092 0 255 0
0.661542 1.841603 -3.649087 0 255 0
0.660507 1.841539 -3.648081 0 255 0
0.662577 1.841667 -3.650092 0 0 255
0.662377 1.841981 -3.649347 0 0 255
0.662176 1.842295 -3.648601 0 0 255
0.662574 1.841810 -3.651044 0 0 255
0.662375 1.842053 -3.649823 0 0 255
0.662176 1.842295 -3.648601 0 0 255
0.662574 1.841810 -3.651044 255 255 0
0.661872 1.842043 -3.651005 255 255 0
0.661169 1.842277 -3.650965 255 255 0
0.662195 1.841859 -3.652268 255 255 0
0.661682 1.842068 -3.651617 255 255 0
0.661169 1.842277 -3.650965 255 255 0
0.659505 1.841034 -3.654244 0 0 255
0.660337 1.841655 -3.652605 0 0 255
0.661169 1.842277 -3.650965 0 0 255
0.662574 1.841810 -3.651044 0 0 255
0.661298 1.842043 -3.652248 0 0 255
0.660023 1.842276 -3.653453 0 0 255
0.659042 1.841039 -3.655363 0 255 255
0.659533 1.841658 -3.654408 0 255 255
0.660023 1.842276 -3.653453 0 255 255
0.659505 1.841034 -3.654244 0 255 255
0.659764 1.841655 -3.653849 0 255 255
0.660023 1.842276 -3.653453 0 255 255
0.662195 1.841859 -3.652268 0 255 255
0.661109 1.842067 -3.652861 0 255 255
0.660023 1.842276 -3.653453 0 255 255
0.658574 1.841049 -3.656478 255 255 0
0.659298 1.841662 -3.654965 255 255 0
0.660023 1.842276 -3.653453 255 255 0
0.657446 1.841210 -3.659862 0 255 0
0.658734 1.841743 -3.656657 0 255 0
0.660023 1.842276 -3.653453 0 255 0
0.657910 1.841224 -3.658744 0 255 0
0.658967 1.841750 -3.656098 0 255 0
0.660023 1.842276 -3.653453 0 255 0
0.659042 1.841039 -3.655363 255 255 0
0.659115 1.841650 -3.655518 255 255 0
0.659188 1.842261 -3.655672 255 255 0
0.659505 1.841034 -3.654244 0 255 255
0.659346 1.841647 -3.654958 0 255 255
0.659188 1.842261 -3.655672 0 255 255
0.662195 1.841859 -3.652268 0 0 255
0.660692 1.842060 -3.653970 0 0 255
0.659188 1.842261 -3.655672 0 0 255
0.658386 1.841219 -3.657631 0 255 255
0.658787 1.841740 -3.656651 0 255 255
0.659188 1.842261 -3.655672 0 255 255
0.658574 1.841049 -3.656478 0 255 255
0.658881 1.841655 -3.656075 0 255 255
0.659188 1.842261 -3.655672 0 255 255
0.657446 1.841210 -3.659862 0 255 0
0.658317 1.841736 -3.657767 0 255 0
0.659188 1.842261 -3.655672 0 255 0
0.657910 1.841224 -3.658744 0 0 255
0.658549 1.841742 -3.657208 0 0 255
0.659188 1.842261 -3.655672 0 0 255
0.658386 1.841219 -3.657631 255 255 0
0.658327 1.841742 -3.657799 255 255 0
0.658268 1.842264 -3.657968 255 255 0
0.658574 1.841049 -3.656478 0 255 255
0.658421 1.841656 -3.657223 0 255 255
0.658268 1.842264 -3.657968 0 255 255
0.659042 1.841039 -3.655363 0 0 255
0.658655 1.841652 -3.656666 0 0 255
0.658268 1.842264 -3.657968 0 0 255
0.659505 1.841034 -3.654244 0 255 0
0.658886 1.841649 -3.656106 0 255 0
0.658268 1.842264 -3.657968 0 255 0
0.657446 1.841210 -3.659862 0 0 255
0.657857 1.841737 -3.658915 0 0 255
0.658268 1.842264 -3.657968 0 0 255
0.657910 1.841224 -3.658744 255 255 0
0.658089 1.841744 -3.658356 255 255 0
0.658268 1.842264 -3.657968 255 255 0
0.656990 1.841182 -3.660984 0 255 0
0.657629 1.841723 -3.659476 0 255 0
0.658268 1.842264 -3.657968 0 255 0
0.656892 1.841268 -3.661975 0 255 255
0.657163 1.841768 -3.661085 0 255 255
0.657434 1.842268 -3.660194 0 255 255
0.656990 1.841182 -3.660984 255 255 0
0.657212 1.841725 -3.660589 255 255 0
0.657434 1.842268 -3.660194 255 255 0
0.657910 1.841224 -3.658744 0 255 0
0.657672 1.841746 -3.659469 0 255 0
0.657434 1.842268 -3.660194 0 255 0
0.658386 1.841219 -3.657631 0 255 0
0.657910 1.841744 -3.658912 0 255 0
0.657434 1.842268 -3.660194 0 255 0
0.658574 1.841049 -3.656478 0 255 0
0.658004 1.841658 -3.658336 0 255 0
0.657434 1.842268 -3.660194 0 255 0
0.656190 1.841213 -3.664161 0 255 0
0.656812 1.841740 -3.662178 0 255 0
0.657434 1.842268 -3.660194 0 255 0
0.656627 1.841277 -3.663037 0 255 0
0.657031 1.841772 -3.661616 0 255 0
0.657434 1.842268 -3.660194 0 255 0
0.656892 1.841268 -3.661975 0 255 255
0.656644 1.841786 -3.662289 0 255 255
0.656395 1.842304 -3.662602 0 255 255
0.656990 1.841182 -3.660984 0 255 0
0.656692 1.841743 -3.661793 0 255 0
0.656395 1.842304 -3.662602 0 255 0
0.658386 1.841219 -3.657631 0 255 0
0.657390 1.841762 -3.660116 0 255 0
0.656395 1.842304 -3.662602 0 255 0
0.658574 1.841049 -3.656478 0 255 0
0.657484 1.841676 -3.659540 0 255 0
0.656395 1.842304 -3.662602 0 255 0
0.656190 1.841213 -3.664161 0 0 255
0.656293 1.841758 -3.663382 0 0 255
0.656395 1.842304 -3.662602 0 0 255
0.656627 1.841277 -3.663037 255 255 0
0.656511 1.841790 -3.662820 255 255 0
0.656395 1.842304 -3.662602 255 255 0
0.655836 1.841221 -3.665390 0 255 0
0.656115 1.841763 -3.663996 0 255 0
0.656395 1.842304 -3.662602 0 255 0
0.656190 1.841213 -3.664161 0 255 0
0.655581 1.841789 -3.665514 0 255 0
0.654971 1.842366 -3.666866 0 255 0
0.656028 1.841612 -3.667203 0 255 0
0.655195 1.842002 -3.668054 0 255 0
0.654361 1.842393 -3.668906 0 255 0
0.655967 1.841774 -3.668156 0 255 0
0.655164 1.842084 -3.668531 0 255 0
0.654361 1.842393 -3.668906 0 255 0
0.655407 1.841752 -3.669299 0 255 0
0.654884 1.842072 -3.669102 0 255 0
0.654361 1.842393 -3.668906 0 255 0
0.655061 1.841974 -3.671480 0 255 0
0.654711 1.842183 -3.670193 0 255 0
0.654361 1.842393 -3.668906 0 255 0
0.655084 1.841826 -3.670534 255 255 0
0.654723 1.842109 -3.669720 255 255 0
0.654361 1.842393 -3.668906 255 255 0
0.655061 1.841974 -3.671480 0 255 255
0.654379 1.842194 -3.671236 0 255 255
0.653697 1.842414 -3.670991 0 255 255
0.655407 1.841752 -3.669299 0 255 0
0.654552 1.842083 -3.670145 0 255 0
0.653697 1.842414 -3.670991 0 255 0
0.654558 1.841938 -3.672610 0 0 255
0.654127 1.842176 -3.671801 0 0 255
0.653697 1.842414 -3.670991 0 0 255
0.655084 1.841826 -3.670534 0 0 255
0.654390 1.842120 -3.670762 0 0 255
0.653697 1.842414 -3.670991 0 0 255
0.654558 1.841938 -3.672610 0 0 255
0.653795 1.842184 -3.672845 0 0 255
0.653033 1.842431 -3.673079 0 0 255
0.655061 1.841974 -3.671480 0 255 0
0.654047 1.842203 -3.672280 0 255 0
0.653033 1.842431 -3.673079 0 255 0
0.655084 1.841826 -3.670534 0 255 0
0.654058 1.842128 -3.671806 0 255 0
0.653033 1.842431 -3.673079 0 255 0
0.654558 1.841938 -3.672610 0 255 0
0.653343 1.842200 -3.673997 0 255 0
0.652129 1.842462 -3.675383 0 255 0
0.655084 1.841826 -3.670534 0 255 0
0.653606 1.842144 -3.672958 0 255 0
0.652129 1.842462 -3.675383 0 255 0
0.662574 1.841810 -3.651044 0 0 255
0.662509 1.842202 -3.649855 0 0 255
0.662445 1.842595 -3.648666 0 0 255
0.662577 1.841667 -3.650092 255 255 0
0.662511 1.842131 -3.649379 255 255 0
0.662445 1.842595 -3.648666 255 255 0
0.659505 1.841034 -3.654244 0 255 0
0.660975 1.841814 -3.651455 0 255 0
0.662445 1.842595 -3.648666 0 255 0
0.662195 1.841859 -3.652268 0 255 0
0.662320 1.842227 -3.650467 0 255 0
0.662445 1.842595 -3.648666 0 255 0
0.662574 1.841810 -3.651044 255 255 0
0.661644 1.842192 -3.651838 255 255 0
0.660715 1.842574 -3.652632 255 255 0
0.662577 1.841667 -3.650092 0 255 0
0.661646 1.842120 -3.651362 0 255 0
0.660715 1.842574 -3.652632 0 255 0
0.659042 1.841039 -3.655363 0 0 255
0.659879 1.841807 -3.653998 0 0 255
0.660715 1.842574 -3.652632 0 0 255
0.659505 1.841034 -3.654244 0 255 255
0.660110 1.841804 -3.653438 0 255 255
0.660715 1.842574 -3.652632 0 255 255
0.662195 1.841859 -3.652268 255 255 0
0.661455 1.842217 -3.652450 255 255 0
0.660715 1.842574 -3.652632 255 255 0
0.658386 1.841219 -3.657631 0 255 0
0.659550 1.841897 -3.655132 0 255 0
0.660715 1.842574 -3.652632 0 255 0
0.658574 1.841049 -3.656478 0 0 255
0.659644 1.841811 -3.654555 0 0 255
0.660715 1.842574 -3.652632 0 0 255
0.657446 1.841210 -3.659862 0 255 0
0.659080 1.841892 -3.656247 0 255 0
0.660715 1.842574 -3.652632 0 255 0
0.657910 1.841224 -3.658744 0 255 0
0.659313 1.841899 -3.655688 0 255 0
0.660715 1.842574 -3.652632 0 255 0
0.659042 1.841039 -3.655363 0 0 255
0.659015 1.841792 -3.655967 0 0 255
0.658987 1.842545 -3.656571 0 0 255
0.659505 1.841034 -3.654244 0 255 255
0.659246 1.841790 -3.655408 0 255 255
0.658987 1.842545 -3.656571 0 255 255
0.662195 1.841859 -3.652268 0 0 255
0.660591 1.842202 -3.654420 0 0 255
0.658987 1.842545 -3.656571 0 0 255
0.658386 1.841219 -3.657631 0 255 255
0.658686 1.841882 -3.657101 0 255 255
0.658987 1.842545 -3.656571 0 255 255
0.658574 1.841049 -3.656478 0 255 255
0.658780 1.841797 -3.656525 0 255 255
0.658987 1.842545 -3.656571 0 255 255
0.657446 1.841210 -3.659862 0 0 255
0.658216 1.841878 -3.658217 0 0 255
0.658987 1.842545 -3.656571 0 0 255
0.657910 1.841224 -3.658744 255 255 0
0.658449 1.841885 -3.657658 255 255 0
0.658987 1.842545 -3.656571 255 255 0
0.656990 1.841182 -3.660984 0 255 0
0.657988 1.841864 -3.658778 0 255 0
0.658987 1.842545 -3.656571 0 255 0
0.658574 1.841049 -3.656478 0 255 0
0.658080 1.841761 -3.658286 0 255 0
0.657587 1.842474 -3.660094 0 255 0
0.656892 1.841268 -3.661975 255 255 0
0.657240 1.841871 -3.661035 255 255 0
0.657587 1.842474 -3.660094 255 255 0
0.656990 1.841182 -3.660984 0 255 0
0.657288 1.841828 -3.660539 0 255 0
0.657587 1.842474 -3.660094 0 255 0
0.656190 1.841213 -3.664161 0 255 0
0.656889 1.841843 -3.662128 0 255 0
0.657587 1.842474 -3.660094 0 255 0
0.656627 1.841277 -3.663037 0 0 255
0.657107 1.841876 -3.661566 0 0 255
0.657587 1.842474 -3.660094 0 0 255
0.656190 1.841213 -3.664161 0 0 255
0.656145 1.841803 -3.663938 0 0 255
0.656100 1.842393 -3.663715 0 0 255
0.656627 1.841277 -3.663037 255 255 0
0.656364 1.841835 -3.663376 255 255 0
0.656100 1.842393 -3.663715 255 255 0
0.656892 1.841268 -3.661975 0 255 255
0.656496 1.841831 -3.662845 0 255 255
0.656100 1.842393 -3.663715 0 255 255
0.655836 1.841221 -3.665390 0 255 0
0.655968 1.841807 -3.664553 0 255 0
0.656100 1.842393 -3.663715 0 255 0
0.656028 1.841612 -3.667203 0 255 0
0.655250 1.841968 -3.667357 0 255 0
0.654472 1.842324 -3.667512 0 255 0
0.655407 1.841752 -3.669299 0 255 0
0.654939 1.842038 -3.668405 0 255 0
0.654472 1.842324 -3.667512 0 255 0
0.655374 1.841198 -3.666517 0 255 0
0.654923 1.841761 -3.667014 0 255 0
0.654472 1.842324 -3.667512 0 255 0
0.656028 1.841612 -3.667203 0 255 0
0.654649 1.841993 -3.669171 0 255 0
0.653270 1.842374 -3.671138 0 255 0
0.655061 1.841974 -3.671480 255 255 0
0.654166 1.842174 -3.671309 255 255 0
0.653270 1.842374 -3.671138 255 255 0
0.655407 1.841752 -3.669299 0 255 0
0.654339 1.842063 -3.670219 0 255 0
0.653270 1.842374 -3.671138 0 255 0
0.654558 1.841938 -3.672610 255 255 0
0.653914 1.842156 -3.671874 255 255 0
0.653270 1.842374 -3.671138 255 255 0
0.655084 1.841826 -3.670534 0 0 255
0.654177 1.842100 -3.670836 0 0 255
0.653270 1.842374 -3.671138 0 0 255
0.655061 1.841974 -3.671480 0 255 0
0.653790 1.842182 -3.672699 0 255 0
0.652518 1.842390 -3.673918 0 255 0
0.654558 1.841938 -3.672610 0 0 255
0.653538 1.842164 -3.673264 0 0 255
0.652518 1.842390 -3.673918 0 0 255
0.655084 1.841826 -3.670534 0 255 0
0.653801 1.842108 -3.672226 0 255 0
0.652518 1.842390 -3.673918 0 255 0
0.654558 1.841938 -3.672610 0 255 0
0.653181 1.842189 -3.674637 0 255 0
0.651805 1.842439 -3.676664 0 255 0
0.663095 1.841716 -3.648942 0 255 0
0.660246 1.841143 -3.649280 0 255 0
0.657397 1.840571 -3.649618 0 255 0
0.662577 1.841667 -3.650092 0 255 0
0.659987 1.841119 -3.649855 0 255 0
0.657397 1.840571 -3.649618 0 255 0
0.662574 1.841810 -3.651044 0 0 255
0.659506 1.841173 -3.651798 0 0 255
0.656438 1.840535 -3.652551 0 0 255
0.662577 1.841667 -3.650092 0 255 0
0.659508 1.841101 -3.651321 0 255 0
0.656438 1.840535 -3.652551 0 255 0
0.659505 1.841034 -3.654244 0 255 0
0.657971 1.840784 -3.653398 0 255 0
0.656438 1.840535 -3.652551 0 255 0
0.662574 1.841810 -3.651044 0 0 255
0.659162 1.841169 -3.652383 0 0 255
0.655750 1.840528 -3.653721 0 0 255
0.662577 1.841667 -3.650092 0 255 0
0.659164 1.841097 -3.651907 0 255 0
0.655750 1.840528 -3.653721 0 255 0
0.659505 1.841034 -3.654244 0 255 0
0.657627 1.840781 -3.653983 0 255 0
0.655750 1.840528 -3.653721 0 255 0
0.662574 1.841810 -3.651044 0 0 255
0.658963 1.841152 -3.653173 0 0 255
0.655352 1.840493 -3.655302 0 0 255
0.662577 1.841667 -3.650092 0 255 0
0.658965 1.841080 -3.652697 0 255 0
0.655352 1.840493 -3.655302 0 255 0
0.659042 1.841039 -3.655363 0 0 255
0.657197 1.840766 -3.655333 0 0 255
0.655352 1.840493 -3.655302 0 0 255
0.659505 1.841034 -3.654244 0 0 255
0.657428 1.840764 -3.654773 0 0 255
0.655352 1.840493 -3.655302 0 0 255
0.662195 1.841859 -3.652268 0 0 255
0.658774 1.841176 -3.653785 0 0 255
0.655352 1.840493 -3.655302 0 0 255
0.658574 1.841049 -3.656478 0 255 0
0.656963 1.840771 -3.655890 0 255 0
0.655352 1.840493 -3.655302 0 255 0
0.662574 1.841810 -3.651044 0 255 0
0.658686 1.841141 -3.653854 0 255 0
0.654798 1.840472 -3.656663 0 255 0
0.659042 1.841039 -3.655363 0 0 255
0.656920 1.840756 -3.656013 0 0 255
0.654798 1.840472 -3.656663 0 0 255
0.659505 1.841034 -3.654244 0 0 255
0.657151 1.840753 -3.655454 0 0 255
0.654798 1.840472 -3.656663 0 0 255
0.662195 1.841859 -3.652268 0 255 0
0.658497 1.841166 -3.654466 0 255 0
0.654798 1.840472 -3.656663 0 255 0
0.658386 1.841219 -3.657631 0 255 0
0.656592 1.840846 -3.657147 0 255 0
0.654798 1.840472 -3.656663 0 255 0
0.658574 1.841049 -3.656478 0 255 0
0.656686 1.840760 -3.656570 0 255 0
0.654798 1.840472 -3.656663 0 255 0
0.657910 1.841224 -3.658744 0 255 0
0.656354 1.840848 -3.657703 0 255 0
0.654798 1.840472 -3.656663 0 255 0
0.659042 1.841039 -3.655363 255 255 0
0.656637 1.840744 -3.656684 255 255 0
0.654231 1.840450 -3.658005 255 255 0
0.659505 1.841034 -3.654244 255 255 0
0.656868 1.840742 -3.656125 255 255 0
0.654231 1.840450 -3.658005 255 255 0
0.662195 1.841859 -3.652268 0 0 255
0.658213 1.841154 -3.655137 0 0 255
0.654231 1.840450 -3.658005 0 0 255
0.658386 1.841219 -3.657631 255 255 0
0.656308 1.840835 -3.657818 255 255 0
0.654231 1.840450 -3.658005 255 255 0
0.658574 1.841049 -3.656478 255 255 0
0.656402 1.840749 -3.657242 255 255 0
0.654231 1.840450 -3.658005 255 255 0
0.657446 1.841210 -3.659862 0 255 0
0.655838 1.840830 -3.658934 0 255 0
0.654231 1.840450 -3.658005 0 255 0
0.657910 1.841224 -3.658744 0 255 255
0.656071 1.840837 -3.658375 0 255 255
0.654231 1.840450 -3.658005 0 255 255
0.659042 1.841039 -3.655363 0 255 0
0.656354 1.840732 -3.657356 0 255 0
0.653665 1.840424 -3.659350 0 255 0
0.659505 1.841034 -3.654244 0 255 0
0.656585 1.840729 -3.656797 0 255 0
0.653665 1.840424 -3.659350 0 255 0
0.662195 1.841859 -3.652268 0 255 0
0.657930 1.841142 -3.655809 0 255 0
0.653665 1.840424 -3.659350 0 255 0
0.658386 1.841219 -3.657631 0 0 255
0.656025 1.840822 -3.658490 0 0 255
0.653665 1.840424 -3.659350 0 0 255
0.658574 1.841049 -3.656478 0 0 255
0.656119 1.840737 -3.657914 0 0 255
0.653665 1.840424 -3.659350 0 0 255
0.657446 1.841210 -3.659862 255 255 0
0.655555 1.840817 -3.659606 255 255 0
0.653665 1.840424 -3.659350 255 255 0
0.657910 1.841224 -3.658744 0 0 255
0.655788 1.840824 -3.659047 0 0 255
0.653665 1.840424 -3.659350 0 0 255
0.656990 1.841182 -3.660984 0 255 0
0.655327 1.840803 -3.660167 0 255 0
0.653665 1.840424 -3.659350 0 255 0
0.658386 1.841219 -3.657631 0 255 0
0.655740 1.840806 -3.659154 0 255 0
0.653093 1.840393 -3.660678 0 255 0
0.658574 1.841049 -3.656478 0 0 255
0.655833 1.840721 -3.658578 0 0 255
0.653093 1.840393 -3.660678 0 0 255
0.659042 1.841039 -3.655363 0 0 255
0.656068 1.840716 -3.658020 0 0 255
0.653093 1.840393 -3.660678 0 0 255
0.659505 1.841034 -3.654244 0 0 255
0.656299 1.840714 -3.657461 0 0 255
0.653093 1.840393 -3.660678 0 0 255
0.657446 1.841210 -3.659862 0 0 255
0.655269 1.840802 -3.660270 0 0 255
0.653093 1.840393 -3.660678 0 0 255
0.657910 1.841224 -3.658744 0 0 255
0.655502 1.840809 -3.659711 0 0 255
0.653093 1.840393 -3.660678 0 0 255
0.662195 1.841859 -3.652268 0 255 0
0.657644 1.841126 -3.656473 0 255 0
0.653093 1.840393 -3.660678 0 255 0
0.656892 1.841268 -3.661975 0 255 0
0.654993 1.840831 -3.661326 0 255 0
0.653093 1.840393 -3.660678 0 255 0
0.656990 1.841182 -3.660984 255 255 0
0.655042 1.840787 -3.660831 255 255 0
0.653093 1.840393 -3.660678 255 255 0
0.657446 1.841210 -3.659862 0 0 255
0.655054 1.840777 -3.661037 0 0 255
0.652663 1.840344 -3.662211 0 0 255
0.657910 1.841224 -3.658744 0 0 255
0.655287 1.840784 -3.660477 0 0 255
0.652663 1.840344 -3.662211 0 0 255
0.658574 1.841049 -3.656478 0 255 0
0.655618 1.840696 -3.659344 0 255 0
0.652663 1.840344 -3.662211 0 255 0
0.656892 1.841268 -3.661975 255 255 0
0.654778 1.840806 -3.662093 255 255 0
0.652663 1.840344 -3.662211 255 255 0
0.656990 1.841182 -3.660984 0 0 255
0.654827 1.840763 -3.661598 0 0 255
0.652663 1.840344 -3.662211 0 0 255
0.656190 1.841213 -3.664161 0 255 0
0.654427 1.840778 -3.663186 0 255 0
0.652663 1.840344 -3.662211 0 255 0
0.656627 1.841277 -3.663037 0 0 255
0.654645 1.840810 -3.662624 0 0 255
0.652663 1.840344 -3.662211 0 0 255
0.657446 1.841210 -3.659862 0 255 0
0.654732 1.840756 -3.661646 0 255 0
0.652017 1.840302 -3.663430 0 255 0
0.657910 1.841224 -3.658744 0 255 0
0.654964 1.840763 -3.661087 0 255 0
0.652017 1.840302 -3.663430 0 255 0
0.658574 1.841049 -3.656478 0 255 0
0.655296 1.840675 -3.659954 0 255 0
0.652017 1.840302 -3.663430 0 255 0
0.656892 1.841268 -3.661975 255 255 0
0.654455 1.840785 -3.662703 255 255 0
0.652017 1.840302 -3.663430 255 255 0
0.656990 1.841182 -3.660984 255 255 0
0.654504 1.840742 -3.662207 255 255 0
0.652017 1.840302 -3.663430 255 255 0
0.656190 1.841213 -3.664161 0 255 0
0.654104 1.840757 -3.663796 0 255 0
0.652017 1.840302 -3.663430 0 255 0
0.656627 1.841277 -3.663037 0 0 255
0.654322 1.840789 -3.663234 0 0 255
0.652017 1.840302 -3.663430 0 0 255
0.657446 1.841210 -3.659862 0 255 0
0.654455 1.840729 -3.662324 0 255 0
0.651465 1.840249 -3.664787 0 255 0
0.657910 1.841224 -3.658744 0 255 0
0.654688 1.840736 -3.661765 0 255 0
0.651465 1.840249 -3.664787 0 255 0
0.658574 1.841049 -3.656478 0 255 0
0.655019 1.840649 -3.660632 0 255 0
0.651465 1.840249 -3.664787 0 255 0
0.656892 1.841268 -3.661975 0 0 255
0.654179 1.840758 -3.663381 0 0 255
0.651465 1.840249 -3.664787 0 0 255
0.656990 1.841182 -3.660984 0 0 255
0.654228 1.840715 -3.662886 0 0 255
0.651465 1.840249 -3.664787 0 0 255
0.656190 1.841213 -3.664161 0 255 0
0.653828 1.840731 -3.664474 0 255 0
0.651465 1.840249 -3.664787 0 255 0
0.656627 1.841277 -3.663037 0 255 0
0.654046 1.840763 -3.663912 0 255 0
0.651465 1.840249 -3.664787 0 255 0
0.655836 1.841221 -3.665390 0 255 0
0.653651 1.840735 -3.665088 0 255 0
0.651465 1.840249 -3.664787 0 255 0
0.657446 1.841210 -3.659862 0 255 0
0.654109 1.840719 -3.662899 0 255 0
0.650772 1.840228 -3.665936 0 255 0
0.657910 1.841224 -3.658744 0 255 0
0.654341 1.840726 -3.662340 0 255 0
0.650772 1.840228 -3.665936 0 255 0
0.658574 1.841049 -3.656478 0 255 0
0.654673 1.840638 -3.661207 0 255 0
0.650772 1.840228 -3.665936 0 255 0
0.656892 1.841268 -3.661975 0 0 255
0.653832 1.840748 -3.663955 0 0 255
0.650772 1.840228 -3.665936 0 0 255
0.656990 1.841182 -3.660984 0 255 0
0.653881 1.840705 -3.663460 0 255 0
0.650772 1.840228 -3.665936 0 255 0
0.656190 1.841213 -3.664161 0 255 0
0.653481 1.840720 -3.665049 0 255 0
0.650772 1.840228 -3.665936 0 255 0
0.656627 1.841277 -3.663037 0 255 0
0.653700 1.840753 -3.664486 0 255 0
0.650772 1.840228 -3.665936 0 255 0
0.655374 1.841198 -3.666517 0 255 0
0.653073 1.840713 -3.666226 0 255 0
0.650772 1.840228 -3.665936 0 255 0
0.656892 1.841268 -3.661975 0 0 255
0.653461 1.840757 -3.664608 0 0 255
0.650030 1.840245 -3.667240 0 0 255
0.656990 1.841182 -3.660984 0 255 0
0.653510 1.840713 -3.664112 0 255 0
0.650030 1.840245 -3.667240 0 255 0
0.657910 1.841224 -3.658744 0 255 0
0.653970 1.840735 -3.662992 0 255 0
0.650030 1.840245 -3.667240 0 255 0
0.658574 1.841049 -3.656478 0 255 0
0.654302 1.840647 -3.661859 0 255 0
0.650030 1.840245 -3.667240 0 255 0
0.656190 1.841213 -3.664161 0 255 0
0.653110 1.840729 -3.665701 0 255 0
0.650030 1.840245 -3.667240 0 255 0
0.656627 1.841277 -3.663037 0 255 0
0.653329 1.840761 -3.665139 0 255 0
0.650030 1.840245 -3.667240 0 255 0
0.655374 1.841198 -3.666517 0 255 0
0.652702 1.840722 -3.666879 0 255 0
0.650030 1.840245 -3.667240 0 255 0
0.655084 1.841826 -3.670534 0 255 0
0.652020 1.841152 -3.671305 0 255 0
0.648956 1.840478 -3.672076 0 255 0
0.656028 1.841612 -3.667203 0 255 0
0.652276 1.841076 -3.670394 0 255 0
0.648524 1.840539 -3.673585 0 255 0
0.655061 1.841974 -3.671480 0 0 255
0.651792 1.841257 -3.672532 0 0 255
0.648524 1.840539 -3.673585 0 0 255
0.655407 1.841752 -3.669299 0 255 0
0.651965 1.841146 -3.671442 0 255 0
0.648524 1.840539 -3.673585 0 255 0
0.654558 1.841938 -3.672610 0 0 255
0.651541 1.841239 -3.673097 0 0 255
0.648524 1.840539 -3.673585 0 0 255
0.655084 1.841826 -3.670534 0 0 255
0.651804 1.841183 -3.672059 0 0 255
0.648524 1.840539 -3.673585 0 0 255
0.655061 1.841974 -3.671480 0 0 255
0.651577 1.841274 -3.673299 0 0 255
0.648094 1.840575 -3.675117 0 0 255
0.655407 1.841752 -3.669299 0 255 0
0.651750 1.841163 -3.672208 0 255 0
0.648094 1.840575 -3.675117 0 255 0
0.654558 1.841938 -3.672610 255 255 0
0.651326 1.841256 -3.673864 255 255 0
0.648094 1.840575 -3.675117 255 255 0
0.655084 1.841826 -3.670534 0 255 0
0.651589 1.841200 -3.672825 0 255 0
0.648094 1.840575 -3.675117 0 255 0
0.654558 1.841938 -3.672610 0 0 255
0.651027 1.841270 -3.674518 0 0 255
0.647497 1.840602 -3.676425 0 0 255
0.655061 1.841974 -3.671480 0 0 255
0.651279 1.841288 -3.673953 0 0 255
0.647497 1.840602 -3.676425 0 0 255
0.655084 1.841826 -3.670534 0 0 255
0.651290 1.841214 -3.673479 0 0 255
0.647497 1.840602 -3.676425 0 0 255
0.654558 1.841938 -3.672610 0 255 0
0.650758 1.841273 -3.675215 0 255 0
0.646958 1.840608 -3.677820 0 255 0
0.655061 1.841974 -3.671480 0 255 0
0.651010 1.841291 -3.674650 0 255 0
0.646958 1.840608 -3.677820 0 255 0
0.655084 1.841826 -3.670534 0 255 0
0.651021 1.841217 -3.674177 0 255 0
0.646958 1.840608 -3.677820 0 255 0
0.655084 1.841826 -3.670534 0 255 0
0.650753 1.841213 -3.674873 0 255 0
0.646421 1.840601 -3.679213 0 255 0
0.655061 1.841974 -3.671480 0 255 0
0.652784 1.841959 -3.673180 0 255 0
0.650507 1.841944 -3.674880 0 255 0
0.654558 1.841938 -3.672610 0 0 255
0.652532 1.841941 -3.673745 0 0 255
0.650507 1.841944 -3.674880 0 0 255
0.655084 1.841826 -3.670534 0 255 0
0.652795 1.841885 -3.672707 0 255 0
0.650507 1.841944 -3.674880 0 255 0
0.655061 1.841974 -3.671480 0 255 0
0.653244 1.842057 -3.672081 0 255 0
0.651427 1.842141 -3.672681 0 255 0
0.654558 1.841938 -3.672610 0 255 0
0.652992 1.842039 -3.672646 0 255 0
0.651427 1.842141 -3.672681 0 255 0
0.655061 1.841974 -3.671480 0 255 0
0.653524 1.842098 -3.671213 0 255 0
0.651988 1.842222 -3.670946 0 255 0
0.655084 1.841826 -3.670534 0 0 255
0.653536 1.842024 -3.670740 0 0 255
0.651988 1.842222 -3.670946 0 0 255
0.655407 1.841752 -3.669299 0 255 0
0.654541 1.842181 -3.668942 0 255 0
0.653676 1.842610 -3.668585 0 255 0
0.655407 1.841752 -3.669299 0 255 0
0.654637 1.842163 -3.668175 0 255 0
0.653866 1.842575 -3.667051 0 255 0
0.656190 1.841213 -3.664161 0 255 0
0.656160 1.842116 -3.663542 0 255 0
0.656129 1.843020 -3.662922 0 255 0
0.656627 1.841277 -3.663037 0 255 0
0.656378 1.842148 -3.662980 0 255 0
0.656129 1.843020 -3.662922 0 255 0
0.656892 1.841268 -3.661975 0 255 0
0.656511 1.842144 -3.662449 0 255 0
0.656129 1.843020 -3.662922 0 255 0
0.656892 1.841268 -3.661975 0 0 255
0.656792 1.842161 -3.661573 0 0 255
0.656691 1.843054 -3.661171 0 0 255
0.656627 1.841277 -3.663037 0 255 0
0.656659 1.842165 -3.662104 0 255 0
0.656691 1.843054 -3.661171 0 255 0
0.656990 1.841182 -3.660984 0 255 0
0.657033 1.842107 -3.660189 0 255 0
0.657076 1.843032 -3.659393 0 255 0
0.657446 1.841210 -3.659862 0 255 0
0.657261 1.842121 -3.659627 0 255 0
0.657076 1.843032 -3.659393 0 255 0
0.657446 1.841210 -3.659862 0 255 0
0.658418 1.842366 -3.658268 0 255 0
0.659389 1.843522 -3.656675 0 255 0
0.657910 1.841224 -3.658744 0 255 0
0.658650 1.842373 -3.657709 0 255 0
0.659389 1.843522 -3.656675 0 255 0
0.658574 1.841049 -3.656478 0 255 0
0.658982 1.842285 -3.656576 0 255 0
0.659389 1.843522 -3.656675 0 255 0
0.657446 1.841210 -3.659862 0 255 0
0.658888 1.842403 -3.657298 0 255 0
0.660330 1.843595 -3.654733 0 255 0
0.657910 1.841224 -3.658744 0 0 255
0.659120 1.842410 -3.656738 0 0 255
0.660330 1.843595 -3.654733 0 0 255
0.658386 1.841219 -3.657631 0 255 0
0.659358 1.842407 -3.656182 0 255 0
0.660330 1.843595 -3.654733 0 255 0
0.658574 1.841049 -3.656478 0 255 255
0.659452 1.842322 -3.655605 0 255 255
0.660330 1.843595 -3.654733 0 255 255
0.659042 1.841039 -3.655363 0 0 255
0.659686 1.842317 -3.655048 0 0 255
0.660330 1.843595 -3.654733 0 0 255
0.659505 1.841034 -3.654244 0 255 0
0.659917 1.842315 -3.654489 0 255 0
0.660330 1.843595 -3.654733 0 255 0
0.662195 1.841859 -3.652268 0 255 0
0.661263 1.842727 -3.653501 0 255 0
0.660330 1.843595 -3.654733 0 255 0
0.656892 1.841268 -3.661975 0 255 0
0.658611 1.842432 -3.658354 0 255 0
0.660330 1.843595 -3.654733 0 255 0
0.656990 1.841182 -3.660984 0 255 0
0.658660 1.842389 -3.657859 0 255 0
0.660330 1.843595 -3.654733 0 255 0
0.658574 1.841049 -3.656478 0 255 0
0.659674 1.842278 -3.654780 0 255 0
0.660774 1.843508 -3.653082 0 255 0
0.659042 1.841039 -3.655363 0 255 0
0.659908 1.842274 -3.654223 0 255 0
0.660774 1.843508 -3.653082 0 255 0
0.659505 1.841034 -3.654244 0 255 0
0.660140 1.842271 -3.653663 0 255 0
0.660774 1.843508 -3.653082 0 255 0
0.658574 1.841049 -3.656478 0 255 0
0.660056 1.842268 -3.653875 0 255 0
0.661537 1.843487 -3.651272 0 255 0
0.657446 1.841210 -3.659862 0 255 0
0.659492 1.842349 -3.655567 0 255 0
0.661537 1.843487 -3.651272 0 255 0
0.657910 1.841224 -3.658744 0 255 0
0.659724 1.842356 -3.655008 0 255 0
0.661537 1.843487 -3.651272 0 255 0
0.659505 1.841034 -3.654244 255 255 0
0.660521 1.842261 -3.652758 255 255 0
0.661537 1.843487 -3.651272 255 255 0
0.662195 1.841859 -3.652268 255 255 0
0.661866 1.842673 -3.651770 255 255 0
0.661537 1.843487 -3.651272 255 255 0
0.662574 1.841810 -3.651044 0 255 0
0.662056 1.842649 -3.651158 0 255 0
0.661537 1.843487 -3.651272 0 255 0
0.662577 1.841667 -3.650092 0 255 0
0.662609 1.842550 -3.648859 0 255 0
0.662641 1.843434 -3.647627 0 255 0
3 0 1 2 3 2 3 4 3 4 5 6 3 6 7 8 3 8 9 10 3 10 11 12 3 12 13 14 3 14 15 16 3 16 17 18 3 18 19 20 3 20 21 22 3 22 23 24 3 24 25 26 3 26 27 28 3 28 29 30 3 30 31 32 3 32 33 34 3 34 35 36 3 36 37 38 3 38 39 40 3 40 41 42 3 43 44 45 3 46 47 48 3 49 50 51 3 52 53 54 3 55 56 57 3 58 59 60 3 61 62 63 3 64 65 66 3 67 68 69 3 70 71 72 3 73 74 75 3 76 77 78 3 79 80 81 3 82 83 84 3 85 86 87 3 88 89 90 3 91 92 93 3 94 95 96 3 97 98 99 3 100 101 102 3 103 104 105 3 106 107 108 3 109 110 111 3 112 113 114 3 115 116 117 3 118 119 120 3 121 122 123 3 124 125 126 3 127 128 129 3 130 131 132 3 133 134 135 3 136 137 138 3 139 140 141 3 142 143 144 3 145 146 147 3 148 149 150 3 151 152 153 3 154 155 156 3 157 158 159 3 160 161 162 3 163 164 165 3 166 167 168 3 169 170 171 3 172 173 174 3 175 176 177 3 178 179 180 3 181 182 183 3 184 185 186 3 187 188 189 3 190 191 192 3 193 194 195 3 196 197 198 3 199 200 201 3 202 203 204 3 205 206 207 3 208 209 210 3 211 212 213 3 214 215 216 3 217 218 219 3 220 221 222 3 223 224 225 3 226 227 228 3 229 230 231 3 232 233 234 3 235 236 237 3 238 239 240 3 241 242 243 3 244 245 246 3 247 248 249 3 250 251 252 3 253 254 255 3 256 257 258 3 259 260 261 3 262 263 264 3 265 266 267 3 268 269 270 3 271 272 273 3 274 275 276 3 277 278 279 3 280 281 282 3 283 284 285 3 286 287 288 3 289 290 291 3 292 293 294 3 295 296 297 3 298 299 300 3 301 302 303 3 304 305 306 3 307 308 309 3 310 311 312 3 313 314 315 3 316 317 318 3 319 320 321 3 322 323 324 3 325 326 327 3 328 329 330 3 331 332 333 3 334 335 336 3 337 338 339 3 340 341 342 3 343 344 345 3 346 347 348 3 349 350 351 3 352 353 354 3 355 356 357 3 358 359 360 3 361 362 363 3 364 365 366 3 367 368 369 3 370 371 372 3 373 374 375 3 376 377 378 3 379 380 381 3 382 383 384 3 385 386 387 3 388 389 390 3 391 392 393 3 394 395 396 3 397 398 399 3 400 401 402 3 403 404 405 3 406 407 408 3 409 410 411 3 412 413 414 3 415 416 417 3 418 419 420 3 421 422 423 3 424 425 426 3 427 428 429 3 430 431 432 3 433 434 435 3 436 437 438 3 439 440 441 3 442 443 444 3 445 446 447 3 448 449 450 3 451 452 453 3 454 455 456 3 457 458 459 3 460 461 462 3 463 464 465 3 466 467 468 3 469 470 471 3 472 473 474 3 475 476 477 3 478 479 480 3 481 482 483 3 484 485 486 3 487 488 489 3 490 491 492 3 493 494 495 3 496 497 498 3 499 500 501 3 502 503 504 3 505 506 507 3 508 509 510 3 511 512 513 3 514 515 516 3 517 518 519 3 520 521 522 3 523 524 525 3 526 527 528 3 529 530 531 3 532 533 534 3 535 536 537 3 538 539 540 3 541 542 543 3 544 545 546 3 547 548 549 3 550 551 552 3 553 554 555 3 556 557 558 3 559 560 561 3 562 563 564 3 565 566 567 3 568 569 570 3 571 572 573 3 574 575 576 3 577 578 579 3 580 581 582 3 583 584 585 3 586 587 588 3 589 590 591 3 592 593 594 3 595 596 597 3 598 599 600 3 601 602 603 3 604 605 606 3 607 608 609 3 610 611 612 3 613 614 615 3 616 617 618 3 619 620 621 3 622 623 624 3 625 626 627 3 628 629 630 3 631 632 633 3 634 635 636 3 637 638 639 3 640 641 642 3 643 644 645 3 646 647 648 3 649 650 651 3 652 653 654 3 655 656 657 3 658 659 660 3 661 662 663 3 664 665 666 3 667 668 669 3 670 671 672 3 673 674 675 3 676 677 678 3 679 680 681 3 682 683 684 3 685 686 687 3 688 689 690 3 691 692 693 3 694 695 696 3 697 698 699 3 700 701 702 3 703 704 705 3 706 707 708 3 709 710 711 3 712 713 714 3 715 716 717 3 718 719 720 3 721 722 723 3 724 725 726 3 727 728 729 3 730 731 732 3 733 734 735 3 736 737 738 3 739 740 741 3 742 743 744 3 745 746 747 3 748 749 750 3 751 752 753 3 754 755 756 3 757 758 759 3 760 761 762 3 763 764 765 3 766 767 768 3 769 770 771 3 772 773 774 3 775 776 777 3 778 779 780 3 781 782 783 3 784 785 786 3 787 788 789 3 790 791 792 3 793 794 795 3 796 797 798 3 799 800 801 3 802 803 804 3 805 806 807 3 808 809 810 3 811 812 813 3 814 815 816 3 817 818 819 3 820 821 822 3 823 824 825 3 826 827 828 3 829 830 831 3 832 833 834 3 835 836 837 3 838 839 840 3 841 842 843 3 844 845 846 3 847 848 849 3 850 851 852 3 853 854 855 3 856 857 858 3 859 860 861 3 862 863 864 3 865 866 867 3 868 869 870 3 871 872 873 3 874 875 876 3 877 878 879 3 880 881 882 3 883 884 885 3 886 887 888 3 889 890 891 3 892 893 894 3 895 896 897 3 898 899 900 3 901 902 903 3 904 905 906 3 907 908 909 3 910 911 912 3 913 914 915 3 916 917 918 3 919 920 921 3 922 923 924 3 925 926 927 3 928 929 930 3 931 932 933 3 934 935 936 3 937 938 939 3 940 941 942 3 943 944 945 3 946 947 948 3 949 950 951 3 952 953 954 3 955 956 957 3 958 959 960 3 961 962 963 3 964 965 966 3 967 968 969 3 970 971 972 3 973 974 975 3 976 977 978 3 979 980 981 3 982 983 984 3 985 986 987 3 988 989 990 3 991 992 993 3 994 995 996 3 997 998 999 3 1000 1001 1002 3 1003 1004 1005 3 1006 1007 1008 3 1009 1010 1011 3 1012 1013 1014 3 1015 1016 1017 3 1018 1019 1020 3 1021 1022 1023 3 1024 1025 1026 3 1027 1028 1029 3 1030 1031 1032 3 1033 1034 1035 3 1036 1037 1038 3 1039 1040 1041 3 1042 1043 1044 3 1045 1046 1047 3 1048 1049 1050 3 1051 1052 1053 3 1054 1055 1056 3 1057 1058 1059 3 1060 1061 1062 3 1063 1064 1065 3 1066 1067 1068 3 1069 1070 1071 3 1072 1073 1074 3 1075 1076 1077 3 1078 1079 1080 3 1081 1082 1083 3 1084 1085 1086 3 1087 1088 1089 3 1090 1091 1092 3 1093 1094 1095 3 1096 1097 1098 3 1099 1100 1101 3 1102 1103 1104 3 1105 1106 1107 3 1108 1109 1110 3 1111 1112 1113 3 1114 1115 1116 3 1117 1118 1119 3 1120 1121 1122 3 1123 1124 1125 3 1126 1127 1128 3 1129 1130 1131 3 1132 1133 1134 3 1135 1136 1137 3 1138 1139 1140 3 1141 1142 1143 3 1144 1145 1146 3 1147 1148 1149 3 1150 1151 1152 3 1153 1154 1155 3 1156 1157 1158 3 1159 1160 1161 3 1162 1163 1164 3 1165 1166 1167 3 1168 1169 1170 3 1171 1172 1173 3 1174 1175 1176 3 1177 1178 1179 3 1180 1181 1182 3 1183 1184 1185 3 1186 1187 1188 3 1189 1190 1191 3 1192 1193 1194 3 1195 1196 1197 3 1198 1199 1200 3 1201 1202 1203 3 1204 1205 1206 3 1207 1208 1209 3 1210 1211 1212 3 1213 1214 1215 3 1216 1217 1218 3 1219 1220 1221 3 1222 1223 1224 3 1225 1226 1227 3 1228 1229 1230 3 1231 1232 1233 3 1234 1235 1236 3 1237 1238 1239 3 1240 1241 1242 3 1243 1244 1245 3 1246 1247 1248 3 1249 1250 1251 3 1252 1253 1254 3 1255 1256 1257 3 1258 1259 1260 3 1261 1262 1263 3 1264 1265 1266 3 1267 1268 1269 3 1270 1271 1272 3 1273 1274 1275 3 1276 1277 1278 3 1279 1280 1281 3 1282 1283 1284 3 1285 1286 1287 3 1288 1289 1290 3 1291 1292 1293 3 1294 1295 1296 3 1297 1298 1299 3 1300 1301 1302 3 1303 1304 1305 3 1306 1307 1308 3 1309 1310 1311 3 1312 1313 1314 3 1315 1316 1317 3 1318 1319 1320 3 1321 1322 1323 3 1324 1325 1326 3 1327 1328 1329 3 1330 1331 1332 3 1333 1334 1335 3 1336 1337 1338 3 1339 1340 1341 3 1342 1343 1344 3 1345 1346 1347 3 1348 1349 1350 3 1351 1352 1353 3 1354 1355 1356 3 1357 1358 1359 3 1360 1361 1362 3 1363 1364 1365 3 1366 1367 1368 3 1369 1370 1371 3 1372 1373 1374 3 1375 1376 1377 3 1378 1379 1380 3 1381 1382 1383 3 1384 1385 1386 3 1387 1388 1389 3 1390 1391 1392 3 1393 1394 1395 3 1396 1397 1398 3 1399 1400 1401 3 1402 1403 1404 3 1405 1406 1407 3 1408 1409 1410 3 1411 1412 1413 3 1414 1415 1416 3 1417 1418 1419 3 1420 1421 1422 3 1423 1424 1425 3 1426 1427 1428 3 1429 1430 1431 3 1432 1433 1434 3 1435 1436 1437 3 1438 1439 1440 3 1441 1442 1443 3 1444 1445 1446 3 1447 1448 1449 3 1450 1451 1452 3 1453 1454 1455 3 1456 1457 1458 3 1459 1460 1461 3 1462 1463 1464 3 1465 1466 1467 3 1468 1469 1470 3 1471 1472 1473 3 1474 1475 1476 3 1477 1478 1479 3 1480 1481 1482 3 1483 1484 1485 3 1486 1487 1488 3 1489 1490 1491 3 1492 1493 1494 3 1495 1496 1497 3 1498 1499 1500 3 1501 1502 1503 3 1504 1505 1506 3 1507 1508 1509 3 1510 1511 1512 3 1513 1514 1515 3 1516 1517 1518 3 1519 1520 1521 3 1522 1523 1524 3 1525 1526 1527 3 1528 1529 1530 3 1531 1532 1533 3 1534 1535 1536 3 1537 1538 1539 3 1540 1541 1542 3 1543 1544 1545 3 1546 1547 1548 3 1549 1550 1551 3 1552 1553 1554 3 1555 1556 1557 3 1558 1559 1560 3 1561 1562 1563 3 1564 1565 1566 3 1567 1568 1569 3 1570 1571 1572 3 1573 1574 1575 3 1576 1577 1578 3 1579 1580 1581 3 1582 1583 1584 3 1585 1586 1587 3 1588 1589 1590 3 1591 1592 1593 3 1594 1595 1596 3 1597 1598 1599 3 1600 1601 1602 3 1603 1604 1605 3 1606 1607 1608 3 1609 1610 1611 3 1612 1613 1614 3 1615 1616 1617 3 1618 1619 1620 3 1621 1622 1623 3 1624 1625 1626 3 1627 1628 1629 3 1630 1631 1632 3 1633 1634 1635 3 1636 1637 1638 3 1639 1640 1641 3 1642 1643 1644 3 1645 1646 1647 3 1648 1649 1650 3 1651 1652 1653 3 1654 1655 1656 3 1657 1658 1659 3 1660 1661 1662 3 1663 1664 1665 3 1666 1667 1668 3 1669 1670 1671 3 1672 1673 1674 3 1675 1676 1677 3 1678 1679 1680 3 1681 1682 1683 3 1684 1685 1686 3 1687 1688 1689 3 1690 1691 1692 3 1693 1694 1695 3 1696 1697 1698 3 1699 1700 1701 3 1702 1703 1704 3 1705 1706 1707 3 1708 1709 1710 3 1711 1712 1713 3 1714 1715 1716 3 1717 1718 1719 3 1720 1721 1722 3 1723 1724 1725 3 1726 1727 1728 3 1729 1730 1731 3 1732 1733 1734 3 1735 1736 1737 3 1738 1739 1740 3 1741 1742 1743 3 1744 1745 1746 3 1747 1748 1749 3 1750 1751 1752 3 1753 1754 1755 3 1756 1757 1758 3 1759 1760 1761 3 1762 1763 1764 3 1765 1766 1767 3 1768 1769 1770 3 1771 1772 1773 3 1774 1775 1776 3 1777 1778 1779 3 1780 1781 1782 3 1783 1784 1785 3 1786 1787 1788 3 1789 1790 1791 3 1792 1793 1794 3 1795 1796 1797 3 1798 1799 1800 3 1801 1802 1803 3 1804 1805 1806 3 1807 1808 1809 3 1810 1811 1812 3 1813 1814 1815 3 1816 1817 1818 3 1819 1820 1821 3 1822 1823 1824 3 1825 1826 1827 3 1828 1829 1830 3 1831 1832 1833 3 1834 1835 1836 3 1837 1838 1839 3 1840 1841 1842 3 1843 1844 1845 3 1846 1847 1848 3 1849 1850 1851 3 1852 1853 1854 3 1855 1856 1857 3 1858 1859 1860 3 1861 1862 1863 3 1864 1865 1866 3 1867 1868 1869 3 1870 1871 1872 3 1873 1874 1875 3 1876 1877 1878 3 1879 1880 1881 3 1882 1883 1884 3 1885 1886 1887 3 1888 1889 1890 3 1891 1892 1893 3 1894 1895 1896 3 1897 1898 1899 3 1900 1901 1902 3 1903 1904 1905 3 1906 1907 1908 3 1909 1910 1911 3 1912 1913 1914 3 1915 1916 1917 3 1918 1919 1920 3 1921 1922 1923 3 1924 1925 1926 3 1927 1928 1929 3 1930 1931 1932 3 1933 1934 1935 3 1936 1937 1938 3 1939 1940 1941 3 1942 1943 1944 3 1945 1946 1947 3 1948 1949 1950 3 1951 1952 1953 3 1954 1955 1956 3 1957 1958 1959 3 1960 1961 1962 3 1963 1964 1965 3 1966 1967 1968 3 1969 1970 1971 3 1972 1973 1974 3 1975 1976 1977 3 1978 1979 1980 3 1981 1982 1983 3 1984 1985 1986 3 1987 1988 1989 3 1990 1991 1992 3 1993 1994 1995 3 1996 1997 1998 3 1999 2000 2001 3 2002 2003 2004 3 2005 2006 2007 3 2008 2009 2010 3 2011 2012 2013 3 2014 2015 2016 3 2017 2018 2019 3 2020 2021 2022 3 2023 2024 2025 3 2026 2027 2028 3 2029 2030 2031 3 2032 2033 2034 3 2035 2036 2037 3 2038 2039 2040 3 2041 2042 2043 3 2044 2045 2046 3 2047 2048 2049 3 2050 2051 2052 3 2053 2054 2055 3 2056 2057 2058 3 2059 2060 2061 3 2062 2063 2064 3 2065 2066 2067 3 2068 2069 2070 3 2071 2072 2073 3 2074 2075 2076 3 2077 2078 2079 3 2080 2081 2082 3 2083 2084 2085 3 2086 2087 2088 3 2089 2090 2091 3 2092 2093 2094 3 2095 2096 2097 3 2098 2099 2100 3 2101 2102 2103 3 2104 2105 2106 3 2107 2108 2109 3 2110 2111 2112 3 2113 2114 2115 3 2116 2117 2118 3 2119 2120 2121 3 2122 2123 2124 3 2125 2126 2127 3 2128 2129 2130 3 2131 2132 2133 3 2134 2135 2136 3 2137 2138 2139 3 2140 2141 2142 3 2143 2144 2145 3 2146 2147 2148 3 2149 2150 2151 3 2152 2153 2154 3 2155 2156 2157 3 2158 2159 2160 3 2161 2162 2163 3 2164 2165 2166 3 2167 2168 2169 3 2170 2171 2172 3 2173 2174 2175 3 2176 2177 2178 3 2179 2180 2181 3 2182 2183 2184 3 2185 2186 2187 3 2188 2189 2190 3 2191 2192 2193 3 2194 2195 2196 3 2197 2198 2199 3 2200 2201 2202 3 2203 2204 2205 3 2206 2207 2208 3 2209 2210 2211 3 2212 2213 2214 3 2215 2216 2217 3 2218 2219 2220 3 2221 2222 2223 3 2224 2225 2226 3 2227 2228 2229 3 2230 2231 2232 3 2233 2234 2235 3 2236 2237 2238 3 2239 2240 2241 3 2242 2243 2244 3 2245 2246 2247 3 2248 2249 2250 3 2251 2252 2253 3 2254 2255 2256 3 2257 2258 2259 3 2260 2261 2262 3 2263 2264 2265 3 2266 2267 2268 3 2269 2270 2271 3 2272 2273 2274 3 2275 2276 2277 3 2278 2279 2280 3 2281 2282 2283 3 2284 2285 2286 3 2287 2288 2289 3 2290 2291 2292 3 2293 2294 2295 3 2296 2297 2298 3 2299 2300 2301 3 2302 2303 2304 