ply
format ascii 1.0
element vertex 1272
property float x
property float y
property float z
property uchar red
property uchar green
property uchar blue
element face 427
property list uchar int vertex_index
end_header
0.642686 1.988364 -3.700535 255 0 0
0.642750 1.988251 -3.699733 255 0 0
0.642813 1.988137 -3.698931 255 0 0
0.643176 1.988254 -3.698707 255 0 0
0.643539 1.988372 -3.698483 255 0 0
0.643571 1.988321 -3.698151 255 0 0
0.643603 1.988270 -3.697819 255 0 0
0.643647 1.988200 -3.697358 255 0 0
0.643690 1.988130 -3.696896 255 0 0
0.644038 1.988380 -3.697214 255 0 0
0.644386 1.988630 -3.697531 255 0 0
0.644447 1.988517 -3.696714 255 0 0
0.644507 1.988403 -3.695896 255 0 0
0.644560 1.988293 -3.695063 255 0 0
0.644613 1.988184 -3.694230 255 0 0
0.644884 1.988390 -3.694452 255 0 0
0.645155 1.988597 -3.694674 255 0 0
0.645182 1.988500 -3.693800 255 0 0
0.645210 1.988402 -3.692927 255 0 0
0.645528 1.988494 -3.692336 255 0 0
0.645846 1.988585 -3.691745 255 0 0
0.645846 1.988585 -3.691745 0 255 0
0.648434 1.989765 -3.690644 0 255 0
0.651022 1.990944 -3.689544 0 255 0
0.644613 1.988184 -3.694230 0 255 0
0.647676 1.989566 -3.692669 0 255 0
0.650739 1.990949 -3.691107 0 255 0
0.643690 1.988130 -3.696896 0 255 0
0.646760 1.989447 -3.694961 0 255 0
0.649829 1.990765 -3.693026 0 255 0
0.643603 1.988270 -3.697819 0 255 0
0.646260 1.989408 -3.696390 0 255 0
0.648917 1.990546 -3.694961 0 255 0
0.643690 1.988130 -3.696896 0 255 0
0.646304 1.989338 -3.695929 0 255 0
0.648917 1.990546 -3.694961 0 255 0
0.644507 1.988403 -3.695896 0 255 0
0.646712 1.989475 -3.695428 0 255 0
0.648917 1.990546 -3.694961 0 255 0
0.644613 1.988184 -3.694230 0 255 0
0.646765 1.989365 -3.694595 0 255 0
0.648917 1.990546 -3.694961 0 255 0
0.642813 1.988137 -3.698931 0 255 0
0.645680 1.989287 -3.697772 0 255 0
0.648547 1.990437 -3.696614 0 255 0
0.643539 1.988372 -3.698483 0 255 0
0.646043 1.989405 -3.697548 0 255 0
0.648547 1.990437 -3.696614 0 255 0
0.643603 1.988270 -3.697819 0 255 0
0.646075 1.989354 -3.697216 0 255 0
0.648547 1.990437 -3.696614 0 255 0
0.643690 1.988130 -3.696896 0 255 0
0.646119 1.989284 -3.696755 0 255 0
0.648547 1.990437 -3.696614 0 255 0
0.644386 1.988630 -3.697531 0 0 255
0.646466 1.989534 -3.697073 0 0 255
0.648547 1.990437 -3.696614 0 0 255
0.644507 1.988403 -3.695896 0 255 0
0.646527 1.989420 -3.696255 0 255 0
0.648547 1.990437 -3.696614 0 255 0
0.642686 1.988364 -3.700535 0 255 0
0.646143 1.989538 -3.699012 0 255 0
0.649600 1.990712 -3.697490 0 255 0
0.644386 1.988630 -3.697531 0 255 0
0.646993 1.989671 -3.697510 0 255 0
0.649600 1.990712 -3.697490 0 255 0
0.644386 1.988630 -3.697531 0 0 255
0.646760 1.989568 -3.698373 0 0 255
0.649133 1.990506 -3.699215 0 0 255
0.643690 1.988130 -3.696896 0 255 0
0.646412 1.989318 -3.698056 0 255 0
0.649133 1.990506 -3.699215 0 255 0
0.642686 1.988364 -3.700535 0 255 0
0.645910 1.989435 -3.699875 0 255 0
0.649133 1.990506 -3.699215 0 255 0
0.644386 1.988630 -3.697531 255 255 0
0.646375 1.989425 -3.699319 255 255 0
0.648363 1.990219 -3.701106 255 255 0
0.643690 1.988130 -3.696896 0 255 0
0.646027 1.989174 -3.699001 0 255 0
0.648363 1.990219 -3.701106 0 255 0
0.642686 1.988364 -3.700535 0 255 0
0.645525 1.989292 -3.700820 0 255 0
0.648363 1.990219 -3.701106 0 255 0
0.643690 1.988130 -3.696896 0 255 0
0.645696 1.988854 -3.695702 0 255 0
0.647701 1.989579 -3.694508 0 255 0
0.643603 1.988270 -3.697819 0 255 0
0.645652 1.988924 -3.696163 0 255 0
0.647701 1.989579 -3.694508 0 255 0
0.644613 1.988184 -3.694230 0 255 0
0.646157 1.988881 -3.694369 0 255 0
0.647701 1.989579 -3.694508 0 255 0
0.642813 1.988137 -3.698931 0 255 0
0.644320 1.988752 -3.698358 0 255 0
0.645826 1.989367 -3.697786 0 255 0
0.643539 1.988372 -3.698483 0 255 0
0.644682 1.988870 -3.698134 0 255 0
0.645826 1.989367 -3.697786 0 255 0
0.643603 1.988270 -3.697819 0 255 0
0.644715 1.988819 -3.697802 0 255 0
0.645826 1.989367 -3.697786 0 255 0
0.644386 1.988630 -3.697531 0 255 0
0.645106 1.988999 -3.697658 0 255 0
0.645826 1.989367 -3.697786 0 255 0
0.643690 1.988130 -3.696896 0 255 0
0.644758 1.988749 -3.697341 0 255 0
0.645826 1.989367 -3.697786 0 255 0
0.644507 1.988403 -3.695896 0 255 0
0.645167 1.988885 -3.696841 0 255 0
0.645826 1.989367 -3.697786 0 255 0
0.642686 1.988364 -3.700535 0 255 0
0.644256 1.988866 -3.699160 0 255 0
0.645826 1.989367 -3.697786 0 255 0
0.642686 1.988364 -3.700535 0 0 255
0.643644 1.988799 -3.700543 0 0 255
0.644602 1.989233 -3.700551 0 0 255
0.643690 1.988130 -3.696896 0 255 0
0.644146 1.988682 -3.698724 0 255 0
0.644602 1.989233 -3.700551 0 255 0
0.644386 1.988630 -3.697531 0 0 255
0.644494 1.988932 -3.699041 0 0 255
0.644602 1.989233 -3.700551 0 0 255
0.642813 1.988137 -3.698931 0 255 0
0.643707 1.988685 -3.699741 0 255 0
0.644602 1.989233 -3.700551 0 255 0
0.645210 1.988402 -3.692927 0 255 0
0.647722 1.989182 -3.690612 0 255 0
0.650234 1.989963 -3.688297 0 255 0
0.645846 1.988585 -3.691745 0 255 0
0.648040 1.989274 -3.690021 0 255 0
0.650234 1.989963 -3.688297 0 255 0
0.644613 1.988184 -3.694230 0 255 0
0.647223 1.989097 -3.692158 0 255 0
0.649834 1.990011 -3.690086 0 255 0
0.645846 1.988585 -3.691745 0 255 0
0.647840 1.989298 -3.690916 0 255 0
0.649834 1.990011 -3.690086 0 255 0
0.644507 1.988403 -3.695896 0 255 0
0.647011 1.989130 -3.693341 0 255 0
0.649514 1.989857 -3.690786 0 255 0
0.644613 1.988184 -3.694230 0 255 0
0.647063 1.989020 -3.692508 0 255 0
0.649514 1.989857 -3.690786 0 255 0
0.645210 1.988402 -3.692927 0 255 0
0.647362 1.989130 -3.691857 0 255 0
0.649514 1.989857 -3.690786 0 255 0
0.643690 1.988130 -3.696896 0 0 255
0.646385 1.989032 -3.694697 0 0 255
0.649079 1.989934 -3.692498 0 0 255
0.642813 1.988137 -3.698931 0 255 0
0.645946 1.989035 -3.695714 0 255 0
0.649079 1.989934 -3.692498 0 255 0
0.643539 1.988372 -3.698483 0 255 0
0.646309 1.989153 -3.695490 0 255 0
0.649079 1.989934 -3.692498 0 255 0
0.643603 1.988270 -3.697819 0 255 0
0.646341 1.989102 -3.695158 0 255 0
0.649079 1.989934 -3.692498 0 255 0
0.644386 1.988630 -3.697531 0 0 255
0.646733 1.989282 -3.695014 0 0 255
0.649079 1.989934 -3.692498 0 0 255
0.645155 1.988597 -3.694674 0 0 255
0.647117 1.989265 -3.693586 0 0 255
0.649079 1.989934 -3.692498 0 0 255
0.644507 1.988403 -3.695896 0 255 0
0.646793 1.989169 -3.694197 0 255 0
0.649079 1.989934 -3.692498 0 255 0
0.644613 1.988184 -3.694230 0 255 0
0.646846 1.989059 -3.693364 0 255 0
0.649079 1.989934 -3.692498 0 255 0
0.643690 1.988130 -3.696896 0 0 255
0.646272 1.989055 -3.695370 0 0 255
0.648854 1.989980 -3.693843 0 0 255
0.642813 1.988137 -3.698931 0 255 0
0.645833 1.989058 -3.696387 0 255 0
0.648854 1.989980 -3.693843 0 255 0
0.643539 1.988372 -3.698483 0 255 0
0.646196 1.989176 -3.696163 0 255 0
0.648854 1.989980 -3.693843 0 255 0
0.643603 1.988270 -3.697819 0 0 255
0.646228 1.989125 -3.695831 0 0 255
0.648854 1.989980 -3.693843 0 0 255
0.644386 1.988630 -3.697531 0 255 0
0.646620 1.989305 -3.695687 0 255 0
0.648854 1.989980 -3.693843 0 255 0
0.644507 1.988403 -3.695896 0 255 0
0.646680 1.989191 -3.694870 0 255 0
0.648854 1.989980 -3.693843 0 255 0
0.642686 1.988364 -3.700535 0 255 0
0.645770 1.989172 -3.697189 0 255 0
0.648854 1.989980 -3.693843 0 255 0
0.643690 1.988130 -3.696896 255 255 0
0.645929 1.988919 -3.695645 255 255 0
0.648168 1.989708 -3.694394 255 255 0
0.642813 1.988137 -3.698931 0 255 0
0.645491 1.988922 -3.696662 0 255 0
0.648168 1.989708 -3.694394 0 255 0
0.643539 1.988372 -3.698483 0 255 0
0.645854 1.989040 -3.696439 0 255 0
0.648168 1.989708 -3.694394 0 255 0
0.643603 1.988270 -3.697819 0 0 255
0.645886 1.988989 -3.696106 0 0 255
0.648168 1.989708 -3.694394 0 0 255
0.644386 1.988630 -3.697531 0 255 0
0.646277 1.989169 -3.695963 0 255 0
0.648168 1.989708 -3.694394 0 255 0
0.644613 1.988184 -3.694230 0 255 0
0.646391 1.988946 -3.694312 0 255 0
0.648168 1.989708 -3.694394 0 255 0
0.644507 1.988403 -3.695896 0 255 0
0.646338 1.989056 -3.695145 0 255 0
0.648168 1.989708 -3.694394 0 255 0
0.642686 1.988364 -3.700535 0 255 0
0.645427 1.989036 -3.697465 0 255 0
0.648168 1.989708 -3.694394 0 255 0
0.645210 1.988402 -3.692927 0 255 0
0.646689 1.989055 -3.693661 0 255 0
0.648168 1.989708 -3.694394 0 255 0
0.645155 1.988597 -3.694674 0 255 0
0.646662 1.989152 -3.694534 0 255 0
0.648168 1.989708 -3.694394 0 255 0
0.642813 1.988137 -3.698931 0 0 255
0.645229 1.988917 -3.697328 0 0 255
0.647644 1.989697 -3.695726 0 0 255
0.643539 1.988372 -3.698483 255 255 0
0.645591 1.989035 -3.697105 255 255 0
0.647644 1.989697 -3.695726 255 255 0
0.643603 1.988270 -3.697819 255 255 0
0.645624 1.988984 -3.696772 255 255 0
0.647644 1.989697 -3.695726 255 255 0
0.644386 1.988630 -3.697531 0 0 255
0.646015 1.989164 -3.696629 0 0 255
0.647644 1.989697 -3.695726 0 0 255
0.642686 1.988364 -3.700535 0 0 255
0.645165 1.989031 -3.698131 0 0 255
0.647644 1.989697 -3.695726 0 0 255
0.645155 1.988597 -3.694674 0 0 255
0.646399 1.989147 -3.695200 0 0 255
0.647644 1.989697 -3.695726 0 0 255
0.643690 1.988130 -3.696896 0 0 255
0.645667 1.988914 -3.696311 0 0 255
0.647644 1.989697 -3.695726 0 0 255
0.644613 1.988184 -3.694230 0 255 0
0.646128 1.988940 -3.694978 0 255 0
0.647644 1.989697 -3.695726 0 255 0
0.642686 1.988364 -3.700535 0 255 0
0.644975 1.989000 -3.698547 0 255 0
0.647263 1.989635 -3.696559 0 255 0
0.643539 1.988372 -3.698483 0 255 0
0.645401 1.989003 -3.697521 0 255 0
0.647263 1.989635 -3.696559 0 255 0
0.643603 1.988270 -3.697819 0 255 0
0.645433 1.988953 -3.697189 0 255 0
0.647263 1.989635 -3.696559 0 255 0
0.644386 1.988630 -3.697531 0 255 0
0.645825 1.989133 -3.697045 0 255 0
0.647263 1.989635 -3.696559 0 255 0
0.642686 1.988364 -3.700535 0 255 0
0.644647 1.988935 -3.698964 0 255 0
0.646607 1.989506 -3.697394 0 255 0
0.643603 1.988270 -3.697819 0 0 255
0.645105 1.988888 -3.697606 0 0 255
0.646607 1.989506 -3.697394 0 0 255
0.643690 1.988130 -3.696896 0 0 255
0.645149 1.988818 -3.697145 0 0 255
0.646607 1.989506 -3.697394 0 0 255
0.644386 1.988630 -3.697531 0 255 255
0.645497 1.989068 -3.697463 0 255 255
0.646607 1.989506 -3.697394 0 255 255
0.644507 1.988403 -3.695896 0 0 255
0.645557 1.988955 -3.696645 0 0 255
0.646607 1.989506 -3.697394 0 0 255
0.645155 1.988597 -3.694674 0 255 0
0.645881 1.989052 -3.696034 0 255 0
0.646607 1.989506 -3.697394 0 255 0
0.643539 1.988372 -3.698483 0 255 0
0.645073 1.988939 -3.697938 0 255 0
0.646607 1.989506 -3.697394 0 255 0
0.642686 1.988364 -3.700535 255 255 0
0.644373 1.988932 -3.699626 255 255 0
0.646059 1.989500 -3.698716 255 255 0
0.643603 1.988270 -3.697819 0 255 0
0.644831 1.988885 -3.698267 0 255 0
0.646059 1.989500 -3.698716 0 255 0
0.643690 1.988130 -3.696896 0 0 255
0.644875 1.988815 -3.697806 0 0 255
0.646059 1.989500 -3.698716 0 0 255
0.644386 1.988630 -3.697531 0 255 255
0.645222 1.989065 -3.698124 0 255 255
0.646059 1.989500 -3.698716 0 255 255
0.644507 1.988403 -3.695896 0 0 255
0.645283 1.988952 -3.697306 0 0 255
0.646059 1.989500 -3.698716 0 0 255
0.642813 1.988137 -3.698931 0 255 255
0.644259 1.988793 -3.699256 0 255 255
0.645704 1.989450 -3.699580 0 255 255
0.643539 1.988372 -3.698483 255 255 0
0.644621 1.988911 -3.699032 255 255 0
0.645704 1.989450 -3.699580 255 255 0
0.643603 1.988270 -3.697819 0 255 255
0.644654 1.988860 -3.698700 0 255 255
0.645704 1.989450 -3.699580 0 255 255
0.644386 1.988630 -3.697531 0 255 255
0.645045 1.989040 -3.698556 0 255 255
0.645704 1.989450 -3.699580 0 255 255
0.643690 1.988130 -3.696896 0 255 255
0.644697 1.988790 -3.698238 0 255 255
0.645704 1.989450 -3.699580 0 255 255
0.644507 1.988403 -3.695896 255 255 0
0.645106 1.988926 -3.697738 255 255 0
0.645704 1.989450 -3.699580 255 255 0
0.642686 1.988364 -3.700535 0 255 255
0.644195 1.988907 -3.700058 0 255 255
0.645704 1.989450 -3.699580 0 255 255
0.642813 1.988137 -3.698931 255 255 0
0.643940 1.988733 -3.699728 255 255 0
0.645067 1.989328 -3.700525 255 255 0
0.643539 1.988372 -3.698483 0 0 255
0.644303 1.988850 -3.699504 0 0 255
0.645067 1.989328 -3.700525 0 0 255
0.643603 1.988270 -3.697819 0 255 0
0.644335 1.988799 -3.699172 0 255 0
0.645067 1.989328 -3.700525 0 255 0
0.643690 1.988130 -3.696896 255 255 0
0.644379 1.988729 -3.698711 255 255 0
0.645067 1.989328 -3.700525 255 255 0
0.644386 1.988630 -3.697531 0 255 255
0.644727 1.988979 -3.699028 0 255 255
0.645067 1.989328 -3.700525 0 255 255
0.644507 1.988403 -3.695896 0 255 0
0.644787 1.988866 -3.698211 0 255 0
0.645067 1.989328 -3.700525 0 255 0
0.642686 1.988364 -3.700535 0 255 255
0.643877 1.988846 -3.700530 0 255 255
0.645067 1.989328 -3.700525 0 255 255
0.642686 1.988364 -3.700535 0 255 255
0.643744 1.988865 -3.701154 0 255 255
0.644801 1.989366 -3.701773 0 255 255
0.642813 1.988137 -3.698931 255 255 0
0.643807 1.988751 -3.700352 255 255 0
0.644801 1.989366 -3.701773 255 255 0
0.643539 1.988372 -3.698483 0 255 0
0.644170 1.988869 -3.700128 0 255 0
0.644801 1.989366 -3.701773 0 255 0
0.643603 1.988270 -3.697819 0 255 0
0.644202 1.988818 -3.699796 0 255 0
0.644801 1.989366 -3.701773 0 255 0
0.642686 1.988364 -3.700535 0 255 255
0.643456 1.988811 -3.701678 0 255 255
0.644225 1.989257 -3.702822 0 255 255
0.642813 1.988137 -3.698931 0 0 255
0.643519 1.988697 -3.700876 0 0 255
0.644225 1.989257 -3.702822 0 0 255
0.642686 1.988364 -3.700535 0 255 255
0.643171 1.988742 -3.702165 0 255 255
0.643656 1.989120 -3.703795 0 255 255
0.642686 1.988364 -3.700535 0 255 255
0.642645 1.988413 -3.700369 0 255 255
0.642604 1.988462 -3.700203 0 255 255
0.642813 1.988137 -3.698931 0 255 0
0.642709 1.988300 -3.699567 0 255 0
0.642604 1.988462 -3.700203 0 255 0
0.642686 1.988364 -3.700535 0 255 255
0.643498 1.988741 -3.700551 0 255 255
0.644310 1.989118 -3.700567 0 255 255
0.642813 1.988137 -3.698931 255 255 0
0.643562 1.988627 -3.699749 255 255 0
0.644310 1.989118 -3.700567 255 255 0
0.643539 1.988372 -3.698483 0 0 255
0.643924 1.988745 -3.699525 0 0 255
0.644310 1.989118 -3.700567 0 0 255
0.642813 1.988137 -3.698931 0 255 255
0.644013 1.988752 -3.699379 0 255 255
0.645213 1.989366 -3.699827 0 255 255
0.643539 1.988372 -3.698483 0 255 255
0.644376 1.988869 -3.699155 0 255 255
0.645213 1.989366 -3.699827 0 255 255
0.643603 1.988270 -3.697819 255 255 0
0.644408 1.988818 -3.698823 255 255 0
0.645213 1.989366 -3.699827 255 255 0
0.644386 1.988630 -3.697531 0 255 255
0.644800 1.988998 -3.698679 0 255 255
0.645213 1.989366 -3.699827 0 255 255
0.643690 1.988130 -3.696896 255 255 0
0.644452 1.988748 -3.698362 255 255 0
0.645213 1.989366 -3.699827 255 255 0
0.644507 1.988403 -3.695896 0 255 0
0.644860 1.988885 -3.697862 0 255 0
0.645213 1.989366 -3.699827 0 255 0
0.642686 1.988364 -3.700535 0 255 255
0.643950 1.988865 -3.700181 0 255 255
0.645213 1.989366 -3.699827 0 255 255
0.643539 1.988372 -3.698483 0 255 0
0.644509 1.988876 -3.698632 0 255 0
0.645478 1.989380 -3.698780 0 255 0
0.643603 1.988270 -3.697819 0 255 255
0.644541 1.988825 -3.698299 0 255 255
0.645478 1.989380 -3.698780 0 255 255
0.643690 1.988130 -3.696896 0 255 255
0.644584 1.988755 -3.697838 0 255 255
0.645478 1.989380 -3.698780 0 255 255
0.644386 1.988630 -3.697531 0 255 255
0.644932 1.989005 -3.698156 0 255 255
0.645478 1.989380 -3.698780 0 255 255
0.644507 1.988403 -3.695896 0 0 255
0.644993 1.988892 -3.697338 0 0 255
0.645478 1.989380 -3.698780 0 0 255
0.642686 1.988364 -3.700535 0 0 255
0.644082 1.988872 -3.699658 0 0 255
0.645478 1.989380 -3.698780 0 0 255
0.643690 1.988130 -3.696896 255 255 0
0.644800 1.988793 -3.697397 255 255 0
0.645909 1.989455 -3.697897 255 255 0
0.643603 1.988270 -3.697819 0 255 0
0.644756 1.988863 -3.697858 0 255 0
0.645909 1.989455 -3.697897 0 255 0
0.644386 1.988630 -3.697531 0 255 255
0.645148 1.989043 -3.697714 0 255 255
0.645909 1.989455 -3.697897 0 255 255
0.644507 1.988403 -3.695896 255 255 0
0.645208 1.988929 -3.696897 255 255 0
0.645909 1.989455 -3.697897 255 255 0
0.642686 1.988364 -3.700535 0 0 255
0.644298 1.988910 -3.699216 0 0 255
0.645909 1.989455 -3.697897 0 0 255
0.643690 1.988130 -3.696896 0 0 255
0.645040 1.988841 -3.696978 0 0 255
0.646389 1.989553 -3.697059 0 0 255
0.642813 1.988137 -3.698931 0 255 0
0.644601 1.988845 -3.697995 0 255 0
0.646389 1.989553 -3.697059 0 255 0
0.643539 1.988372 -3.698483 0 255 0
0.644964 1.988962 -3.697771 0 255 0
0.646389 1.989553 -3.697059 0 255 0
0.643603 1.988270 -3.697819 0 255 0
0.644996 1.988911 -3.697439 0 255 0
0.646389 1.989553 -3.697059 0 255 0
0.644386 1.988630 -3.697531 0 0 255
0.645387 1.989092 -3.697295 0 0 255
0.646389 1.989553 -3.697059 0 0 255
0.644507 1.988403 -3.695896 0 255 255
0.645448 1.988978 -3.696478 0 255 255
0.646389 1.989553 -3.697059 0 255 255
0.644613 1.988184 -3.694230 0 255 0
0.645501 1.988868 -3.695645 0 255 0
0.646389 1.989553 -3.697059 0 255 0
0.642813 1.988137 -3.698931 0 0 255
0.644659 1.988798 -3.697245 0 0 255
0.646505 1.989458 -3.695560 0 0 255
0.643539 1.988372 -3.698483 255 255 0
0.645022 1.988915 -3.697022 255 255 0
0.646505 1.989458 -3.695560 255 255 0
0.643603 1.988270 -3.697819 255 255 0
0.645054 1.988864 -3.696689 255 255 0
0.646505 1.989458 -3.695560 255 255 0
0.644386 1.988630 -3.697531 0 0 255
0.645445 1.989044 -3.696546 0 0 255
0.646505 1.989458 -3.695560 0 0 255
0.642686 1.988364 -3.700535 0 255 0
0.644596 1.988911 -3.698048 0 255 0
0.646505 1.989458 -3.695560 0 255 0
0.644613 1.988184 -3.694230 0 0 255
0.645559 1.988821 -3.694895 0 0 255
0.646505 1.989458 -3.695560 0 0 255
0.643690 1.988130 -3.696896 0 0 255
0.645098 1.988794 -3.696228 0 0 255
0.646505 1.989458 -3.695560 0 0 255
0.644507 1.988403 -3.695896 0 255 0
0.645506 1.988931 -3.695728 0 255 0
0.646505 1.989458 -3.695560 0 255 0
0.645155 1.988597 -3.694674 0 0 255
0.645830 1.989028 -3.695117 0 0 255
0.646505 1.989458 -3.695560 0 0 255
0.645210 1.988402 -3.692927 0 255 0
0.645857 1.988930 -3.694244 0 255 0
0.646505 1.989458 -3.695560 0 255 0
0.643690 1.988130 -3.696896 255 255 0
0.645274 1.988834 -3.695751 255 255 0
0.646857 1.989538 -3.694605 255 255 0
0.642813 1.988137 -3.698931 0 255 0
0.644835 1.988837 -3.696768 0 255 0
0.646857 1.989538 -3.694605 0 255 0
0.643539 1.988372 -3.698483 0 255 0
0.645198 1.988955 -3.696544 0 255 0
0.646857 1.989538 -3.694605 0 255 0
0.643603 1.988270 -3.697819 0 255 0
0.645230 1.988904 -3.696212 0 255 0
0.646857 1.989538 -3.694605 0 255 0
0.644386 1.988630 -3.697531 0 255 0
0.645622 1.989084 -3.696068 0 255 0
0.646857 1.989538 -3.694605 0 255 0
0.645210 1.988402 -3.692927 255 255 0
0.646033 1.988970 -3.693766 255 255 0
0.646857 1.989538 -3.694605 255 255 0
0.645846 1.988585 -3.691745 0 255 0
0.646352 1.989062 -3.693175 0 255 0
0.646857 1.989538 -3.694605 0 255 0
0.644507 1.988403 -3.695896 0 255 0
0.645682 1.988971 -3.695251 0 255 0
0.646857 1.989538 -3.694605 0 255 0
0.644613 1.988184 -3.694230 0 255 0
0.645735 1.988861 -3.694418 0 255 0
0.646857 1.989538 -3.694605 0 255 0
0.645155 1.988597 -3.694674 0 255 0
0.646006 1.989068 -3.694640 0 255 0
0.646857 1.989538 -3.694605 0 255 0
0.643690 1.988130 -3.696896 0 0 255
0.645512 1.988884 -3.695327 0 0 255
0.647334 1.989638 -3.693757 0 0 255
0.642813 1.988137 -3.698931 0 255 0
0.645074 1.988887 -3.696344 0 255 0
0.647334 1.989638 -3.693757 0 255 0
0.643539 1.988372 -3.698483 0 255 0
0.645436 1.989005 -3.696120 0 255 0
0.647334 1.989638 -3.693757 0 255 0
0.643603 1.988270 -3.697819 0 255 0
0.645469 1.988954 -3.695788 0 255 0
0.647334 1.989638 -3.693757 0 255 0
0.644386 1.988630 -3.697531 0 0 255
0.645860 1.989134 -3.695644 0 0 255
0.647334 1.989638 -3.693757 0 0 255
0.645210 1.988402 -3.692927 0 0 255
0.646272 1.989020 -3.693342 0 0 255
0.647334 1.989638 -3.693757 0 0 255
0.645846 1.988585 -3.691745 0 255 255
0.646590 1.989112 -3.692751 0 255 255
0.647334 1.989638 -3.693757 0 255 255
0.644507 1.988403 -3.695896 0 0 255
0.645921 1.989021 -3.694827 0 0 255
0.647334 1.989638 -3.693757 0 0 255
0.645155 1.988597 -3.694674 0 255 0
0.646244 1.989117 -3.694215 0 255 0
0.647334 1.989638 -3.693757 0 255 0
0.645846 1.988585 -3.691745 255 255 0
0.646743 1.989099 -3.692236 255 255 0
0.647639 1.989613 -3.692727 255 255 0
0.644613 1.988184 -3.694230 0 255 0
0.646126 1.988898 -3.693478 0 255 0
0.647639 1.989613 -3.692727 0 255 0
0.645155 1.988597 -3.694674 0 255 0
0.646397 1.989105 -3.693700 0 255 0
0.647639 1.989613 -3.692727 0 255 0
0.644507 1.988403 -3.695896 0 255 0
0.646260 1.988991 -3.693695 0 255 0
0.648012 1.989579 -3.691494 0 255 0
0.644613 1.988184 -3.694230 0 255 0
0.646312 1.988881 -3.692862 0 255 0
0.648012 1.989579 -3.691494 0 255 0
0.644613 1.988184 -3.694230 0 255 0
0.646477 1.988895 -3.692364 0 255 0
0.648342 1.989607 -3.690497 0 255 0
0.645846 1.988585 -3.691745 0 255 0
0.647094 1.989096 -3.691121 0 255 0
0.648342 1.989607 -3.690497 0 255 0
0.645210 1.988402 -3.692927 0 255 0
0.646776 1.989005 -3.691712 0 255 0
0.648342 1.989607 -3.690497 0 255 0
0.645846 1.988585 -3.691745 0 255 0
0.647293 1.989128 -3.690658 0 255 0
0.648740 1.989671 -3.689572 0 255 0
0.645210 1.988402 -3.692927 0 255 0
0.646982 1.988963 -3.690593 0 255 0
0.648754 1.989524 -3.688259 0 255 0
0.645846 1.988585 -3.691745 0 255 0
0.647300 1.989055 -3.690002 0 255 0
0.648754 1.989524 -3.688259 0 255 0
0.642686 1.988364 -3.700535 0 255 0
0.643596 1.988924 -3.702388 0 255 0
0.644505 1.989483 -3.704241 0 255 0
0.642686 1.988364 -3.700535 0 0 255
0.643836 1.988977 -3.701971 0 0 255
0.644986 1.989590 -3.703406 0 0 255
0.642686 1.988364 -3.700535 0 0 255
0.644321 1.989150 -3.701612 0 0 255
0.645955 1.989935 -3.702688 0 0 255
0.642813 1.988137 -3.698931 255 255 0
0.644384 1.989036 -3.700809 255 255 0
0.645955 1.989935 -3.702688 255 255 0
0.643539 1.988372 -3.698483 0 255 0
0.644747 1.989153 -3.700586 0 255 0
0.645955 1.989935 -3.702688 0 255 0
0.642686 1.988364 -3.700535 255 255 0
0.644315 1.989162 -3.701047 255 255 0
0.645943 1.989959 -3.701560 255 255 0
0.642813 1.988137 -3.698931 0 255 0
0.644378 1.989048 -3.700245 0 255 0
0.645943 1.989959 -3.701560 0 255 0
0.642686 1.988364 -3.700535 255 255 0
0.644473 1.989248 -3.700597 255 255 0
0.646260 1.990131 -3.700659 255 255 0
0.643539 1.988372 -3.698483 0 255 0
0.644899 1.989251 -3.699571 0 255 0
0.646260 1.990131 -3.700659 0 255 0
0.644386 1.988630 -3.697531 0 255 0
0.645323 1.989381 -3.699095 0 255 0
0.646260 1.990131 -3.700659 0 255 0
0.643539 1.988372 -3.698483 0 0 255
0.644845 1.989238 -3.698985 0 0 255
0.646151 1.990104 -3.699487 0 0 255
0.643603 1.988270 -3.697819 0 0 255
0.644877 1.989187 -3.698653 0 0 255
0.646151 1.990104 -3.699487 0 0 255
0.643690 1.988130 -3.696896 255 255 0
0.644921 1.989117 -3.698192 255 255 0
0.646151 1.990104 -3.699487 255 255 0
0.644386 1.988630 -3.697531 0 255 255
0.645268 1.989367 -3.698509 0 255 255
0.646151 1.990104 -3.699487 0 255 255
0.644507 1.988403 -3.695896 0 255 0
0.645329 1.989253 -3.697692 0 255 0
0.646151 1.990104 -3.699487 0 255 0
0.642813 1.988137 -3.698931 0 255 0
0.644280 1.989033 -3.698440 0 255 0
0.645746 1.989929 -3.697950 0 255 0
0.643539 1.988372 -3.698483 0 0 255
0.644642 1.989150 -3.698216 0 0 255
0.645746 1.989929 -3.697950 0 0 255
0.643603 1.988270 -3.697819 255 255 0
0.644675 1.989099 -3.697884 255 255 0
0.645746 1.989929 -3.697950 255 255 0
0.644386 1.988630 -3.697531 0 255 255
0.645066 1.989279 -3.697741 0 255 255
0.645746 1.989929 -3.697950 0 255 255
0.643690 1.988130 -3.696896 0 0 255
0.644718 1.989029 -3.697423 0 0 255
0.645746 1.989929 -3.697950 0 0 255
0.644507 1.988403 -3.695896 0 255 255
0.645127 1.989166 -3.696923 0 255 255
0.645746 1.989929 -3.697950 0 255 255
0.644507 1.988403 -3.695896 0 255 255
0.644543 1.988855 -3.695995 0 255 255
0.644579 1.989307 -3.696094 0 255 255
0.642813 1.988137 -3.698931 0 255 0
0.643696 1.988722 -3.697512 0 255 0
0.644579 1.989307 -3.696094 0 255 0
0.643539 1.988372 -3.698483 0 255 0
0.644059 1.988839 -3.697288 0 255 0
0.644579 1.989307 -3.696094 0 255 0
0.643603 1.988270 -3.697819 0 0 255
0.644091 1.988789 -3.696956 0 0 255
0.644579 1.989307 -3.696094 0 0 255
0.644386 1.988630 -3.697531 0 255 255
0.644483 1.988969 -3.696813 0 255 255
0.644579 1.989307 -3.696094 0 255 255
0.643690 1.988130 -3.696896 255 255 0
0.644135 1.988719 -3.696495 255 255 0
0.644579 1.989307 -3.696094 255 255 0
0.644613 1.988184 -3.694230 0 255 0
0.644596 1.988745 -3.695162 0 255 0
0.644579 1.989307 -3.696094 0 255 0
0.645155 1.988597 -3.694674 0 255 0
0.644867 1.988952 -3.695384 0 255 0
0.644579 1.989307 -3.696094 0 255 0
0.643690 1.988130 -3.696896 0 255 0
0.644146 1.988635 -3.695930 0 255 0
0.644601 1.989141 -3.694964 0 255 0
0.644507 1.988403 -3.695896 0 255 0
0.644554 1.988772 -3.695430 0 255 0
0.644601 1.989141 -3.694964 0 255 0
0.644613 1.988184 -3.694230 0 0 255
0.644607 1.988662 -3.694597 0 0 255
0.644601 1.989141 -3.694964 0 0 255
0.644613 1.988184 -3.694230 0 0 255
0.644707 1.988607 -3.694085 0 0 255
0.644801 1.989030 -3.693940 0 0 255
0.644507 1.988403 -3.695896 0 255 0
0.644654 1.988717 -3.694918 0 255 0
0.644801 1.989030 -3.693940 0 255 0
0.645846 1.988585 -3.691745 0 255 0
0.645600 1.988826 -3.692439 0 255 0
0.645354 1.989067 -3.693134 0 255 0
0.645210 1.988402 -3.692927 0 255 0
0.645282 1.988734 -3.693030 0 255 0
0.645354 1.989067 -3.693134 0 255 0
0.645155 1.988597 -3.694674 0 255 0
0.645255 1.988832 -3.693904 0 255 0
0.645354 1.989067 -3.693134 0 255 0
0.645846 1.988585 -3.691745 0 255 0
0.645839 1.988828 -3.692014 0 255 0
0.645831 1.989070 -3.692282 0 255 0
0.645846 1.988585 -3.691745 0 0 255
0.645463 1.988562 -3.691206 0 0 255
0.645079 1.988539 -3.690667 0 0 255
0.645210 1.988402 -3.692927 0 255 0
0.646716 1.989047 -3.690879 0 255 0
0.648222 1.989691 -3.688832 0 255 0
0.645846 1.988585 -3.691745 0 255 0
0.647034 1.989138 -3.690288 0 255 0
0.648222 1.989691 -3.688832 0 255 0
0.645210 1.988402 -3.692927 0 255 0
0.646464 1.989031 -3.691434 0 255 0
0.647718 1.989661 -3.689941 0 255 0
0.645846 1.988585 -3.691745 0 0 255
0.646782 1.989123 -3.690843 0 0 255
0.647718 1.989661 -3.689941 0 0 255
0.644507 1.988403 -3.695896 0 255 0
0.645937 1.989036 -3.693482 0 255 0
0.647367 1.989669 -3.691067 0 255 0
0.644507 1.988403 -3.695896 0 0 255
0.645837 1.989057 -3.694053 0 0 255
0.647166 1.989711 -3.692211 0 0 255
0.645846 1.988585 -3.691745 0 0 255
0.646506 1.989148 -3.691978 0 0 255
0.647166 1.989711 -3.692211 0 0 255
0.645210 1.988402 -3.692927 0 0 255
0.646188 1.989057 -3.692569 0 0 255
0.647166 1.989711 -3.692211 0 0 255
0.644507 1.988403 -3.695896 0 255 0
0.645879 1.989119 -3.694641 0 255 0
0.647250 1.989835 -3.693385 0 255 0
0.643690 1.988130 -3.696896 0 255 0
0.645470 1.988982 -3.695141 0 255 0
0.647250 1.989835 -3.693385 0 255 0
0.644613 1.988184 -3.694230 0 255 0
0.645931 1.989009 -3.693808 0 255 0
0.647250 1.989835 -3.693385 0 255 0
0.643690 1.988130 -3.696896 0 0 255
0.645502 1.989035 -3.695728 0 0 255
0.647314 1.989940 -3.694559 0 0 255
0.642813 1.988137 -3.698931 0 255 0
0.645064 1.989038 -3.696745 0 255 0
0.647314 1.989940 -3.694559 0 255 0
0.643539 1.988372 -3.698483 0 255 0
0.645426 1.989156 -3.696521 0 255 0
0.647314 1.989940 -3.694559 0 255 0
0.643603 1.988270 -3.697819 0 0 255
0.645459 1.989105 -3.696189 0 0 255
0.647314 1.989940 -3.694559 0 0 255
0.644386 1.988630 -3.697531 0 255 0
0.645850 1.989285 -3.696045 0 255 0
0.647314 1.989940 -3.694559 0 255 0
0.644507 1.988403 -3.695896 0 255 0
0.645911 1.989172 -3.695227 0 255 0
0.647314 1.989940 -3.694559 0 255 0
0.644507 1.988403 -3.695896 0 255 255
0.645459 1.989064 -3.695763 0 255 255
0.646410 1.989725 -3.695630 0 255 255
0.642813 1.988137 -3.698931 0 255 0
0.644612 1.988931 -3.697281 0 255 0
0.646410 1.989725 -3.695630 0 255 0
0.643539 1.988372 -3.698483 0 255 0
0.644974 1.989048 -3.697057 0 255 0
0.646410 1.989725 -3.695630 0 255 0
0.643603 1.988270 -3.697819 0 255 0
0.645007 1.988997 -3.696725 0 255 0
0.646410 1.989725 -3.695630 0 255 0
0.644386 1.988630 -3.697531 0 255 0
0.645398 1.989178 -3.696581 0 255 0
0.646410 1.989725 -3.695630 0 255 0
0.642813 1.988137 -3.698931 0 255 0
0.644662 1.988953 -3.697871 0 255 0
0.646511 1.989769 -3.696812 0 255 0
0.643539 1.988372 -3.698483 0 255 0
0.645025 1.989070 -3.697648 0 255 0
0.646511 1.989769 -3.696812 0 255 0
0.643603 1.988270 -3.697819 255 255 0
0.645057 1.989019 -3.697316 255 255 0
0.646511 1.989769 -3.696812 255 255 0
0.644386 1.988630 -3.697531 255 255 0
0.645449 1.989200 -3.697172 255 255 0
0.646511 1.989769 -3.696812 255 255 0
0.642686 1.988364 -3.700535 0 0 255
0.644599 1.989067 -3.698674 0 0 255
0.646511 1.989769 -3.696812 0 0 255
0.643690 1.988130 -3.696896 0 255 0
0.645101 1.988949 -3.696854 0 255 0
0.646511 1.989769 -3.696812 0 255 0
0.644386 1.988630 -3.697531 0 0 255
0.645670 1.989176 -3.698370 0 0 255
0.646954 1.989722 -3.699208 0 0 255
0.643690 1.988130 -3.696896 0 255 0
0.645322 1.988926 -3.698052 0 255 0
0.646954 1.989722 -3.699208 0 255 0
0.644386 1.988630 -3.697531 0 0 255
0.645753 1.989115 -3.698966 0 0 255
0.647119 1.989600 -3.700401 0 0 255
0.642686 1.988364 -3.700535 0 255 0
0.644311 1.988784 -3.701002 0 255 0
0.645936 1.989203 -3.701469 0 255 0
0.644386 1.988630 -3.697531 0 255 0
0.645161 1.988917 -3.699500 0 255 0
0.645936 1.989203 -3.701469 0 255 0
0.642686 1.988364 -3.700535 0 0 255
0.644169 1.988732 -3.701570 0 0 255
0.645652 1.989100 -3.702606 0 0 255
0.645210 1.988402 -3.692927 0 255 0
0.647599 1.989328 -3.690798 0 255 0
0.649989 1.990253 -3.688668 0 255 0
0.645846 1.988585 -3.691745 0 255 0
0.647918 1.989419 -3.690206 0 255 0
0.649989 1.990253 -3.688668 0 255 0
0.645210 1.988402 -3.692927 0 255 0
0.648063 1.989537 -3.691244 0 255 0
0.650916 1.990673 -3.689562 0 255 0
0.645846 1.988585 -3.691745 0 255 0
0.648381 1.989629 -3.690653 0 255 0
0.650916 1.990673 -3.689562 0 255 0
0.644507 1.988403 -3.695896 0 255 0
0.647729 1.989597 -3.693765 0 255 0
0.650951 1.990791 -3.691634 0 255 0
0.644507 1.988403 -3.695896 0 0 255
0.647447 1.989530 -3.694327 0 0 255
0.650387 1.990656 -3.692758 0 0 255
0.644507 1.988403 -3.695896 0 255 0
0.647526 1.989592 -3.694839 0 255 0
0.650544 1.990780 -3.693781 0 255 0
0.643690 1.988130 -3.696896 0 0 255
0.647117 1.989455 -3.695339 0 0 255
0.650544 1.990780 -3.693781 0 0 255
0.642813 1.988137 -3.698931 0 255 0
0.646388 1.989401 -3.696917 0 255 0
0.649964 1.990665 -3.694903 0 255 0
0.643539 1.988372 -3.698483 0 255 0
0.646751 1.989518 -3.696693 0 255 0
0.649964 1.990665 -3.694903 0 255 0
0.643603 1.988270 -3.697819 0 0 255
0.646784 1.989467 -3.696361 0 0 255
0.649964 1.990665 -3.694903 0 0 255
0.644386 1.988630 -3.697531 0 255 0
0.647175 1.989647 -3.696217 0 255 0
0.649964 1.990665 -3.694903 0 255 0
0.643690 1.988130 -3.696896 0 255 0
0.646827 1.989397 -3.695900 0 255 0
0.649964 1.990665 -3.694903 0 255 0
0.642813 1.988137 -3.698931 0 255 0
0.646366 1.989439 -3.697438 0 255 0
0.649920 1.990742 -3.695946 0 255 0
0.643539 1.988372 -3.698483 0 0 255
0.646729 1.989557 -3.697215 0 0 255
0.649920 1.990742 -3.695946 0 0 255
0.643603 1.988270 -3.697819 0 0 255
0.646762 1.989506 -3.696883 0 0 255
0.649920 1.990742 -3.695946 0 0 255
0.644386 1.988630 -3.697531 0 255 0
0.647153 1.989686 -3.696739 0 255 0
0.649920 1.990742 -3.695946 0 255 0
0.643690 1.988130 -3.696896 0 255 0
0.646805 1.989436 -3.696421 0 255 0
0.649920 1.990742 -3.695946 0 255 0
0.642686 1.988364 -3.700535 0 255 0
0.646303 1.989553 -3.698241 0 255 0
0.649920 1.990742 -3.695946 0 255 0
0.642813 1.988137 -3.698931 0 255 0
0.646133 1.989402 -3.697989 0 255 0
0.649453 1.990668 -3.697048 0 255 0
0.643539 1.988372 -3.698483 0 0 255
0.646496 1.989520 -3.697765 0 0 255
0.649453 1.990668 -3.697048 0 0 255
0.643603 1.988270 -3.697819 0 0 255
0.646528 1.989469 -3.697433 0 0 255
0.649453 1.990668 -3.697048 0 0 255
0.644386 1.988630 -3.697531 0 0 255
0.646919 1.989649 -3.697290 0 0 255
0.649453 1.990668 -3.697048 0 0 255
0.642686 1.988364 -3.700535 0 255 0
0.646070 1.989516 -3.698791 0 255 0
0.649453 1.990668 -3.697048 0 255 0
0.643690 1.988130 -3.696896 0 255 0
0.646572 1.989399 -3.696972 0 255 0
0.649453 1.990668 -3.697048 0 255 0
0.644507 1.988403 -3.695896 0 255 0
0.646980 1.989536 -3.696472 0 255 0
0.649453 1.990668 -3.697048 0 255 0
0.644386 1.988630 -3.697531 0 255 0
0.646723 1.989615 -3.697836 0 255 0
0.649060 1.990599 -3.698140 0 255 0
0.644507 1.988403 -3.695896 0 255 0
0.646784 1.989501 -3.697018 0 255 0
0.649060 1.990599 -3.698140 0 255 0
0.642686 1.988364 -3.700535 0 255 0
0.645873 1.989482 -3.699338 0 255 0
0.649060 1.990599 -3.698140 0 255 0
0.642686 1.988364 -3.700535 255 255 0
0.645773 1.989476 -3.699873 255 255 0
0.648859 1.990587 -3.699211 255 255 0
0.644386 1.988630 -3.697531 0 255 0
0.646623 1.989609 -3.698371 0 255 0
0.648859 1.990587 -3.699211 0 255 0
0.642686 1.988364 -3.700535 0 255 0
0.645484 1.989408 -3.700434 0 255 0
0.648281 1.990451 -3.700333 0 255 0
0.644386 1.988630 -3.697531 255 255 0
0.646334 1.989541 -3.698932 255 255 0
0.648281 1.990451 -3.700333 255 255 0
0.643690 1.988130 -3.696896 0 255 0
0.645986 1.989290 -3.698615 0 255 0
0.648281 1.990451 -3.700333 0 255 0
0.642686 1.988364 -3.700535 0 255 0
0.643592 1.988916 -3.702246 0 255 0
0.644497 1.989468 -3.703956 0 255 0
0.643690 1.988130 -3.696896 0 255 0
0.646964 1.989701 -3.699458 0 255 0
0.650237 1.991272 -3.702020 0 255 0
0.644386 1.988630 -3.697531 0 255 0
0.647312 1.989951 -3.699776 0 255 0
0.650237 1.991272 -3.702020 0 255 0
0.644386 1.988630 -3.697531 0 255 0
0.645784 1.989372 -3.700121 0 255 0
0.647182 1.990114 -3.702712 0 255 0
0.643690 1.988130 -3.696896 0 255 0
0.645462 1.989105 -3.699031 0 255 0
0.647233 1.990080 -3.701165 0 255 0
0.644386 1.988630 -3.697531 0 0 255
0.645810 1.989355 -3.699348 0 0 255
0.647233 1.990080 -3.701165 0 0 255
0.642813 1.988137 -3.698931 0 255 0
0.645023 1.989108 -3.700048 0 255 0
0.647233 1.990080 -3.701165 0 255 0
0.642686 1.988364 -3.700535 0 0 255
0.644715 1.989211 -3.700309 0 0 255
0.646744 1.990057 -3.700082 0 0 255
0.643603 1.988270 -3.697819 0 255 0
0.645173 1.989164 -3.698951 0 255 0
0.646744 1.990057 -3.700082 0 255 0
0.643690 1.988130 -3.696896 0 255 0
0.645217 1.989094 -3.698489 0 255 0
0.646744 1.990057 -3.700082 0 255 0
0.644386 1.988630 -3.697531 0 0 255
0.645565 1.989344 -3.698807 0 0 255
0.646744 1.990057 -3.700082 0 0 255
0.644507 1.988403 -3.695896 0 255 0
0.645625 1.989230 -3.697989 0 255 0
0.646744 1.990057 -3.700082 0 255 0
0.642686 1.988364 -3.700535 0 0 255
0.644902 1.989177 -3.699395 0 0 255
0.647117 1.989990 -3.698255 0 0 255
0.643603 1.988270 -3.697819 0 0 255
0.645360 1.989130 -3.698037 0 0 255
0.647117 1.989990 -3.698255 0 0 255
0.643690 1.988130 -3.696896 255 255 0
0.645404 1.989060 -3.697576 255 255 0
0.647117 1.989990 -3.698255 255 255 0
0.644386 1.988630 -3.697531 0 255 255
0.645751 1.989310 -3.697893 0 255 255
0.647117 1.989990 -3.698255 0 255 255
0.644507 1.988403 -3.695896 0 0 255
0.645812 1.989197 -3.697076 0 0 255
0.647117 1.989990 -3.698255 0 0 255
0.643539 1.988372 -3.698483 0 255 0
0.645328 1.989181 -3.698369 0 255 0
0.647117 1.989990 -3.698255 0 255 0
0.642813 1.988137 -3.698931 0 255 0
0.645162 1.989037 -3.697667 0 255 0
0.647511 1.989937 -3.696403 0 255 0
0.643539 1.988372 -3.698483 0 255 0
0.645525 1.989154 -3.697443 0 255 0
0.647511 1.989937 -3.696403 0 255 0
0.643603 1.988270 -3.697819 0 255 0
0.645557 1.989103 -3.697111 0 255 0
0.647511 1.989937 -3.696403 0 255 0
0.644386 1.988630 -3.697531 0 255 0
0.645949 1.989283 -3.696967 0 255 0
0.647511 1.989937 -3.696403 0 255 0
0.643690 1.988130 -3.696896 0 255 0
0.645601 1.989033 -3.696650 0 255 0
0.647511 1.989937 -3.696403 0 255 0
0.644507 1.988403 -3.695896 0 0 255
0.646009 1.989170 -3.696150 0 0 255
0.647511 1.989937 -3.696403 0 0 255
0.644613 1.988184 -3.694230 0 255 0
0.646062 1.989060 -3.695317 0 255 0
0.647511 1.989937 -3.696403 0 255 0
0.645155 1.988597 -3.694674 0 255 0
0.646333 1.989267 -3.695539 0 255 0
0.647511 1.989937 -3.696403 0 255 0
0.643690 1.988130 -3.696896 0 0 255
0.645701 1.989018 -3.695808 0 0 255
0.647711 1.989906 -3.694719 0 0 255
0.642813 1.988137 -3.698931 0 255 0
0.645262 1.989022 -3.696825 0 255 0
0.647711 1.989906 -3.694719 0 255 0
0.643539 1.988372 -3.698483 0 255 0
0.645625 1.989139 -3.696601 0 255 0
0.647711 1.989906 -3.694719 0 255 0
0.643603 1.988270 -3.697819 0 0 255
0.645657 1.989088 -3.696269 0 0 255
0.647711 1.989906 -3.694719 0 0 255
0.644386 1.988630 -3.697531 0 255 0
0.646049 1.989268 -3.696125 0 255 0
0.647711 1.989906 -3.694719 0 255 0
0.644613 1.988184 -3.694230 0 255 0
0.646162 1.989045 -3.694475 0 255 0
0.647711 1.989906 -3.694719 0 255 0
0.645155 1.988597 -3.694674 0 255 0
0.646433 1.989252 -3.694697 0 255 0
0.647711 1.989906 -3.694719 0 255 0
0.644507 1.988403 -3.695896 0 0 255
0.646396 1.989139 -3.694303 0 0 255
0.648284 1.989874 -3.692710 0 0 255
0.645155 1.988597 -3.694674 0 255 0
0.646720 1.989236 -3.693692 0 255 0
0.648284 1.989874 -3.692710 0 255 0
0.644386 1.988630 -3.697531 0 255 0
0.646335 1.989252 -3.695121 0 255 0
0.648284 1.989874 -3.692710 0 255 0
0.644613 1.988184 -3.694230 0 255 0
0.646448 1.989029 -3.693470 0 255 0
0.648284 1.989874 -3.692710 0 255 0
0.645210 1.988402 -3.692927 0 255 0
0.647120 1.989128 -3.691741 0 255 0
0.649030 1.989854 -3.690555 0 255 0
0.645846 1.988585 -3.691745 0 0 255
0.647438 1.989220 -3.691150 0 0 255
0.649030 1.989854 -3.690555 0 0 255
0.645210 1.988402 -3.692927 0 255 0
0.647557 1.989127 -3.690610 0 255 0
0.649904 1.989852 -3.688292 0 255 0
0.645846 1.988585 -3.691745 0 255 0
0.647875 1.989219 -3.690018 0 255 0
0.649904 1.989852 -3.688292 0 255 0
0.642686 1.988364 -3.700535 0 0 255
0.645171 1.989266 -3.700334 0 0 255
0.647656 1.990168 -3.700132 0 0 255
0.644386 1.988630 -3.697531 255 255 0
0.646021 1.989399 -3.698832 255 255 0
0.647656 1.990168 -3.700132 255 255 0
0.643690 1.988130 -3.696896 0 255 0
0.645673 1.989149 -3.698514 0 255 0
0.647656 1.990168 -3.700132 0 255 0
0.642686 1.988364 -3.700535 0 255 0
0.645530 1.989317 -3.698961 0 255 0
0.648373 1.990269 -3.697386 0 255 0
0.644613 1.988184 -3.694230 0 255 0
0.646493 1.989226 -3.695808 0 255 0
0.648373 1.990269 -3.697386 0 255 0
0.645155 1.988597 -3.694674 0 255 0
0.646764 1.989433 -3.696030 0 255 0
0.648373 1.990269 -3.697386 0 255 0
0.643539 1.988372 -3.698483 0 255 0
0.645956 1.989320 -3.697935 0 255 0
0.648373 1.990269 -3.697386 0 255 0
0.643603 1.988270 -3.697819 0 255 0
0.645988 1.989269 -3.697602 0 255 0
0.648373 1.990269 -3.697386 0 255 0
0.643690 1.988130 -3.696896 0 255 0
0.646032 1.989199 -3.697141 0 255 0
0.648373 1.990269 -3.697386 0 255 0
0.644386 1.988630 -3.697531 0 255 0
0.646380 1.989450 -3.697459 0 255 0
0.648373 1.990269 -3.697386 0 255 0
0.643690 1.988130 -3.696896 0 255 0
0.646764 1.989210 -3.695317 0 255 0
0.649837 1.990291 -3.693739 0 255 0
0.642813 1.988137 -3.698931 0 255 0
0.646325 1.989214 -3.696335 0 255 0
0.649837 1.990291 -3.693739 0 255 0
0.643539 1.988372 -3.698483 0 255 0
0.646688 1.989331 -3.696111 0 255 0
0.649837 1.990291 -3.693739 0 255 0
0.643603 1.988270 -3.697819 0 0 255
0.646720 1.989280 -3.695779 0 0 255
0.649837 1.990291 -3.693739 0 0 255
0.644386 1.988630 -3.697531 0 255 0
0.647111 1.989461 -3.695635 0 255 0
0.649837 1.990291 -3.693739 0 255 0
0.644507 1.988403 -3.695896 0 255 0
0.647172 1.989347 -3.694817 0 255 0
0.649837 1.990291 -3.693739 0 255 0
0.644507 1.988403 -3.695896 0 255 0
0.647471 1.989354 -3.693507 0 255 0
0.650434 1.990306 -3.691118 0 255 0
0.645210 1.988402 -3.692927 0 255 0
0.647822 1.989354 -3.692022 0 255 0
0.650434 1.990306 -3.691118 0 255 0
0.645846 1.988585 -3.691745 0 255 0
0.648140 1.989445 -3.691431 0 255 0
0.650434 1.990306 -3.691118 0 255 0
0.645155 1.988597 -3.694674 0 255 0
0.647795 1.989451 -3.692896 0 255 0
0.650434 1.990306 -3.691118 0 255 0
0.645210 1.988402 -3.692927 0 255 0
0.648273 1.989328 -3.690532 0 255 0
0.651337 1.990254 -3.688136 0 255 0
0.645846 1.988585 -3.691745 0 255 0
0.648592 1.989420 -3.689940 0 255 0
0.651337 1.990254 -3.688136 0 255 0
0.645846 1.988585 -3.691745 0 0 255
0.645821 1.988513 -3.690773 0 0 255
0.645795 1.988440 -3.689801 0 0 255
0.645846 1.988585 -3.691745 0 255 255
0.645469 1.988508 -3.692074 0 255 255
0.645091 1.988430 -3.692404 0 255 255
0.645210 1.988402 -3.692927 0 0 255
0.645150 1.988416 -3.692665 0 0 255
0.645091 1.988430 -3.692404 0 0 255
0.644507 1.988403 -3.695896 0 255 255
0.644427 1.988410 -3.695413 0 255 255
0.644347 1.988417 -3.694930 0 255 255
0.643690 1.988130 -3.696896 0 255 0
0.644019 1.988273 -3.695913 0 255 0
0.644347 1.988417 -3.694930 0 255 0
0.644613 1.988184 -3.694230 255 255 0
0.644480 1.988300 -3.694580 255 255 0
0.644347 1.988417 -3.694930 255 255 0
0.645155 1.988597 -3.694674 0 255 255
0.644751 1.988507 -3.694802 0 255 255
0.644347 1.988417 -3.694930 0 255 255
0.644507 1.988403 -3.695896 0 0 255
0.643978 1.988380 -3.696790 0 0 255
0.643449 1.988356 -3.697683 0 0 255
0.642813 1.988137 -3.698931 0 255 255
0.643131 1.988247 -3.698307 0 255 255
0.643449 1.988356 -3.697683 0 255 255
0.643539 1.988372 -3.698483 0 255 255
0.643494 1.988364 -3.698083 0 255 255
0.643449 1.988356 -3.697683 0 255 255
0.643603 1.988270 -3.697819 0 255 255
0.643526 1.988313 -3.697751 0 255 255
0.643449 1.988356 -3.697683 0 255 255
0.644386 1.988630 -3.697531 0 255 255
0.643917 1.988493 -3.697607 0 255 255
0.643449 1.988356 -3.697683 0 255 255
0.642686 1.988364 -3.700535 0 255 0
0.643068 1.988360 -3.699109 0 255 0
0.643449 1.988356 -3.697683 0 255 0
0.643690 1.988130 -3.696896 0 255 255
0.643570 1.988243 -3.697290 0 255 255
0.643449 1.988356 -3.697683 0 255 255
0.642813 1.988137 -3.698931 0 255 255
0.642766 1.988229 -3.699608 0 255 255
0.642718 1.988321 -3.700285 0 255 255
0.643539 1.988372 -3.698483 255 255 0
0.643128 1.988347 -3.699384 255 255 0
0.642718 1.988321 -3.700285 255 255 0
0.643603 1.988270 -3.697819 0 255 0
0.643161 1.988296 -3.699052 0 255 0
0.642718 1.988321 -3.700285 0 255 0
0.644386 1.988630 -3.697531 0 255 0
0.643552 1.988476 -3.698908 0 255 0
0.642718 1.988321 -3.700285 0 255 0
0.642686 1.988364 -3.700535 0 255 255
0.642702 1.988343 -3.700410 0 255 255
0.642718 1.988321 -3.700285 0 255 255
0.642686 1.988364 -3.700535 0 255 0
0.642300 1.988337 -3.701460 0 255 0
0.641913 1.988309 -3.702385 0 255 0
0.642686 1.988364 -3.700535 0 255 0
0.642005 1.988327 -3.703002 0 255 0
0.641324 1.988291 -3.705468 0 255 0
0.642686 1.988364 -3.700535 0 255 0
0.642151 1.988306 -3.702813 0 255 0
0.641615 1.988248 -3.705092 0 255 0
0.642686 1.988364 -3.700535 0 255 0
0.642410 1.988316 -3.702102 0 255 0
0.642134 1.988267 -3.703668 0 255 0
0.642686 1.988364 -3.700535 0 255 255
0.642652 1.988340 -3.701361 0 255 255
0.642617 1.988315 -3.702187 0 255 255
0.642813 1.988137 -3.698931 0 255 255
0.642940 1.988265 -3.699798 0 255 255
0.643068 1.988393 -3.700665 0 255 255
0.643539 1.988372 -3.698483 255 255 0
0.643303 1.988382 -3.699574 255 255 0
0.643068 1.988393 -3.700665 255 255 0
0.643603 1.988270 -3.697819 0 255 0
0.643335 1.988331 -3.699242 0 255 0
0.643068 1.988393 -3.700665 0 255 0
0.644386 1.988630 -3.697531 0 255 0
0.643727 1.988511 -3.699098 0 255 0
0.643068 1.988393 -3.700665 0 255 0
0.642686 1.988364 -3.700535 0 255 255
0.642877 1.988379 -3.700600 0 255 255
0.643068 1.988393 -3.700665 0 255 255
0.643690 1.988130 -3.696896 0 255 255
0.643554 1.988311 -3.697946 0 255 255
0.643418 1.988493 -3.698995 0 255 255
0.642813 1.988137 -3.698931 0 255 255
0.643116 1.988315 -3.698963 0 255 255
0.643418 1.988493 -3.698995 0 255 255
0.643539 1.988372 -3.698483 0 255 255
0.643478 1.988432 -3.698739 0 255 255
0.643418 1.988493 -3.698995 0 255 255
0.643603 1.988270 -3.697819 255 255 0
0.643511 1.988381 -3.698407 255 255 0
0.643418 1.988493 -3.698995 255 255 0
0.644386 1.988630 -3.697531 0 255 255
0.643902 1.988562 -3.698263 0 255 255
0.643418 1.988493 -3.698995 0 255 255
0.642686 1.988364 -3.700535 0 255 255
0.643052 1.988429 -3.699765 0 255 255
0.643418 1.988493 -3.698995 0 255 255
0.644507 1.988403 -3.695896 0 255 255
0.644218 1.988489 -3.696727 0 255 255
0.643929 1.988574 -3.697557 0 255 255
0.643690 1.988130 -3.696896 0 255 255
0.643810 1.988352 -3.697227 0 255 255
0.643929 1.988574 -3.697557 0 255 255
0.642813 1.988137 -3.698931 255 255 0
0.643371 1.988356 -3.698244 255 255 0
0.643929 1.988574 -3.697557 255 255 0
0.643539 1.988372 -3.698483 0 255 255
0.643734 1.988473 -3.698020 0 255 255
0.643929 1.988574 -3.697557 0 255 255
0.643603 1.988270 -3.697819 0 255 255
0.643766 1.988422 -3.697688 0 255 255
0.643929 1.988574 -3.697557 0 255 255
0.644386 1.988630 -3.697531 0 255 255
0.644158 1.988602 -3.697544 0 255 255
0.643929 1.988574 -3.697557 0 255 255
0.642686 1.988364 -3.700535 0 255 0
0.643308 1.988469 -3.699046 0 255 0
0.643929 1.988574 -3.697557 0 255 0
0.644507 1.988403 -3.695896 0 255 255
0.644498 1.988515 -3.696044 0 255 255
0.644489 1.988626 -3.696192 0 255 255
0.643690 1.988130 -3.696896 0 255 255
0.644090 1.988378 -3.696544 0 255 255
0.644489 1.988626 -3.696192 0 255 255
0.642813 1.988137 -3.698931 0 0 255
0.643651 1.988382 -3.697561 0 0 255
0.644489 1.988626 -3.696192 0 0 255
0.643539 1.988372 -3.698483 255 255 0
0.644014 1.988499 -3.697338 255 255 0
0.644489 1.988626 -3.696192 255 255 0
0.643603 1.988270 -3.697819 0 255 255
0.644046 1.988448 -3.697005 0 255 255
0.644489 1.988626 -3.696192 0 255 255
0.644386 1.988630 -3.697531 0 255 255
0.644438 1.988628 -3.696862 0 255 255
0.644489 1.988626 -3.696192 0 255 255
0.644613 1.988184 -3.694230 0 0 255
0.644551 1.988405 -3.695211 0 0 255
0.644489 1.988626 -3.696192 0 0 255
0.645155 1.988597 -3.694674 255 255 0
0.644822 1.988612 -3.695433 255 255 0
0.644489 1.988626 -3.696192 255 255 0
0.644507 1.988403 -3.695896 255 255 0
0.644701 1.988532 -3.695253 255 255 0
0.644894 1.988661 -3.694610 255 255 0
0.644613 1.988184 -3.694230 0 255 255
0.644753 1.988422 -3.694420 0 255 255
0.644894 1.988661 -3.694610 0 255 255
0.645155 1.988597 -3.694674 0 255 255
0.645025 1.988629 -3.694642 0 255 255
0.644894 1.988661 -3.694610 0 255 255
0.645210 1.988402 -3.692927 0 255 255
0.645369 1.988540 -3.693142 0 255 255
0.645529 1.988678 -3.693356 0 255 255
0.645846 1.988585 -3.691745 0 255 255
0.645687 1.988632 -3.692550 0 255 255
0.645529 1.988678 -3.693356 0 255 255
0.645155 1.988597 -3.694674 0 255 255
0.645342 1.988638 -3.694015 0 255 255
0.645529 1.988678 -3.693356 0 255 255
0.644613 1.988184 -3.694230 0 255 255
0.645071 1.988431 -3.693793 0 255 255
0.645529 1.988678 -3.693356 0 255 255
0.645210 1.988402 -3.692927 0 0 255
0.645592 1.988561 -3.692376 0 0 255
0.645975 1.988719 -3.691825 0 0 255
0.645846 1.988585 -3.691745 0 255 255
0.645911 1.988652 -3.691785 0 255 255
0.645975 1.988719 -3.691825 0 255 255
0.644613 1.988184 -3.694230 0 0 255
0.645294 1.988451 -3.693028 0 0 255
0.645975 1.988719 -3.691825 0 0 255
0.645155 1.988597 -3.694674 0 255 0
0.645565 1.988658 -3.693249 0 255 0
0.645975 1.988719 -3.691825 0 255 0
0.645210 1.988402 -3.692927 0 0 255
0.645876 1.988584 -3.691701 0 0 255
0.646543 1.988765 -3.690475 0 0 255
0.645846 1.988585 -3.691745 255 255 0
0.646195 1.988675 -3.691110 255 255 0
0.646543 1.988765 -3.690475 255 255 0
0.645210 1.988402 -3.692927 0 255 0
0.646206 1.988609 -3.691090 0 255 0
0.647202 1.988816 -3.689253 0 255 0
0.645846 1.988585 -3.691745 0 0 255
0.646524 1.988701 -3.690499 0 0 255
0.647202 1.988816 -3.689253 0 0 255
3 0 1 2 3 2 3 4 3 4 5 6 3 6 7 8 3 8 9 10 3 10 11 12 3 12 13 14 3 14 15 16 3 16 17 18 3 18 19 20 3 21 22 23 3 24 25 26 3 27 28 29 3 30 31 32 3 33 34 35 3 36 37 38 3 39 40 41 3 42 43 44 3 45 46 47 3 48 49 50 3 51 52 53 3 54 55 56 3 57 58 59 3 60 61 62 3 63 64 65 3 66 67 68 3 69 70 71 3 72 73 74 3 75 76 77 3 78 79 80 3 81 82 83 3 84 85 86 3 87 88 89 3 90 91 92 3 93 94 95 3 96 97 98 3 99 100 101 3 102 103 104 3 105 106 107 3 108 109 110 3 111 112 113 3 114 115 116 3 117 118 119 3 120 121 122 3 123 124 125 3 126 127 128 3 129 130 131 3 132 133 134 3 135 136 137 3 138 139 140 3 141 142 143 3 144 145 146 3 147 148 149 3 150 151 152 3 153 154 155 3 156 157 158 3 159 160 161 3 162 163 164 3 165 166 167 3 168 169 170 3 171 172 173 3 174 175 176 3 177 178 179 3 180 181 182 3 183 184 185 3 186 187 188 3 189 190 191 3 192 193 194 3 195 196 197 3 198 199 200 3 201 202 203 3 204 205 206 3 207 208 209 3 210 211 212 3 213 214 215 3 216 217 218 3 219 220 221 3 222 223 224 3 225 226 227 3 228 229 230 3 231 232 233 3 234 235 236 3 237 238 239 3 240 241 242 3 243 244 245 3 246 247 248 3 249 250 251 3 252 253 254 3 255 256 257 3 258 259 260 3 261 262 263 3 264 265 266 3 267 268 269 3 270 271 272 3 273 274 275 3 276 277 278 3 279 280 281 3 282 283 284 3 285 286 287 3 288 289 290 3 291 292 293 3 294 295 296 3 297 298 299 3 300 301 302 3 303 304 305 3 306 307 308 3 309 310 311 3 312 313 314 3 315 316 317 3 318 319 320 3 321 322 323 3 324 325 326 3 327 328 329 3 330 331 332 3 333 334 335 3 336 337 338 3 339 340 341 3 342 343 344 3 345 346 347 3 348 349 350 3 351 352 353 3 354 355 356 3 357 358 359 3 360 361 362 3 363 364 365 3 366 367 368 3 369 370 371 3 372 373 374 3 375 376 377 3 378 379 380 3 381 382 383 3 384 385 386 3 387 388 389 3 390 391 392 3 393 394 395 3 396 397 398 3 399 400 401 3 402 403 404 3 405 406 407 3 408 409 410 3 411 412 413 3 414 415 416 3 417 418 419 3 420 421 422 3 423 424 425 3 426 427 428 3 429 430 431 3 432 433 434 3 435 436 437 3 438 439 440 3 441 442 443 3 444 445 446 3 447 448 449 3 450 451 452 3 453 454 455 3 456 457 458 3 459 460 461 3 462 463 464 3 465 466 467 3 468 469 470 3 471 472 473 3 474 475 476 3 477 478 479 3 480 481 482 3 483 484 485 3 486 487 488 3 489 490 491 3 492 493 494 3 495 496 497 3 498 499 500 3 501 502 503 3 504 505 506 3 507 508 509 3 510 511 512 3 513 514 515 3 516 517 518 3 519 520 521 3 522 523 524 3 525 526 527 3 528 529 530 3 531 532 533 3 534 535 536 3 537 538 539 3 540 541 542 3 543 544 545 3 546 547 548 3 549 550 551 3 552 553 554 3 555 556 557 3 558 559 560 3 561 562 563 3 564 565 566 3 567 568 569 3 570 571 572 3 573 574 575 3 576 577 578 3 579 580 581 3 582 583 584 3 585 586 587 3 588 589 590 3 591 592 593 3 594 595 596 3 597 598 599 3 600 601 602 3 603 604 605 3 606 607 608 3 609 610 611 3 612 613 614 3 615 616 617 3 618 619 620 3 621 622 623 3 624 625 626 3 627 628 629 3 630 631 632 3 633 634 635 3 636 637 638 3 639 640 641 3 642 643 644 3 645 646 647 3 648 649 650 3 651 652 653 3 654 655 656 3 657 658 659 3 660 661 662 3 663 664 665 3 666 667 668 3 669 670 671 3 672 673 674 3 675 676 677 3 678 679 680 3 681 682 683 3 684 685 686 3 687 688 689 3 690 691 692 3 693 694 695 3 696 697 698 3 699 700 701 3 702 703 704 3 705 706 707 3 708 709 710 3 711 712 713 3 714 715 716 3 717 718 719 3 720 721 722 3 723 724 725 3 726 727 728 3 729 730 731 3 732 733 734 3 735 736 737 3 738 739 740 3 741 742 743 3 744 745 746 3 747 748 749 3 750 751 752 3 753 754 755 3 756 757 758 3 759 760 761 3 762 763 764 3 765 766 767 3 768 769 770 3 771 772 773 3 774 775 776 3 777 778 779 3 780 781 782 3 783 784 785 3 786 787 788 3 789 790 791 3 792 793 794 3 795 796 797 3 798 799 800 3 801 802 803 3 804 805 806 3 807 808 809 3 810 811 812 3 813 814 815 3 816 817 818 3 819 820 821 3 822 823 824 3 825 826 827 3 828 829 830 3 831 832 833 3 834 835 836 3 837 838 839 3 840 841 842 3 843 844 845 3 846 847 848 3 849 850 851 3 852 853 854 3 855 856 857 3 858 859 860 3 861 862 863 3 864 865 866 3 867 868 869 3 870 871 872 3 873 874 875 3 876 877 878 3 879 880 881 3 882 883 884 3 885 886 887 3 888 889 890 3 891 892 893 3 894 895 896 3 897 898 899 3 900 901 902 3 903 904 905 3 906 907 908 3 909 910 911 3 912 913 914 3 915 916 917 3 918 919 920 3 921 922 923 3 924 925 926 3 927 928 929 3 930 931 932 3 933 934 935 3 936 937 938 3 939 940 941 3 942 943 944 3 945 946 947 3 948 949 950 3 951 952 953 3 954 955 956 3 957 958 959 3 960 961 962 3 963 964 965 3 966 967 968 3 969 970 971 3 972 973 974 3 975 976 977 3 978 979 980 3 981 982 983 3 984 985 986 3 987 988 989 3 990 991 992 3 993 994 995 3 996 997 998 3 999 1000 1001 3 1002 1003 1004 3 1005 1006 1007 3 1008 1009 1010 3 1011 1012 1013 3 1014 1015 1016 3 1017 1018 1019 3 1020 1021 1022 3 1023 1024 1025 3 1026 1027 1028 3 1029 1030 1031 3 1032 1033 1034 3 1035 1036 1037 3 1038 1039 1040 3 1041 1042 1043 3 1044 1045 1046 3 1047 1048 1049 3 1050 1051 1052 3 1053 1054 1055 3 1056 1057 1058 3 1059 1060 1061 3 1062 1063 1064 3 1065 1066 1067 3 1068 1069 1070 3 1071 1072 1073 3 1074 1075 1076 3 1077 1078 1079 3 1080 1081 1082 3 1083 1084 1085 3 1086 1087 1088 3 1089 1090 1091 3 1092 1093 1094 3 1095 1096 1097 3 1098 1099 1100 3 1101 1102 1103 3 1104 1105 1106 3 1107 1108 1109 3 1110 1111 1112 3 1113 1114 1115 3 1116 1117 1118 3 1119 1120 1121 3 1122 1123 1124 3 1125 1126 1127 3 1128 1129 1130 3 1131 1132 1133 3 1134 1135 1136 3 1137 1138 1139 3 1140 1141 1142 3 1143 1144 1145 3 1146 1147 1148 3 1149 1150 1151 3 1152 1153 1154 3 1155 1156 1157 3 1158 1159 1160 3 1161 1162 1163 3 1164 1165 1166 3 1167 1168 1169 3 1170 1171 1172 3 1173 1174 1175 3 1176 1177 1178 3 1179 1180 1181 3 1182 1183 1184 3 1185 1186 1187 3 1188 1189 1190 3 1191 1192 1193 3 1194 1195 1196 3 1197 1198 1199 3 1200 1201 1202 3 1203 1204 1205 3 1206 1207 1208 3 1209 1210 1211 3 1212 1213 1214 3 1215 1216 1217 3 1218 1219 1220 3 1221 1222 1223 3 1224 1225 1226 3 1227 1228 1229 3 1230 1231 1232 3 1233 1234 1235 3 1236 1237 1238 3 1239 1240 1241 3 1242 1243 1244 3 1245 1246 1247 3 1248 1249 1250 3 1251 1252 1253 3 1254 1255 1256 3 1257 1258 1259 3 1260 1261 1262 3 1263 1264 1265 3 1266 1267 1268 3 1269 1270 1271 