ply
format ascii 1.0
element vertex 440
property float x
property float y
property float z
property uchar red
property uchar green
property uchar blue
element face 152
property list uchar int vertex_index
end_header
0.635309 1.921395 -3.833922 255 0 0
0.635025 1.921400 -3.833344 255 0 0
0.634741 1.921404 -3.832765 255 0 0
0.634401 1.921423 -3.832262 255 0 0
0.634060 1.921442 -3.831759 255 0 0
0.633806 1.921435 -3.831147 255 0 0
0.633552 1.921429 -3.830536 255 0 0
0.633646 1.921546 -3.830355 255 0 0
0.633741 1.921662 -3.830175 255 0 0
0.633403 1.921539 -3.829708 255 0 0
0.633065 1.921416 -3.829242 255 0 0
0.633165 1.921505 -3.829069 255 0 0
0.633266 1.921594 -3.828897 255 0 0
0.633057 1.921534 -3.828235 255 0 0
0.632848 1.921475 -3.827574 255 0 0
0.632731 1.921458 -3.826780 255 0 0
0.632614 1.921440 -3.825985 255 0 0
0.632415 1.921382 -3.825317 255 0 0
0.632216 1.921324 -3.824648 255 0 0
0.632033 1.921254 -3.823979 255 0 0
0.631850 1.921184 -3.823311 255 0 0
0.632116 1.921296 -3.822925 255 0 0
0.632381 1.921407 -3.822540 255 0 0
0.632275 1.921385 -3.821789 255 0 0
0.632169 1.921363 -3.821038 255 0 0
0.632431 1.921485 -3.820652 255 0 0
0.632692 1.921607 -3.820265 255 0 0
0.632541 1.921553 -3.819593 255 0 0
0.632390 1.921499 -3.818922 255 0 0
0.632232 1.921486 -3.818177 255 0 0
0.632074 1.921474 -3.817433 255 0 0
0.631897 1.921442 -3.816746 255 0 0
0.631719 1.921411 -3.816058 255 0 0
0.631982 1.921551 -3.815660 255 0 0
0.632244 1.921690 -3.815263 255 0 0
0.635309 1.921395 -3.833922 0 255 255
0.635016 1.921448 -3.834247 0 255 255
0.634722 1.921501 -3.834572 0 255 255
0.634741 1.921404 -3.832765 0 255 255
0.634601 1.921461 -3.832903 0 255 255
0.634461 1.921518 -3.833040 0 255 255
0.634060 1.921442 -3.831759 0 255 0
0.634260 1.921480 -3.832400 0 255 0
0.634461 1.921518 -3.833040 0 255 0
0.634741 1.921404 -3.832765 0 255 0
0.634322 1.921496 -3.832316 0 255 0
0.633903 1.921588 -3.831867 0 255 0
0.634060 1.921442 -3.831759 0 255 255
0.633982 1.921515 -3.831813 0 255 255
0.633903 1.921588 -3.831867 0 255 255
0.633552 1.921429 -3.830536 0 255 0
0.633727 1.921508 -3.831201 0 255 0
0.633903 1.921588 -3.831867 0 255 0
0.633741 1.921662 -3.830175 0 255 0
0.633822 1.921625 -3.831021 0 255 0
0.633903 1.921588 -3.831867 0 255 0
0.633741 1.921662 -3.830175 0 255 255
0.633626 1.921635 -3.830329 0 255 255
0.633511 1.921609 -3.830484 0 255 255
0.633552 1.921429 -3.830536 0 255 255
0.633531 1.921519 -3.830510 0 255 255
0.633511 1.921609 -3.830484 0 255 255
0.633266 1.921594 -3.828897 0 255 0
0.633388 1.921601 -3.829690 0 255 0
0.633511 1.921609 -3.830484 0 255 0
0.633065 1.921416 -3.829242 0 255 255
0.633072 1.921487 -3.829193 0 255 255
0.633079 1.921558 -3.829144 0 255 255
0.633266 1.921594 -3.828897 0 255 255
0.633173 1.921576 -3.829020 0 255 255
0.633079 1.921558 -3.829144 0 255 255
0.632848 1.921475 -3.827574 0 255 0
0.632964 1.921517 -3.828359 0 255 0
0.633079 1.921558 -3.829144 0 255 0
0.633741 1.921662 -3.830175 0 255 0
0.633410 1.921610 -3.829659 0 255 0
0.633079 1.921558 -3.829144 0 255 0
0.633065 1.921416 -3.829242 0 0 255
0.632829 1.921438 -3.828566 0 0 255
0.632594 1.921460 -3.827890 0 0 255
0.633266 1.921594 -3.828897 0 0 255
0.632930 1.921527 -3.828393 0 0 255
0.632594 1.921460 -3.827890 0 0 255
0.632848 1.921475 -3.827574 0 255 255
0.632721 1.921468 -3.827732 0 255 255
0.632594 1.921460 -3.827890 0 255 255
0.632614 1.921440 -3.825985 255 255 0
0.632604 1.921450 -3.826938 255 255 0
0.632594 1.921460 -3.827890 255 255 0
0.632614 1.921440 -3.825985 0 255 255
0.632475 1.921385 -3.826184 0 255 255
0.632337 1.921330 -3.826384 0 255 255
0.632848 1.921475 -3.827574 255 255 0
0.632592 1.921402 -3.826979 255 255 0
0.632337 1.921330 -3.826384 255 255 0
0.632216 1.921324 -3.824648 0 255 255
0.632109 1.921290 -3.824798 0 255 255
0.632001 1.921256 -3.824947 0 255 255
0.631850 1.921184 -3.823311 0 0 255
0.631926 1.921220 -3.824129 0 0 255
0.632001 1.921256 -3.824947 0 0 255
0.631850 1.921184 -3.823311 0 255 255
0.632101 1.921239 -3.822975 0 255 255
0.632352 1.921293 -3.822640 0 255 255
0.632381 1.921407 -3.822540 0 255 255
0.632366 1.921350 -3.822590 0 255 255
0.632352 1.921293 -3.822640 0 255 255
0.632169 1.921363 -3.821038 255 255 0
0.632260 1.921328 -3.821839 255 255 0
0.632352 1.921293 -3.822640 255 255 0
0.632692 1.921607 -3.820265 0 0 255
0.632522 1.921450 -3.821452 0 0 255
0.632352 1.921293 -3.822640 0 0 255
0.632169 1.921363 -3.821038 0 255 255
0.632459 1.921428 -3.820650 0 255 255
0.632748 1.921493 -3.820261 0 255 255
0.632692 1.921607 -3.820265 0 255 255
0.632720 1.921550 -3.820263 0 255 255
0.632748 1.921493 -3.820261 0 255 255
0.632381 1.921407 -3.822540 0 255 0
0.632565 1.921450 -3.821401 0 255 0
0.632748 1.921493 -3.820261 0 255 0
0.632390 1.921499 -3.818922 0 255 255
0.632419 1.921569 -3.818847 0 255 255
0.632448 1.921639 -3.818772 0 255 255
0.632074 1.921474 -3.817433 255 255 0
0.632261 1.921556 -3.818102 255 255 0
0.632448 1.921639 -3.818772 255 255 0
0.632390 1.921499 -3.818922 0 255 0
0.632312 1.921544 -3.818047 0 255 0
0.632235 1.921589 -3.817173 0 255 0
0.632074 1.921474 -3.817433 0 255 255
0.632155 1.921531 -3.817303 0 255 255
0.632235 1.921589 -3.817173 0 255 255
0.632244 1.921690 -3.815263 0 255 255
0.632226 1.921639 -3.815313 0 255 255
0.632208 1.921588 -3.815364 0 255 255
0.631719 1.921411 -3.816058 0 0 255
0.631964 1.921500 -3.815711 0 0 255
0.632208 1.921588 -3.815364 0 0 255
0.632244 1.921690 -3.815263 0 255 0
0.632573 1.921695 -3.814013 0 255 0
0.632901 1.921701 -3.812764 0 255 0
0.631719 1.921411 -3.816058 0 255 0
0.632310 1.921556 -3.814411 0 255 0
0.632901 1.921701 -3.812764 0 255 0
0.635309 1.921395 -3.833922 0 255 0
0.634905 1.921554 -3.834322 0 255 0
0.634502 1.921713 -3.834722 0 255 0
0.634741 1.921404 -3.832765 0 0 255
0.634464 1.921504 -3.833044 0 0 255
0.634187 1.921604 -3.833323 0 0 255
0.634741 1.921404 -3.832765 0 255 0
0.634261 1.921498 -3.832389 0 255 0
0.633780 1.921592 -3.832013 0 255 0
0.634060 1.921442 -3.831759 0 255 255
0.633920 1.921517 -3.831886 0 255 255
0.633780 1.921592 -3.832013 0 255 255
0.633552 1.921429 -3.830536 0 255 0
0.633666 1.921511 -3.831274 0 255 0
0.633780 1.921592 -3.832013 0 255 0
0.633552 1.921429 -3.830536 0 255 255
0.633409 1.921522 -3.830656 0 255 255
0.633265 1.921616 -3.830776 0 255 255
0.633741 1.921662 -3.830175 255 255 0
0.633503 1.921639 -3.830476 255 255 0
0.633265 1.921616 -3.830776 255 255 0
0.633065 1.921416 -3.829242 0 255 255
0.632969 1.921506 -3.829307 0 255 255
0.632874 1.921595 -3.829371 0 255 255
0.633266 1.921594 -3.828897 0 255 255
0.633070 1.921594 -3.829134 0 255 255
0.632874 1.921595 -3.829371 0 255 255
0.632848 1.921475 -3.827574 0 255 0
0.632861 1.921535 -3.828473 0 255 0
0.632874 1.921595 -3.829371 0 255 0
0.633065 1.921416 -3.829242 0 0 255
0.632696 1.921459 -3.828716 0 0 255
0.632327 1.921501 -3.828191 0 0 255
0.633266 1.921594 -3.828897 0 0 255
0.632797 1.921547 -3.828544 0 0 255
0.632327 1.921501 -3.828191 0 0 255
0.632848 1.921475 -3.827574 0 0 255
0.632587 1.921488 -3.827883 0 0 255
0.632327 1.921501 -3.828191 0 0 255
0.632614 1.921440 -3.825985 0 255 255
0.632313 1.921424 -3.826359 0 255 255
0.632013 1.921408 -3.826732 0 255 255
0.632216 1.921324 -3.824648 0 255 255
0.631991 1.921300 -3.824936 0 255 255
0.631765 1.921276 -3.825223 0 255 255
0.632216 1.921324 -3.824648 0 255 255
0.632080 1.921363 -3.824793 0 255 255
0.631943 1.921402 -3.824938 0 255 255
0.632216 1.921324 -3.824648 0 255 0
0.631970 1.921273 -3.824044 0 255 0
0.631724 1.921223 -3.823440 0 255 0
0.631850 1.921184 -3.823311 0 255 255
0.631787 1.921203 -3.823375 0 255 255
0.631724 1.921223 -3.823440 0 255 255
0.632381 1.921407 -3.822540 0 255 0
0.632052 1.921315 -3.822990 0 255 0
0.631724 1.921223 -3.823440 0 255 0
0.632381 1.921407 -3.822540 0 255 255
0.632326 1.921400 -3.822612 0 255 255
0.632271 1.921392 -3.822683 0 255 255
0.631850 1.921184 -3.823311 0 0 255
0.632061 1.921288 -3.822997 0 0 255
0.632271 1.921392 -3.822683 0 0 255
0.632169 1.921363 -3.821038 0 255 255
0.632205 1.921326 -3.821014 0 255 255
0.632241 1.921288 -3.820989 0 255 255
0.632692 1.921607 -3.820265 0 255 255
0.632467 1.921447 -3.820627 0 255 255
0.632241 1.921288 -3.820989 0 255 255
0.632381 1.921407 -3.822540 0 255 0
0.632311 1.921348 -3.821765 0 255 0
0.632241 1.921288 -3.820989 0 255 0
0.632169 1.921363 -3.821038 0 255 255
0.632470 1.921438 -3.820630 0 255 255
0.632771 1.921514 -3.820222 0 255 255
0.632692 1.921607 -3.820265 0 255 255
0.632732 1.921560 -3.820243 0 255 255
0.632771 1.921514 -3.820222 0 255 255
0.632390 1.921499 -3.818922 0 255 255
0.632489 1.921469 -3.818816 0 255 255
0.632589 1.921439 -3.818711 0 255 255
0.632074 1.921474 -3.817433 255 255 0
0.632332 1.921456 -3.818072 255 255 0
0.632589 1.921439 -3.818711 255 255 0
0.632074 1.921474 -3.817433 0 255 255
0.632248 1.921535 -3.817187 0 255 255
0.632422 1.921596 -3.816942 0 255 255
0.632244 1.921690 -3.815263 0 255 0
0.632333 1.921643 -3.816102 0 255 0
0.632422 1.921596 -3.816942 0 255 0
0.632244 1.921690 -3.815263 0 255 255
0.632203 1.921611 -3.815357 0 255 255
0.632161 1.921532 -3.815452 0 255 255
0.631719 1.921411 -3.816058 0 0 255
0.631940 1.921471 -3.815755 0 0 255
0.632161 1.921532 -3.815452 0 0 255
0.632244 1.921690 -3.815263 255 255 0
0.632441 1.921697 -3.815020 255 255 0
0.632639 1.921705 -3.814777 255 255 0
0.631719 1.921411 -3.816058 0 255 0
0.632179 1.921558 -3.815417 0 255 0
0.632639 1.921705 -3.814777 0 255 0
0.632244 1.921690 -3.815263 0 255 0
0.632489 1.921703 -3.814110 0 255 0
0.632735 1.921717 -3.812957 0 255 0
0.631719 1.921411 -3.816058 0 255 0
0.632227 1.921564 -3.814507 0 255 0
0.632735 1.921717 -3.812957 0 255 0
0.633741 1.921662 -3.830175 0 0 255
0.635116 1.921528 -3.829523 0 0 255
0.636492 1.921394 -3.828872 0 0 255
0.633266 1.921594 -3.828897 0 255 0
0.634879 1.921494 -3.828884 0 255 0
0.636492 1.921394 -3.828872 0 255 0
0.633741 1.921662 -3.830175 0 0 255
0.634737 1.921477 -3.829195 0 0 255
0.635734 1.921292 -3.828214 0 0 255
0.633266 1.921594 -3.828897 0 255 0
0.634500 1.921443 -3.828556 0 255 0
0.635734 1.921292 -3.828214 0 255 0
0.633552 1.921429 -3.830536 0 255 0
0.634643 1.921361 -3.829375 0 255 0
0.635734 1.921292 -3.828214 0 255 0
0.632848 1.921475 -3.827574 0 0 255
0.634986 1.921767 -3.826913 0 0 255
0.637124 1.922059 -3.826253 0 0 255
0.632614 1.921440 -3.825985 0 255 0
0.634869 1.921750 -3.826119 0 255 0
0.637124 1.922059 -3.826253 0 255 0
0.633065 1.921416 -3.829242 0 0 255
0.635040 1.921799 -3.827219 0 0 255
0.637016 1.922182 -3.825196 0 0 255
0.633266 1.921594 -3.828897 0 0 255
0.635141 1.921888 -3.827047 0 0 255
0.637016 1.922182 -3.825196 0 0 255
0.632848 1.921475 -3.827574 255 255 0
0.634932 1.921828 -3.826385 255 255 0
0.637016 1.922182 -3.825196 255 255 0
0.632614 1.921440 -3.825985 0 0 255
0.634630 1.921798 -3.825139 0 0 255
0.636646 1.922155 -3.824292 0 0 255
0.632216 1.921324 -3.824648 0 0 255
0.634431 1.921739 -3.824470 0 0 255
0.636646 1.922155 -3.824292 0 0 255
0.631850 1.921184 -3.823311 0 255 0
0.634248 1.921670 -3.823802 0 255 0
0.636646 1.922155 -3.824292 0 255 0
0.632614 1.921440 -3.825985 0 0 255
0.634412 1.921751 -3.824709 0 0 255
0.636210 1.922062 -3.823433 0 0 255
0.632216 1.921324 -3.824648 0 0 255
0.634213 1.921693 -3.824041 0 0 255
0.636210 1.922062 -3.823433 0 0 255
0.632614 1.921440 -3.825985 255 255 0
0.634476 1.921801 -3.824111 255 255 0
0.636338 1.922163 -3.822237 255 255 0
0.632216 1.921324 -3.824648 0 0 255
0.634277 1.921743 -3.823443 0 0 255
0.636338 1.922163 -3.822237 0 0 255
0.632848 1.921475 -3.827574 0 255 0
0.634593 1.921819 -3.824906 0 255 0
0.636338 1.922163 -3.822237 0 255 0
0.632381 1.921407 -3.822540 0 255 0
0.634359 1.921785 -3.822389 0 255 0
0.636338 1.922163 -3.822237 0 255 0
0.632216 1.921324 -3.824648 0 255 0
0.634097 1.921681 -3.822999 0 255 0
0.635977 1.922039 -3.821350 0 255 0
0.631850 1.921184 -3.823311 0 0 255
0.633914 1.921611 -3.822330 0 0 255
0.635977 1.922039 -3.821350 0 0 255
0.632381 1.921407 -3.822540 0 255 0
0.634179 1.921723 -3.821945 0 255 0
0.635977 1.922039 -3.821350 0 255 0
0.632169 1.921363 -3.821038 0 0 255
0.634111 1.921712 -3.820622 0 0 255
0.636054 1.922062 -3.820206 0 0 255
0.632692 1.921607 -3.820265 0 255 0
0.634373 1.921834 -3.820235 0 255 0
0.636054 1.922062 -3.820206 0 255 0
0.631850 1.921184 -3.823311 0 0 255
0.633952 1.921623 -3.821758 0 0 255
0.636054 1.922062 -3.820206 0 0 255
0.632381 1.921407 -3.822540 0 0 255
0.634217 1.921735 -3.821373 0 0 255
0.636054 1.922062 -3.820206 0 0 255
0.632169 1.921363 -3.821038 0 0 255
0.634259 1.921760 -3.819875 0 0 255
0.636349 1.922157 -3.818711 0 0 255
0.632692 1.921607 -3.820265 0 255 255
0.634521 1.921882 -3.819488 0 255 255
0.636349 1.922157 -3.818711 0 255 255
0.632390 1.921499 -3.818922 0 255 0
0.634370 1.921828 -3.818816 0 255 0
0.636349 1.922157 -3.818711 0 255 0
0.632169 1.921363 -3.821038 255 255 0
0.634236 1.921735 -3.819336 255 255 0
0.636304 1.922106 -3.817634 255 255 0
0.632692 1.921607 -3.820265 255 255 0
0.634498 1.921857 -3.818949 255 255 0
0.636304 1.922106 -3.817634 255 255 0
0.632390 1.921499 -3.818922 0 255 0
0.634544 1.921863 -3.817062 0 255 0
0.636699 1.922227 -3.815203 0 255 0
0.632390 1.921499 -3.818922 0 0 255
0.633679 1.921555 -3.817023 0 0 255
0.634967 1.921610 -3.815124 0 0 255
0.632074 1.921474 -3.817433 0 0 255
0.633521 1.921542 -3.816279 0 0 255
0.634967 1.921610 -3.815124 0 0 255
0.632244 1.921690 -3.815263 0 255 0
0.634128 1.922113 -3.812541 0 255 0
0.636013 1.922536 -3.809820 0 255 0
0.631719 1.921411 -3.816058 0 255 0
0.633866 1.921974 -3.812939 0 255 0
0.636013 1.922536 -3.809820 0 255 0
0.634060 1.921442 -3.831759 0 0 255
0.633516 1.921562 -3.831830 0 0 255
0.632972 1.921683 -3.831902 0 0 255
0.633552 1.921429 -3.830536 0 255 0
0.633262 1.921556 -3.831219 0 255 0
0.632972 1.921683 -3.831902 0 255 0
0.633741 1.921662 -3.830175 0 255 255
0.633658 1.921698 -3.830043 0 255 255
0.633576 1.921734 -3.829911 0 255 255
0.633552 1.921429 -3.830536 0 0 255
0.633564 1.921581 -3.830224 0 0 255
0.633576 1.921734 -3.829911 0 0 255
0.633065 1.921416 -3.829242 0 0 255
0.633022 1.921597 -3.829075 0 0 255
0.632979 1.921778 -3.828908 0 0 255
0.633266 1.921594 -3.828897 0 255 0
0.633123 1.921686 -3.828902 0 255 0
0.632979 1.921778 -3.828908 0 255 0
0.633552 1.921429 -3.830536 0 255 0
0.633266 1.921604 -3.829722 0 255 0
0.632979 1.921778 -3.828908 0 255 0
0.633741 1.921662 -3.830175 0 255 0
0.633360 1.921720 -3.829541 0 255 0
0.632979 1.921778 -3.828908 0 255 0
0.633266 1.921594 -3.828897 0 255 0
0.632835 1.921672 -3.828395 0 255 0
0.632403 1.921750 -3.827893 0 255 0
0.632848 1.921475 -3.827574 0 255 0
0.632626 1.921612 -3.827734 0 255 0
0.632403 1.921750 -3.827893 0 255 0
0.632614 1.921440 -3.825985 0 255 255
0.632331 1.921552 -3.826347 0 255 255
0.632049 1.921663 -3.826709 0 255 255
0.632848 1.921475 -3.827574 0 0 255
0.632448 1.921569 -3.827141 0 0 255
0.632049 1.921663 -3.826709 0 0 255
0.632614 1.921440 -3.825985 0 255 0
0.632249 1.921493 -3.825683 0 255 0
0.631884 1.921546 -3.825382 0 255 0
0.632216 1.921324 -3.824648 0 0 255
0.632050 1.921435 -3.825015 0 0 255
0.631884 1.921546 -3.825382 0 0 255
0.631850 1.921184 -3.823311 0 255 0
0.631867 1.921365 -3.824346 0 255 0
0.631884 1.921546 -3.825382 0 255 0
0.631850 1.921184 -3.823311 0 255 255
0.632026 1.921300 -3.823485 0 255 255
0.632202 1.921415 -3.823659 0 255 255
0.632216 1.921324 -3.824648 0 255 0
0.632209 1.921369 -3.824154 0 255 0
0.632202 1.921415 -3.823659 0 255 0
0.632381 1.921407 -3.822540 255 255 0
0.632429 1.921372 -3.822248 255 255 0
0.632478 1.921336 -3.821956 255 255 0
0.631850 1.921184 -3.823311 0 255 0
0.632164 1.921260 -3.822633 0 255 0
0.632478 1.921336 -3.821956 0 255 0
0.632169 1.921363 -3.821038 255 255 0
0.632465 1.921355 -3.820631 255 255 0
0.632761 1.921346 -3.820224 255 255 0
0.632692 1.921607 -3.820265 0 255 255
0.632727 1.921476 -3.820244 0 255 255
0.632761 1.921346 -3.820224 0 255 255
0.632390 1.921499 -3.818922 0 255 255
0.632593 1.921473 -3.818808 0 255 255
0.632796 1.921446 -3.818694 0 255 255
0.632074 1.921474 -3.817433 0 0 255
0.632435 1.921460 -3.818064 0 0 255
0.632796 1.921446 -3.818694 0 0 255
0.631719 1.921411 -3.816058 0 255 0
0.632258 1.921429 -3.817376 0 255 0
0.632796 1.921446 -3.818694 0 255 0
0.632074 1.921474 -3.817433 255 255 0
0.632304 1.921513 -3.817435 255 255 0
0.632534 1.921552 -3.817437 255 255 0
0.632244 1.921690 -3.815263 0 255 0
0.632385 1.921559 -3.814867 0 255 0
0.632526 1.921427 -3.814472 0 255 0
3 0 1 2 3 2 3 4 3 4 5 6 3 6 7 8 3 8 9 10 3 10 11 12 3 12 13 14 3 14 15 16 3 16 17 18 3 18 19 20 3 20 21 22 3 22 23 24 3 24 25 26 3 26 27 28 3 28 29 30 3 30 31 32 3 32 33 34 3 35 36 37 3 38 39 40 3 41 42 43 3 44 45 46 3 47 48 49 3 50 51 52 3 53 54 55 3 56 57 58 3 59 60 61 3 62 63 64 3 65 66 67 3 68 69 70 3 71 72 73 3 74 75 76 3 77 78 79 3 80 81 82 3 83 84 85 3 86 87 88 3 89 90 91 3 92 93 94 3 95 96 97 3 98 99 100 3 101 102 103 3 104 105 106 3 107 108 109 3 110 111 112 3 113 114 115 3 116 117 118 3 119 120 121 3 122 123 124 3 125 126 127 3 128 129 130 3 131 132 133 3 134 135 136 3 137 138 139 3 140 141 142 3 143 144 145 3 146 147 148 3 149 150 151 3 152 153 154 3 155 156 157 3 158 159 160 3 161 162 163 3 164 165 166 3 167 168 169 3 170 171 172 3 173 174 175 3 176 177 178 3 179 180 181 3 182 183 184 3 185 186 187 3 188 189 190 3 191 192 193 3 194 195 196 3 197 198 199 3 200 201 202 3 203 204 205 3 206 207 208 3 209 210 211 3 212 213 214 3 215 216 217 3 218 219 220 3 221 222 223 3 224 225 226 3 227 228 229 3 230 231 232 3 233 234 235 3 236 237 238 3 239 240 241 3 242 243 244 3 245 246 247 3 248 249 250 3 251 252 253 3 254 255 256 3 257 258 259 3 260 261 262 3 263 264 265 3 266 267 268 3 269 270 271 3 272 273 274 3 275 276 277 3 278 279 280 3 281 282 283 3 284 285 286 3 287 288 289 3 290 291 292 3 293 294 295 3 296 297 298 3 299 300 301 3 302 303 304 3 305 306 307 3 308 309 310 3 311 312 313 3 314 315 316 3 317 318 319 3 320 321 322 3 323 324 325 3 326 327 328 3 329 330 331 3 332 333 334 3 335 336 337 3 338 339 340 3 341 342 343 3 344 345 346 3 347 348 349 3 350 351 352 3 353 354 355 3 356 357 358 3 359 360 361 3 362 363 364 3 365 366 367 3 368 369 370 3 371 372 373 3 374 375 376 3 377 378 379 3 380 381 382 3 383 384 385 3 386 387 388 3 389 390 391 3 392 393 394 3 395 396 397 3 398 399 400 3 401 402 403 3 404 405 406 3 407 408 409 3 410 411 412 3 413 414 415 3 416 417 418 3 419 420 421 3 422 423 424 3 425 426 427 3 428 429 430 3 431 432 433 3 434 435 436 3 437 438 439 