ply
format ascii 1.0
element vertex 901
property float x
property float y
property float z
property uchar red
property uchar green
property uchar blue
element face 304
property list uchar int vertex_index
end_header
0.683731 1.988614 -3.613441 255 0 0
0.683674 1.988734 -3.614051 255 0 0
0.683617 1.988854 -3.614661 255 0 0
0.683095 1.988757 -3.615316 255 0 0
0.682574 1.988660 -3.615971 255 0 0
0.682674 1.988806 -3.616389 255 0 0
0.682774 1.988951 -3.616807 255 0 0
0.682249 1.988852 -3.617467 255 0 0
0.681725 1.988754 -3.618127 255 0 0
0.681028 1.988644 -3.618971 255 0 0
0.680331 1.988533 -3.619816 255 0 0
0.680402 1.988690 -3.620237 255 0 0
0.680474 1.988846 -3.620658 255 0 0
0.679943 1.988753 -3.621317 255 0 0
0.679412 1.988659 -3.621975 255 0 0
0.679505 1.988799 -3.622396 255 0 0
0.679598 1.988940 -3.622817 255 0 0
0.678944 1.988805 -3.623659 255 0 0
0.678290 1.988671 -3.624500 255 0 0
0.678395 1.988804 -3.624920 255 0 0
0.678499 1.988936 -3.625340 255 0 0
0.677988 1.988829 -3.626000 255 0 0
0.677478 1.988723 -3.626659 255 0 0
0.677563 1.988864 -3.627084 255 0 0
0.677648 1.989005 -3.627509 255 0 0
0.678290 1.988671 -3.624500 0 0 255
0.678420 1.989114 -3.622548 0 0 255
0.678549 1.989558 -3.620595 0 0 255
0.678499 1.988936 -3.625340 0 0 255
0.678524 1.989247 -3.622967 0 0 255
0.678549 1.989558 -3.620595 0 0 255
0.677478 1.988723 -3.626659 0 255 0
0.678013 1.989140 -3.623627 0 255 0
0.678549 1.989558 -3.620595 0 255 0
0.679412 1.988659 -3.621975 0 255 0
0.678981 1.989108 -3.621285 0 255 0
0.678549 1.989558 -3.620595 0 255 0
0.679598 1.988940 -3.622817 0 255 0
0.679074 1.989249 -3.621706 0 255 0
0.678549 1.989558 -3.620595 0 255 0
0.678290 1.988671 -3.624500 0 0 255
0.678261 1.989191 -3.623296 0 0 255
0.678231 1.989710 -3.622091 0 0 255
0.678499 1.988936 -3.625340 0 0 255
0.678365 1.989323 -3.623716 0 0 255
0.678231 1.989710 -3.622091 0 0 255
0.677478 1.988723 -3.626659 0 255 0
0.677854 1.989216 -3.624375 0 255 0
0.678231 1.989710 -3.622091 0 255 0
0.678290 1.988671 -3.624500 0 0 255
0.677872 1.989198 -3.624180 0 0 255
0.677453 1.989726 -3.623859 0 0 255
0.677648 1.989005 -3.627509 0 0 255
0.677551 1.989366 -3.625684 0 0 255
0.677453 1.989726 -3.623859 0 0 255
0.678499 1.988936 -3.625340 0 255 0
0.677976 1.989331 -3.624600 0 255 0
0.677453 1.989726 -3.623859 0 255 0
0.677478 1.988723 -3.626659 0 255 0
0.677465 1.989224 -3.625259 0 255 0
0.677453 1.989726 -3.623859 0 255 0
0.678499 1.988936 -3.625340 0 255 0
0.677394 1.989352 -3.625798 0 255 0
0.676289 1.989769 -3.626255 0 255 0
0.677478 1.988723 -3.626659 0 255 0
0.676883 1.989246 -3.626457 0 255 0
0.676289 1.989769 -3.626255 0 255 0
0.683731 1.988614 -3.613441 0 0 255
0.684691 1.988623 -3.612103 0 0 255
0.685651 1.988632 -3.610765 0 0 255
0.683731 1.988614 -3.613441 0 255 255
0.683380 1.988465 -3.614084 0 255 255
0.683030 1.988316 -3.614727 0 255 255
0.683617 1.988854 -3.614661 255 255 0
0.683323 1.988585 -3.614694 255 255 0
0.683030 1.988316 -3.614727 255 255 0
0.682574 1.988660 -3.615971 0 255 0
0.682802 1.988488 -3.615349 0 255 0
0.683030 1.988316 -3.614727 0 255 0
0.683617 1.988854 -3.614661 0 0 255
0.682672 1.988664 -3.615913 0 0 255
0.681727 1.988473 -3.617165 0 0 255
0.682574 1.988660 -3.615971 0 255 255
0.682151 1.988567 -3.616568 0 255 255
0.681727 1.988473 -3.617165 0 255 255
0.682774 1.988951 -3.616807 0 0 255
0.682251 1.988712 -3.616986 0 0 255
0.681727 1.988473 -3.617165 0 0 255
0.681725 1.988754 -3.618127 0 255 0
0.681726 1.988614 -3.617646 0 255 0
0.681727 1.988473 -3.617165 0 255 0
0.680331 1.988533 -3.619816 0 255 255
0.681029 1.988503 -3.618490 0 255 255
0.681727 1.988473 -3.617165 0 255 255
0.680474 1.988846 -3.620658 0 255 0
0.681101 1.988660 -3.618912 0 255 0
0.681727 1.988473 -3.617165 0 255 0
0.681725 1.988754 -3.618127 0 255 255
0.681448 1.988731 -3.618380 0 255 255
0.681171 1.988708 -3.618633 0 255 255
0.680331 1.988533 -3.619816 255 255 0
0.680751 1.988621 -3.619224 255 255 0
0.681171 1.988708 -3.618633 255 255 0
0.680474 1.988846 -3.620658 0 255 0
0.680822 1.988777 -3.619645 0 255 0
0.681171 1.988708 -3.618633 0 255 0
0.679598 1.988940 -3.622817 255 255 0
0.679901 1.988945 -3.621739 255 255 0
0.680203 1.988950 -3.620661 255 255 0
0.679412 1.988659 -3.621975 255 255 0
0.679808 1.988804 -3.621318 255 255 0
0.680203 1.988950 -3.620661 255 255 0
0.680331 1.988533 -3.619816 0 255 255
0.680267 1.988742 -3.620238 0 255 255
0.680203 1.988950 -3.620661 0 255 255
0.680474 1.988846 -3.620658 0 255 255
0.680338 1.988898 -3.620659 0 255 255
0.680203 1.988950 -3.620661 0 255 255
0.679598 1.988940 -3.622817 0 255 255
0.679989 1.989213 -3.622094 0 255 255
0.680379 1.989486 -3.621371 0 255 255
0.678290 1.988671 -3.624500 0 255 0
0.679334 1.989079 -3.622936 0 255 0
0.680379 1.989486 -3.621371 0 255 0
0.679412 1.988659 -3.621975 0 0 255
0.679895 1.989073 -3.621673 0 0 255
0.680379 1.989486 -3.621371 0 0 255
0.679598 1.988940 -3.622817 0 255 0
0.679437 1.989268 -3.623186 0 255 0
0.679275 1.989597 -3.623555 0 255 0
0.678290 1.988671 -3.624500 0 255 255
0.678783 1.989134 -3.624028 0 255 255
0.679275 1.989597 -3.623555 0 255 255
0.678499 1.988936 -3.625340 0 255 255
0.678887 1.989266 -3.624448 0 255 255
0.679275 1.989597 -3.623555 0 255 255
0.677478 1.988723 -3.626659 255 255 0
0.678376 1.989160 -3.625107 255 255 0
0.679275 1.989597 -3.623555 255 255 0
0.679598 1.988940 -3.622817 0 255 0
0.678924 1.989287 -3.624286 0 255 0
0.678250 1.989635 -3.625754 0 255 0
0.678290 1.988671 -3.624500 0 255 0
0.678270 1.989153 -3.625127 0 255 0
0.678250 1.989635 -3.625754 0 255 0
0.677648 1.989005 -3.627509 0 0 255
0.677949 1.989320 -3.626631 0 0 255
0.678250 1.989635 -3.625754 0 0 255
0.678499 1.988936 -3.625340 0 255 0
0.678375 1.989286 -3.625547 0 255 0
0.678250 1.989635 -3.625754 0 255 0
0.677478 1.988723 -3.626659 0 0 255
0.677864 1.989179 -3.626207 0 0 255
0.678250 1.989635 -3.625754 0 0 255
0.677648 1.989005 -3.627509 0 0 255
0.676879 1.989346 -3.628891 0 0 255
0.676109 1.989687 -3.630273 0 0 255
0.683617 1.988854 -3.614661 0 255 0
0.682424 1.988479 -3.611883 0 255 0
0.681232 1.988104 -3.609104 0 255 0
0.679412 1.988659 -3.621975 0 255 0
0.678717 1.988549 -3.618681 0 255 0
0.678021 1.988440 -3.615386 0 255 0
0.679598 1.988940 -3.622817 0 255 0
0.678810 1.988690 -3.619102 0 255 0
0.678021 1.988440 -3.615386 0 255 0
0.680331 1.988533 -3.619816 0 255 0
0.679176 1.988486 -3.617601 0 255 0
0.678021 1.988440 -3.615386 0 255 0
0.679412 1.988659 -3.621975 0 255 0
0.678004 1.988547 -3.620440 0 255 0
0.676596 1.988435 -3.618905 0 255 0
0.678290 1.988671 -3.624500 0 255 0
0.677443 1.988553 -3.621703 0 255 0
0.676596 1.988435 -3.618905 0 255 0
0.678499 1.988936 -3.625340 0 255 0
0.677547 1.988686 -3.622123 0 255 0
0.676596 1.988435 -3.618905 0 255 0
0.681725 1.988754 -3.618127 0 255 0
0.679046 1.988582 -3.618920 0 255 0
0.676367 1.988410 -3.619713 0 255 0
0.678290 1.988671 -3.624500 0 255 0
0.677329 1.988541 -3.622107 0 255 0
0.676367 1.988410 -3.619713 0 255 0
0.678499 1.988936 -3.625340 0 255 0
0.677433 1.988673 -3.622527 0 255 0
0.676367 1.988410 -3.619713 0 255 0
0.679412 1.988659 -3.621975 0 0 255
0.677779 1.988654 -3.621492 0 0 255
0.676146 1.988649 -3.621009 0 0 255
0.679598 1.988940 -3.622817 0 0 255
0.677872 1.988794 -3.621913 0 0 255
0.676146 1.988649 -3.621009 0 0 255
0.677478 1.988723 -3.626659 0 255 0
0.676812 1.988686 -3.623834 0 255 0
0.676146 1.988649 -3.621009 0 255 0
0.677648 1.989005 -3.627509 0 255 0
0.676897 1.988827 -3.624259 0 255 0
0.676146 1.988649 -3.621009 0 255 0
0.678290 1.988671 -3.624500 0 0 255
0.677125 1.988757 -3.623328 0 0 255
0.675960 1.988842 -3.622155 0 0 255
0.678499 1.988936 -3.625340 0 255 0
0.677229 1.988889 -3.623748 0 255 0
0.675960 1.988842 -3.622155 0 255 0
0.678290 1.988671 -3.624500 0 255 0
0.676802 1.988774 -3.623963 0 255 0
0.675314 1.988877 -3.623425 0 255 0
0.677478 1.988723 -3.626659 0 255 0
0.676396 1.988800 -3.625042 0 255 0
0.675314 1.988877 -3.623425 0 255 0
0.678290 1.988671 -3.624500 0 255 0
0.676460 1.988756 -3.624554 0 255 0
0.674630 1.988840 -3.624608 0 255 0
0.678499 1.988936 -3.625340 0 255 0
0.676564 1.988888 -3.624974 0 255 0
0.674630 1.988840 -3.624608 0 255 0
0.677648 1.989005 -3.627509 0 255 0
0.676139 1.988923 -3.626059 0 255 0
0.674630 1.988840 -3.624608 0 255 0
0.678290 1.988671 -3.624500 0 255 0
0.675471 1.988604 -3.625969 0 255 0
0.672652 1.988537 -3.627438 0 255 0
0.677648 1.989005 -3.627509 0 255 0
0.675150 1.988771 -3.627473 0 255 0
0.672652 1.988537 -3.627438 0 255 0
0.677478 1.988723 -3.626659 0 255 0
0.675065 1.988630 -3.627048 0 255 0
0.672652 1.988537 -3.627438 0 255 0
0.678499 1.988936 -3.625340 0 255 0
0.676516 1.989236 -3.626886 0 255 0
0.674534 1.989536 -3.628432 0 255 0
0.677478 1.988723 -3.626659 0 255 0
0.676006 1.989129 -3.627546 0 255 0
0.674534 1.989536 -3.628432 0 255 0
0.678499 1.988936 -3.625340 0 0 255
0.676864 1.989281 -3.626348 0 0 255
0.675230 1.989626 -3.627356 0 0 255
0.677478 1.988723 -3.626659 255 255 0
0.676354 1.989174 -3.627008 255 255 0
0.675230 1.989626 -3.627356 255 255 0
0.678290 1.988671 -3.624500 0 255 0
0.676996 1.989175 -3.625430 0 255 0
0.675703 1.989678 -3.626359 0 255 0
0.678499 1.988936 -3.625340 0 255 0
0.677101 1.989307 -3.625850 0 255 0
0.675703 1.989678 -3.626359 0 255 0
0.677478 1.988723 -3.626659 0 255 0
0.676590 1.989200 -3.626509 0 255 0
0.675703 1.989678 -3.626359 0 255 0
0.678290 1.988671 -3.624500 0 255 0
0.677776 1.989180 -3.622657 0 255 0
0.677261 1.989688 -3.620813 0 255 0
0.678499 1.988936 -3.625340 0 255 0
0.677880 1.989312 -3.623076 0 255 0
0.677261 1.989688 -3.620813 0 255 0
0.681725 1.988754 -3.618127 0 255 0
0.680641 1.989440 -3.617656 0 255 0
0.679558 1.990126 -3.617185 0 255 0
0.678290 1.988671 -3.624500 0 255 0
0.677593 1.989351 -3.624752 0 255 0
0.676897 1.990031 -3.625003 0 255 0
0.681725 1.988754 -3.618127 0 255 0
0.677794 1.988211 -3.618097 0 255 0
0.673863 1.987667 -3.618068 0 255 0
0.677648 1.989005 -3.627509 0 255 0
0.677631 1.989624 -3.627062 0 255 0
0.677614 1.990242 -3.626616 0 255 0
0.677648 1.989005 -3.627509 0 255 0
0.677802 1.989582 -3.626598 0 255 0
0.677956 1.990159 -3.625687 0 255 0
0.677648 1.989005 -3.627509 0 255 0
0.678071 1.989586 -3.626192 0 255 0
0.678493 1.990166 -3.624875 0 255 0
0.678499 1.988936 -3.625340 0 255 0
0.678751 1.989446 -3.624125 0 255 0
0.679003 1.989957 -3.622909 0 255 0
0.677478 1.988723 -3.626659 0 255 0
0.678240 1.989340 -3.624784 0 255 0
0.679003 1.989957 -3.622909 0 255 0
0.679598 1.988940 -3.622817 0 255 0
0.679383 1.989380 -3.622345 0 255 0
0.679168 1.989821 -3.621872 0 255 0
0.678290 1.988671 -3.624500 0 255 0
0.678729 1.989246 -3.623186 0 255 0
0.679168 1.989821 -3.621872 0 255 0
0.679412 1.988659 -3.621975 0 255 0
0.679290 1.989240 -3.621924 0 255 0
0.679168 1.989821 -3.621872 0 255 0
0.680331 1.988533 -3.619816 0 255 0
0.679749 1.989177 -3.620844 0 255 0
0.679168 1.989821 -3.621872 0 255 0
0.680474 1.988846 -3.620658 0 255 0
0.679821 1.989334 -3.621265 0 255 0
0.679168 1.989821 -3.621872 0 255 0
0.681725 1.988754 -3.618127 0 255 0
0.679245 1.988665 -3.618708 0 255 0
0.676765 1.988577 -3.619289 0 255 0
0.681725 1.988754 -3.618127 0 255 0
0.679560 1.988697 -3.618329 0 255 0
0.677394 1.988640 -3.618532 0 255 0
0.681725 1.988754 -3.618127 0 255 0
0.681040 1.988980 -3.617481 0 255 0
0.680355 1.989206 -3.616836 0 255 0
0.683617 1.988854 -3.614661 0 255 0
0.682270 1.989032 -3.615352 0 255 0
0.680924 1.989209 -3.616042 0 255 0
0.682574 1.988660 -3.615971 0 255 255
0.681749 1.988935 -3.616007 0 255 255
0.680924 1.989209 -3.616042 0 255 255
0.682774 1.988951 -3.616807 0 255 0
0.681849 1.989080 -3.616424 0 255 0
0.680924 1.989209 -3.616042 0 255 0
0.681725 1.988754 -3.618127 0 0 255
0.681324 1.988982 -3.617084 0 0 255
0.680924 1.989209 -3.616042 0 0 255
0.683731 1.988614 -3.613441 0 255 0
0.682608 1.988915 -3.614340 0 255 0
0.681486 1.989216 -3.615240 0 255 0
0.683617 1.988854 -3.614661 0 0 255
0.682551 1.989035 -3.614950 0 0 255
0.681486 1.989216 -3.615240 0 0 255
0.682574 1.988660 -3.615971 255 255 0
0.682030 1.988938 -3.615606 255 255 0
0.681486 1.989216 -3.615240 255 255 0
0.682774 1.988951 -3.616807 0 255 0
0.682130 1.989083 -3.616023 0 255 0
0.681486 1.989216 -3.615240 0 255 0
0.683731 1.988614 -3.613441 255 255 0
0.683405 1.988918 -3.612551 255 255 0
0.683079 1.989223 -3.611661 255 255 0
0.683617 1.988854 -3.614661 255 255 0
0.683348 1.989039 -3.613161 255 255 0
0.683079 1.989223 -3.611661 255 255 0
0.682574 1.988660 -3.615971 0 255 0
0.682827 1.988942 -3.613816 0 255 0
0.683079 1.989223 -3.611661 0 255 0
0.683617 1.988854 -3.614661 0 255 0
0.683552 1.989040 -3.612720 0 255 0
0.683488 1.989227 -3.610779 0 255 0
0.682574 1.988660 -3.615971 0 255 0
0.683031 1.988944 -3.613375 0 255 0
0.683488 1.989227 -3.610779 0 255 0
0.683617 1.988854 -3.614661 0 255 0
0.682908 1.988686 -3.612250 0 255 0
0.682199 1.988518 -3.609839 0 255 0
0.683731 1.988614 -3.613441 0 255 0
0.682965 1.988566 -3.611640 0 255 0
0.682199 1.988518 -3.609839 0 255 0
0.683731 1.988614 -3.613441 0 255 0
0.682315 1.988529 -3.612736 0 255 0
0.680898 1.988445 -3.612031 0 255 0
0.683617 1.988854 -3.614661 0 255 0
0.682257 1.988649 -3.613346 0 255 0
0.680898 1.988445 -3.612031 0 255 0
0.683731 1.988614 -3.613441 0 0 255
0.682141 1.988537 -3.613344 0 0 255
0.680550 1.988460 -3.613248 0 0 255
0.683617 1.988854 -3.614661 255 255 0
0.682083 1.988657 -3.613954 255 255 0
0.680550 1.988460 -3.613248 255 255 0
0.682574 1.988660 -3.615971 0 255 0
0.681562 1.988560 -3.614610 0 255 0
0.680550 1.988460 -3.613248 0 255 0
0.683731 1.988614 -3.613441 0 255 0
0.681812 1.988533 -3.613888 0 255 0
0.679894 1.988452 -3.614336 0 255 0
0.683617 1.988854 -3.614661 0 0 255
0.681755 1.988653 -3.614499 0 0 255
0.679894 1.988452 -3.614336 0 0 255
0.682574 1.988660 -3.615971 0 255 0
0.681234 1.988556 -3.615154 0 255 0
0.679894 1.988452 -3.614336 0 255 0
0.682574 1.988660 -3.615971 0 255 0
0.680957 1.988564 -3.615703 0 255 0
0.679340 1.988467 -3.615435 0 255 0
0.682774 1.988951 -3.616807 0 255 0
0.681057 1.988709 -3.616121 0 255 0
0.679340 1.988467 -3.615435 0 255 0
0.682574 1.988660 -3.615971 0 255 0
0.680925 1.988644 -3.616276 0 255 0
0.679275 1.988628 -3.616581 0 255 0
0.682774 1.988951 -3.616807 0 255 0
0.681025 1.988789 -3.616694 0 255 0
0.679275 1.988628 -3.616581 0 255 0
0.681725 1.988754 -3.618127 0 255 0
0.680500 1.988691 -3.617354 0 255 0
0.679275 1.988628 -3.616581 0 255 0
0.680331 1.988533 -3.619816 0 255 0
0.679803 1.988580 -3.618198 0 255 0
0.679275 1.988628 -3.616581 0 255 0
0.683617 1.988854 -3.614661 0 255 0
0.681132 1.988734 -3.616167 0 255 0
0.678646 1.988613 -3.617673 0 255 0
0.682574 1.988660 -3.615971 0 255 0
0.680610 1.988637 -3.616822 0 255 0
0.678646 1.988613 -3.617673 0 255 0
0.681725 1.988754 -3.618127 0 0 255
0.680186 1.988684 -3.617900 0 0 255
0.678646 1.988613 -3.617673 0 0 255
0.680331 1.988533 -3.619816 0 0 255
0.679489 1.988573 -3.618744 0 0 255
0.678646 1.988613 -3.617673 0 0 255
0.680474 1.988846 -3.620658 0 255 0
0.679560 1.988730 -3.619166 0 255 0
0.678646 1.988613 -3.617673 0 255 0
0.683617 1.988854 -3.614661 0 255 0
0.680862 1.988742 -3.616718 0 255 0
0.678108 1.988631 -3.618775 0 255 0
0.682574 1.988660 -3.615971 0 255 0
0.680341 1.988645 -3.617373 0 255 0
0.678108 1.988631 -3.618775 0 255 0
0.681725 1.988754 -3.618127 0 255 0
0.679917 1.988692 -3.618451 0 255 0
0.678108 1.988631 -3.618775 0 255 0
0.679412 1.988659 -3.621975 0 255 0
0.678760 1.988645 -3.620375 0 255 0
0.678108 1.988631 -3.618775 0 255 0
0.679598 1.988940 -3.622817 0 255 0
0.678853 1.988785 -3.620796 0 255 0
0.678108 1.988631 -3.618775 0 255 0
0.679412 1.988659 -3.621975 0 255 0
0.678270 1.988587 -3.620904 0 255 0
0.677127 1.988515 -3.619833 0 255 0
0.679598 1.988940 -3.622817 0 255 0
0.678363 1.988727 -3.621325 0 255 0
0.677127 1.988515 -3.619833 0 255 0
0.681725 1.988754 -3.618127 0 255 0
0.679426 1.988634 -3.618980 0 255 0
0.677127 1.988515 -3.619833 0 255 0
0.680331 1.988533 -3.619816 0 255 0
0.678729 1.988524 -3.619824 0 255 0
0.677127 1.988515 -3.619833 0 255 0
0.679412 1.988659 -3.621975 0 255 0
0.678093 1.988621 -3.621465 0 255 0
0.676774 1.988583 -3.620955 0 255 0
0.678290 1.988671 -3.624500 0 255 0
0.677532 1.988627 -3.622728 0 255 0
0.676774 1.988583 -3.620955 0 255 0
0.678499 1.988936 -3.625340 0 255 0
0.677636 1.988760 -3.623148 0 255 0
0.676774 1.988583 -3.620955 0 255 0
0.679598 1.988940 -3.622817 0 255 0
0.678186 1.988761 -3.621886 0 255 0
0.676774 1.988583 -3.620955 0 255 0
0.680474 1.988846 -3.620658 0 255 0
0.678624 1.988715 -3.620807 0 255 0
0.676774 1.988583 -3.620955 0 255 0
0.679598 1.988940 -3.622817 0 0 255
0.677886 1.988757 -3.622436 0 0 255
0.676173 1.988575 -3.622054 0 0 255
0.678290 1.988671 -3.624500 0 255 255
0.677232 1.988623 -3.623277 0 255 255
0.676173 1.988575 -3.622054 0 255 255
0.678499 1.988936 -3.625340 255 255 0
0.677336 1.988756 -3.623697 255 255 0
0.676173 1.988575 -3.622054 255 255 0
0.679598 1.988940 -3.622817 0 255 0
0.677621 1.988761 -3.622988 0 255 0
0.675644 1.988583 -3.623158 0 255 0
0.678290 1.988671 -3.624500 255 255 0
0.676967 1.988627 -3.623829 255 255 0
0.675644 1.988583 -3.623158 255 255 0
0.678499 1.988936 -3.625340 0 0 255
0.677071 1.988760 -3.624249 0 0 255
0.675644 1.988583 -3.623158 0 0 255
0.679598 1.988940 -3.622817 0 255 0
0.677246 1.988733 -3.623530 0 255 0
0.674893 1.988527 -3.624242 0 255 0
0.678290 1.988671 -3.624500 0 0 255
0.676591 1.988599 -3.624371 0 0 255
0.674893 1.988527 -3.624242 0 0 255
0.677648 1.989005 -3.627509 0 255 0
0.676271 1.988766 -3.625876 0 255 0
0.674893 1.988527 -3.624242 0 255 0
0.678499 1.988936 -3.625340 0 255 0
0.676696 1.988732 -3.624791 0 255 0
0.674893 1.988527 -3.624242 0 255 0
0.677478 1.988723 -3.626659 0 255 0
0.676185 1.988625 -3.625451 0 255 0
0.674893 1.988527 -3.624242 0 255 0
0.678290 1.988671 -3.624500 0 255 0
0.676313 1.988604 -3.624923 0 255 0
0.674335 1.988537 -3.625345 0 255 0
0.678499 1.988936 -3.625340 0 255 0
0.676417 1.988736 -3.625343 0 255 0
0.674335 1.988537 -3.625345 0 255 0
0.677478 1.988723 -3.626659 0 0 255
0.675906 1.988630 -3.626002 0 0 255
0.674335 1.988537 -3.625345 0 0 255
0.678499 1.988936 -3.625340 0 0 255
0.676223 1.988774 -3.625900 0 0 255
0.673948 1.988612 -3.626461 0 0 255
0.677478 1.988723 -3.626659 255 255 0
0.675713 1.988667 -3.626560 255 255 0
0.673948 1.988612 -3.626461 255 255 0
0.677648 1.989005 -3.627509 0 255 0
0.675798 1.988809 -3.626985 0 255 0
0.673948 1.988612 -3.626461 0 255 0
0.678290 1.988671 -3.624500 0 255 0
0.676119 1.988642 -3.625481 0 255 0
0.673948 1.988612 -3.626461 0 255 0
0.678290 1.988671 -3.624500 0 255 0
0.675924 1.988683 -3.626038 0 255 0
0.673558 1.988694 -3.627576 0 255 0
0.678499 1.988936 -3.625340 0 0 255
0.676028 1.988815 -3.626458 0 0 255
0.673558 1.988694 -3.627576 0 0 255
0.677478 1.988723 -3.626659 0 0 255
0.675518 1.988708 -3.627118 0 0 255
0.673558 1.988694 -3.627576 0 0 255
0.678290 1.988671 -3.624500 0 255 0
0.675749 1.988726 -3.626598 0 255 0
0.673208 1.988780 -3.628695 0 255 0
0.677648 1.989005 -3.627509 0 255 0
0.675428 1.988893 -3.628102 0 255 0
0.673208 1.988780 -3.628695 0 255 0
0.678499 1.988936 -3.625340 0 255 0
0.675459 1.988828 -3.627558 0 255 0
0.672420 1.988720 -3.629775 0 255 0
0.677478 1.988723 -3.626659 0 255 0
0.674949 1.988722 -3.628217 0 255 0
0.672420 1.988720 -3.629775 0 255 0
0.678499 1.988936 -3.625340 0 255 0
0.675152 1.988816 -3.628107 0 255 0
0.671806 1.988696 -3.630875 0 255 0
0.677478 1.988723 -3.626659 0 255 0
0.674642 1.988709 -3.628767 0 255 0
0.671806 1.988696 -3.630875 0 255 0
0.677648 1.989005 -3.627509 0 255 0
0.674478 1.988850 -3.629748 0 255 0
0.671308 1.988695 -3.631987 0 255 0
0.683731 1.988614 -3.613441 0 255 0
0.683405 1.988986 -3.612265 0 255 0
0.683080 1.989358 -3.611089 0 255 0
0.683617 1.988854 -3.614661 0 255 0
0.683348 1.989106 -3.612875 0 255 0
0.683080 1.989358 -3.611089 0 255 0
0.683617 1.988854 -3.614661 0 255 0
0.684025 1.989462 -3.613266 0 255 0
0.684434 1.990070 -3.611870 0 255 0
0.682574 1.988660 -3.615971 0 255 0
0.681218 1.988883 -3.615795 0 255 0
0.679863 1.989106 -3.615619 0 255 0
0.679412 1.988659 -3.621975 0 255 0
0.679401 1.988882 -3.619346 0 255 0
0.679391 1.989105 -3.616716 0 255 0
0.679598 1.988940 -3.622817 0 255 0
0.679494 1.989022 -3.619767 0 255 0
0.679391 1.989105 -3.616716 0 255 0
0.680331 1.988533 -3.619816 0 255 0
0.679861 1.988819 -3.618266 0 255 0
0.679391 1.989105 -3.616716 0 255 0
0.679412 1.988659 -3.621975 0 255 0
0.679105 1.988863 -3.619900 0 255 0
0.678797 1.989066 -3.617825 0 255 0
0.679598 1.988940 -3.622817 0 255 0
0.679198 1.989003 -3.620321 0 255 0
0.678797 1.989066 -3.617825 0 255 0
0.679412 1.988659 -3.621975 0 255 0
0.678248 1.988878 -3.621632 0 255 0
0.677084 1.989097 -3.621289 0 255 0
0.677478 1.988723 -3.626659 0 255 0
0.677281 1.988910 -3.623974 0 255 0
0.677084 1.989097 -3.621289 0 255 0
0.677648 1.989005 -3.627509 0 255 0
0.677366 1.989051 -3.624399 0 255 0
0.677084 1.989097 -3.621289 0 255 0
0.678290 1.988671 -3.624500 0 255 0
0.677374 1.988863 -3.623451 0 255 0
0.676457 1.989056 -3.622401 0 255 0
0.678499 1.988936 -3.625340 0 255 0
0.677478 1.988996 -3.623871 0 255 0
0.676457 1.989056 -3.622401 0 255 0
0.677478 1.988723 -3.626659 0 255 0
0.676967 1.988889 -3.624530 0 255 0
0.676457 1.989056 -3.622401 0 255 0
0.677648 1.989005 -3.627509 0 255 0
0.677053 1.989030 -3.624955 0 255 0
0.676457 1.989056 -3.622401 0 255 0
0.678290 1.988671 -3.624500 0 0 255
0.676878 1.988777 -3.624035 0 0 255
0.675465 1.988882 -3.623570 0 0 255
0.678499 1.988936 -3.625340 0 0 255
0.676982 1.988909 -3.624455 0 0 255
0.675465 1.988882 -3.623570 0 0 255
0.677478 1.988723 -3.626659 0 255 0
0.676472 1.988802 -3.625115 0 255 0
0.675465 1.988882 -3.623570 0 255 0
0.678290 1.988671 -3.624500 0 255 0
0.676709 1.988803 -3.624570 0 255 0
0.675128 1.988935 -3.624639 0 255 0
0.677478 1.988723 -3.626659 0 255 0
0.676303 1.988829 -3.625649 0 255 0
0.675128 1.988935 -3.624639 0 255 0
0.677648 1.989005 -3.627509 0 255 0
0.675899 1.988891 -3.626652 0 255 0
0.674150 1.988777 -3.625796 0 255 0
0.678290 1.988671 -3.624500 0 255 0
0.675981 1.988745 -3.625801 0 255 0
0.673672 1.988819 -3.627102 0 255 0
0.678499 1.988936 -3.625340 0 0 255
0.676085 1.988878 -3.626221 0 0 255
0.673672 1.988819 -3.627102 0 0 255
0.677478 1.988723 -3.626659 0 0 255
0.675575 1.988771 -3.626881 0 0 255
0.673672 1.988819 -3.627102 0 0 255
0.678290 1.988671 -3.624500 0 255 0
0.675721 1.988758 -3.626340 0 255 0
0.673152 1.988845 -3.628180 0 255 0
0.678499 1.988936 -3.625340 0 255 0
0.675825 1.988891 -3.626760 0 255 0
0.673152 1.988845 -3.628180 0 255 0
0.677478 1.988723 -3.626659 0 255 0
0.675315 1.988784 -3.627420 0 255 0
0.673152 1.988845 -3.628180 0 255 0
0.678290 1.988671 -3.624500 0 255 0
0.675373 1.988732 -3.626893 0 255 0
0.672456 1.988794 -3.629286 0 255 0
0.678499 1.988936 -3.625340 0 255 0
0.675477 1.988865 -3.627313 0 255 0
0.672456 1.988794 -3.629286 0 255 0
0.677478 1.988723 -3.626659 0 255 0
0.674967 1.988758 -3.627973 0 255 0
0.672456 1.988794 -3.629286 0 255 0
0.678499 1.988936 -3.625340 0 255 0
0.675121 1.988829 -3.627871 0 255 0
0.671743 1.988723 -3.630401 0 255 0
0.677478 1.988723 -3.626659 0 255 0
0.674611 1.988723 -3.628530 0 255 0
0.671743 1.988723 -3.630401 0 255 0
0.677478 1.988723 -3.626659 0 255 0
0.677949 1.989688 -3.626578 0 255 0
0.678420 1.990654 -3.626497 0 255 0
0.677648 1.989005 -3.627509 0 0 255
0.677603 1.989627 -3.627399 0 0 255
0.677558 1.990248 -3.627289 0 0 255
0.677648 1.989005 -3.627509 0 255 0
0.675753 1.989007 -3.629308 0 255 0
0.673857 1.989009 -3.631108 0 255 0
0.677648 1.989005 -3.627509 0 0 255
0.676240 1.988999 -3.628122 0 0 255
0.674832 1.988993 -3.628735 0 0 255
0.678499 1.988936 -3.625340 0 255 0
0.676666 1.988964 -3.627038 0 255 0
0.674832 1.988993 -3.628735 0 255 0
0.677478 1.988723 -3.626659 0 0 255
0.676155 1.988858 -3.627697 0 0 255
0.674832 1.988993 -3.628735 0 0 255
0.679598 1.988940 -3.622817 0 255 0
0.678041 1.988941 -3.624296 0 255 0
0.676484 1.988943 -3.625775 0 255 0
0.678290 1.988671 -3.624500 0 255 255
0.677387 1.988807 -3.625138 0 255 255
0.676484 1.988943 -3.625775 0 255 255
0.678499 1.988936 -3.625340 0 255 255
0.677491 1.988940 -3.625557 0 255 255
0.676484 1.988943 -3.625775 0 255 255
0.677478 1.988723 -3.626659 0 255 255
0.676981 1.988833 -3.626217 0 255 255
0.676484 1.988943 -3.625775 0 255 255
0.677648 1.989005 -3.627509 255 255 0
0.677066 1.988974 -3.626642 255 255 0
0.676484 1.988943 -3.625775 255 255 0
0.679598 1.988940 -3.622817 0 255 255
0.678523 1.988932 -3.623114 0 255 255
0.677447 1.988925 -3.623410 0 255 255
0.678290 1.988671 -3.624500 255 255 0
0.677869 1.988798 -3.623955 255 255 0
0.677447 1.988925 -3.623410 255 255 0
0.680474 1.988846 -3.620658 0 255 0
0.678960 1.988886 -3.622034 0 255 0
0.677447 1.988925 -3.623410 0 255 0
0.679412 1.988659 -3.621975 0 255 255
0.678430 1.988792 -3.622693 0 255 255
0.677447 1.988925 -3.623410 0 255 255
0.678499 1.988936 -3.625340 0 0 255
0.677973 1.988931 -3.624375 0 0 255
0.677447 1.988925 -3.623410 0 0 255
0.681725 1.988754 -3.618127 0 0 255
0.680004 1.988830 -3.619641 0 0 255
0.678283 1.988906 -3.621156 0 0 255
0.680331 1.988533 -3.619816 0 255 255
0.679307 1.988720 -3.620486 0 255 255
0.678283 1.988906 -3.621156 0 255 255
0.680474 1.988846 -3.620658 0 0 255
0.679378 1.988876 -3.620907 0 0 255
0.678283 1.988906 -3.621156 0 0 255
0.679412 1.988659 -3.621975 255 255 0
0.678847 1.988783 -3.621565 255 255 0
0.678283 1.988906 -3.621156 255 255 0
0.678290 1.988671 -3.624500 0 0 255
0.678286 1.988789 -3.622828 0 0 255
0.678283 1.988906 -3.621156 0 0 255
0.678499 1.988936 -3.625340 0 0 255
0.678391 1.988921 -3.623248 0 0 255
0.678283 1.988906 -3.621156 0 0 255
0.679598 1.988940 -3.622817 0 0 255
0.678940 1.988923 -3.621987 0 0 255
0.678283 1.988906 -3.621156 0 0 255
0.683617 1.988854 -3.614661 0 255 0
0.681317 1.988870 -3.616826 0 255 0
0.679018 1.988885 -3.618991 0 255 0
0.682574 1.988660 -3.615971 0 255 0
0.680796 1.988773 -3.617481 0 255 0
0.679018 1.988885 -3.618991 0 255 0
0.679412 1.988659 -3.621975 0 0 255
0.679215 1.988772 -3.620483 0 0 255
0.679018 1.988885 -3.618991 0 0 255
0.681725 1.988754 -3.618127 0 0 255
0.680372 1.988820 -3.618559 0 0 255
0.679018 1.988885 -3.618991 0 0 255
0.680331 1.988533 -3.619816 0 255 255
0.679675 1.988709 -3.619403 0 255 255
0.679018 1.988885 -3.618991 0 255 255
0.680474 1.988846 -3.620658 255 255 0
0.679746 1.988866 -3.619825 255 255 0
0.679018 1.988885 -3.618991 255 255 0
0.679598 1.988940 -3.622817 0 255 0
0.679308 1.988912 -3.620904 0 255 0
0.679018 1.988885 -3.618991 0 255 0
0.683731 1.988614 -3.613441 0 0 255
0.681728 1.988738 -3.615145 0 0 255
0.679725 1.988863 -3.616850 0 0 255
0.682574 1.988660 -3.615971 0 0 255
0.681150 1.988762 -3.616411 0 0 255
0.679725 1.988863 -3.616850 0 0 255
0.682774 1.988951 -3.616807 0 255 0
0.681249 1.988907 -3.616828 0 255 0
0.679725 1.988863 -3.616850 0 255 0
0.681725 1.988754 -3.618127 255 255 0
0.680725 1.988809 -3.617488 255 255 0
0.679725 1.988863 -3.616850 255 255 0
0.679412 1.988659 -3.621975 0 255 0
0.679569 1.988761 -3.619412 0 255 0
0.679725 1.988863 -3.616850 0 255 0
0.679598 1.988940 -3.622817 0 255 0
0.679662 1.988901 -3.619834 0 255 0
0.679725 1.988863 -3.616850 0 255 0
0.680331 1.988533 -3.619816 0 255 0
0.680028 1.988698 -3.618333 0 255 0
0.679725 1.988863 -3.616850 0 255 0
0.683731 1.988614 -3.613441 255 255 0
0.682631 1.988708 -3.613598 255 255 0
0.681531 1.988801 -3.613755 255 255 0
0.683617 1.988854 -3.614661 0 255 255
0.682574 1.988828 -3.614208 0 255 255
0.681531 1.988801 -3.613755 0 255 255
0.682574 1.988660 -3.615971 0 0 255
0.682053 1.988731 -3.614863 0 0 255
0.681531 1.988801 -3.613755 0 0 255
0.683731 1.988614 -3.613441 0 255 0
0.682980 1.988717 -3.612534 0 255 0
0.682229 1.988820 -3.611628 0 255 0
0.678290 1.988671 -3.624500 0 0 255
0.677261 1.988911 -3.625045 0 0 255
0.676232 1.989151 -3.625589 0 0 255
0.678499 1.988936 -3.625340 0 255 0
0.677366 1.989044 -3.625465 0 255 0
0.676232 1.989151 -3.625589 0 255 0
0.677478 1.988723 -3.626659 0 255 0
0.676855 1.988937 -3.626124 0 255 0
0.676232 1.989151 -3.625589 0 255 0
0.683731 1.988614 -3.613441 0 255 0
0.682788 1.989062 -3.614343 0 255 0
0.681844 1.989510 -3.615244 0 255 0
0.683617 1.988854 -3.614661 0 255 0
0.681800 1.988360 -3.611224 0 255 0
0.679983 1.987865 -3.607788 0 255 0
0.683617 1.988854 -3.614661 0 255 0
0.681343 1.988351 -3.611999 0 255 0
0.679069 1.987848 -3.609337 0 255 0
0.682574 1.988660 -3.615971 0 255 0
0.680822 1.988254 -3.612654 0 255 0
0.679069 1.987848 -3.609337 0 255 0
0.681725 1.988754 -3.618127 0 255 0
0.678678 1.988233 -3.617371 0 255 0
0.675631 1.987712 -3.616616 0 255 0
0.681725 1.988754 -3.618127 0 255 0
0.678245 1.988208 -3.618269 0 255 0
0.674766 1.987663 -3.618411 0 255 0
0.680331 1.988533 -3.619816 0 255 0
0.677078 1.988079 -3.619826 0 255 0
0.673824 1.987626 -3.619837 0 255 0
0.680474 1.988846 -3.620658 0 255 0
0.677149 1.988236 -3.620248 0 255 0
0.673824 1.987626 -3.619837 0 255 0
0.680331 1.988533 -3.619816 0 255 0
0.676596 1.988065 -3.620426 0 255 0
0.672861 1.987597 -3.621036 0 255 0
0.680474 1.988846 -3.620658 0 255 0
0.676668 1.988222 -3.620847 0 255 0
0.672861 1.987597 -3.621036 0 255 0
0.679412 1.988659 -3.621975 0 255 0
0.676137 1.988128 -3.621506 0 255 0
0.672861 1.987597 -3.621036 0 255 0
0.679598 1.988940 -3.622817 0 255 0
0.676230 1.988268 -3.621927 0 255 0
0.672861 1.987597 -3.621036 0 255 0
0.679412 1.988659 -3.621975 0 255 0
0.675683 1.988109 -3.622301 0 255 0
0.671953 1.987560 -3.622627 0 255 0
0.679598 1.988940 -3.622817 0 255 0
0.675776 1.988250 -3.622722 0 255 0
0.671953 1.987560 -3.622627 0 255 0
0.677648 1.989005 -3.627509 0 255 0
0.674384 1.988261 -3.626048 0 255 0
0.671119 1.987517 -3.624587 0 255 0
0.678290 1.988671 -3.624500 0 255 0
0.674397 1.988250 -3.627235 0 255 0
0.670503 1.987828 -3.629970 0 255 0
0.678499 1.988936 -3.625340 0 255 0
0.674501 1.988382 -3.627655 0 255 0
0.670503 1.987828 -3.629970 0 255 0
0.677478 1.988723 -3.626659 0 255 0
0.673991 1.988276 -3.628315 0 255 0
0.670503 1.987828 -3.629970 0 255 0
0.677478 1.988723 -3.626659 0 255 0
0.674880 1.988290 -3.626385 0 255 0
0.672283 1.987857 -3.626111 0 255 0
0.678290 1.988671 -3.624500 0 255 0
0.675528 1.988252 -3.624587 0 255 0
0.672766 1.987832 -3.624674 0 255 0
0.677648 1.989005 -3.627509 0 255 0
0.675207 1.988419 -3.626091 0 255 0
0.672766 1.987832 -3.624674 0 255 0
0.679598 1.988940 -3.622817 0 0 255
0.676556 1.988384 -3.623145 0 0 255
0.673514 1.987829 -3.623473 0 0 255
0.678290 1.988671 -3.624500 0 255 0
0.675902 1.988250 -3.623987 0 255 0
0.673514 1.987829 -3.623473 0 255 0
0.679412 1.988659 -3.621975 0 255 0
0.676463 1.988244 -3.622724 0 255 0
0.673514 1.987829 -3.623473 0 255 0
0.678290 1.988671 -3.624500 0 255 0
0.676215 1.988230 -3.623367 0 255 0
0.674140 1.987789 -3.622234 0 255 0
0.678499 1.988936 -3.625340 0 255 0
0.676320 1.988363 -3.623787 0 255 0
0.674140 1.987789 -3.622234 0 255 0
0.679412 1.988659 -3.621975 0 0 255
0.676776 1.988224 -3.622104 0 0 255
0.674140 1.987789 -3.622234 0 0 255
0.679598 1.988940 -3.622817 0 0 255
0.676869 1.988365 -3.622526 0 0 255
0.674140 1.987789 -3.622234 0 0 255
0.680474 1.988846 -3.620658 0 255 0
0.677307 1.988318 -3.621446 0 255 0
0.674140 1.987789 -3.622234 0 255 0
0.679412 1.988659 -3.621975 0 0 255
0.677134 1.988198 -3.621547 0 0 255
0.674856 1.987738 -3.621120 0 0 255
0.677648 1.989005 -3.627509 0 255 0
0.676252 1.988372 -3.624314 0 255 0
0.674856 1.987738 -3.621120 0 255 0
0.678290 1.988671 -3.624500 0 255 0
0.676573 1.988205 -3.622810 0 255 0
0.674856 1.987738 -3.621120 0 255 0
0.678499 1.988936 -3.625340 0 255 0
0.676678 1.988337 -3.623230 0 255 0
0.674856 1.987738 -3.621120 0 255 0
0.679598 1.988940 -3.622817 0 0 255
0.677227 1.988339 -3.621969 0 0 255
0.674856 1.987738 -3.621120 0 0 255
0.680331 1.988533 -3.619816 0 0 255
0.677594 1.988136 -3.620468 0 0 255
0.674856 1.987738 -3.621120 0 0 255
0.680474 1.988846 -3.620658 0 255 0
0.677665 1.988292 -3.620889 0 255 0
0.674856 1.987738 -3.621120 0 255 0
0.679412 1.988659 -3.621975 0 255 0
0.677439 1.988174 -3.620916 0 255 0
0.675466 1.987690 -3.619857 0 255 0
0.679598 1.988940 -3.622817 0 255 0
0.677532 1.988315 -3.621337 0 255 0
0.675466 1.987690 -3.619857 0 255 0
0.680331 1.988533 -3.619816 0 255 0
0.677898 1.988112 -3.619836 0 255 0
0.675466 1.987690 -3.619857 0 255 0
0.680474 1.988846 -3.620658 0 255 0
0.677970 1.988268 -3.620258 0 255 0
0.675466 1.987690 -3.619857 0 255 0
0.678290 1.988671 -3.624500 0 255 0
0.677161 1.988156 -3.621520 0 255 0
0.676032 1.987642 -3.618539 0 255 0
0.678499 1.988936 -3.625340 0 255 0
0.677266 1.988289 -3.621939 0 255 0
0.676032 1.987642 -3.618539 0 255 0
0.681725 1.988754 -3.618127 0 255 0
0.678879 1.988198 -3.618333 0 255 0
0.676032 1.987642 -3.618539 0 255 0
0.682574 1.988660 -3.615971 0 255 0
0.679676 1.988124 -3.616721 0 255 0
0.676778 1.987588 -3.617471 0 255 0
0.681725 1.988754 -3.618127 0 255 0
0.679251 1.988171 -3.617799 0 255 0
0.676778 1.987588 -3.617471 0 255 0
0.682574 1.988660 -3.615971 0 255 0
0.679811 1.988112 -3.615853 0 255 0
0.677048 1.987563 -3.615734 0 255 0
3 0 1 2 3 2 3 4 3 4 5 6 3 6 7 8 3 8 9 10 3 10 11 12 3 12 13 14 3 14 15 16 3 16 17 18 3 18 19 20 3 20 21 22 3 22 23 24 3 25 26 27 3 28 29 30 3 31 32 33 3 34 35 36 3 37 38 39 3 40 41 42 3 43 44 45 3 46 47 48 3 49 50 51 3 52 53 54 3 55 56 57 3 58 59 60 3 61 62 63 3 64 65 66 3 67 68 69 3 70 71 72 3 73 74 75 3 76 77 78 3 79 80 81 3 82 83 84 3 85 86 87 3 88 89 90 3 91 92 93 3 94 95 96 3 97 98 99 3 100 101 102 3 103 104 105 3 106 107 108 3 109 110 111 3 112 113 114 3 115 116 117 3 118 119 120 3 121 122 123 3 124 125 126 3 127 128 129 3 130 131 132 3 133 134 135 3 136 137 138 3 139 140 141 3 142 143 144 3 145 146 147 3 148 149 150 3 151 152 153 3 154 155 156 3 157 158 159 3 160 161 162 3 163 164 165 3 166 167 168 3 169 170 171 3 172 173 174 3 175 176 177 3 178 179 180 3 181 182 183 3 184 185 186 3 187 188 189 3 190 191 192 3 193 194 195 3 196 197 198 3 199 200 201 3 202 203 204 3 205 206 207 3 208 209 210 3 211 212 213 3 214 215 216 3 217 218 219 3 220 221 222 3 223 224 225 3 226 227 228 3 229 230 231 3 232 233 234 3 235 236 237 3 238 239 240 3 241 242 243 3 244 245 246 3 247 248 249 3 250 251 252 3 253 254 255 3 256 257 258 3 259 260 261 3 262 263 264 3 265 266 267 3 268 269 270 3 271 272 273 3 274 275 276 3 277 278 279 3 280 281 282 3 283 284 285 3 286 287 288 3 289 290 291 3 292 293 294 3 295 296 297 3 298 299 300 3 301 302 303 3 304 305 306 3 307 308 309 3 310 311 312 3 313 314 315 3 316 317 318 3 319 320 321 3 322 323 324 3 325 326 327 3 328 329 330 3 331 332 333 3 334 335 336 3 337 338 339 3 340 341 342 3 343 344 345 3 346 347 348 3 349 350 351 3 352 353 354 3 355 356 357 3 358 359 360 3 361 362 363 3 364 365 366 3 367 368 369 3 370 371 372 3 373 374 375 3 376 377 378 3 379 380 381 3 382 383 384 3 385 386 387 3 388 389 390 3 391 392 393 3 394 395 396 3 397 398 399 3 400 401 402 3 403 404 405 3 406 407 408 3 409 410 411 3 412 413 414 3 415 416 417 3 418 419 420 3 421 422 423 3 424 425 426 3 427 428 429 3 430 431 432 3 433 434 435 3 436 437 438 3 439 440 441 3 442 443 444 3 445 446 447 3 448 449 450 3 451 452 453 3 454 455 456 3 457 458 459 3 460 461 462 3 463 464 465 3 466 467 468 3 469 470 471 3 472 473 474 3 475 476 477 3 478 479 480 3 481 482 483 3 484 485 486 3 487 488 489 3 490 491 492 3 493 494 495 3 496 497 498 3 499 500 501 3 502 503 504 3 505 506 507 3 508 509 510 3 511 512 513 3 514 515 516 3 517 518 519 3 520 521 522 3 523 524 525 3 526 527 528 3 529 530 531 3 532 533 534 3 535 536 537 3 538 539 540 3 541 542 543 3 544 545 546 3 547 548 549 3 550 551 552 3 553 554 555 3 556 557 558 3 559 560 561 3 562 563 564 3 565 566 567 3 568 569 570 3 571 572 573 3 574 575 576 3 577 578 579 3 580 581 582 3 583 584 585 3 586 587 588 3 589 590 591 3 592 593 594 3 595 596 597 3 598 599 600 3 601 602 603 3 604 605 606 3 607 608 609 3 610 611 612 3 613 614 615 3 616 617 618 3 619 620 621 3 622 623 624 3 625 626 627 3 628 629 630 3 631 632 633 3 634 635 636 3 637 638 639 3 640 641 642 3 643 644 645 3 646 647 648 3 649 650 651 3 652 653 654 3 655 656 657 3 658 659 660 3 661 662 663 3 664 665 666 3 667 668 669 3 670 671 672 3 673 674 675 3 676 677 678 3 679 680 681 3 682 683 684 3 685 686 687 3 688 689 690 3 691 692 693 3 694 695 696 3 697 698 699 3 700 701 702 3 703 704 705 3 706 707 708 3 709 710 711 3 712 713 714 3 715 716 717 3 718 719 720 3 721 722 723 3 724 725 726 3 727 728 729 3 730 731 732 3 733 734 735 3 736 737 738 3 739 740 741 3 742 743 744 3 745 746 747 3 748 749 750 3 751 752 753 3 754 755 756 3 757 758 759 3 760 761 762 3 763 764 765 3 766 767 768 3 769 770 771 3 772 773 774 3 775 776 777 3 778 779 780 3 781 782 783 3 784 785 786 3 787 788 789 3 790 791 792 3 793 794 795 3 796 797 798 3 799 800 801 3 802 803 804 3 805 806 807 3 808 809 810 3 811 812 813 3 814 815 816 3 817 818 819 3 820 821 822 3 823 824 825 3 826 827 828 3 829 830 831 3 832 833 834 3 835 836 837 3 838 839 840 3 841 842 843 3 844 845 846 3 847 848 849 3 850 851 852 3 853 854 855 3 856 857 858 3 859 860 861 3 862 863 864 3 865 866 867 3 868 869 870 3 871 872 873 3 874 875 876 3 877 878 879 3 880 881 882 3 883 884 885 3 886 887 888 3 889 890 891 3 892 893 894 3 895 896 897 3 898 899 900 