ply
format ascii 1.0
element vertex 1100
property float x
property float y
property float z
property uchar red
property uchar green
property uchar blue
element face 376
property list uchar int vertex_index
end_header
0.864140 1.837738 -3.446163 255 0 0
0.863429 1.837798 -3.445732 255 0 0
0.862717 1.837857 -3.445300 255 0 0
0.862009 1.837919 -3.444875 255 0 0
0.861302 1.837982 -3.444451 255 0 0
0.860826 1.837984 -3.445009 255 0 0
0.860351 1.837987 -3.445567 255 0 0
0.859749 1.838010 -3.445586 255 0 0
0.859147 1.838034 -3.445606 255 0 0
0.858845 1.837968 -3.446904 255 0 0
0.858543 1.837902 -3.448203 255 0 0
0.857944 1.837903 -3.448248 255 0 0
0.857345 1.837903 -3.448292 255 0 0
0.856821 1.837881 -3.448658 255 0 0
0.856298 1.837860 -3.449024 255 0 0
0.855693 1.837855 -3.449048 255 0 0
0.855088 1.837851 -3.449073 255 0 0
0.854488 1.837844 -3.449112 255 0 0
0.853887 1.837838 -3.449151 255 0 0
0.853438 1.837793 -3.449834 255 0 0
0.852989 1.837748 -3.450518 255 0 0
0.852372 1.837748 -3.450497 255 0 0
0.851755 1.837749 -3.450477 255 0 0
0.851136 1.837754 -3.450457 255 0 0
0.850516 1.837760 -3.450437 255 0 0
0.849897 1.837772 -3.450419 255 0 0
0.849278 1.837785 -3.450400 255 0 0
0.848661 1.837804 -3.450382 255 0 0
0.848043 1.837824 -3.450364 255 0 0
0.847455 1.837843 -3.450462 255 0 0
0.846867 1.837861 -3.450560 255 0 0
0.846281 1.837885 -3.450655 255 0 0
0.845694 1.837909 -3.450749 255 0 0
0.845163 1.837920 -3.451073 255 0 0
0.844631 1.837932 -3.451397 255 0 0
0.844072 1.837948 -3.451602 255 0 0
0.843513 1.837964 -3.451807 255 0 0
0.842983 1.837973 -3.452132 255 0 0
0.842453 1.837982 -3.452458 255 0 0
0.842013 1.837967 -3.453172 255 0 0
0.841572 1.837953 -3.453885 255 0 0
0.841026 1.837959 -3.454149 255 0 0
0.840479 1.837966 -3.454414 255 0 0
0.839917 1.837969 -3.454624 255 0 0
0.839356 1.837971 -3.454835 255 0 0
0.838778 1.837973 -3.454974 255 0 0
0.838199 1.837975 -3.455114 255 0 0
0.837638 1.837969 -3.455330 255 0 0
0.837077 1.837963 -3.455547 255 0 0
0.836530 1.837953 -3.455833 255 0 0
0.835984 1.837943 -3.456120 255 0 0
0.835421 1.837939 -3.456327 255 0 0
0.834857 1.837935 -3.456535 255 0 0
0.834289 1.837932 -3.456716 255 0 0
0.833721 1.837929 -3.456898 255 0 0
0.833198 1.837917 -3.457272 255 0 0
0.832676 1.837906 -3.457646 255 0 0
0.832160 1.837898 -3.458033 255 0 0
0.831644 1.837891 -3.458420 255 0 0
0.831644 1.837891 -3.458420 0 255 0
0.831096 1.838124 -3.459373 0 255 0
0.830549 1.838357 -3.460327 0 255 0
0.831644 1.837891 -3.458420 0 255 0
0.831832 1.838139 -3.458896 0 255 0
0.832021 1.838388 -3.459372 0 255 0
0.833721 1.837929 -3.456898 0 255 255
0.833844 1.838217 -3.457681 0 255 255
0.833967 1.838504 -3.458465 0 255 255
0.832676 1.837906 -3.457646 0 255 255
0.833322 1.838205 -3.458055 0 255 255
0.833967 1.838504 -3.458465 0 255 255
0.831644 1.837891 -3.458420 0 255 255
0.832806 1.838197 -3.458442 0 255 255
0.833967 1.838504 -3.458465 0 255 255
0.834857 1.837935 -3.456535 0 255 0
0.834804 1.838229 -3.457349 0 255 0
0.834750 1.838523 -3.458163 0 255 0
0.833721 1.837929 -3.456898 0 255 255
0.834235 1.838226 -3.457530 0 255 255
0.834750 1.838523 -3.458163 0 255 255
0.832676 1.837906 -3.457646 0 255 255
0.833713 1.838214 -3.457904 0 255 255
0.834750 1.838523 -3.458163 0 255 255
0.831644 1.837891 -3.458420 0 255 255
0.833197 1.838207 -3.458291 0 255 255
0.834750 1.838523 -3.458163 0 255 255
0.835984 1.837943 -3.456120 0 0 255
0.835766 1.838201 -3.456845 0 0 255
0.835547 1.838458 -3.457571 0 0 255
0.834857 1.837935 -3.456535 0 0 255
0.835202 1.838196 -3.457053 0 0 255
0.835547 1.838458 -3.457571 0 0 255
0.833721 1.837929 -3.456898 0 255 255
0.834634 1.838194 -3.457235 0 255 255
0.835547 1.838458 -3.457571 0 255 255
0.832676 1.837906 -3.457646 0 255 255
0.834112 1.838182 -3.457609 0 255 255
0.835547 1.838458 -3.457571 0 255 255
0.831644 1.837891 -3.458420 0 255 0
0.833596 1.838174 -3.457996 0 255 0
0.835547 1.838458 -3.457571 0 255 0
0.837077 1.837963 -3.455547 0 0 255
0.836752 1.838230 -3.456411 0 0 255
0.836428 1.838496 -3.457276 0 0 255
0.835984 1.837943 -3.456120 255 255 0
0.836206 1.838220 -3.456698 255 255 0
0.836428 1.838496 -3.457276 255 255 0
0.834857 1.837935 -3.456535 0 255 255
0.835643 1.838216 -3.456905 0 255 255
0.836428 1.838496 -3.457276 0 255 255
0.833721 1.837929 -3.456898 0 255 255
0.835074 1.838213 -3.457087 0 255 255
0.836428 1.838496 -3.457276 0 255 255
0.832676 1.837906 -3.457646 0 0 255
0.834552 1.838201 -3.457461 0 0 255
0.836428 1.838496 -3.457276 0 0 255
0.839356 1.837971 -3.454835 255 255 0
0.839034 1.838312 -3.455636 255 255 0
0.838713 1.838652 -3.456436 255 255 0
0.838199 1.837975 -3.455114 0 255 255
0.838456 1.838314 -3.455775 0 255 255
0.838713 1.838652 -3.456436 0 255 255
0.841572 1.837953 -3.453885 0 255 0
0.840143 1.838302 -3.455161 0 255 0
0.838713 1.838652 -3.456436 0 255 0
0.840479 1.837966 -3.454414 0 0 255
0.839596 1.838309 -3.455425 0 0 255
0.838713 1.838652 -3.456436 0 0 255
0.837077 1.837963 -3.455547 0 255 255
0.837895 1.838308 -3.455991 0 255 255
0.838713 1.838652 -3.456436 0 255 255
0.835984 1.837943 -3.456120 255 255 0
0.837349 1.838298 -3.456278 255 255 0
0.838713 1.838652 -3.456436 255 255 0
0.834857 1.837935 -3.456535 0 255 0
0.836785 1.838293 -3.456485 0 255 0
0.838713 1.838652 -3.456436 0 255 0
0.839356 1.837971 -3.454835 0 255 255
0.839880 1.838302 -3.455204 0 255 255
0.840405 1.838633 -3.455573 0 255 255
0.838199 1.837975 -3.455114 0 255 255
0.839302 1.838304 -3.455343 0 255 255
0.840405 1.838633 -3.455573 0 255 255
0.837077 1.837963 -3.455547 0 255 0
0.838741 1.838298 -3.455560 0 255 0
0.840405 1.838633 -3.455573 0 255 0
0.839356 1.837971 -3.454835 0 255 255
0.840537 1.838339 -3.455045 0 255 255
0.841718 1.838706 -3.455255 0 255 255
0.838199 1.837975 -3.455114 255 255 0
0.839959 1.838341 -3.455184 255 255 0
0.841718 1.838706 -3.455255 255 255 0
0.841572 1.837953 -3.453885 0 255 0
0.841645 1.838329 -3.454570 0 255 0
0.841718 1.838706 -3.455255 0 255 0
0.840479 1.837966 -3.454414 255 255 0
0.841098 1.838336 -3.454834 255 255 0
0.841718 1.838706 -3.455255 255 255 0
0.841572 1.837953 -3.453885 0 0 255
0.842616 1.838373 -3.454146 0 0 255
0.843660 1.838794 -3.454406 0 0 255
0.840479 1.837966 -3.454414 0 0 255
0.842069 1.838380 -3.454410 0 0 255
0.843660 1.838794 -3.454406 0 0 255
0.839356 1.837971 -3.454835 0 255 0
0.841508 1.838382 -3.454621 0 255 0
0.843660 1.838794 -3.454406 0 255 0
0.842453 1.837982 -3.452458 0 0 255
0.844214 1.838488 -3.453019 0 0 255
0.845975 1.838995 -3.453579 0 0 255
0.844631 1.837932 -3.451397 0 255 255
0.844798 1.837952 -3.451735 0 255 255
0.844964 1.837972 -3.452072 0 255 255
0.843513 1.837964 -3.451807 0 0 255
0.844238 1.837968 -3.451939 0 0 255
0.844964 1.837972 -3.452072 0 0 255
0.845694 1.837909 -3.450749 0 255 255
0.845826 1.837861 -3.450963 0 255 255
0.845958 1.837813 -3.451177 0 255 255
0.846867 1.837861 -3.450560 0 255 0
0.846412 1.837837 -3.450868 0 255 0
0.845958 1.837813 -3.451177 0 255 0
0.848043 1.837824 -3.450364 0 255 255
0.848033 1.837860 -3.450368 0 255 255
0.848023 1.837896 -3.450373 0 255 255
0.846867 1.837861 -3.450560 0 0 255
0.847445 1.837879 -3.450466 0 0 255
0.848023 1.837896 -3.450373 0 0 255
0.859147 1.838034 -3.445606 0 0 255
0.858974 1.837798 -3.445563 0 0 255
0.858800 1.837563 -3.445521 0 0 255
0.860351 1.837987 -3.445567 0 255 0
0.859575 1.837775 -3.445544 0 255 0
0.858800 1.837563 -3.445521 0 255 0
0.856298 1.837860 -3.449024 0 0 255
0.855119 1.837728 -3.448123 0 0 255
0.853941 1.837597 -3.447222 0 0 255
0.855088 1.837851 -3.449073 0 255 0
0.854514 1.837724 -3.448147 0 255 0
0.853941 1.837597 -3.447222 0 255 0
0.853887 1.837838 -3.449151 0 255 0
0.853914 1.837717 -3.448186 0 255 0
0.853941 1.837597 -3.447222 0 255 0
0.852989 1.837748 -3.450518 0 0 255
0.852681 1.837717 -3.449913 0 0 255
0.852373 1.837686 -3.449309 0 0 255
0.851755 1.837749 -3.450477 255 255 0
0.851344 1.837762 -3.449961 255 255 0
0.850933 1.837775 -3.449445 255 255 0
0.852989 1.837748 -3.450518 0 0 255
0.851961 1.837761 -3.449982 0 0 255
0.850933 1.837775 -3.449445 0 0 255
0.850516 1.837760 -3.450437 0 255 0
0.850725 1.837767 -3.449941 0 255 0
0.850933 1.837775 -3.449445 0 255 0
0.848043 1.837824 -3.450364 0 0 255
0.848236 1.837836 -3.450289 0 0 255
0.848428 1.837849 -3.450214 0 0 255
0.846867 1.837861 -3.450560 0 255 0
0.847648 1.837855 -3.450387 0 255 0
0.848428 1.837849 -3.450214 0 255 0
0.846867 1.837861 -3.450560 0 255 255
0.846825 1.837885 -3.450326 0 255 255
0.846782 1.837908 -3.450091 0 255 255
0.848043 1.837824 -3.450364 0 0 255
0.847413 1.837866 -3.450227 0 0 255
0.846782 1.837908 -3.450091 0 0 255
0.845694 1.837909 -3.450749 0 0 255
0.846238 1.837908 -3.450420 0 0 255
0.846782 1.837908 -3.450091 0 0 255
0.845694 1.837909 -3.450749 0 255 255
0.845707 1.837913 -3.450737 0 255 255
0.845719 1.837918 -3.450726 0 255 255
0.844631 1.837932 -3.451397 0 0 255
0.845175 1.837925 -3.451061 0 0 255
0.845719 1.837918 -3.450726 0 0 255
0.846867 1.837861 -3.450560 255 255 0
0.846293 1.837889 -3.450643 255 255 0
0.845719 1.837918 -3.450726 255 255 0
0.846867 1.837861 -3.450560 0 255 0
0.846107 1.837867 -3.451407 0 255 0
0.845348 1.837873 -3.452253 0 255 0
0.844631 1.837932 -3.451397 0 255 255
0.844990 1.837903 -3.451825 0 255 255
0.845348 1.837873 -3.452253 0 255 255
0.843513 1.837964 -3.451807 0 255 0
0.844430 1.837919 -3.452030 0 255 0
0.845348 1.837873 -3.452253 0 255 0
0.845694 1.837909 -3.450749 0 255 0
0.845521 1.837891 -3.451501 0 255 0
0.845348 1.837873 -3.452253 0 255 0
0.844631 1.837932 -3.451397 255 255 0
0.844391 1.837922 -3.452045 255 255 0
0.844150 1.837913 -3.452692 255 255 0
0.843513 1.837964 -3.451807 0 255 255
0.843831 1.837938 -3.452249 0 255 255
0.844150 1.837913 -3.452692 0 255 255
0.842453 1.837982 -3.452458 0 0 255
0.843301 1.837947 -3.452575 0 0 255
0.844150 1.837913 -3.452692 0 0 255
0.842453 1.837982 -3.452458 0 255 255
0.842787 1.837967 -3.452903 0 255 255
0.843121 1.837952 -3.453348 0 255 255
0.841572 1.837953 -3.453885 0 255 0
0.842347 1.837952 -3.453617 0 255 0
0.843121 1.837952 -3.453348 0 255 0
0.843513 1.837964 -3.451807 0 0 255
0.843317 1.837958 -3.452577 0 0 255
0.843121 1.837952 -3.453348 0 0 255
0.842453 1.837982 -3.452458 0 255 0
0.842199 1.838001 -3.453132 0 255 0
0.841946 1.838020 -3.453805 0 255 0
0.841572 1.837953 -3.453885 0 255 255
0.841759 1.837986 -3.453845 0 255 255
0.841946 1.838020 -3.453805 0 255 255
0.840479 1.837966 -3.454414 255 255 0
0.841212 1.837993 -3.454110 255 255 0
0.841946 1.838020 -3.453805 255 255 0
0.841572 1.837953 -3.453885 0 255 255
0.841252 1.838018 -3.454181 0 255 255
0.840931 1.838083 -3.454477 0 255 255
0.840479 1.837966 -3.454414 0 255 255
0.840705 1.838025 -3.454445 0 255 255
0.840931 1.838083 -3.454477 0 255 255
0.839356 1.837971 -3.454835 255 255 0
0.840144 1.838027 -3.454656 255 255 0
0.840931 1.838083 -3.454477 255 255 0
0.838199 1.837975 -3.455114 0 255 0
0.839565 1.838029 -3.454795 0 255 0
0.840931 1.838083 -3.454477 0 255 0
0.837077 1.837963 -3.455547 0 255 0
0.839004 1.838023 -3.455012 0 255 0
0.840931 1.838083 -3.454477 0 255 0
0.839356 1.837971 -3.454835 0 255 255
0.839621 1.838059 -3.454973 0 255 255
0.839887 1.838146 -3.455110 0 255 255
0.838199 1.837975 -3.455114 0 255 255
0.839043 1.838061 -3.455112 0 255 255
0.839887 1.838146 -3.455110 0 255 255
0.840479 1.837966 -3.454414 0 255 255
0.840183 1.838056 -3.454762 0 255 255
0.839887 1.838146 -3.455110 0 255 255
0.841572 1.837953 -3.453885 255 255 0
0.840730 1.838049 -3.454497 255 255 0
0.839887 1.838146 -3.455110 255 255 0
0.837077 1.837963 -3.455547 0 255 0
0.838482 1.838055 -3.455328 0 255 0
0.839887 1.838146 -3.455110 0 255 0
0.834857 1.837935 -3.456535 0 255 0
0.837372 1.838040 -3.455822 0 255 0
0.839887 1.838146 -3.455110 0 255 0
0.839356 1.837971 -3.454835 0 255 255
0.839039 1.838084 -3.455214 0 255 255
0.838723 1.838197 -3.455592 0 255 255
0.838199 1.837975 -3.455114 0 255 255
0.838461 1.838086 -3.455353 0 255 255
0.838723 1.838197 -3.455592 0 255 255
0.837077 1.837963 -3.455547 255 255 0
0.837900 1.838080 -3.455570 255 255 0
0.838723 1.838197 -3.455592 255 255 0
0.835984 1.837943 -3.456120 0 0 255
0.837354 1.838070 -3.455856 0 0 255
0.838723 1.838197 -3.455592 0 0 255
0.834857 1.837935 -3.456535 0 255 0
0.836790 1.838066 -3.456063 0 255 0
0.838723 1.838197 -3.455592 0 255 0
0.833721 1.837929 -3.456898 0 255 0
0.836222 1.838063 -3.456245 0 255 0
0.838723 1.838197 -3.455592 0 255 0
0.832676 1.837906 -3.457646 0 255 0
0.835699 1.838052 -3.456619 0 255 0
0.838723 1.838197 -3.455592 0 255 0
0.839356 1.837971 -3.454835 255 255 0
0.838496 1.838088 -3.455508 255 255 0
0.837637 1.838205 -3.456180 255 255 0
0.838199 1.837975 -3.455114 0 255 255
0.837918 1.838090 -3.455647 0 255 255
0.837637 1.838205 -3.456180 0 255 255
0.837077 1.837963 -3.455547 0 255 255
0.837357 1.838084 -3.455863 0 255 255
0.837637 1.838205 -3.456180 0 255 255
0.835984 1.837943 -3.456120 255 255 0
0.836811 1.838074 -3.456150 255 255 0
0.837637 1.838205 -3.456180 255 255 0
0.834857 1.837935 -3.456535 0 255 0
0.836247 1.838070 -3.456357 0 255 0
0.837637 1.838205 -3.456180 0 255 0
0.833721 1.837929 -3.456898 0 255 0
0.835679 1.838067 -3.456539 0 255 0
0.837637 1.838205 -3.456180 0 255 0
0.832676 1.837906 -3.457646 0 255 0
0.835156 1.838055 -3.456913 0 255 0
0.837637 1.838205 -3.456180 0 255 0
0.839356 1.837971 -3.454835 255 255 0
0.837901 1.838078 -3.455734 255 255 0
0.836446 1.838184 -3.456633 255 255 0
0.838199 1.837975 -3.455114 0 255 255
0.837323 1.838080 -3.455874 0 255 255
0.836446 1.838184 -3.456633 0 255 255
0.837077 1.837963 -3.455547 0 255 255
0.836761 1.838074 -3.456090 0 255 255
0.836446 1.838184 -3.456633 0 255 255
0.835984 1.837943 -3.456120 0 255 255
0.836215 1.838064 -3.456377 0 255 255
0.836446 1.838184 -3.456633 0 255 255
0.834857 1.837935 -3.456535 0 255 255
0.835652 1.838060 -3.456584 0 255 255
0.836446 1.838184 -3.456633 0 255 255
0.833721 1.837929 -3.456898 0 255 255
0.835083 1.838057 -3.456766 0 255 255
0.836446 1.838184 -3.456633 0 255 255
0.832676 1.837906 -3.457646 0 0 255
0.834561 1.838045 -3.457140 0 0 255
0.836446 1.838184 -3.456633 0 0 255
0.831644 1.837891 -3.458420 0 0 255
0.834045 1.838037 -3.457527 0 0 255
0.836446 1.838184 -3.456633 0 0 255
0.837077 1.837963 -3.455547 0 255 255
0.836239 1.838048 -3.456414 0 255 255
0.835401 1.838132 -3.457282 0 255 255
0.835984 1.837943 -3.456120 0 255 255
0.835693 1.838037 -3.456701 0 255 255
0.835401 1.838132 -3.457282 0 255 255
0.834857 1.837935 -3.456535 0 255 255
0.835129 1.838033 -3.456908 0 255 255
0.835401 1.838132 -3.457282 0 255 255
0.833721 1.837929 -3.456898 0 255 255
0.834561 1.838030 -3.457090 0 255 255
0.835401 1.838132 -3.457282 0 255 255
0.832676 1.837906 -3.457646 0 0 255
0.834038 1.838019 -3.457464 0 0 255
0.835401 1.838132 -3.457282 0 0 255
0.831644 1.837891 -3.458420 0 255 0
0.833523 1.838011 -3.457851 0 255 0
0.835401 1.838132 -3.457282 0 255 0
0.839356 1.837971 -3.454835 0 255 0
0.837378 1.838051 -3.456059 0 255 0
0.835401 1.838132 -3.457282 0 255 0
0.838199 1.837975 -3.455114 0 255 0
0.836800 1.838054 -3.456198 0 255 0
0.835401 1.838132 -3.457282 0 255 0
0.837077 1.837963 -3.455547 0 255 0
0.835641 1.838037 -3.456641 0 255 0
0.834205 1.838111 -3.457736 0 255 0
0.835984 1.837943 -3.456120 0 255 0
0.835095 1.838027 -3.456928 0 255 0
0.834205 1.838111 -3.457736 0 255 0
0.834857 1.837935 -3.456535 0 0 255
0.834531 1.838023 -3.457135 0 0 255
0.834205 1.838111 -3.457736 0 0 255
0.833721 1.837929 -3.456898 0 255 255
0.833963 1.838020 -3.457317 0 255 255
0.834205 1.838111 -3.457736 0 255 255
0.832676 1.837906 -3.457646 0 255 255
0.833440 1.838008 -3.457691 0 255 255
0.834205 1.838111 -3.457736 0 255 255
0.831644 1.837891 -3.458420 0 255 0
0.832924 1.838001 -3.458078 0 255 0
0.834205 1.838111 -3.457736 0 255 0
0.837077 1.837963 -3.455547 0 255 0
0.835004 1.838046 -3.456820 0 255 0
0.832932 1.838129 -3.458093 0 255 0
0.835984 1.837943 -3.456120 0 255 0
0.834458 1.838036 -3.457106 0 255 0
0.832932 1.838129 -3.458093 0 255 0
0.834857 1.837935 -3.456535 0 255 0
0.833894 1.838032 -3.457314 0 255 0
0.832932 1.838129 -3.458093 0 255 0
0.833721 1.837929 -3.456898 0 255 255
0.833326 1.838029 -3.457496 0 255 255
0.832932 1.838129 -3.458093 0 255 255
0.832676 1.837906 -3.457646 0 255 255
0.832804 1.838017 -3.457870 0 255 255
0.832932 1.838129 -3.458093 0 255 255
0.831644 1.837891 -3.458420 0 255 255
0.832288 1.838010 -3.458257 0 255 255
0.832932 1.838129 -3.458093 0 255 255
0.834857 1.837935 -3.456535 0 255 0
0.833306 1.838055 -3.457552 0 255 0
0.831754 1.838176 -3.458570 0 255 0
0.833721 1.837929 -3.456898 255 255 0
0.832737 1.838052 -3.457734 255 255 0
0.831754 1.838176 -3.458570 255 255 0
0.832676 1.837906 -3.457646 0 255 255
0.832215 1.838041 -3.458108 0 255 255
0.831754 1.838176 -3.458570 0 255 255
0.835984 1.837943 -3.456120 0 255 0
0.833869 1.838059 -3.457345 0 255 0
0.831754 1.838176 -3.458570 0 255 0
0.831644 1.837891 -3.458420 0 255 255
0.831699 1.838033 -3.458495 0 255 255
0.831754 1.838176 -3.458570 0 255 255
0.831644 1.837891 -3.458420 0 255 255
0.831219 1.838061 -3.458874 0 255 255
0.830794 1.838231 -3.459329 0 255 255
0.831644 1.837891 -3.458420 0 255 0
0.830747 1.838093 -3.459259 0 255 0
0.829851 1.838295 -3.460097 0 255 0
0.864140 1.837738 -3.446163 0 0 255
0.864830 1.837556 -3.444698 0 0 255
0.865520 1.837374 -3.443232 0 0 255
0.862717 1.837857 -3.445300 0 255 0
0.863657 1.837668 -3.444501 0 255 0
0.864597 1.837479 -3.443702 0 255 0
0.864140 1.837738 -3.446163 0 255 0
0.864368 1.837609 -3.444933 0 255 0
0.864597 1.837479 -3.443702 0 255 0
0.858543 1.837902 -3.448203 0 255 0
0.861570 1.837691 -3.445953 0 255 0
0.864597 1.837479 -3.443702 0 255 0
0.862717 1.837857 -3.445300 0 0 255
0.863194 1.837722 -3.444743 0 0 255
0.863670 1.837586 -3.444186 0 0 255
0.862717 1.837857 -3.445300 255 255 0
0.862735 1.837779 -3.445001 255 255 0
0.862753 1.837700 -3.444702 255 255 0
0.861302 1.837982 -3.444451 0 255 0
0.862027 1.837841 -3.444576 0 255 0
0.862753 1.837700 -3.444702 0 255 0
0.862717 1.837857 -3.445300 0 0 255
0.862284 1.837837 -3.445272 0 0 255
0.861852 1.837817 -3.445243 0 0 255
0.861302 1.837982 -3.444451 0 0 255
0.861577 1.837899 -3.444847 0 0 255
0.861852 1.837817 -3.445243 0 0 255
0.860351 1.837987 -3.445567 0 255 0
0.861101 1.837902 -3.445405 0 255 0
0.861852 1.837817 -3.445243 0 255 0
0.860351 1.837987 -3.445567 255 255 0
0.860564 1.837820 -3.445267 255 255 0
0.860778 1.837654 -3.444968 255 255 0
0.860351 1.837987 -3.445567 0 255 255
0.860110 1.837858 -3.445494 0 255 255
0.859869 1.837728 -3.445421 0 255 255
0.859147 1.838034 -3.445606 0 255 0
0.859508 1.837881 -3.445513 0 255 0
0.859869 1.837728 -3.445421 0 255 0
0.858543 1.837902 -3.448203 0 255 0
0.859206 1.837815 -3.446812 0 255 0
0.859869 1.837728 -3.445421 0 255 0
0.857345 1.837903 -3.448292 0 255 0
0.858160 1.837860 -3.447125 0 255 0
0.858976 1.837817 -3.445958 0 255 0
0.856298 1.837860 -3.449024 0 255 0
0.857637 1.837838 -3.447491 0 255 0
0.858976 1.837817 -3.445958 0 255 0
0.859147 1.838034 -3.445606 0 255 255
0.859062 1.837925 -3.445782 0 255 255
0.858976 1.837817 -3.445958 0 255 255
0.858543 1.837902 -3.448203 255 255 0
0.858760 1.837860 -3.447080 255 255 0
0.858976 1.837817 -3.445958 255 255 0
0.860351 1.837987 -3.445567 0 255 255
0.859664 1.837902 -3.445762 0 255 255
0.858976 1.837817 -3.445958 0 255 255
0.861302 1.837982 -3.444451 0 255 0
0.860139 1.837899 -3.445204 0 255 0
0.858976 1.837817 -3.445958 0 255 0
0.858543 1.837902 -3.448203 0 255 0
0.858305 1.837890 -3.447328 0 255 0
0.858068 1.837878 -3.446453 0 255 0
0.857345 1.837903 -3.448292 0 255 0
0.857706 1.837891 -3.447373 0 255 0
0.858068 1.837878 -3.446453 0 255 0
0.856298 1.837860 -3.449024 255 255 0
0.856604 1.837765 -3.447557 255 255 0
0.856910 1.837671 -3.446090 255 255 0
0.858543 1.837902 -3.448203 0 0 255
0.857726 1.837787 -3.447146 0 0 255
0.856910 1.837671 -3.446090 0 0 255
0.856298 1.837860 -3.449024 255 255 0
0.856142 1.837792 -3.447772 255 255 0
0.855985 1.837724 -3.446521 255 255 0
0.858543 1.837902 -3.448203 0 255 0
0.857264 1.837813 -3.447362 0 255 0
0.855985 1.837724 -3.446521 0 255 0
0.856298 1.837860 -3.449024 0 255 0
0.855678 1.837822 -3.447985 0 255 0
0.855057 1.837784 -3.446945 0 255 0
0.856298 1.837860 -3.449024 255 255 0
0.855210 1.837854 -3.448197 255 255 0
0.854123 1.837849 -3.447370 255 255 0
0.855088 1.837851 -3.449073 0 0 255
0.854605 1.837850 -3.448222 0 0 255
0.854123 1.837849 -3.447370 0 0 255
0.853887 1.837838 -3.449151 0 0 255
0.854005 1.837843 -3.448261 0 0 255
0.854123 1.837849 -3.447370 0 0 255
0.855088 1.837851 -3.449073 0 255 0
0.854142 1.837884 -3.448457 0 255 0
0.853196 1.837917 -3.447840 0 255 0
0.853887 1.837838 -3.449151 0 0 255
0.853542 1.837878 -3.448496 0 0 255
0.853196 1.837917 -3.447840 0 0 255
0.853887 1.837838 -3.449151 0 255 0
0.853049 1.837864 -3.448601 0 255 0
0.852211 1.837889 -3.448052 0 255 0
0.852989 1.837748 -3.450518 0 255 0
0.852600 1.837818 -3.449285 0 255 0
0.852211 1.837889 -3.448052 0 255 0
0.853887 1.837838 -3.449151 0 255 0
0.852564 1.837857 -3.448733 0 255 0
0.851240 1.837875 -3.448316 0 255 0
0.849278 1.837785 -3.450400 0 255 0
0.849296 1.837831 -3.449653 0 255 0
0.849315 1.837877 -3.448907 0 255 0
0.849278 1.837785 -3.450400 0 255 0
0.848817 1.837841 -3.449815 0 255 0
0.848355 1.837898 -3.449230 0 255 0
0.848043 1.837824 -3.450364 0 0 255
0.847704 1.837849 -3.449886 0 0 255
0.847365 1.837873 -3.449409 0 0 255
0.846867 1.837861 -3.450560 0 255 0
0.847116 1.837867 -3.449984 0 255 0
0.847365 1.837873 -3.449409 0 255 0
0.848043 1.837824 -3.450364 0 255 0
0.847229 1.837864 -3.450060 0 255 0
0.846415 1.837905 -3.449756 0 255 0
0.846867 1.837861 -3.450560 255 255 0
0.846641 1.837883 -3.450158 255 255 0
0.846415 1.837905 -3.449756 255 255 0
0.845694 1.837909 -3.450749 255 255 0
0.846055 1.837907 -3.450253 255 255 0
0.846415 1.837905 -3.449756 255 255 0
0.845694 1.837909 -3.450749 0 255 255
0.845589 1.837925 -3.450462 0 255 255
0.845485 1.837941 -3.450174 0 255 255
0.846867 1.837861 -3.450560 255 255 0
0.846176 1.837901 -3.450367 255 255 0
0.845485 1.837941 -3.450174 255 255 0
0.844631 1.837932 -3.451397 0 255 255
0.844604 1.837954 -3.451032 0 255 255
0.844576 1.837976 -3.450667 0 255 255
0.843513 1.837964 -3.451807 0 255 0
0.844044 1.837970 -3.451237 0 255 0
0.844576 1.837976 -3.450667 0 255 0
0.845694 1.837909 -3.450749 0 255 0
0.845135 1.837942 -3.450708 0 255 0
0.844576 1.837976 -3.450667 0 255 0
0.844631 1.837932 -3.451397 255 255 0
0.844162 1.837967 -3.451320 255 255 0
0.843692 1.838001 -3.451242 255 255 0
0.843513 1.837964 -3.451807 0 0 255
0.843602 1.837983 -3.451525 0 0 255
0.843692 1.838001 -3.451242 0 0 255
0.843513 1.837964 -3.451807 255 255 0
0.843176 1.837992 -3.451862 255 255 0
0.842840 1.838021 -3.451918 255 255 0
0.838199 1.837975 -3.455114 0 255 0
0.838333 1.837950 -3.455391 0 255 0
0.838467 1.837925 -3.455669 0 255 0
0.837077 1.837963 -3.455547 0 255 255
0.837335 1.837984 -3.455978 0 255 255
0.837593 1.838005 -3.456409 0 255 255
0.835984 1.837943 -3.456120 0 255 255
0.836789 1.837974 -3.456264 0 255 255
0.837593 1.838005 -3.456409 0 255 255
0.838199 1.837975 -3.455114 255 255 0
0.837896 1.837990 -3.455761 255 255 0
0.837593 1.838005 -3.456409 255 255 0
0.837077 1.837963 -3.455547 255 255 0
0.836893 1.838020 -3.456323 255 255 0
0.836709 1.838076 -3.457099 255 255 0
0.835984 1.837943 -3.456120 0 0 255
0.836346 1.838010 -3.456609 0 0 255
0.836709 1.838076 -3.457099 0 0 255
0.834857 1.837935 -3.456535 0 255 0
0.835783 1.838005 -3.456817 0 255 0
0.836709 1.838076 -3.457099 0 255 0
0.833721 1.837929 -3.456898 0 255 0
0.835215 1.838002 -3.456998 0 255 0
0.836709 1.838076 -3.457099 0 255 0
0.837077 1.837963 -3.455547 0 0 255
0.836445 1.838048 -3.456660 0 0 255
0.835814 1.838133 -3.457773 0 0 255
0.835984 1.837943 -3.456120 0 0 255
0.835899 1.838038 -3.456946 0 0 255
0.835814 1.838133 -3.457773 0 0 255
0.834857 1.837935 -3.456535 255 255 0
0.835336 1.838034 -3.457154 255 255 0
0.835814 1.838133 -3.457773 255 255 0
0.833721 1.837929 -3.456898 0 255 0
0.834767 1.838031 -3.457335 0 255 0
0.835814 1.838133 -3.457773 0 255 0
0.837077 1.837963 -3.455547 0 255 0
0.836006 1.838093 -3.456999 0 255 0
0.834936 1.838222 -3.458452 0 255 0
0.834857 1.837935 -3.456535 0 255 0
0.834896 1.838078 -3.457493 0 255 0
0.834936 1.838222 -3.458452 0 255 0
0.833721 1.837929 -3.456898 0 0 255
0.834328 1.838075 -3.457675 0 0 255
0.834936 1.838222 -3.458452 0 0 255
0.832676 1.837906 -3.457646 0 255 0
0.833806 1.838064 -3.458049 0 255 0
0.834936 1.838222 -3.458452 0 255 0
0.837077 1.837963 -3.455547 0 0 255
0.835567 1.838148 -3.457349 0 0 255
0.834057 1.838332 -3.459151 0 0 255
0.834857 1.837935 -3.456535 0 255 0
0.834457 1.838133 -3.457843 0 255 0
0.834057 1.838332 -3.459151 0 255 0
0.832676 1.837906 -3.457646 255 255 0
0.833367 1.838119 -3.458398 255 255 0
0.834057 1.838332 -3.459151 255 255 0
0.833721 1.837929 -3.456898 0 255 255
0.833277 1.837922 -3.457587 0 255 255
0.832834 1.837915 -3.458276 0 255 255
0.832676 1.837906 -3.457646 0 255 255
0.832755 1.837911 -3.457961 0 255 255
0.832834 1.837915 -3.458276 0 255 255
0.831644 1.837891 -3.458420 255 255 0
0.832239 1.837903 -3.458348 255 255 0
0.832834 1.837915 -3.458276 255 255 0
0.833721 1.837929 -3.456898 0 0 255
0.832842 1.837987 -3.457950 0 0 255
0.831964 1.838046 -3.459002 0 0 255
0.832676 1.837906 -3.457646 255 255 0
0.832320 1.837976 -3.458324 255 255 0
0.831964 1.838046 -3.459002 255 255 0
0.831644 1.837891 -3.458420 0 255 255
0.831804 1.837968 -3.458711 0 255 255
0.831964 1.838046 -3.459002 0 255 255
0.831644 1.837891 -3.458420 0 255 0
0.831372 1.838041 -3.459084 0 255 0
0.831100 1.838191 -3.459749 0 255 0
0.831644 1.837891 -3.458420 0 255 0
0.830938 1.838117 -3.459452 0 255 0
0.830232 1.838344 -3.460484 0 255 0
0.862717 1.837857 -3.445300 0 255 0
0.862132 1.837831 -3.444841 0 255 0
0.861547 1.837805 -3.444382 0 255 0
0.861302 1.837982 -3.444451 0 255 255
0.861424 1.837894 -3.444416 0 255 255
0.861547 1.837805 -3.444382 0 255 255
0.860351 1.837987 -3.445567 0 255 0
0.860949 1.837896 -3.444974 0 255 0
0.861547 1.837805 -3.444382 0 255 0
0.860351 1.837987 -3.445567 0 0 255
0.860414 1.837880 -3.444961 0 0 255
0.860477 1.837772 -3.444355 0 0 255
0.859147 1.838034 -3.445606 0 255 0
0.859812 1.837903 -3.444980 0 255 0
0.860477 1.837772 -3.444355 0 255 0
0.861302 1.837982 -3.444451 0 0 255
0.860889 1.837877 -3.444403 0 0 255
0.860477 1.837772 -3.444355 0 0 255
0.860351 1.837987 -3.445567 0 255 255
0.860191 1.838102 -3.445612 0 255 255
0.860031 1.838217 -3.445656 0 255 255
0.859147 1.838034 -3.445606 0 0 255
0.859589 1.838125 -3.445631 0 0 255
0.860031 1.838217 -3.445656 0 0 255
0.861302 1.837982 -3.444451 0 255 0
0.860666 1.838099 -3.445053 0 255 0
0.860031 1.838217 -3.445656 0 255 0
0.859147 1.838034 -3.445606 0 255 255
0.859065 1.838093 -3.445629 0 255 255
0.858983 1.838152 -3.445651 0 255 255
0.858543 1.837902 -3.448203 0 0 255
0.858763 1.838027 -3.446927 0 0 255
0.858983 1.838152 -3.445651 0 0 255
0.860351 1.837987 -3.445567 0 0 255
0.859667 1.838069 -3.445609 0 0 255
0.858983 1.838152 -3.445651 0 0 255
0.858543 1.837902 -3.448203 0 255 255
0.858247 1.837974 -3.446943 0 255 255
0.857951 1.838046 -3.445682 0 255 255
0.855088 1.837851 -3.449073 0 255 0
0.856519 1.837949 -3.447377 0 255 0
0.857951 1.838046 -3.445682 0 255 0
0.860351 1.837987 -3.445567 0 255 0
0.859151 1.838017 -3.445625 0 255 0
0.857951 1.838046 -3.445682 0 255 0
0.859147 1.838034 -3.445606 0 255 0
0.858549 1.838040 -3.445644 0 255 0
0.857951 1.838046 -3.445682 0 255 0
0.858543 1.837902 -3.448203 0 255 0
0.857762 1.837900 -3.447024 0 255 0
0.856982 1.837897 -3.445846 0 255 0
0.857345 1.837903 -3.448292 0 0 255
0.857163 1.837900 -3.447069 0 0 255
0.856982 1.837897 -3.445846 0 0 255
0.857345 1.837903 -3.448292 0 255 0
0.857043 1.838059 -3.447798 0 255 0
0.856741 1.838216 -3.447304 0 255 0
0.856298 1.837860 -3.449024 0 0 255
0.856520 1.838038 -3.448164 0 0 255
0.856741 1.838216 -3.447304 0 0 255
0.858543 1.837902 -3.448203 0 255 0
0.857642 1.838059 -3.447754 0 255 0
0.856741 1.838216 -3.447304 0 255 0
0.856298 1.837860 -3.449024 0 255 255
0.856035 1.837958 -3.448235 0 255 255
0.855772 1.838057 -3.447445 0 255 255
0.855088 1.837851 -3.449073 0 255 0
0.855430 1.837954 -3.448259 0 255 0
0.855772 1.838057 -3.447445 0 255 0
0.853887 1.837838 -3.449151 0 255 0
0.854830 1.837948 -3.448298 0 255 0
0.855772 1.838057 -3.447445 0 255 0
0.858543 1.837902 -3.448203 0 255 0
0.857157 1.837980 -3.447824 0 255 0
0.855772 1.838057 -3.447445 0 255 0
0.855088 1.837851 -3.449073 0 255 255
0.854924 1.837884 -3.448304 0 255 255
0.854759 1.837917 -3.447535 0 255 255
0.857345 1.837903 -3.448292 0 255 0
0.856052 1.837910 -3.447914 0 255 0
0.854759 1.837917 -3.447535 0 255 0
0.856298 1.837860 -3.449024 0 0 255
0.855529 1.837888 -3.448279 0 0 255
0.854759 1.837917 -3.447535 0 0 255
0.853887 1.837838 -3.449151 255 255 0
0.854323 1.837877 -3.448343 255 255 0
0.854759 1.837917 -3.447535 255 255 0
0.855088 1.837851 -3.449073 0 255 255
0.854387 1.837838 -3.448389 0 255 255
0.853687 1.837826 -3.447706 0 255 255
0.856298 1.837860 -3.449024 0 255 0
0.854992 1.837843 -3.448365 0 255 0
0.853687 1.837826 -3.447706 0 255 0
0.853887 1.837838 -3.449151 255 255 0
0.853787 1.837832 -3.448428 255 255 0
0.853687 1.837826 -3.447706 255 255 0
0.853887 1.837838 -3.449151 0 255 0
0.853245 1.837777 -3.448406 0 255 0
0.852603 1.837715 -3.447660 0 255 0
0.852989 1.837748 -3.450518 0 255 0
0.852796 1.837732 -3.449089 0 255 0
0.852603 1.837715 -3.447660 0 255 0
0.853887 1.837838 -3.449151 0 255 0
0.853059 1.837967 -3.448995 0 255 0
0.852230 1.838096 -3.448839 0 255 0
0.852989 1.837748 -3.450518 0 255 0
0.852609 1.837922 -3.449678 0 255 0
0.852230 1.838096 -3.448839 0 255 0
0.841572 1.837953 -3.453885 0 0 255
0.840972 1.837968 -3.454129 0 0 255
0.840371 1.837983 -3.454372 0 0 255
0.840479 1.837966 -3.454414 0 255 255
0.840425 1.837975 -3.454393 0 255 255
0.840371 1.837983 -3.454372 0 255 255
0.839356 1.837971 -3.454835 255 255 0
0.839863 1.837977 -3.454604 255 255 0
0.840371 1.837983 -3.454372 255 255 0
0.839356 1.837971 -3.454835 0 255 255
0.839447 1.837994 -3.454800 0 255 255
0.839539 1.838017 -3.454764 0 255 255
0.838199 1.837975 -3.455114 0 255 255
0.838869 1.837996 -3.454939 0 255 255
0.839539 1.838017 -3.454764 0 255 255
0.841572 1.837953 -3.453885 0 255 0
0.840556 1.837985 -3.454325 0 255 0
0.839539 1.838017 -3.454764 0 255 0
0.840479 1.837966 -3.454414 0 255 255
0.840009 1.837992 -3.454589 0 255 255
0.839539 1.838017 -3.454764 0 255 255
0.837077 1.837963 -3.455547 0 255 0
0.838308 1.837990 -3.455155 0 255 0
0.839539 1.838017 -3.454764 0 255 0
0.841572 1.837953 -3.453885 0 255 0
0.840121 1.837989 -3.454487 0 255 0
0.838669 1.838026 -3.455089 0 255 0
0.840479 1.837966 -3.454414 0 0 255
0.839574 1.837996 -3.454751 0 0 255
0.838669 1.838026 -3.455089 0 0 255
0.839356 1.837971 -3.454835 0 255 255
0.839012 1.837999 -3.454962 0 255 255
0.838669 1.838026 -3.455089 0 255 255
0.838199 1.837975 -3.455114 0 255 255
0.838434 1.838001 -3.455101 0 255 255
0.838669 1.838026 -3.455089 0 255 255
0.837077 1.837963 -3.455547 0 0 255
0.837873 1.837995 -3.455318 0 0 255
0.838669 1.838026 -3.455089 0 0 255
0.839356 1.837971 -3.454835 255 255 0
0.838725 1.838118 -3.455389 255 255 0
0.838095 1.838264 -3.455942 255 255 0
0.838199 1.837975 -3.455114 0 255 255
0.838147 1.838120 -3.455528 0 255 255
0.838095 1.838264 -3.455942 0 255 255
0.837077 1.837963 -3.455547 0 255 255
0.837586 1.838114 -3.455744 0 255 255
0.838095 1.838264 -3.455942 0 255 255
0.837077 1.837963 -3.455547 0 255 255
0.837019 1.838036 -3.455693 0 255 255
0.836962 1.838108 -3.455840 0 255 255
0.835984 1.837943 -3.456120 0 0 255
0.836473 1.838026 -3.455980 0 0 255
0.836962 1.838108 -3.455840 0 0 255
0.838199 1.837975 -3.455114 0 0 255
0.837581 1.838042 -3.455477 0 0 255
0.836962 1.838108 -3.455840 0 0 255
0.834857 1.837935 -3.456535 0 255 0
0.835909 1.838021 -3.456187 0 255 0
0.836962 1.838108 -3.455840 0 255 0
0.837077 1.837963 -3.455547 0 255 255
0.836548 1.838027 -3.455814 0 255 255
0.836019 1.838090 -3.456082 0 255 255
0.835984 1.837943 -3.456120 0 255 255
0.836002 1.838017 -3.456101 0 255 255
0.836019 1.838090 -3.456082 0 255 255
0.834857 1.837935 -3.456535 0 255 255
0.835438 1.838012 -3.456308 0 255 255
0.836019 1.838090 -3.456082 0 255 255
0.833721 1.837929 -3.456898 0 0 255
0.834870 1.838009 -3.456490 0 0 255
0.836019 1.838090 -3.456082 0 0 255
0.839356 1.837971 -3.454835 0 255 0
0.837687 1.838031 -3.455459 0 255 0
0.836019 1.838090 -3.456082 0 255 0
0.838199 1.837975 -3.455114 0 255 0
0.837109 1.838033 -3.455598 0 255 0
0.836019 1.838090 -3.456082 0 255 0
0.832676 1.837906 -3.457646 0 255 0
0.834347 1.837998 -3.456864 0 255 0
0.836019 1.838090 -3.456082 0 255 0
0.837077 1.837963 -3.455547 255 255 0
0.836071 1.838014 -3.455928 255 255 0
0.835066 1.838065 -3.456310 255 255 0
0.835984 1.837943 -3.456120 0 255 255
0.835525 1.838004 -3.456215 0 255 255
0.835066 1.838065 -3.456310 0 255 255
0.834857 1.837935 -3.456535 0 255 255
0.834962 1.838000 -3.456422 0 255 255
0.835066 1.838065 -3.456310 0 255 255
0.833721 1.837929 -3.456898 0 255 255
0.834393 1.837997 -3.456604 0 255 255
0.835066 1.838065 -3.456310 0 255 255
0.832676 1.837906 -3.457646 0 0 255
0.833871 1.837986 -3.456978 0 0 255
0.835066 1.838065 -3.456310 0 0 255
0.831644 1.837891 -3.458420 0 255 0
0.833355 1.837978 -3.457365 0 255 0
0.835066 1.838065 -3.456310 0 255 0
0.839356 1.837971 -3.454835 0 255 0
0.837211 1.838018 -3.455573 0 255 0
0.835066 1.838065 -3.456310 0 255 0
0.838199 1.837975 -3.455114 0 255 0
0.836633 1.838020 -3.455712 0 255 0
0.835066 1.838065 -3.456310 0 255 0
0.835984 1.837943 -3.456120 0 0 255
0.834961 1.837926 -3.456167 0 0 255
0.833937 1.837910 -3.456214 0 0 255
0.834857 1.837935 -3.456535 0 255 255
0.834397 1.837922 -3.456374 0 255 255
0.833937 1.837910 -3.456214 0 255 255
0.833721 1.837929 -3.456898 0 255 255
0.833829 1.837919 -3.456556 0 255 255
0.833937 1.837910 -3.456214 0 255 255
0.832676 1.837906 -3.457646 0 0 255
0.833306 1.837908 -3.456930 0 0 255
0.833937 1.837910 -3.456214 0 0 255
0.837077 1.837963 -3.455547 0 255 0
0.835507 1.837936 -3.455880 0 255 0
0.833937 1.837910 -3.456214 0 255 0
0.834857 1.837935 -3.456535 0 255 0
0.834101 1.838034 -3.456793 0 255 0
0.833345 1.838132 -3.457051 0 255 0
0.833721 1.837929 -3.456898 0 255 255
0.833533 1.838031 -3.456975 0 255 255
0.833345 1.838132 -3.457051 0 255 255
0.832676 1.837906 -3.457646 255 255 0
0.833010 1.838019 -3.457349 255 255 0
0.833345 1.838132 -3.457051 255 255 0
0.835984 1.837943 -3.456120 0 255 0
0.834222 1.838033 -3.456742 0 255 0
0.832460 1.838123 -3.457365 0 255 0
0.834857 1.837935 -3.456535 0 0 255
0.833659 1.838029 -3.456950 0 0 255
0.832460 1.838123 -3.457365 0 0 255
0.833721 1.837929 -3.456898 0 255 255
0.833090 1.838026 -3.457132 0 255 255
0.832460 1.838123 -3.457365 0 255 255
0.832676 1.837906 -3.457646 0 255 255
0.832568 1.838014 -3.457506 0 255 255
0.832460 1.838123 -3.457365 0 255 255
0.831644 1.837891 -3.458420 255 255 0
0.832052 1.838007 -3.457893 255 255 0
0.832460 1.838123 -3.457365 255 255 0
0.835984 1.837943 -3.456120 0 255 0
0.833802 1.838034 -3.456940 0 255 0
0.831621 1.838125 -3.457760 0 255 0
0.834857 1.837935 -3.456535 0 255 0
0.833239 1.838030 -3.457147 0 255 0
0.831621 1.838125 -3.457760 0 255 0
0.833721 1.837929 -3.456898 0 255 0
0.832671 1.838027 -3.457329 0 255 0
0.831621 1.838125 -3.457760 0 255 0
0.832676 1.837906 -3.457646 0 255 255
0.832148 1.838015 -3.457703 0 255 255
0.831621 1.838125 -3.457760 0 255 255
0.831644 1.837891 -3.458420 0 255 255
0.831632 1.838008 -3.458090 0 255 255
0.831621 1.838125 -3.457760 0 255 255
0.832676 1.837906 -3.457646 0 255 0
0.831605 1.837917 -3.457684 0 255 0
0.830533 1.837929 -3.457721 0 255 0
0.831644 1.837891 -3.458420 0 0 255
0.831089 1.837910 -3.458071 0 0 255
0.830533 1.837929 -3.457721 0 0 255
0.846867 1.837861 -3.450560 255 255 0
0.846833 1.837819 -3.450228 255 255 0
0.846798 1.837777 -3.449896 255 255 0
0.845694 1.837909 -3.450749 0 255 0
0.846246 1.837843 -3.450323 0 255 0
0.846798 1.837777 -3.449896 0 255 0
0.846867 1.837861 -3.450560 0 255 0
0.848185 1.838576 -3.451478 0 255 0
0.849502 1.839291 -3.452395 0 255 0
0.845694 1.837909 -3.450749 0 255 0
0.847598 1.838600 -3.451572 0 255 0
0.849502 1.839291 -3.452395 0 255 0
0.844631 1.837932 -3.451397 0 255 0
0.846388 1.838579 -3.452040 0 255 0
0.848145 1.839225 -3.452682 0 255 0
0.844631 1.837932 -3.451397 0 255 0
0.845714 1.838547 -3.452187 0 255 0
0.846797 1.839163 -3.452976 0 255 0
0.843513 1.837964 -3.451807 0 255 0
0.845155 1.838563 -3.452391 0 255 0
0.846797 1.839163 -3.452976 0 255 0
0.843513 1.837964 -3.451807 0 255 0
0.844485 1.838533 -3.452543 0 255 0
0.845457 1.839102 -3.453280 0 255 0
0.841572 1.837953 -3.453885 0 255 0
0.842126 1.838479 -3.453973 0 255 0
0.842680 1.839006 -3.454061 0 255 0
0.840479 1.837966 -3.454414 0 255 0
0.841579 1.838486 -3.454237 0 255 0
0.842680 1.839006 -3.454061 0 255 0
0.840479 1.837966 -3.454414 0 255 0
0.841259 1.838564 -3.454591 0 255 0
0.842038 1.839162 -3.454768 0 255 0
0.838199 1.837975 -3.455114 0 255 0
0.840119 1.838569 -3.454941 0 255 0
0.842038 1.839162 -3.454768 0 255 0
0.837077 1.837963 -3.455547 0 255 0
0.839558 1.838563 -3.455158 0 255 0
0.842038 1.839162 -3.454768 0 255 0
0.839356 1.837971 -3.454835 255 255 0
0.840254 1.838597 -3.455089 255 255 0
0.841151 1.839224 -3.455343 255 255 0
0.841572 1.837953 -3.453885 0 255 0
0.841362 1.838588 -3.454614 0 255 0
0.841151 1.839224 -3.455343 0 255 0
0.840479 1.837966 -3.454414 0 0 255
0.840815 1.838595 -3.454878 0 0 255
0.841151 1.839224 -3.455343 0 0 255
0.838199 1.837975 -3.455114 255 255 0
0.839675 1.838600 -3.455228 255 255 0
0.841151 1.839224 -3.455343 255 255 0
0.837077 1.837963 -3.455547 0 255 0
0.839114 1.838594 -3.455445 0 255 0
0.841151 1.839224 -3.455343 0 255 0
0.834857 1.837935 -3.456535 0 255 0
0.838004 1.838579 -3.455939 0 255 0
0.841151 1.839224 -3.455343 0 255 0
0.838199 1.837975 -3.455114 0 255 255
0.838630 1.838402 -3.455183 0 255 255
0.839061 1.838828 -3.455253 0 255 255
0.837077 1.837963 -3.455547 0 255 255
0.838069 1.838396 -3.455400 0 255 255
0.839061 1.838828 -3.455253 0 255 255
0.840479 1.837966 -3.454414 0 255 0
0.839770 1.838397 -3.454833 0 255 0
0.839061 1.838828 -3.455253 0 255 0
0.839356 1.837971 -3.454835 255 255 0
0.839209 1.838400 -3.455044 255 255 0
0.839061 1.838828 -3.455253 255 255 0
0.835984 1.837943 -3.456120 0 0 255
0.837523 1.838386 -3.455686 0 0 255
0.839061 1.838828 -3.455253 0 0 255
0.839356 1.837971 -3.454835 255 255 0
0.838525 1.838395 -3.455307 255 255 0
0.837694 1.838819 -3.455778 255 255 0
0.838199 1.837975 -3.455114 0 255 255
0.837947 1.838397 -3.455446 0 255 255
0.837694 1.838819 -3.455778 0 255 255
0.837077 1.837963 -3.455547 0 255 255
0.837385 1.838391 -3.455662 0 255 255
0.837694 1.838819 -3.455778 0 255 255
0.835984 1.837943 -3.456120 0 255 255
0.836839 1.838381 -3.455949 0 255 255
0.837694 1.838819 -3.455778 0 255 255
0.834857 1.837935 -3.456535 255 255 0
0.836275 1.838377 -3.456156 255 255 0
0.837694 1.838819 -3.455778 255 255 0
0.835984 1.837943 -3.456120 0 255 255
0.836354 1.838407 -3.456210 0 255 255
0.836725 1.838872 -3.456301 0 255 255
0.834857 1.837935 -3.456535 255 255 0
0.835791 1.838403 -3.456418 255 255 0
0.836725 1.838872 -3.456301 255 255 0
0.837077 1.837963 -3.455547 255 255 0
0.836901 1.838417 -3.455924 255 255 0
0.836725 1.838872 -3.456301 255 255 0
0.833721 1.837929 -3.456898 0 0 255
0.835223 1.838400 -3.456599 0 0 255
0.836725 1.838872 -3.456301 0 0 255
0.833721 1.837929 -3.456898 255 255 0
0.834704 1.838397 -3.456844 255 255 0
0.835687 1.838864 -3.456791 255 255 0
0.837077 1.837963 -3.455547 0 255 0
0.836382 1.838414 -3.456169 0 255 0
0.835687 1.838864 -3.456791 0 255 0
0.835984 1.837943 -3.456120 0 255 0
0.835836 1.838404 -3.456455 0 255 0
0.835687 1.838864 -3.456791 0 255 0
0.834857 1.837935 -3.456535 0 0 255
0.835272 1.838399 -3.456663 0 0 255
0.835687 1.838864 -3.456791 0 0 255
0.832676 1.837906 -3.457646 0 255 0
0.834181 1.838385 -3.457218 0 255 0
0.835687 1.838864 -3.456791 0 255 0
0.835984 1.837943 -3.456120 0 255 0
0.835208 1.838347 -3.456641 0 255 0
0.834432 1.838750 -3.457163 0 255 0
0.834857 1.837935 -3.456535 0 0 255
0.834644 1.838342 -3.456849 0 0 255
0.834432 1.838750 -3.457163 0 0 255
0.833721 1.837929 -3.456898 0 255 255
0.834076 1.838340 -3.457031 0 255 255
0.834432 1.838750 -3.457163 0 255 255
0.832676 1.837906 -3.457646 0 255 255
0.833554 1.838328 -3.457405 0 255 255
0.834432 1.838750 -3.457163 0 255 255
0.832676 1.837906 -3.457646 0 255 255
0.832160 1.837974 -3.457165 0 255 255
0.831643 1.838042 -3.456684 0 255 255
0.831644 1.837891 -3.458420 0 0 255
0.831644 1.837966 -3.457552 0 0 255
0.831643 1.838042 -3.456684 0 0 255
0.833721 1.837929 -3.456898 0 255 0
0.832682 1.837986 -3.456791 0 255 0
0.831643 1.838042 -3.456684 0 255 0
0.831644 1.837891 -3.458420 0 0 255
0.831068 1.837939 -3.457757 0 0 255
0.830492 1.837986 -3.457093 0 0 255
3 0 1 2 3 2 3 4 3 4 5 6 3 6 7 8 3 8 9 10 3 10 11 12 3 12 13 14 3 14 15 16 3 16 17 18 3 18 19 20 3 20 21 22 3 22 23 24 3 24 25 26 3 26 27 28 3 28 29 30 3 30 31 32 3 32 33 34 3 34 35 36 3 36 37 38 3 38 39 40 3 40 41 42 3 42 43 44 3 44 45 46 3 46 47 48 3 48 49 50 3 50 51 52 3 52 53 54 3 54 55 56 3 56 57 58 3 59 60 61 3 62 63 64 3 65 66 67 3 68 69 70 3 71 72 73 3 74 75 76 3 77 78 79 3 80 81 82 3 83 84 85 3 86 87 88 3 89 90 91 3 92 93 94 3 95 96 97 3 98 99 100 3 101 102 103 3 104 105 106 3 107 108 109 3 110 111 112 3 113 114 115 3 116 117 118 3 119 120 121 3 122 123 124 3 125 126 127 3 128 129 130 3 131 132 133 3 134 135 136 3 137 138 139 3 140 141 142 3 143 144 145 3 146 147 148 3 149 150 151 3 152 153 154 3 155 156 157 3 158 159 160 3 161 162 163 3 164 165 166 3 167 168 169 3 170 171 172 3 173 174 175 3 176 177 178 3 179 180 181 3 182 183 184 3 185 186 187 3 188 189 190 3 191 192 193 3 194 195 196 3 197 198 199 3 200 201 202 3 203 204 205 3 206 207 208 3 209 210 211 3 212 213 214 3 215 216 217 3 218 219 220 3 221 222 223 3 224 225 226 3 227 228 229 3 230 231 232 3 233 234 235 3 236 237 238 3 239 240 241 3 242 243 244 3 245 246 247 3 248 249 250 3 251 252 253 3 254 255 256 3 257 258 259 3 260 261 262 3 263 264 265 3 266 267 268 3 269 270 271 3 272 273 274 3 275 276 277 3 278 279 280 3 281 282 283 3 284 285 286 3 287 288 289 3 290 291 292 3 293 294 295 3 296 297 298 3 299 300 301 3 302 303 304 3 305 306 307 3 308 309 310 3 311 312 313 3 314 315 316 3 317 318 319 3 320 321 322 3 323 324 325 3 326 327 328 3 329 330 331 3 332 333 334 3 335 336 337 3 338 339 340 3 341 342 343 3 344 345 346 3 347 348 349 3 350 351 352 3 353 354 355 3 356 357 358 3 359 360 361 3 362 363 364 3 365 366 367 3 368 369 370 3 371 372 373 3 374 375 376 3 377 378 379 3 380 381 382 3 383 384 385 3 386 387 388 3 389 390 391 3 392 393 394 3 395 396 397 3 398 399 400 3 401 402 403 3 404 405 406 3 407 408 409 3 410 411 412 3 413 414 415 3 416 417 418 3 419 420 421 3 422 423 424 3 425 426 427 3 428 429 430 3 431 432 433 3 434 435 436 3 437 438 439 3 440 441 442 3 443 444 445 3 446 447 448 3 449 450 451 3 452 453 454 3 455 456 457 3 458 459 460 3 461 462 463 3 464 465 466 3 467 468 469 3 470 471 472 3 473 474 475 3 476 477 478 3 479 480 481 3 482 483 484 3 485 486 487 3 488 489 490 3 491 492 493 3 494 495 496 3 497 498 499 3 500 501 502 3 503 504 505 3 506 507 508 3 509 510 511 3 512 513 514 3 515 516 517 3 518 519 520 3 521 522 523 3 524 525 526 3 527 528 529 3 530 531 532 3 533 534 535 3 536 537 538 3 539 540 541 3 542 543 544 3 545 546 547 3 548 549 550 3 551 552 553 3 554 555 556 3 557 558 559 3 560 561 562 3 563 564 565 3 566 567 568 3 569 570 571 3 572 573 574 3 575 576 577 3 578 579 580 3 581 582 583 3 584 585 586 3 587 588 589 3 590 591 592 3 593 594 595 3 596 597 598 3 599 600 601 3 602 603 604 3 605 606 607 3 608 609 610 3 611 612 613 3 614 615 616 3 617 618 619 3 620 621 622 3 623 624 625 3 626 627 628 3 629 630 631 3 632 633 634 3 635 636 637 3 638 639 640 3 641 642 643 3 644 645 646 3 647 648 649 3 650 651 652 3 653 654 655 3 656 657 658 3 659 660 661 3 662 663 664 3 665 666 667 3 668 669 670 3 671 672 673 3 674 675 676 3 677 678 679 3 680 681 682 3 683 684 685 3 686 687 688 3 689 690 691 3 692 693 694 3 695 696 697 3 698 699 700 3 701 702 703 3 704 705 706 3 707 708 709 3 710 711 712 3 713 714 715 3 716 717 718 3 719 720 721 3 722 723 724 3 725 726 727 3 728 729 730 3 731 732 733 3 734 735 736 3 737 738 739 3 740 741 742 3 743 744 745 3 746 747 748 3 749 750 751 3 752 753 754 3 755 756 757 3 758 759 760 3 761 762 763 3 764 765 766 3 767 768 769 3 770 771 772 3 773 774 775 3 776 777 778 3 779 780 781 3 782 783 784 3 785 786 787 3 788 789 790 3 791 792 793 3 794 795 796 3 797 798 799 3 800 801 802 3 803 804 805 3 806 807 808 3 809 810 811 3 812 813 814 3 815 816 817 3 818 819 820 3 821 822 823 3 824 825 826 3 827 828 829 3 830 831 832 3 833 834 835 3 836 837 838 3 839 840 841 3 842 843 844 3 845 846 847 3 848 849 850 3 851 852 853 3 854 855 856 3 857 858 859 3 860 861 862 3 863 864 865 3 866 867 868 3 869 870 871 3 872 873 874 3 875 876 877 3 878 879 880 3 881 882 883 3 884 885 886 3 887 888 889 3 890 891 892 3 893 894 895 3 896 897 898 3 899 900 901 3 902 903 904 3 905 906 907 3 908 909 910 3 911 912 913 3 914 915 916 3 917 918 919 3 920 921 922 3 923 924 925 3 926 927 928 3 929 930 931 3 932 933 934 3 935 936 937 3 938 939 940 3 941 942 943 3 944 945 946 3 947 948 949 3 950 951 952 3 953 954 955 3 956 957 958 3 959 960 961 3 962 963 964 3 965 966 967 3 968 969 970 3 971 972 973 3 974 975 976 3 977 978 979 3 980 981 982 3 983 984 985 3 986 987 988 3 989 990 991 3 992 993 994 3 995 996 997 3 998 999 1000 3 1001 1002 1003 3 1004 1005 1006 3 1007 1008 1009 3 1010 1011 1012 3 1013 1014 1015 3 1016 1017 1018 3 1019 1020 1021 3 1022 1023 1024 3 1025 1026 1027 3 1028 1029 1030 3 1031 1032 1033 3 1034 1035 1036 3 1037 1038 1039 3 1040 1041 1042 3 1043 1044 1045 3 1046 1047 1048 3 1049 1050 1051 3 1052 1053 1054 3 1055 1056 1057 3 1058 1059 1060 3 1061 1062 1063 3 1064 1065 1066 3 1067 1068 1069 3 1070 1071 1072 3 1073 1074 1075 3 1076 1077 1078 3 1079 1080 1081 3 1082 1083 1084 3 1085 1086 1087 3 1088 1089 1090 3 1091 1092 1093 3 1094 1095 1096 3 1097 1098 1099 